%!PS-Adobe-2.0 EPSF-1.2
%%Creator: MATLAB, The MathWorks, Inc. Version 8.3.0.532 (R2014a). Operating System: Linux 3.19.0-31-generic #36~14.04.1-Ubuntu SMP Thu Oct 8 10:21:08 UTC 2015 x86_64.
%%Title: ../../data/output/p4/win_size5n_level1n_iter30min_eig0.0001.eps
%%CreationDate: 11/22/2015  18:54:58
%%DocumentNeededFonts: Helvetica
%%DocumentProcessColors: Cyan Magenta Yellow Black
%%Extensions: CMYK
%%Pages: 1
%%BoundingBox:    78   215   548   583
%%EndComments

%%BeginProlog
% MathWorks dictionary
/MathWorks 160 dict begin
% definition operators
/bdef {bind def} bind def
/ldef {load def} bind def
/xdef {exch def} bdef
/xstore {exch store} bdef
% operator abbreviations
/c  /clip ldef
/cc /concat ldef
/cp /closepath ldef
/gr /grestore ldef
/gs /gsave ldef
/mt /moveto ldef
/np /newpath ldef
/cm /currentmatrix ldef
/sm /setmatrix ldef
/rm /rmoveto ldef
/rl /rlineto ldef
/s {show newpath} bdef
/sc {setcmykcolor} bdef
/sr /setrgbcolor ldef
/sg /setgray ldef
/w /setlinewidth ldef
/j /setlinejoin ldef
/cap /setlinecap ldef
/rc {rectclip} bdef
/rf {rectfill} bdef
% page state control
/pgsv () def
/bpage {/pgsv save def} bdef
/epage {pgsv restore} bdef
/bplot /gsave ldef
/eplot {stroke grestore} bdef
% orientation switch
/portraitMode 0 def /landscapeMode 1 def /rotateMode 2 def
% coordinate system mappings
/dpi2point 0 def
% font control
/FontSize 0 def
/FMS {/FontSize xstore findfont [FontSize 0 0 FontSize neg 0 0]
  makefont setfont} bdef
/reencode {exch dup where {pop load} {pop StandardEncoding} ifelse
  exch dup 3 1 roll findfont dup length dict begin
  { 1 index /FID ne {def}{pop pop} ifelse } forall
  /Encoding exch def currentdict end definefont pop} bdef
/isroman {findfont /CharStrings get /Agrave known} bdef
/FMSR {3 1 roll 1 index dup isroman {reencode} {pop pop} ifelse
  exch FMS} bdef
/csm {1 dpi2point div -1 dpi2point div scale neg translate
 dup landscapeMode eq {pop -90 rotate}
  {rotateMode eq {90 rotate} if} ifelse} bdef
% line types: solid, dotted, dashed, dotdash
/SO { [] 0 setdash } bdef
/DO { [.5 dpi2point mul 4 dpi2point mul] 0 setdash } bdef
/DA { [6 dpi2point mul] 0 setdash } bdef
/DD { [.5 dpi2point mul 4 dpi2point mul 6 dpi2point mul 4
  dpi2point mul] 0 setdash } bdef
% macros for lines and objects
/L {lineto stroke} bdef
/MP {3 1 roll moveto 1 sub {rlineto} repeat} bdef
/AP {{rlineto} repeat} bdef
/PDlw -1 def
/W {/PDlw currentlinewidth def setlinewidth} def
/PP {closepath eofill} bdef
/DP {closepath stroke} bdef
/MR {4 -2 roll moveto dup  0 exch rlineto exch 0 rlineto
  neg 0 exch rlineto closepath} bdef
/FR {MR stroke} bdef
/PR {MR fill} bdef
/L1i {{currentfile picstr readhexstring pop} image} bdef
/tMatrix matrix def
/MakeOval {newpath tMatrix currentmatrix pop translate scale
0 0 1 0 360 arc tMatrix setmatrix} bdef
/FO {MakeOval stroke} bdef
/PO {MakeOval fill} bdef
/PD {currentlinewidth 2 div 0 360 arc fill
   PDlw -1 eq not {PDlw w /PDlw -1 def} if} def
/FA {newpath tMatrix currentmatrix pop translate scale
  0 0 1 5 -2 roll arc tMatrix setmatrix stroke} bdef
/PA {newpath tMatrix currentmatrix pop	translate 0 0 moveto scale
  0 0 1 5 -2 roll arc closepath tMatrix setmatrix fill} bdef
/FAn {newpath tMatrix currentmatrix pop translate scale
  0 0 1 5 -2 roll arcn tMatrix setmatrix stroke} bdef
/PAn {newpath tMatrix currentmatrix pop translate 0 0 moveto scale
  0 0 1 5 -2 roll arcn closepath tMatrix setmatrix fill} bdef
/vradius 0 def /hradius 0 def /lry 0 def
/lrx 0 def /uly 0 def /ulx 0 def /rad 0 def
/MRR {/vradius xdef /hradius xdef /lry xdef /lrx xdef /uly xdef
  /ulx xdef newpath tMatrix currentmatrix pop ulx hradius add uly
  vradius add translate hradius vradius scale 0 0 1 180 270 arc 
  tMatrix setmatrix lrx hradius sub uly vradius add translate
  hradius vradius scale 0 0 1 270 360 arc tMatrix setmatrix
  lrx hradius sub lry vradius sub translate hradius vradius scale
  0 0 1 0 90 arc tMatrix setmatrix ulx hradius add lry vradius sub
  translate hradius vradius scale 0 0 1 90 180 arc tMatrix setmatrix
  closepath} bdef
/FRR {MRR stroke } bdef
/PRR {MRR fill } bdef
/MlrRR {/lry xdef /lrx xdef /uly xdef /ulx xdef /rad lry uly sub 2 div def
  newpath tMatrix currentmatrix pop ulx rad add uly rad add translate
  rad rad scale 0 0 1 90 270 arc tMatrix setmatrix lrx rad sub lry rad
  sub translate rad rad scale 0 0 1 270 90 arc tMatrix setmatrix
  closepath} bdef
/FlrRR {MlrRR stroke } bdef
/PlrRR {MlrRR fill } bdef
/MtbRR {/lry xdef /lrx xdef /uly xdef /ulx xdef /rad lrx ulx sub 2 div def
  newpath tMatrix currentmatrix pop ulx rad add uly rad add translate
  rad rad scale 0 0 1 180 360 arc tMatrix setmatrix lrx rad sub lry rad
  sub translate rad rad scale 0 0 1 0 180 arc tMatrix setmatrix
  closepath} bdef
/FtbRR {MtbRR stroke } bdef
/PtbRR {MtbRR fill } bdef
/stri 6 array def /dtri 6 array def
/smat 6 array def /dmat 6 array def
/tmat1 6 array def /tmat2 6 array def /dif 3 array def
/asub {/ind2 exch def /ind1 exch def dup dup
  ind1 get exch ind2 get sub exch } bdef
/tri_to_matrix {
  2 0 asub 3 1 asub 4 0 asub 5 1 asub
  dup 0 get exch 1 get 7 -1 roll astore } bdef
/compute_transform {
  dmat dtri tri_to_matrix tmat1 invertmatrix 
  smat stri tri_to_matrix tmat2 concatmatrix } bdef
/ds {stri astore pop} bdef
/dt {dtri astore pop} bdef
/db {2 copy /cols xdef /rows xdef mul dup 3 mul string
  currentfile exch readhexstring pop
  dup 0 3 index getinterval /rbmap xdef
  dup 2 index dup getinterval /gbmap xdef
  1 index dup 2 mul exch getinterval /bbmap xdef pop pop}bdef
/it {gs np dtri aload pop moveto lineto lineto cp c
  cols rows 8 compute_transform 
  rbmap gbmap bbmap true 3 colorimage gr}bdef
/il {newpath moveto lineto stroke}bdef
currentdict end def
%%EndProlog

%%BeginSetup
MathWorks begin

0 cap

end
%%EndSetup

%%Page: 1 1
%%BeginPageSetup
%%PageBoundingBox:    78   215   548   583
MathWorks begin
bpage
%%EndPageSetup

%%BeginObject: obj1
bplot

/dpi2point 12 def
portraitMode 0216 7344 csm

  731   341  5640  4420 MR c np
85 dict begin %Colortable dictionary
/c0 { 0.000000 0.000000 0.000000 sr} bdef
/c1 { 1.000000 1.000000 1.000000 sr} bdef
/c2 { 0.900000 0.000000 0.000000 sr} bdef
/c3 { 0.000000 0.820000 0.000000 sr} bdef
/c4 { 0.000000 0.000000 0.800000 sr} bdef
/c5 { 0.910000 0.820000 0.320000 sr} bdef
/c6 { 1.000000 0.260000 0.820000 sr} bdef
/c7 { 0.000000 0.820000 0.820000 sr} bdef
c0
1 j
1 sg
   0    0 6913 5186 PR
6 w
0 -4226 5356 0 0 4226 899 389 4 MP
PP
-5356 0 0 -4226 5356 0 0 4226 899 389 5 MP stroke
4 w
DO
SO
6 w
0 sg
 899  389 mt 6255  389 L
 899 4615 mt 6255 4615 L
 899  389 mt  899 4615 L
6255  389 mt 6255 4615 L
 899 4615 mt 6255 4615 L
 899  389 mt  899 4615 L
1406 4615 mt 1406 4561 L
1406  389 mt 1406  442 L
%%IncludeResource: font Helvetica
/Helvetica /ISOLatin1Encoding 120 FMSR

1373 4760 mt 
(5) s
1945 4615 mt 1945 4561 L
1945  389 mt 1945  442 L
1879 4760 mt 
(10) s
2484 4615 mt 2484 4561 L
2484  389 mt 2484  442 L
2418 4760 mt 
(15) s
3022 4615 mt 3022 4561 L
3022  389 mt 3022  442 L
2956 4760 mt 
(20) s
3561 4615 mt 3561 4561 L
3561  389 mt 3561  442 L
3495 4760 mt 
(25) s
4100 4615 mt 4100 4561 L
4100  389 mt 4100  442 L
4034 4760 mt 
(30) s
4638 4615 mt 4638 4561 L
4638  389 mt 4638  442 L
4572 4760 mt 
(35) s
5177 4615 mt 5177 4561 L
5177  389 mt 5177  442 L
5111 4760 mt 
(40) s
5716 4615 mt 5716 4561 L
5716  389 mt 5716  442 L
5650 4760 mt 
(45) s
6255 4615 mt 6255 4561 L
6255  389 mt 6255  442 L
6189 4760 mt 
(50) s
 899  974 mt  952  974 L
6255  974 mt 6201  974 L
 798 1018 mt 
(5) s
 899 1596 mt  952 1596 L
6255 1596 mt 6201 1596 L
 731 1640 mt 
(10) s
 899 2217 mt  952 2217 L
6255 2217 mt 6201 2217 L
 731 2261 mt 
(15) s
 899 2839 mt  952 2839 L
6255 2839 mt 6201 2839 L
 731 2883 mt 
(20) s
 899 3460 mt  952 3460 L
6255 3460 mt 6201 3460 L
 731 3504 mt 
(25) s
 899 4082 mt  952 4082 L
6255 4082 mt 6201 4082 L
 731 4126 mt 
(30) s
 899  389 mt 6255  389 L
 899 4615 mt 6255 4615 L
 899  389 mt  899 4615 L
6255  389 mt 6255 4615 L
gs 899 389 5357 4227 MR c np
/c8 { 0.000000 0.000000 1.000000 sr} bdef
c8
-2 0 11 -3 921 392 3 MP stroke
1003 389 PD
2 1 -2 1 1002 513 3 MP stroke
1 0 -1 0 1003 637 3 MP stroke
-1 4 -1 -5 1009 877 3 MP stroke
2 -1 -2 2 1002 1011 3 MP stroke
2 2 -2 0 1002 1131 3 MP stroke
2 2 -3 0 1003 1256 3 MP stroke
1005 1382 PD
2 1 -2 0 1003 1506 3 MP stroke
3 2 -4 0 1000 1628 3 MP stroke
1 2 -1 -1 1004 2374 3 MP stroke
1005 2501 PD
0 2 -1 -1 1005 2623 3 MP stroke
1 0 -1 0 1005 2750 3 MP stroke
1 2 -2 -1 1005 2870 3 MP stroke
0 1 1005 3000 2 MP stroke
1 1 -1 -1 1004 3121 3 MP stroke
1 0 -1 0 1004 3246 3 MP stroke
1 2 -1 -1 1005 3368 3 MP stroke
1 1 -1 -1 1005 3494 3 MP stroke
1 2 -2 -1 1005 3617 3 MP stroke
1 0 -1 0 1004 3744 3 MP stroke
1 1 -2 -1 1005 3867 3 MP stroke
1 0 -1 0 1003 3994 3 MP stroke
2 1 -2 0 1003 4115 3 MP stroke
2 1 -2 0 1003 4240 3 MP stroke
2 2 -2 -1 1002 4363 3 MP stroke
2 0 -2 1 1002 4491 3 MP stroke
1108 389 PD
1 1 -1 0 1111 511 3 MP stroke
5 1 -5 2 1103 636 3 MP stroke
2 3 -3 -1 1109 882 3 MP stroke
3 0 -3 2 1108 1011 3 MP stroke
2 2 -2 -1 1109 1131 3 MP stroke
3 1 -2 1 1108 1259 3 MP stroke
3 2 -3 -1 1109 1380 3 MP stroke
3 1 -3 1 1109 1506 3 MP stroke
3 2 -3 0 1108 1628 3 MP stroke
2 1 -2 0 1112 2376 3 MP stroke
1 1 -2 0 1112 2500 3 MP stroke
2 2 -2 -1 1111 2623 3 MP stroke
1 1 -1 0 1111 2749 3 MP stroke
1 2 -2 -1 1112 2871 3 MP stroke
1 1 -2 0 1112 2997 3 MP stroke
1 1 -1 -1 1111 3122 3 MP stroke
2 1 -2 0 1111 3245 3 MP stroke
1 2 -1 -1 1111 3369 3 MP stroke
1 0 -1 0 1112 3495 3 MP stroke
1 1 -1 0 1111 3618 3 MP stroke
1 1 -1 0 1111 3743 3 MP stroke
2 1 -2 0 1111 3866 3 MP stroke
2 1 -3 0 1109 3992 3 MP stroke
2 2 -3 -1 1109 4115 3 MP stroke
2 1 -3 0 1110 4240 3 MP stroke
2 1 -3 0 1110 4364 3 MP stroke
3 0 -3 1 1110 4489 3 MP stroke
7 0 -6 4 1206 514 3 MP stroke
4 0 -3 2 1214 639 3 MP stroke
2 0 -2 1 1217 763 3 MP stroke
2 1 -2 0 1218 884 3 MP stroke
2 0 -2 2 1218 1011 3 MP stroke
1 2 -1 -1 1218 1132 3 MP stroke
0 1 -1 -1 1221 1381 3 MP stroke
0 1 -1 -1 1221 1506 3 MP stroke
1222 1631 PD
1220 2500 PD
1 2 -1 -1 1220 2622 3 MP stroke
2 1 -3 0 1218 2749 3 MP stroke
1 1 -2 0 1220 2872 3 MP stroke
1 1 -2 0 1220 2998 3 MP stroke
1 1 -1 -1 1220 3121 3 MP stroke
1 1 -1 -1 1221 3246 3 MP stroke
0 2 -1 -1 1221 3368 3 MP stroke
1 1 -1 0 1220 3494 3 MP stroke
0 2 -1 -1 1220 3617 3 MP stroke
1 1 -1 0 1219 3743 3 MP stroke
1 2 -1 -1 1220 3866 3 MP stroke
2 0 -2 1 1218 3993 3 MP stroke
2 2 -2 -1 1218 4116 3 MP stroke
2 1 -2 0 1218 4241 3 MP stroke
2 1 -2 0 1218 4364 3 MP stroke
1 0 -1 0 1218 4490 3 MP stroke
2 -1 -2 2 1324 514 3 MP stroke
2 2 -3 0 1325 634 3 MP stroke
3 0 -2 1 1324 761 3 MP stroke
2 2 -2 0 1325 882 3 MP stroke
3 0 -3 2 1323 1010 3 MP stroke
3 2 -4 0 1322 1130 3 MP stroke
3 1 -3 0 1324 1258 3 MP stroke
1329 1507 PD
2 1 -2 0 1326 2500 3 MP stroke
1 2 -2 -1 1326 2622 3 MP stroke
1 1 -2 0 1327 2748 3 MP stroke
1 2 -2 -1 1327 2871 3 MP stroke
1 2 -1 -1 1327 2997 3 MP stroke
1 1 -1 0 1327 3120 3 MP stroke
1 1 -1 0 1327 3246 3 MP stroke
0 2 -1 -1 1328 3368 3 MP stroke
1 1 -1 0 1327 3494 3 MP stroke
1 1 -2 0 1327 3618 3 MP stroke
2 0 -2 0 1327 3744 3 MP stroke
2 2 -3 -1 1326 3865 3 MP stroke
2 1 -2 0 1324 3992 3 MP stroke
3 2 -3 0 1325 4114 3 MP stroke
3 1 -3 0 1325 4240 3 MP stroke
2 2 -3 -1 1325 4363 3 MP stroke
2 1 -2 1 1325 4488 3 MP stroke
1 0 -1 1 1433 513 3 MP stroke
2 1 -2 0 1434 636 3 MP stroke
2 1 -2 0 1433 759 3 MP stroke
1 1 -2 0 1434 883 3 MP stroke
2 0 -2 1 1432 1011 3 MP stroke
2 1 -2 0 1433 1133 3 MP stroke
2 0 -2 1 1433 1259 3 MP stroke
1439 1383 PD
1 1 -2 0 1435 2500 3 MP stroke
1 1 -1 0 1435 2625 3 MP stroke
1 1 -1 -1 1437 3121 3 MP stroke
1 0 -1 0 1436 3247 3 MP stroke
1 2 -2 -1 1436 3368 3 MP stroke
1 1 -1 0 1435 3494 3 MP stroke
0 2 -1 -1 1436 3617 3 MP stroke
1 1 -1 -1 1436 3743 3 MP stroke
1 1 -1 -1 1435 3867 3 MP stroke
1 1 -1 0 1434 3992 3 MP stroke
1 1 -1 0 1434 4115 3 MP stroke
2 1 -2 0 1434 4241 3 MP stroke
1 2 -1 -1 1434 4364 3 MP stroke
2 2 -2 0 1433 4488 3 MP stroke
2 2 -2 -1 1433 4612 3 MP stroke
3 1 -1 0 1536 389 3 MP stroke
3 0 -3 1 1539 514 3 MP stroke
2 0 -2 1 1540 637 3 MP stroke
2 2 -2 0 1540 759 3 MP stroke
3 1 -3 1 1539 884 3 MP stroke
3 0 -2 1 1539 1011 3 MP stroke
3 1 -3 0 1539 1133 3 MP stroke
3 0 -3 2 1539 1259 3 MP stroke
2 2 -3 0 1540 1380 3 MP stroke
0 -1 0 1 1545 1507 3 MP stroke
1 1 -1 -1 1544 1629 3 MP stroke
2 1 -2 0 1542 2500 3 MP stroke
1 1 -1 0 1542 3121 3 MP stroke
1 1 -1 0 1543 3246 3 MP stroke
1 2 -1 -1 1542 3369 3 MP stroke
1 1 -1 0 1543 3494 3 MP stroke
1 0 -1 1 1542 3619 3 MP stroke
1 1 -1 0 1542 3743 3 MP stroke
1 1 -1 0 1542 3866 3 MP stroke
2 1 -2 0 1541 3993 3 MP stroke
2 1 -3 0 1541 4115 3 MP stroke
2 1 -2 1 1540 4240 3 MP stroke
2 1 -3 0 1540 4364 3 MP stroke
3 1 -3 0 1539 4489 3 MP stroke
2 2 -3 0 1541 4611 3 MP stroke
1 -1 -1 2 1649 514 3 MP stroke
2 0 -2 1 1649 636 3 MP stroke
2 0 -2 1 1648 762 3 MP stroke
2 0 -2 1 1649 885 3 MP stroke
2 0 -2 1 1648 1010 3 MP stroke
1 1 -1 0 1649 1133 3 MP stroke
2 0 -2 2 1648 1259 3 MP stroke
2 1 -2 0 1648 1381 3 MP stroke
1 1 -1 0 1651 1505 3 MP stroke
2 -1 -1 1 1650 2503 3 MP stroke
1652 2626 PD
1 1 -1 0 1651 2749 3 MP stroke
1 1 -1 0 1651 3121 3 MP stroke
1 1 -2 0 1650 3245 3 MP stroke
1 1 -2 0 1651 3369 3 MP stroke
1 0 -1 0 1652 3495 3 MP stroke
0 -2 0 1 1651 3618 3 MP stroke
2 1 -2 0 1650 3743 3 MP stroke
2 2 -2 -1 1649 3865 3 MP stroke
2 1 -2 0 1649 3991 3 MP stroke
2 1 -2 0 1650 4115 3 MP stroke
2 1 -2 0 1649 4240 3 MP stroke
2 1 -2 0 1649 4363 3 MP stroke
2 1 -2 0 1650 4489 3 MP stroke
3 0 -3 1 1756 513 3 MP stroke
3 1 -3 1 1755 635 3 MP stroke
3 0 -3 2 1755 762 3 MP stroke
6 2 -6 2 1748 884 3 MP stroke
-1 2 0 -2 1761 1005 3 MP stroke
2 1 -2 0 1756 1134 3 MP stroke
3 0 -2 2 1754 1260 3 MP stroke
3 0 -3 1 1755 1383 3 MP stroke
2 1 -2 0 1758 1505 3 MP stroke
1 2 -1 -1 1757 1629 3 MP stroke
1 0 -1 0 1759 2502 3 MP stroke
0 1 1758 2625 2 MP stroke
1 0 -1 1 1757 2751 3 MP stroke
1 2 -2 -1 1758 2871 3 MP stroke
1 1 -1 0 1758 2997 3 MP stroke
1 1 -2 -1 1759 3120 3 MP stroke
2 1 -2 0 1757 3247 3 MP stroke
1 2 -2 -1 1758 3368 3 MP stroke
2 0 -2 0 1758 3495 3 MP stroke
1 2 -2 -1 1758 3617 3 MP stroke
1 1 -1 0 1758 3744 3 MP stroke
2 2 -3 0 1756 3865 3 MP stroke
2 2 -3 -1 1757 3991 3 MP stroke
3 2 -3 0 1755 4114 3 MP stroke
2 0 -2 1 1756 4241 3 MP stroke
3 2 -3 0 1755 4363 3 MP stroke
3 1 -3 1 1755 4488 3 MP stroke
2 0 1863 389 2 MP stroke
12 0 -10 6 1846 516 3 MP stroke
2 1 -2 1 1863 636 3 MP stroke
2 1 -2 0 1864 761 3 MP stroke
2 1 -2 0 1864 885 3 MP stroke
3 0 -2 2 1863 1011 3 MP stroke
0 -1 1 1 1869 1137 3 MP stroke
2 0 -2 1 1864 1259 3 MP stroke
3 1 -3 1 1862 1382 3 MP stroke
1 1 -1 -1 1866 1506 3 MP stroke
1 1 -1 -1 1867 1630 3 MP stroke
0 2 -1 -1 1867 2623 3 MP stroke
-1 0 1867 2752 2 MP stroke
0 1 1867 2874 2 MP stroke
0 1 1867 2999 2 MP stroke
0 2 -1 -2 1867 3120 3 MP stroke
1 0 -1 0 1867 3247 3 MP stroke
1 1 -1 -1 1867 3369 3 MP stroke
1 2 -1 -1 1866 3494 3 MP stroke
0 2 -1 -1 1867 3617 3 MP stroke
1 0 -1 0 1866 3745 3 MP stroke
1 1 -2 0 1866 3866 3 MP stroke
2 1 -2 0 1864 3991 3 MP stroke
2 2 -2 0 1864 4114 3 MP stroke
2 1 -2 0 1864 4241 3 MP stroke
2 1 -2 0 1864 4363 3 MP stroke
2 1 -2 0 1865 4489 3 MP stroke
2 2 -2 -1 1865 4612 3 MP stroke
1973 389 PD
6 1 -5 2 1965 514 3 MP stroke
4 3 -5 0 1968 633 3 MP stroke
3 0 -3 1 1971 762 3 MP stroke
3 1 -3 1 1971 885 3 MP stroke
2 1 -2 1 1971 1009 3 MP stroke
1 -1 -1 1 1974 1136 3 MP stroke
3 0 -2 2 1970 1259 3 MP stroke
3 1 -3 1 1970 1381 3 MP stroke
3 1 -3 0 1971 1507 3 MP stroke
0 1 -1 -2 1977 1629 3 MP stroke
1 1 -1 0 1973 2498 3 MP stroke
1 2 -2 -1 1974 2623 3 MP stroke
-1 1 1974 2748 2 MP stroke
2 2 -2 -2 1973 2871 3 MP stroke
1 1 -1 0 1973 2997 3 MP stroke
1 2 -2 -1 1973 3121 3 MP stroke
1 1 -2 -1 1974 3246 3 MP stroke
2 2 -2 0 1972 3368 3 MP stroke
1 1 -2 0 1973 3494 3 MP stroke
2 2 -2 0 1972 3617 3 MP stroke
1 1 -1 0 1973 3743 3 MP stroke
1 2 -2 0 1972 3865 3 MP stroke
2 1 -3 1 1971 3991 3 MP stroke
1 2 -2 -1 1972 4114 3 MP stroke
3 2 -3 0 1971 4239 3 MP stroke
2 2 -2 -1 1971 4363 3 MP stroke
2 1 -3 0 1972 4489 3 MP stroke
2 0 -1 0 2079 389 3 MP stroke
2 0 -2 1 2079 514 3 MP stroke
2 2 -3 0 2080 633 3 MP stroke
2 0 -2 2 2079 762 3 MP stroke
2 0 -2 0 2081 886 3 MP stroke
2 0 -2 1 2079 1010 3 MP stroke
3 1 -3 1 2079 1133 3 MP stroke
1 0 -1 1 2083 1259 3 MP stroke
0 1 2082 1382 2 MP stroke
-1 0 2086 1506 2 MP stroke
0 1 -1 -1 2082 1629 3 MP stroke
1 0 -1 0 2081 2377 3 MP stroke
1 1 -1 -1 2082 2500 3 MP stroke
0 2 -1 -1 2082 2622 3 MP stroke
1 0 -1 1 2082 2750 3 MP stroke
0 -1 0 0 2083 2872 3 MP stroke
1 0 -1 1 2082 3000 3 MP stroke
0 1 -1 -1 2083 3120 3 MP stroke
2083 3247 PD
-1 1 2083 3369 2 MP stroke
1 1 -1 0 2082 3494 3 MP stroke
0 2 -1 -2 2083 3617 3 MP stroke
0 1 2082 3743 2 MP stroke
1 1 -1 -1 2082 3866 3 MP stroke
2 1 -2 0 2080 3991 3 MP stroke
2 2 -2 -1 2080 4115 3 MP stroke
1 1 -1 0 2080 4240 3 MP stroke
1 1 -2 -1 2081 4364 3 MP stroke
1 2 -2 -1 2081 4488 3 MP stroke
3 0 -3 1 2185 514 3 MP stroke
3 0 -3 1 2186 637 3 MP stroke
1 1 -2 0 2190 759 3 MP stroke
4 1 -4 1 2184 885 3 MP stroke
3 1 -3 1 2184 1008 3 MP stroke
3 1 -3 1 2184 1132 3 MP stroke
3 0 -3 1 2186 1259 3 MP stroke
2 1 -2 1 2186 1382 3 MP stroke
4 2 -4 1 2182 1629 3 MP stroke
2 1 -2 0 2188 2376 3 MP stroke
1 0 2189 2503 2 MP stroke
2 0 -2 1 2189 2625 3 MP stroke
1 1 -1 0 2188 2748 3 MP stroke
1 2 -2 -1 2190 2871 3 MP stroke
1 0 -1 1 2189 2999 3 MP stroke
1 2 -2 -1 2189 3119 3 MP stroke
1 1 -1 0 2189 3246 3 MP stroke
2 1 -2 0 2188 3370 3 MP stroke
2 0 -2 1 2189 3495 3 MP stroke
2 1 -2 0 2188 3617 3 MP stroke
2 2 -2 0 2186 3742 3 MP stroke
1 2 -2 -1 2189 3866 3 MP stroke
2 1 -2 0 2188 3992 3 MP stroke
2 2 -3 0 2187 4115 3 MP stroke
2 1 -2 0 2187 4240 3 MP stroke
2 2 -2 -1 2187 4363 3 MP stroke
3 1 -3 0 2186 4489 3 MP stroke
2 0 -2 1 2295 513 3 MP stroke
2 0 -2 1 2295 636 3 MP stroke
2 0 -2 1 2296 762 3 MP stroke
2 1 -2 0 2296 885 3 MP stroke
2 0 -2 1 2294 1010 3 MP stroke
2 2 -3 -1 2295 1131 3 MP stroke
2 0 -1 1 2295 1260 3 MP stroke
2 1 -2 0 2295 1382 3 MP stroke
1 -1 0 1 2297 1508 3 MP stroke
0 -1 0 0 2298 1631 3 MP stroke
1 0 -1 1 2298 1755 3 MP stroke
1 0 -1 0 2298 1880 3 MP stroke
2298 2253 PD
2 0 -2 0 2297 2377 3 MP stroke
0 1 -1 -1 2298 2500 3 MP stroke
1 0 -1 1 2298 2625 3 MP stroke
0 -1 0 0 2298 2749 3 MP stroke
0 -1 0 0 2298 2872 3 MP stroke
2298 2997 PD
0 2 -1 -1 2298 3120 3 MP stroke
1 1 -1 -1 2298 3246 3 MP stroke
1 1 -1 -1 2297 3370 3 MP stroke
1 0 -1 1 2297 3496 3 MP stroke
0 2 -1 -1 2298 3617 3 MP stroke
1 1 -1 -1 2298 3743 3 MP stroke
1 2 -2 -1 2296 3865 3 MP stroke
2 1 -2 0 2296 3992 3 MP stroke
1 2 -2 -1 2297 4114 3 MP stroke
2 1 -2 0 2296 4240 3 MP stroke
1 2 -2 -1 2296 4362 3 MP stroke
1 1 -1 0 2296 4489 3 MP stroke
2 1 -2 0 2296 4612 3 MP stroke
4 1 2394 389 2 MP stroke
3 0 -3 1 2402 514 3 MP stroke
3 1 -3 1 2401 636 3 MP stroke
3 0 -3 1 2402 762 3 MP stroke
2 1 -2 0 2401 885 3 MP stroke
2 1 -2 1 2402 1008 3 MP stroke
2 3 -2 -1 2402 1130 3 MP stroke
1 1 -1 0 2404 1506 3 MP stroke
1 1 -2 -1 2405 1629 3 MP stroke
1 1 -1 0 2403 1755 3 MP stroke
2 0 -2 1 2404 1880 3 MP stroke
1 1 -1 0 2404 2003 3 MP stroke
1 1 -1 0 2403 2128 3 MP stroke
1 1 -2 0 2405 2251 3 MP stroke
1 2 -2 -1 2404 2375 3 MP stroke
2 0 -2 1 2404 2500 3 MP stroke
2 1 -2 0 2404 2625 3 MP stroke
2 -1 -2 2 2404 2751 3 MP stroke
1 2 -2 -1 2404 2872 3 MP stroke
1 0 -1 1 2404 2999 3 MP stroke
1 2 -1 -1 2404 3120 3 MP stroke
1 1 -2 0 2405 3245 3 MP stroke
2 2 -2 -1 2404 3369 3 MP stroke
2 1 -2 0 2403 3494 3 MP stroke
2 2 -2 -1 2404 3618 3 MP stroke
1 1 -2 0 2404 3742 3 MP stroke
2 2 -2 -1 2404 3865 3 MP stroke
3 2 -3 0 2402 3991 3 MP stroke
2 0 -2 1 2402 4116 3 MP stroke
2 1 -2 0 2402 4240 3 MP stroke
2 2 -3 0 2402 4363 3 MP stroke
2 1 -3 0 2402 4489 3 MP stroke
2 0 -2 1 2510 513 3 MP stroke
4 1 -4 1 2508 637 3 MP stroke
1 3 -2 -2 2512 882 3 MP stroke
2 1 -2 0 2511 1009 3 MP stroke
2 1 -2 0 2510 1133 3 MP stroke
2 0 -1 1 2510 1259 3 MP stroke
2 0 -2 1 2511 1382 3 MP stroke
2 0 -2 1 2511 1508 3 MP stroke
1 0 -1 1 2513 1631 3 MP stroke
2513 1756 PD
2 -3 0 3 2512 1886 3 MP stroke
1 1 -1 -1 2514 2003 3 MP stroke
0 2 -1 -1 2514 2125 3 MP stroke
1 -1 -1 1 2514 2254 3 MP stroke
0 1 -1 -1 2514 2375 3 MP stroke
1 0 -1 0 2514 2501 3 MP stroke
-1 1 2513 2623 2 MP stroke
-1 0 2514 2749 2 MP stroke
0 2 -1 -1 2514 2871 3 MP stroke
0 1 -1 -1 2513 2997 3 MP stroke
0 2 -1 -1 2514 3120 3 MP stroke
1 1 -2 -1 2513 3246 3 MP stroke
0 2 -1 -1 2513 3368 3 MP stroke
-1 0 2514 3495 2 MP stroke
1 1 -1 -1 2513 3619 3 MP stroke
1 0 -1 0 2512 3744 3 MP stroke
1 1 -1 -1 2512 3867 3 MP stroke
2 0 -2 1 2512 3992 3 MP stroke
2 2 -2 -1 2511 4114 3 MP stroke
2 1 -2 0 2511 4240 3 MP stroke
1 2 -2 0 2511 4363 3 MP stroke
2 1 -2 0 2510 4489 3 MP stroke
2614 389 PD
3 0 -3 1 2616 514 3 MP stroke
2 1 -2 0 2617 636 3 MP stroke
4 -2 -3 4 2616 765 3 MP stroke
3 1 -3 1 2616 885 3 MP stroke
2 1 -2 0 2618 1008 3 MP stroke
3 1 -3 0 2617 1133 3 MP stroke
3 1 -3 1 2616 1259 3 MP stroke
2 1 -2 1 2617 1382 3 MP stroke
2 -1 -2 2 2618 1508 3 MP stroke
3 1 -3 0 2617 1630 3 MP stroke
-4 -1 4 -2 2631 1756 3 MP stroke
1 0 -1 0 2619 1879 3 MP stroke
1 1 -1 -1 2620 2002 3 MP stroke
2 1 -2 0 2620 2128 3 MP stroke
2 0 -1 0 2619 2254 3 MP stroke
2 0 -2 1 2619 2377 3 MP stroke
1 -1 -1 1 2620 2503 3 MP stroke
1 2 -1 -1 2620 2624 3 MP stroke
2 0 -2 1 2620 2750 3 MP stroke
1 0 -1 0 2620 2874 3 MP stroke
1 1 -1 0 2620 2997 3 MP stroke
1 1 -1 0 2619 3120 3 MP stroke
1 1 -2 -1 2620 3246 3 MP stroke
1 1 -1 0 2620 3370 3 MP stroke
2 1 -2 0 2619 3495 3 MP stroke
1 1 -1 -1 2620 3618 3 MP stroke
2 0 -2 1 2619 3745 3 MP stroke
1 1 -2 0 2619 3865 3 MP stroke
2 1 -2 0 2618 3992 3 MP stroke
2 2 -2 -1 2618 4114 3 MP stroke
2 1 -2 0 2618 4240 3 MP stroke
2 3 -3 -1 2618 4362 3 MP stroke
3 1 -3 0 2617 4489 3 MP stroke
1 0 2725 389 2 MP stroke
2 0 -2 1 2726 513 3 MP stroke
2 0 -2 1 2726 637 3 MP stroke
3 0 -2 1 2725 762 3 MP stroke
2 1 -2 0 2726 885 3 MP stroke
2 1 -2 0 2726 1008 3 MP stroke
1 2 -2 -1 2728 1130 3 MP stroke
1 0 -1 0 2729 1258 3 MP stroke
1 1 -1 -1 2729 1381 3 MP stroke
2 1 -2 0 2727 1507 3 MP stroke
0 1 -1 -1 2729 1631 3 MP stroke
1 1 -1 0 2729 1755 3 MP stroke
-1 1 0 -1 2730 1878 3 MP stroke
0 -1 0 0 2729 2374 3 MP stroke
1 1 -1 0 2729 2500 3 MP stroke
-1 0 2729 2625 2 MP stroke
2729 2749 PD
0 -1 0 0 2729 2873 3 MP stroke
1 0 -1 1 2729 2998 3 MP stroke
0 1 -1 -1 2729 3121 3 MP stroke
1 1 -1 -1 2728 3246 3 MP stroke
1 1 -1 0 2728 3370 3 MP stroke
-1 0 2729 3495 2 MP stroke
0 2 -1 -1 2729 3617 3 MP stroke
1 0 -1 1 2727 3743 3 MP stroke
1 1 -1 0 2727 3867 3 MP stroke
1 0 -1 1 2727 3992 3 MP stroke
2 2 -2 -1 2726 4115 3 MP stroke
1 1 -1 0 2727 4240 3 MP stroke
2 2 -2 -1 2726 4362 3 MP stroke
2 1 -2 0 2727 4488 3 MP stroke
3 1 -3 1 2831 514 3 MP stroke
2 0 -2 1 2833 637 3 MP stroke
3 2 -3 0 2832 759 3 MP stroke
1 1 -2 0 2836 1257 3 MP stroke
-6 -2 6 -2 2852 1385 3 MP stroke
1 0 2837 1508 2 MP stroke
-3 -1 3 -1 2845 1632 3 MP stroke
2838 2377 PD
2 0 -1 1 2834 2502 3 MP stroke
1 2 -2 -1 2836 2622 3 MP stroke
1 0 -1 0 2835 2749 3 MP stroke
2 2 -2 -1 2835 2871 3 MP stroke
2 1 -2 0 2835 2998 3 MP stroke
1 2 -2 -1 2835 3120 3 MP stroke
1 0 -1 1 2835 3248 3 MP stroke
1 1 -1 0 2835 3370 3 MP stroke
2 1 -2 0 2835 3495 3 MP stroke
1 2 -2 -1 2835 3618 3 MP stroke
3 1 -2 1 2832 3744 3 MP stroke
2 1 -2 0 2833 3866 3 MP stroke
2 1 -3 0 2833 3991 3 MP stroke
2 2 -3 0 2833 4114 3 MP stroke
2 1 -2 0 2834 4241 3 MP stroke
2 1 -3 0 2834 4364 3 MP stroke
3 1 -3 0 2832 4489 3 MP stroke
1 1 -2 0 2834 4611 3 MP stroke
2 0 -2 2 2941 514 3 MP stroke
-1 0 1 0 2948 637 3 MP stroke
1 0 -1 1 2942 888 3 MP stroke
3 0 -3 1 2941 1011 3 MP stroke
2 2 -3 -1 2942 1131 3 MP stroke
2 1 -2 0 2942 1259 3 MP stroke
2 1 -2 0 2942 1381 3 MP stroke
3 1 -3 1 2941 1507 3 MP stroke
2944 1631 PD
0 -1 0 0 2944 2501 3 MP stroke
1 1 -1 -1 2944 2624 3 MP stroke
1 0 -1 0 2944 2749 3 MP stroke
0 1 -1 -1 2945 2872 3 MP stroke
1 1 -1 0 2944 2998 3 MP stroke
0 1 -1 -1 2945 3121 3 MP stroke
1 0 -1 0 2944 3247 3 MP stroke
0 1 -1 -1 2945 3369 3 MP stroke
0 1 2944 3494 2 MP stroke
1 1 -1 -1 2943 3617 3 MP stroke
1 1 -1 0 2942 3743 3 MP stroke
1 1 -1 -1 2944 3867 3 MP stroke
1 1 -2 0 2943 3991 3 MP stroke
1 2 -2 -1 2942 4114 3 MP stroke
2 1 -2 0 2942 4240 3 MP stroke
2 0 -2 1 2941 4365 3 MP stroke
1 1 -2 0 2942 4489 3 MP stroke
2 2 -2 -1 2942 4612 3 MP stroke
4 0 -4 2 3046 513 3 MP stroke
-2 -1 1 0 3056 637 3 MP stroke
3 3 -4 -1 3048 1130 3 MP stroke
2 2 -3 0 3049 1256 3 MP stroke
2 1 -2 1 3048 1381 3 MP stroke
1 1 -1 -1 3051 1506 3 MP stroke
1 1 -2 -1 3051 1629 3 MP stroke
2 2 -2 -1 3050 1752 3 MP stroke
1 1 -1 0 3050 1879 3 MP stroke
1 1 -1 -1 3053 2501 3 MP stroke
1 1 -1 -1 3051 2623 3 MP stroke
1 1 -1 0 3051 2749 3 MP stroke
0 2 -1 -1 3051 2871 3 MP stroke
1 1 -1 0 3050 2997 3 MP stroke
1 2 -1 -1 3050 3121 3 MP stroke
1 0 -1 0 3051 3247 3 MP stroke
2 2 -2 -1 3050 3369 3 MP stroke
2 1 -2 0 3051 3494 3 MP stroke
1 1 -1 0 3050 3618 3 MP stroke
2 1 -2 0 3049 3744 3 MP stroke
1 2 -2 -1 3050 3866 3 MP stroke
2 1 -2 1 3049 3992 3 MP stroke
2 2 -3 0 3049 4114 3 MP stroke
2 1 -2 0 3049 4241 3 MP stroke
2 2 -2 -1 3049 4363 3 MP stroke
3 1 -3 0 3049 4489 3 MP stroke
3 2 -3 -1 3047 4612 3 MP stroke
1 0 3155 389 2 MP stroke
1 0 -1 1 3157 513 3 MP stroke
1 0 -1 0 3160 637 3 MP stroke
1 1 -1 -1 3160 1132 3 MP stroke
3159 1258 PD
0 2 -1 -1 3160 1379 3 MP stroke
-1 0 3160 1509 2 MP stroke
1 -1 0 2 3159 1634 3 MP stroke
1 -1 -1 1 3159 1757 3 MP stroke
1 -1 -1 1 3160 1882 3 MP stroke
2 -2 -1 3 3159 2008 3 MP stroke
0 -1 0 0 3160 2127 3 MP stroke
1 0 -1 0 3160 2252 3 MP stroke
1 2 -2 -2 3159 2374 3 MP stroke
1 -1 -1 1 3160 2502 3 MP stroke
1 1 -2 -1 3160 2623 3 MP stroke
3160 2749 PD
0 2 -1 -2 3160 2871 3 MP stroke
1 1 -1 -1 3159 2997 3 MP stroke
1 1 -1 0 3159 3121 3 MP stroke
3160 3247 PD
1 1 -1 0 3159 3370 3 MP stroke
-1 0 3160 3495 2 MP stroke
1 1 -2 0 3159 3617 3 MP stroke
1 1 -1 0 3158 3743 3 MP stroke
1 1 -1 -1 3159 3867 3 MP stroke
1 1 -2 0 3158 3992 3 MP stroke
1 1 -2 0 3158 4115 3 MP stroke
2 1 -2 0 3157 4240 3 MP stroke
1 2 -2 -1 3158 4362 3 MP stroke
2 0 -2 1 3157 4489 3 MP stroke
1 0 3262 389 2 MP stroke
3 0 -3 2 3263 514 3 MP stroke
3 1 -3 0 3263 637 3 MP stroke
3 1 -3 1 3264 884 3 MP stroke
2 1 -2 0 3264 1008 3 MP stroke
2 0 -1 1 3265 1259 3 MP stroke
2 1 -2 0 3266 1381 3 MP stroke
2 0 -2 1 3266 1508 3 MP stroke
1 1 -1 -1 3266 1630 3 MP stroke
1 1 -1 0 3266 1754 3 MP stroke
2 0 -2 1 3266 1879 3 MP stroke
2 0 -1 0 3266 2005 3 MP stroke
2 0 -1 1 3265 2128 3 MP stroke
1 1 -1 0 3265 2251 3 MP stroke
0 1 -1 -1 3267 2375 3 MP stroke
2 1 -2 0 3265 2500 3 MP stroke
1 1 -2 0 3266 2624 3 MP stroke
2 0 -2 1 3266 2751 3 MP stroke
2 2 -2 -1 3265 2872 3 MP stroke
1 2 -1 -1 3266 2997 3 MP stroke
1 2 -1 -1 3265 3121 3 MP stroke
2 1 -2 1 3265 3246 3 MP stroke
2 0 -2 1 3265 3370 3 MP stroke
1 1 -2 0 3266 3494 3 MP stroke
1 2 -2 -1 3266 3618 3 MP stroke
2 1 -3 0 3265 3743 3 MP stroke
2 1 -2 0 3264 3866 3 MP stroke
2 1 -2 0 3264 3991 3 MP stroke
2 1 -3 0 3265 4116 3 MP stroke
3 1 -3 1 3263 4240 3 MP stroke
2 2 -2 0 3264 4363 3 MP stroke
2 2 -2 0 3264 4488 3 MP stroke
3369 389 PD
3 0 -2 2 3370 514 3 MP stroke
2 1 -2 1 3373 636 3 MP stroke
2 0 -2 1 3372 761 3 MP stroke
2 1 -2 0 3372 884 3 MP stroke
2 0 -2 0 3374 1010 3 MP stroke
2 1 -2 0 3372 1133 3 MP stroke
1 0 3375 1509 2 MP stroke
3375 1631 PD
-1 0 1 -1 3377 1755 3 MP stroke
1 0 3374 1880 2 MP stroke
1 -1 0 1 3375 2006 3 MP stroke
1 1 -1 -1 3375 2128 3 MP stroke
2 0 -1 1 3374 2254 3 MP stroke
1 2 -2 -1 3375 2374 3 MP stroke
1 0 -1 0 3376 2500 3 MP stroke
1 2 -2 -1 3375 2623 3 MP stroke
1 1 -1 0 3375 2748 3 MP stroke
1 2 -1 -1 3375 2872 3 MP stroke
1 1 -1 0 3376 2998 3 MP stroke
1 0 -1 0 3375 3123 3 MP stroke
1 1 -1 0 3375 3246 3 MP stroke
0 1 3375 3371 2 MP stroke
1 0 -1 1 3374 3496 3 MP stroke
1 1 -1 -1 3375 3618 3 MP stroke
2 1 -2 0 3374 3743 3 MP stroke
1 1 -2 0 3373 3865 3 MP stroke
2 0 -2 1 3373 3992 3 MP stroke
1 2 -2 -1 3374 4114 3 MP stroke
2 1 -2 0 3373 4240 3 MP stroke
1 1 -2 0 3373 4364 3 MP stroke
3 2 -3 0 3370 4489 3 MP stroke
3 1 -3 1 3370 4613 3 MP stroke
5 2 -5 1 3474 512 3 MP stroke
3 0 -3 1 3478 637 3 MP stroke
3 0 -3 1 3478 763 3 MP stroke
3 1 -3 1 3479 885 3 MP stroke
2 1 -3 0 3479 1009 3 MP stroke
-5 5 2 -7 3492 1123 3 MP stroke
1 0 -1 1 3482 1507 3 MP stroke
1 1 -2 0 3482 1630 3 MP stroke
2 1 -2 0 3479 1877 3 MP stroke
1 0 -1 1 3482 2005 3 MP stroke
2 1 -2 0 3481 2128 3 MP stroke
1 0 -1 1 3481 2252 3 MP stroke
0 -2 0 0 3484 2374 3 MP stroke
-1 1 0 -1 3485 2499 3 MP stroke
1 2 -1 -1 3481 2623 3 MP stroke
1 1 -1 0 3482 2748 3 MP stroke
1 1 -2 -1 3482 2872 3 MP stroke
2 1 -2 0 3481 2997 3 MP stroke
2 1 -2 0 3481 3122 3 MP stroke
1 0 -1 0 3481 3247 3 MP stroke
1 2 -2 -1 3482 3368 3 MP stroke
2 1 -2 0 3482 3496 3 MP stroke
1 2 -2 -1 3482 3617 3 MP stroke
2 1 -2 0 3480 3742 3 MP stroke
3 2 -3 0 3479 3865 3 MP stroke
3 2 -3 0 3479 3991 3 MP stroke
2 2 -3 -1 3479 4114 3 MP stroke
2 1 -3 0 3480 4240 3 MP stroke
2 2 -3 0 3479 4362 3 MP stroke
3 2 -3 0 3479 4488 3 MP stroke
3 -1 -2 2 3587 514 3 MP stroke
3 1 -3 1 3587 637 3 MP stroke
3 2 -4 -1 3586 1379 3 MP stroke
0 1 -1 -1 3591 1629 3 MP stroke
1 0 3592 1757 2 MP stroke
1 0 -1 0 3590 2128 3 MP stroke
1 0 -1 1 3589 2253 3 MP stroke
0 1 3590 2375 2 MP stroke
0 -1 3592 2501 2 MP stroke
1 1 -1 -1 3591 2624 3 MP stroke
1 0 -1 1 3591 2750 3 MP stroke
1 2 -2 -1 3591 2871 3 MP stroke
1 1 -1 -1 3590 2997 3 MP stroke
0 1 -1 -1 3592 3121 3 MP stroke
1 1 -1 -1 3590 3246 3 MP stroke
1 1 -2 0 3590 3369 3 MP stroke
1 0 -1 1 3590 3495 3 MP stroke
0 1 -1 -1 3591 3617 3 MP stroke
1 0 -1 0 3591 3744 3 MP stroke
1 2 -2 -1 3589 3866 3 MP stroke
2 2 -2 0 3588 3991 3 MP stroke
1 2 -2 -1 3589 4114 3 MP stroke
2 2 -2 -1 3588 4240 3 MP stroke
1 2 -2 -1 3589 4362 3 MP stroke
3 2 -3 0 3585 4488 3 MP stroke
3 2 -3 -1 3585 4611 3 MP stroke
3691 389 PD
4 1 -3 2 3691 513 3 MP stroke
4 1 -4 1 3692 637 3 MP stroke
2 2 -2 -1 3696 1257 3 MP stroke
1 1 -1 -1 3697 1380 3 MP stroke
1 0 -1 1 3696 1506 3 MP stroke
1 2 -2 -1 3697 1628 3 MP stroke
1 0 -1 1 3698 1755 3 MP stroke
1 0 -1 1 3697 1879 3 MP stroke
0 1 -1 -1 3700 2003 3 MP stroke
1 0 -1 0 3697 2128 3 MP stroke
1 1 -1 0 3697 2251 3 MP stroke
1 1 -2 0 3697 2374 3 MP stroke
1 1 -1 0 3696 2501 3 MP stroke
1 1 -1 -1 3697 2623 3 MP stroke
2 0 -2 1 3696 2750 3 MP stroke
1 1 -2 0 3697 2873 3 MP stroke
2 1 -2 -1 3697 2997 3 MP stroke
1 1 -1 0 3697 3121 3 MP stroke
1 1 -1 0 3697 3246 3 MP stroke
2 1 -2 -1 3697 3370 3 MP stroke
1 0 -1 1 3697 3497 3 MP stroke
2 1 -2 0 3697 3618 3 MP stroke
2 1 -2 0 3695 3744 3 MP stroke
2 1 -3 0 3695 3867 3 MP stroke
2 1 -2 0 3694 3991 3 MP stroke
3 2 -3 0 3694 4114 3 MP stroke
3 1 -3 0 3694 4241 3 MP stroke
2 2 -3 0 3695 4363 3 MP stroke
4 1 -4 1 3691 4488 3 MP stroke
5 2 -5 1 3690 4611 3 MP stroke
3 0 -3 2 3800 512 3 MP stroke
3 1 -3 1 3802 636 3 MP stroke
1 0 -1 0 3805 1259 3 MP stroke
3806 1383 PD
1 1 -1 -1 3806 1631 3 MP stroke
0 -2 0 0 3807 1877 3 MP stroke
1 -1 -1 1 3805 2006 3 MP stroke
1 0 -1 1 3805 2128 3 MP stroke
0 1 -1 -1 3807 2251 3 MP stroke
0 1 -1 -1 3807 2374 3 MP stroke
1 -1 -1 1 3806 2502 3 MP stroke
3806 2625 PD
1 0 -1 0 3806 2751 3 MP stroke
1 1 -1 0 3806 2872 3 MP stroke
0 1 3806 2997 2 MP stroke
1 1 -1 -1 3806 3121 3 MP stroke
1 0 -1 1 3805 3246 3 MP stroke
0 -1 0 0 3806 3371 3 MP stroke
1 1 -1 0 3805 3494 3 MP stroke
1 0 -1 0 3805 3619 3 MP stroke
1 0 -1 0 3805 3744 3 MP stroke
2 2 -2 -1 3804 3865 3 MP stroke
2 1 -2 0 3804 3992 3 MP stroke
2 1 -2 0 3803 4115 3 MP stroke
2 1 -2 1 3803 4241 3 MP stroke
2 1 -3 0 3803 4364 3 MP stroke
3 1 -3 1 3801 4488 3 MP stroke
4 0 -3 2 3907 513 3 MP stroke
4 1 -4 1 3906 637 3 MP stroke
1 0 -1 0 3912 1011 3 MP stroke
1 1 -1 0 3912 1134 3 MP stroke
2 0 -2 1 3912 1259 3 MP stroke
1 0 -1 0 3913 1382 3 MP stroke
-1 -4 2 4 3917 1515 3 MP stroke
2 2 -2 -1 3912 1630 3 MP stroke
2 0 -2 1 3913 1756 3 MP stroke
5 -1 -4 4 3906 1884 3 MP stroke
2 1 -2 0 3912 2004 3 MP stroke
2 1 -2 0 3912 2128 3 MP stroke
1 1 -1 0 3913 2252 3 MP stroke
0 -1 0 0 3915 2374 3 MP stroke
1 0 -1 1 3913 2502 3 MP stroke
1 1 -2 0 3913 2623 3 MP stroke
2 0 -2 0 3913 2751 3 MP stroke
1 2 -2 -1 3913 2871 3 MP stroke
1 2 -1 -1 3912 2997 3 MP stroke
0 2 -1 -1 3913 3120 3 MP stroke
2 1 -2 0 3912 3245 3 MP stroke
2 1 -2 0 3912 3371 3 MP stroke
1 1 -1 0 3912 3495 3 MP stroke
2 2 -3 0 3911 3618 3 MP stroke
1 1 -2 0 3912 3742 3 MP stroke
2 2 -3 0 3910 3866 3 MP stroke
2 1 -3 0 3911 3991 3 MP stroke
3 2 -3 0 3910 4114 3 MP stroke
2 1 -3 0 3911 4240 3 MP stroke
3 2 -3 0 3910 4363 3 MP stroke
4 1 -4 1 3908 4489 3 MP stroke
3 1 -2 0 4017 389 3 MP stroke
4 0 -3 2 4016 514 3 MP stroke
4 1 -4 1 4016 635 3 MP stroke
4 0 -4 2 4016 762 3 MP stroke
2 1 -2 0 4018 1134 3 MP stroke
1 0 -1 0 4021 1259 3 MP stroke
0 2 -1 -1 4021 1379 3 MP stroke
1 -1 0 1 4021 1508 3 MP stroke
0 -1 0 0 4022 1629 3 MP stroke
1 1 -1 0 4021 1755 3 MP stroke
8 -5 -5 9 4007 1894 3 MP stroke
1 0 -1 1 4021 2004 3 MP stroke
1 0 -1 1 4021 2129 3 MP stroke
1 0 -1 0 4022 2253 3 MP stroke
1 0 -1 0 4021 2377 3 MP stroke
1 0 -1 0 4022 2501 3 MP stroke
1 2 -1 -1 4021 2623 3 MP stroke
1 0 -1 1 4021 2750 3 MP stroke
0 -2 0 1 4022 2871 3 MP stroke
2 0 -2 1 4018 2999 3 MP stroke
3 1 -3 1 4017 3121 3 MP stroke
3 0 -2 1 4016 3248 3 MP stroke
4 5 -5 -2 4013 3364 3 MP stroke
3 2 -4 0 4017 3493 3 MP stroke
2 1 -2 1 4018 3619 3 MP stroke
2 0 -2 1 4018 3745 3 MP stroke
1 0 -1 1 4019 3868 3 MP stroke
2 0 -2 1 4018 3994 3 MP stroke
3 2 -3 0 4017 4114 3 MP stroke
2 0 -2 1 4019 4243 3 MP stroke
9 -2 -7 7 4006 4373 3 MP stroke
3 2 -3 0 4016 4488 3 MP stroke
4 1 4118 389 2 MP stroke
4 0 -4 2 4123 514 3 MP stroke
4 1 -4 1 4122 636 3 MP stroke
4 1 -4 2 4122 762 3 MP stroke
5 1 -5 1 4122 885 3 MP stroke
5 5 -6 -2 4120 1001 3 MP stroke
6 -10 -1 12 4120 1155 3 MP stroke
3 6 -6 -4 4124 1247 3 MP stroke
4 1 -4 2 4123 1383 3 MP stroke
3 4 -4 -2 4123 1502 3 MP stroke
3 3 -4 -1 4123 1627 3 MP stroke
4 1 -4 1 4124 1754 3 MP stroke
-2 1 2 -2 4134 1877 3 MP stroke
6 3 -6 1 4119 2001 3 MP stroke
8 2 -8 2 4114 2127 3 MP stroke
4 0 -3 2 4122 2254 3 MP stroke
4 1 -4 2 4122 2376 3 MP stroke
5 1 -5 1 4122 2501 3 MP stroke
2 3 -3 -1 4126 2622 3 MP stroke
2 -1 -2 2 4128 2751 3 MP stroke
1 0 -1 1 4130 2874 3 MP stroke
5 1 -5 2 4121 2997 3 MP stroke
4 2 -5 0 4123 3119 3 MP stroke
6 -5 -3 8 4121 3258 3 MP stroke
4 4 -6 -1 4121 3364 3 MP stroke
4 3 -5 -1 4123 3492 3 MP stroke
4 1 -4 1 4123 3620 3 MP stroke
19 5 -19 6 4092 3740 3 MP stroke
17 5 -17 5 4096 3863 3 MP stroke
4 1 -4 2 4122 3993 3 MP stroke
6 1 -5 2 4120 4117 3 MP stroke
8 -3 -6 7 4117 4250 3 MP stroke
5 3 -6 0 4121 4361 3 MP stroke
4 2 -4 0 4122 4488 3 MP stroke
4 1 4227 389 2 MP stroke
3 0 -3 2 4232 514 3 MP stroke
3 1 -4 1 4232 635 3 MP stroke
4 -1 -3 2 4231 763 3 MP stroke
-3 6 1 -7 4243 874 3 MP stroke
3 0 -3 2 4232 1010 3 MP stroke
4 1 -4 1 4232 1132 3 MP stroke
4 0 -4 2 4231 1258 3 MP stroke
3 2 -3 0 4231 1382 3 MP stroke
4 0 -4 2 4232 1507 3 MP stroke
4 2 -4 0 4231 1630 3 MP stroke
3 2 -3 0 4232 1753 3 MP stroke
1 2 -1 -2 4237 1876 3 MP stroke
4 2 -4 0 4231 2002 3 MP stroke
3 2 -4 0 4232 2124 3 MP stroke
3 1 -3 2 4231 2253 3 MP stroke
3 2 -4 0 4232 2375 3 MP stroke
-5 2 4 -4 4248 2496 3 MP stroke
-5 -3 6 0 4249 2629 3 MP stroke
0 -1 4239 2749 2 MP stroke
4 1 -3 1 4231 2874 3 MP stroke
-1 -5 3 4 4241 3009 3 MP stroke
-2 -2 2 1 4242 3127 3 MP stroke
1 -10 3 9 4239 3268 3 MP stroke
5 -10 0 12 4231 3393 3 MP stroke
5 1 -5 2 4229 3495 3 MP stroke
3 2 -4 0 4231 3618 3 MP stroke
1 -5 2 5 4238 3755 3 MP stroke
-1 -2 1 1 4240 3872 3 MP stroke
5 1 -5 2 4229 3993 3 MP stroke
5 2 -5 0 4229 4114 3 MP stroke
4 1 -4 1 4230 4242 3 MP stroke
4 3 -4 0 4230 4361 3 MP stroke
4 2 -4 1 4231 4488 3 MP stroke
2 0 4335 389 2 MP stroke
4 0 -4 2 4338 513 3 MP stroke
4 1 -4 1 4337 637 3 MP stroke
4 1 -4 2 4338 762 3 MP stroke
5 2 -5 1 4336 885 3 MP stroke
4 0 -4 3 4337 1010 3 MP stroke
-3 -2 4 0 4353 1138 3 MP stroke
5 1 -5 2 4336 1258 3 MP stroke
-4 5 2 -6 4352 1372 3 MP stroke
-1 -2 2 1 4348 1512 3 MP stroke
0 -4 1 4 4346 1638 3 MP stroke
1 1 -1 -1 4344 1754 3 MP stroke
5 1 -5 2 4336 1878 3 MP stroke
4 1 -4 2 4337 2004 3 MP stroke
4 1 -4 1 4338 2127 3 MP stroke
5 0 -5 3 4336 2253 3 MP stroke
3 1 -4 1 4339 2376 3 MP stroke
-1 5 -1 -5 4347 2490 3 MP stroke
5 2 -5 1 4335 2624 3 MP stroke
6 1 -5 2 4335 2750 3 MP stroke
6 1 -5 2 4335 2873 3 MP stroke
5 -25 6 25 4340 3051 3 MP stroke
-2 4 0 -5 4350 3115 3 MP stroke
-4 -16 10 13 4357 3278 3 MP stroke
5 2 -5 1 4336 3370 3 MP stroke
5 1 -5 2 4336 3496 3 MP stroke
-3 -16 10 13 4355 3650 3 MP stroke
1 0 -1 1 4344 3746 3 MP stroke
0 5 -2 -5 4347 3860 3 MP stroke
0 -1 4346 3992 2 MP stroke
-4 0 3 -2 4354 4115 3 MP stroke
5 2 -5 1 4336 4240 3 MP stroke
4 3 -5 0 4336 4362 3 MP stroke
-5 -2 5 -1 4356 4492 3 MP stroke
2 2 -2 -1 4341 4612 3 MP stroke
2 0 4445 389 2 MP stroke
4 0 -3 2 4446 514 3 MP stroke
3 1 -3 1 4447 636 3 MP stroke
3 1 -3 1 4447 762 3 MP stroke
3 0 -3 1 4448 886 3 MP stroke
4 0 -3 2 4446 1010 3 MP stroke
3 1 -3 1 4447 1133 3 MP stroke
4 0 -4 2 4445 1259 3 MP stroke
4 1 -4 1 4445 1382 3 MP stroke
4 0 -4 2 4447 1507 3 MP stroke
4 1 -4 1 4446 1630 3 MP stroke
-1 -1 1 0 4457 1757 3 MP stroke
-4 0 4 -3 4463 1879 3 MP stroke
4 0 -3 2 4447 2005 3 MP stroke
3 1 -3 1 4447 2128 3 MP stroke
3 1 -3 1 4447 2253 3 MP stroke
5 -3 -3 5 4445 2383 3 MP stroke
-11 -18 17 10 4479 2534 3 MP stroke
0 7 -3 -6 4451 2611 3 MP stroke
3 1 -3 1 4447 2751 3 MP stroke
3 2 -3 1 4446 2872 3 MP stroke
4 0 -3 2 4445 2999 3 MP stroke
4 1 -4 1 4446 3122 3 MP stroke
5 2 -5 1 4445 3246 3 MP stroke
4 1 -4 1 4445 3371 3 MP stroke
4 1 -4 2 4445 3496 3 MP stroke
4 2 -4 1 4445 3618 3 MP stroke
4 1 -4 1 4445 3744 3 MP stroke
-3 10 -1 -11 4459 3849 3 MP stroke
5 0 -4 2 4445 3993 3 MP stroke
4 1 -4 1 4446 4116 3 MP stroke
5 2 -5 1 4445 4240 3 MP stroke
4 2 -5 1 4445 4363 3 MP stroke
3 2 -4 0 4446 4487 3 MP stroke
3 2 -4 0 4448 4610 3 MP stroke
1 0 4552 389 2 MP stroke
5 0 -4 2 4553 514 3 MP stroke
4 1 -4 2 4553 636 3 MP stroke
4 0 -4 2 4554 762 3 MP stroke
4 1 -4 1 4553 884 3 MP stroke
4 1 -4 1 4553 1010 3 MP stroke
4 1 -4 1 4553 1133 3 MP stroke
4 0 -3 2 4553 1260 3 MP stroke
3 1 -4 1 4554 1381 3 MP stroke
5 0 -4 3 4552 1508 3 MP stroke
4 1 -4 1 4553 1630 3 MP stroke
4 0 -4 2 4554 1757 3 MP stroke
5 1 -5 1 4552 1879 3 MP stroke
5 1 -5 2 4552 2004 3 MP stroke
5 0 -4 2 4553 2128 3 MP stroke
-21 0 19 -11 4602 2249 3 MP stroke
4 1 -4 1 4553 2376 3 MP stroke
5 1 -5 2 4552 2502 3 MP stroke
5 2 -5 1 4551 2624 3 MP stroke
5 1 -5 2 4551 2750 3 MP stroke
5 2 -5 1 4551 2873 3 MP stroke
5 1 -5 2 4551 2998 3 MP stroke
5 2 -5 1 4551 3121 3 MP stroke
5 0 -5 2 4552 3247 3 MP stroke
5 1 -5 2 4552 3369 3 MP stroke
5 2 -5 1 4551 3495 3 MP stroke
4 3 -5 0 4552 3616 3 MP stroke
5 2 -5 1 4551 3742 3 MP stroke
-15 56 -9 -58 4580 3754 3 MP stroke
5 1 -5 2 4551 3992 3 MP stroke
5 2 -5 0 4552 4114 3 MP stroke
5 1 -5 2 4552 4241 3 MP stroke
5 2 -5 1 4551 4364 3 MP stroke
5 2 -5 1 4552 4488 3 MP stroke
2 0 4659 389 2 MP stroke
4 0 -3 2 4661 514 3 MP stroke
3 1 -3 1 4662 635 3 MP stroke
4 0 -4 3 4662 762 3 MP stroke
4 1 -4 1 4661 885 3 MP stroke
4 0 -4 3 4660 1011 3 MP stroke
4 1 -4 1 4663 1132 3 MP stroke
4 1 -4 1 4662 1259 3 MP stroke
4 1 -4 2 4661 1382 3 MP stroke
3 0 -3 2 4663 1508 3 MP stroke
4 1 -4 1 4662 1630 3 MP stroke
4 1 -4 2 4661 1755 3 MP stroke
3 1 -4 1 4663 1878 3 MP stroke
4 0 -4 2 4662 2005 3 MP stroke
3 1 -3 1 4663 2128 3 MP stroke
5 1 -5 2 4660 2253 3 MP stroke
4 1 -4 1 4660 2376 3 MP stroke
1 6 -3 -4 4666 2490 3 MP stroke
4 1 -4 1 4660 2624 3 MP stroke
5 0 -5 2 4660 2751 3 MP stroke
4 1 -4 1 4662 2874 3 MP stroke
3 1 -3 1 4662 2998 3 MP stroke
4 1 -4 1 4660 3122 3 MP stroke
4 2 -4 1 4661 3245 3 MP stroke
5 1 -5 1 4660 3370 3 MP stroke
5 1 -4 2 4660 3496 3 MP stroke
4 2 -4 0 4660 3618 3 MP stroke
4 0 -4 2 4661 3745 3 MP stroke
5 1 -5 1 4661 3867 3 MP stroke
4 1 -4 1 4661 3993 3 MP stroke
4 2 -4 0 4661 4114 3 MP stroke
4 1 -5 1 4661 4239 3 MP stroke
4 3 -4 0 4661 4362 3 MP stroke
5 2 -5 1 4660 4488 3 MP stroke
3 0 4766 389 2 MP stroke
6 0 -5 3 4766 512 3 MP stroke
4 2 -4 1 4767 635 3 MP stroke
5 1 -4 1 4768 762 3 MP stroke
5 1 -5 1 4767 885 3 MP stroke
6 1 -5 2 4766 1010 3 MP stroke
4 2 -4 1 4768 1133 3 MP stroke
4 0 -4 2 4769 1259 3 MP stroke
4 1 -4 1 4768 1382 3 MP stroke
4 0 -3 2 4768 1508 3 MP stroke
5 1 -5 1 4767 1631 3 MP stroke
5 1 -5 2 4767 1755 3 MP stroke
4 1 -4 2 4769 1879 3 MP stroke
4 1 -4 2 4769 2004 3 MP stroke
4 0 -3 2 4769 2130 3 MP stroke
1 -3 1 4 4775 2260 3 MP stroke
3 7 -6 -5 4771 2363 3 MP stroke
4 1 -4 2 4769 2501 3 MP stroke
4 1 -4 1 4769 2625 3 MP stroke
5 0 -4 2 4768 2750 3 MP stroke
5 1 -5 2 4767 2873 3 MP stroke
6 0 -5 3 4766 2999 3 MP stroke
4 2 -4 1 4769 3121 3 MP stroke
5 2 -5 1 4767 3244 3 MP stroke
5 3 -6 0 4768 3367 3 MP stroke
5 2 -5 1 4766 3493 3 MP stroke
4 5 -6 -2 4768 3613 3 MP stroke
2 3 -3 -1 4772 3740 3 MP stroke
3 1 -3 0 4772 3866 3 MP stroke
4 0 -4 2 4769 3993 3 MP stroke
3 2 -4 0 4770 4114 3 MP stroke
2 1 -2 0 4772 4240 3 MP stroke
2 1 -2 0 4773 4364 3 MP stroke
4 2 -5 0 4770 4487 3 MP stroke
4 3 -5 0 4768 4610 3 MP stroke
4 0 -3 1 4875 389 3 MP stroke
5 1 -4 2 4875 513 3 MP stroke
4 2 -4 1 4876 636 3 MP stroke
5 0 -4 3 4875 762 3 MP stroke
5 2 -5 1 4876 883 3 MP stroke
5 -1 -4 3 4875 1013 3 MP stroke
1 11 -5 -10 4880 1113 3 MP stroke
5 1 -5 2 4874 1257 3 MP stroke
5 7 -7 -4 4874 1370 3 MP stroke
-1 19 -7 -17 4883 1470 3 MP stroke
2 1 -2 1 4880 1630 3 MP stroke
1 2 -2 -1 4882 1750 3 MP stroke
0 7 -3 -6 4883 1866 3 MP stroke
0 9 -4 -8 4883 1986 3 MP stroke
2 2 -2 -1 4881 2127 3 MP stroke
1 -3 0 3 4884 2257 3 MP stroke
2 1 -2 0 4881 2374 3 MP stroke
2 -1 -2 2 4881 2502 3 MP stroke
1 1 -1 0 4881 2625 3 MP stroke
3 0 -3 2 4879 2750 3 MP stroke
4 2 -4 0 4876 2872 3 MP stroke
1 0 -1 0 4882 2999 3 MP stroke
1 0 -1 1 4882 3122 3 MP stroke
1 0 -1 0 4883 3248 3 MP stroke
1 2 -1 -1 4883 3369 3 MP stroke
2 0 -2 1 4881 3497 3 MP stroke
1 1 -2 0 4882 3619 3 MP stroke
2 1 -2 0 4881 3743 3 MP stroke
2 2 -2 -1 4881 3866 3 MP stroke
2 1 -2 0 4881 3992 3 MP stroke
1 2 -2 -1 4882 4115 3 MP stroke
2 1 -2 0 4881 4240 3 MP stroke
2 2 -2 -1 4881 4364 3 MP stroke
2 1 -2 0 4880 4489 3 MP stroke
4987 389 PD
5 1 -5 2 4982 514 3 MP stroke
4 1 -4 2 4984 636 3 MP stroke
3 1 -4 1 4985 759 3 MP stroke
-3 11 -2 -12 4996 864 3 MP stroke
3 7 -6 -5 4987 995 3 MP stroke
1 12 -6 -10 4988 1110 3 MP stroke
3 12 -7 -9 4984 1238 3 MP stroke
6 4 -7 0 4980 1375 3 MP stroke
1 1 -2 0 4990 1505 3 MP stroke
2 1 -2 0 4990 1630 3 MP stroke
2 1 -2 0 4990 1753 3 MP stroke
1 1 -1 0 4990 1879 3 MP stroke
1 0 -1 1 4989 2004 3 MP stroke
1 2 -2 -1 4990 2126 3 MP stroke
2 1 -2 0 4989 2251 3 MP stroke
1 1 -2 -1 4990 2376 3 MP stroke
2 1 -2 0 4990 2500 3 MP stroke
1 1 -1 0 4989 2622 3 MP stroke
1 1 -1 0 4990 2748 3 MP stroke
1 1 -1 0 4990 2873 3 MP stroke
1 1 -1 0 4990 2997 3 MP stroke
1 1 -1 0 4989 3122 3 MP stroke
1 1 -1 0 4989 3247 3 MP stroke
3 1 -3 1 4987 3370 3 MP stroke
3 0 -3 1 4988 3496 3 MP stroke
3 1 -3 0 4987 3619 3 MP stroke
2 0 -2 1 4987 3744 3 MP stroke
2 1 -2 0 4988 3867 3 MP stroke
2 1 -2 0 4987 3992 3 MP stroke
3 1 -3 0 4987 4115 3 MP stroke
2 1 -3 0 4988 4240 3 MP stroke
3 2 -3 0 4987 4363 3 MP stroke
3 1 -3 1 4987 4489 3 MP stroke
3 0 -3 1 5093 389 3 MP stroke
3 1 -3 1 5094 512 3 MP stroke
-1 4 -1 -4 5103 628 3 MP stroke
1 -1 0 1 5098 763 3 MP stroke
5099 886 PD
1 0 -1 1 5098 1011 3 MP stroke
1 1 5098 1134 2 MP stroke
0 1 5099 1259 2 MP stroke
0 2 -1 -2 5099 1380 3 MP stroke
5098 1507 PD
1 1 -1 0 5099 1630 3 MP stroke
-1 1 5099 1754 2 MP stroke
1 0 -1 0 5099 1880 3 MP stroke
-1 7 -2 -6 5100 1991 3 MP stroke
0 2 -1 -2 5100 2126 3 MP stroke
0 1 5099 2252 2 MP stroke
1 1 -1 0 5098 2376 3 MP stroke
1 -1 -1 1 5098 2503 3 MP stroke
1 2 -1 -1 5099 2623 3 MP stroke
1 0 -1 0 5098 2751 3 MP stroke
-1 1 5099 2873 2 MP stroke
1 -1 -1 1 5099 2999 3 MP stroke
1 1 -1 0 5098 3122 3 MP stroke
1 0 -1 0 5099 3248 3 MP stroke
2 1 -2 0 5097 3370 3 MP stroke
2 0 -2 1 5096 3495 3 MP stroke
1 1 -2 0 5097 3618 3 MP stroke
2 1 -2 0 5096 3743 3 MP stroke
2 2 -2 -1 5096 3866 3 MP stroke
2 0 -2 1 5097 3993 3 MP stroke
2 2 -2 0 5096 4114 3 MP stroke
1 1 -2 0 5097 4241 3 MP stroke
1 2 -2 -1 5097 4362 3 MP stroke
2 1 -2 0 5095 4489 3 MP stroke
1 2 -2 -1 5097 4612 3 MP stroke
5 1 -2 0 5196 389 3 MP stroke
1 3 -2 -2 5205 507 3 MP stroke
1 4 -2 -3 5205 630 3 MP stroke
2 -2 -1 2 5205 766 3 MP stroke
1 1 -1 0 5205 885 3 MP stroke
1 1 -1 0 5205 1008 3 MP stroke
1 2 -1 -1 5205 1131 3 MP stroke
2 0 -2 0 5205 1258 3 MP stroke
2 1 -2 0 5204 1381 3 MP stroke
2 -1 -1 2 5205 1508 3 MP stroke
1 1 -1 0 5206 1630 3 MP stroke
1 0 -1 0 5205 1755 3 MP stroke
2 1 -2 0 5205 1879 3 MP stroke
-1 1 0 -1 5210 2002 3 MP stroke
0 1 -1 -1 5206 2126 3 MP stroke
1 1 -2 0 5205 2252 3 MP stroke
1 1 -2 0 5205 2374 3 MP stroke
1 0 -1 1 5205 2501 3 MP stroke
1 1 -1 -1 5205 2624 3 MP stroke
2 0 -2 1 5205 2750 3 MP stroke
2 2 -2 -1 5205 2872 3 MP stroke
1 0 -2 0 5206 2998 3 MP stroke
2 1 -2 0 5205 3122 3 MP stroke
3 1 -3 1 5203 3247 3 MP stroke
1 1 -1 0 5205 3371 3 MP stroke
2 1 -2 0 5203 3494 3 MP stroke
2 2 -3 0 5203 3616 3 MP stroke
2 1 -3 1 5203 3743 3 MP stroke
2 1 -2 0 5204 3867 3 MP stroke
2 1 -3 0 5203 3992 3 MP stroke
3 2 -3 -1 5203 4115 3 MP stroke
3 1 -3 0 5203 4241 3 MP stroke
3 2 -3 -1 5202 4363 3 MP stroke
3 2 -3 0 5203 4488 3 MP stroke
3 2 -3 0 5202 4612 3 MP stroke
3 1 -2 0 5308 389 3 MP stroke
1 1 -1 -1 5314 884 3 MP stroke
-1 0 5314 1012 2 MP stroke
1 1 -1 -1 5314 1257 3 MP stroke
0 -1 0 0 5314 1382 3 MP stroke
0 1 5314 1507 2 MP stroke
0 2 -1 -1 5315 1629 3 MP stroke
1 1 -1 -1 5314 1754 3 MP stroke
1 2 -2 -1 5313 1877 3 MP stroke
1 0 -1 0 5315 2004 3 MP stroke
1 1 -1 -1 5314 2127 3 MP stroke
1 0 -1 1 5314 2253 3 MP stroke
1 0 -1 0 5314 2377 3 MP stroke
1 0 -1 0 5314 2502 3 MP stroke
0 1 5314 2625 2 MP stroke
5314 2750 PD
-1 1 5314 2873 2 MP stroke
0 1 5314 2997 2 MP stroke
0 1 5314 3122 2 MP stroke
2 1 -2 0 5312 3245 3 MP stroke
1 1 -1 0 5312 3371 3 MP stroke
2 1 -2 0 5313 3495 3 MP stroke
1 1 -2 0 5313 3617 3 MP stroke
2 1 -2 0 5312 3744 3 MP stroke
2 0 -2 1 5312 3867 3 MP stroke
2 1 -2 0 5312 3992 3 MP stroke
2 2 -2 -1 5311 4115 3 MP stroke
2 2 -3 0 5312 4239 3 MP stroke
2 2 -2 -1 5311 4363 3 MP stroke
2 0 -2 1 5312 4489 3 MP stroke
2 1 -2 0 5312 4613 3 MP stroke
1 1 -1 0 5421 1133 3 MP stroke
2 -1 -1 1 5420 1260 3 MP stroke
1 1 -1 0 5420 1382 3 MP stroke
1 -1 0 1 5421 1509 3 MP stroke
1 2 -2 -1 5421 1628 3 MP stroke
2 1 -2 0 5420 1754 3 MP stroke
2 1 -2 0 5420 1878 3 MP stroke
1 1 -1 0 5420 2003 3 MP stroke
1 1 -1 0 5421 2127 3 MP stroke
2 0 -1 1 5420 2253 3 MP stroke
1 0 -1 1 5420 2376 3 MP stroke
2 2 -2 -1 5420 2500 3 MP stroke
2 0 -2 0 5421 2625 3 MP stroke
1 0 -1 0 5420 2750 3 MP stroke
1 1 -1 0 5421 2873 3 MP stroke
2 0 -2 1 5419 2999 3 MP stroke
2 1 -2 0 5421 3122 3 MP stroke
2 1 -2 0 5420 3247 3 MP stroke
2 2 -2 0 5419 3369 3 MP stroke
2 1 -2 1 5419 3495 3 MP stroke
2 1 -2 0 5419 3619 3 MP stroke
3 1 -3 0 5418 3743 3 MP stroke
2 3 -3 -1 5418 3865 3 MP stroke
2 0 -2 1 5418 3992 3 MP stroke
3 2 -3 -1 5418 4114 3 MP stroke
2 1 -3 1 5418 4240 3 MP stroke
3 2 -4 0 5418 4362 3 MP stroke
2 1 -2 1 5418 4489 3 MP stroke
2 2 -3 0 5418 4612 3 MP stroke
5530 1134 PD
1 0 -1 1 5529 1259 3 MP stroke
-3 -1 3 -1 5538 1385 3 MP stroke
-1 1 5530 1506 2 MP stroke
5530 1631 PD
1 0 5529 1757 2 MP stroke
1 1 -1 -1 5529 1877 3 MP stroke
1 1 -1 0 5530 2004 3 MP stroke
1 0 -1 0 5530 2128 3 MP stroke
1 0 -1 0 5530 2253 3 MP stroke
1 1 -1 0 5530 2375 3 MP stroke
1 -1 -1 1 5530 2503 3 MP stroke
0 1 -1 -1 5530 2623 3 MP stroke
1 0 -1 1 5530 2750 3 MP stroke
1 1 -1 0 5530 2874 3 MP stroke
1 -1 -1 1 5529 3000 3 MP stroke
0 1 5529 3122 2 MP stroke
1 -1 -1 1 5529 3249 3 MP stroke
1 1 -2 0 5528 3370 3 MP stroke
1 -1 -1 1 5528 3497 3 MP stroke
2 1 -2 0 5527 3619 3 MP stroke
2 1 -2 0 5527 3744 3 MP stroke
2 2 -2 -1 5528 3867 3 MP stroke
1 1 -2 0 5528 3991 3 MP stroke
2 2 -3 -1 5527 4114 3 MP stroke
2 1 -2 1 5526 4240 3 MP stroke
1 2 -2 -1 5528 4364 3 MP stroke
2 1 -2 1 5527 4489 3 MP stroke
1 2 -2 0 5527 4611 3 MP stroke
1 1 -1 -1 5636 1132 3 MP stroke
2 0 -2 1 5636 1258 3 MP stroke
1 1 -1 0 5636 1382 3 MP stroke
1 1 -2 0 5636 1505 3 MP stroke
1 0 -1 0 5636 1631 3 MP stroke
1 0 -1 1 5637 1757 3 MP stroke
2 0 -2 1 5636 1879 3 MP stroke
1 -1 -1 2 5636 2005 3 MP stroke
1 0 -2 0 5637 2128 3 MP stroke
1 0 -1 1 5636 2254 3 MP stroke
1 1 -2 -1 5637 2376 3 MP stroke
2 0 -1 1 5635 2503 3 MP stroke
1 1 -1 0 5636 2624 3 MP stroke
1 0 -1 1 5636 2750 3 MP stroke
1 1 -2 0 5636 2872 3 MP stroke
2 1 -2 0 5635 2998 3 MP stroke
2 1 -3 0 5635 3122 3 MP stroke
2 1 -2 0 5635 3246 3 MP stroke
2 1 -3 0 5635 3370 3 MP stroke
3 2 -3 0 5634 3494 3 MP stroke
1 2 -2 -1 5635 3617 3 MP stroke
2 1 -2 1 5634 3743 3 MP stroke
3 2 -3 0 5633 3866 3 MP stroke
3 1 -3 1 5633 3991 3 MP stroke
2 2 -2 0 5633 4114 3 MP stroke
2 1 -3 0 5634 4240 3 MP stroke
3 2 -3 0 5633 4362 3 MP stroke
3 1 -3 1 5633 4489 3 MP stroke
2 0 -2 2 5743 514 3 MP stroke
1 0 -1 0 5746 1011 3 MP stroke
5745 1134 PD
1 0 -1 1 5744 1259 3 MP stroke
1 1 -1 0 5744 1382 3 MP stroke
2 0 -1 1 5744 1508 3 MP stroke
-1 1 5746 1630 2 MP stroke
1 0 -1 1 5746 1756 3 MP stroke
1 2 -1 -1 5745 1878 3 MP stroke
5745 2003 PD
1 2 -1 -1 5745 2126 3 MP stroke
1 1 -1 0 5745 2252 3 MP stroke
-1 1 0 -1 5748 2375 3 MP stroke
1 0 5746 2503 2 MP stroke
1 0 -1 0 5745 2625 3 MP stroke
1 1 -1 0 5745 2748 3 MP stroke
0 1 5745 2873 2 MP stroke
1 0 -1 0 5745 2998 3 MP stroke
1 1 -1 0 5745 3122 3 MP stroke
1 0 -1 1 5743 3247 3 MP stroke
2 1 -2 0 5743 3370 3 MP stroke
2 1 -3 0 5743 3494 3 MP stroke
2 0 -2 1 5742 3619 3 MP stroke
1 1 -2 0 5743 3743 3 MP stroke
2 2 -3 -1 5742 3866 3 MP stroke
1 1 -2 0 5744 3991 3 MP stroke
2 2 -3 -1 5743 4115 3 MP stroke
1 2 -2 0 5743 4239 3 MP stroke
1 2 -2 0 5743 4362 3 MP stroke
2 1 -2 0 5742 4489 3 MP stroke
1 2 -2 0 5743 4612 3 MP stroke
1 0 5849 389 2 MP stroke
3 0 -2 2 5849 514 3 MP stroke
2 0 -1 1 5851 1011 3 MP stroke
1 0 -2 1 5851 1133 3 MP stroke
2 0 -2 1 5852 1259 3 MP stroke
1 1 -1 0 5851 1382 3 MP stroke
-2 -2 3 0 5859 1511 3 MP stroke
1 1 -2 0 5851 1630 3 MP stroke
-4 3 2 -5 5862 1748 3 MP stroke
1 2 -2 -1 5852 1877 3 MP stroke
2 1 -2 0 5851 2003 3 MP stroke
2 1 -2 0 5851 2125 3 MP stroke
2 1 -2 0 5851 2252 3 MP stroke
1 1 -1 0 5852 2376 3 MP stroke
2 0 -2 1 5851 2502 3 MP stroke
2 1 -2 0 5851 2624 3 MP stroke
1 1 -2 0 5851 2748 3 MP stroke
1 1 -2 0 5852 2872 3 MP stroke
2 1 -2 0 5851 2999 3 MP stroke
1 1 -2 -1 5852 3122 3 MP stroke
2 1 -2 1 5850 3246 3 MP stroke
2 2 -3 0 5850 3369 3 MP stroke
2 1 -2 0 5849 3495 3 MP stroke
3 2 -3 0 5849 3618 3 MP stroke
2 2 -2 0 5849 3742 3 MP stroke
2 2 -3 -1 5850 3865 3 MP stroke
2 1 -3 1 5850 3991 3 MP stroke
3 2 -3 -1 5849 4114 3 MP stroke
3 0 -3 1 5849 4242 3 MP stroke
3 2 -3 -1 5849 4364 3 MP stroke
3 1 -3 0 5848 4489 3 MP stroke
-12 0 11 -6 5878 4612 3 MP stroke
2 1 -2 0 5957 389 3 MP stroke
3 0 -3 2 5956 512 3 MP stroke
1 1 -1 0 5960 1132 3 MP stroke
-1 0 5961 1260 2 MP stroke
1 1 -2 -1 5961 1380 3 MP stroke
-10 -13 14 6 5984 1531 3 MP stroke
1 1 -1 0 5961 1630 3 MP stroke
-1 0 5961 1755 2 MP stroke
5961 1879 PD
1 0 -1 1 5960 2005 3 MP stroke
1 0 -1 0 5960 2128 3 MP stroke
0 -1 0 0 5961 2252 3 MP stroke
1 1 -1 0 5960 2376 3 MP stroke
1 0 -1 0 5960 2500 3 MP stroke
1 0 -1 0 5959 2625 3 MP stroke
1 0 -1 0 5961 2750 3 MP stroke
1 1 -1 0 5960 2874 3 MP stroke
1 1 -1 0 5960 2998 3 MP stroke
1 0 -1 0 5961 3122 3 MP stroke
2 1 -2 0 5959 3247 3 MP stroke
1 1 -2 0 5959 3370 3 MP stroke
2 0 -1 1 5958 3495 3 MP stroke
2 1 -2 0 5958 3619 3 MP stroke
2 1 -2 1 5958 3743 3 MP stroke
2 1 -2 0 5958 3867 3 MP stroke
2 1 -2 0 5958 3991 3 MP stroke
2 2 -3 -1 5958 4115 3 MP stroke
2 1 -2 0 5958 4240 3 MP stroke
2 2 -2 -1 5957 4362 3 MP stroke
4 1 -4 1 5953 4488 3 MP stroke
2 1 -2 0 6067 512 3 MP stroke
2 0 -2 1 6067 1010 3 MP stroke
1 1 -1 -1 6068 1132 3 MP stroke
2 0 -1 1 6066 1259 3 MP stroke
1 2 -1 -1 6067 1380 3 MP stroke
1 1 -1 0 6067 1506 3 MP stroke
2 1 -2 0 6067 1631 3 MP stroke
1 0 -1 1 6067 1755 3 MP stroke
1 0 -1 0 6068 1879 3 MP stroke
1 0 -1 1 6066 2004 3 MP stroke
2 0 -2 1 6067 2128 3 MP stroke
2 0 -2 1 6067 2254 3 MP stroke
1 1 -1 0 6067 2376 3 MP stroke
1 1 -1 0 6066 2500 3 MP stroke
1 1 -2 0 6067 2623 3 MP stroke
2 0 -1 1 6066 2750 3 MP stroke
1 1 -1 -1 6067 2873 3 MP stroke
2 1 -2 0 6067 2998 3 MP stroke
1 1 -1 -1 6067 3121 3 MP stroke
2 1 -3 0 6065 3246 3 MP stroke
2 2 -3 -1 6066 3370 3 MP stroke
2 1 -2 1 6064 3495 3 MP stroke
2 1 -2 0 6065 3619 3 MP stroke
2 1 -2 1 6064 3743 3 MP stroke
3 2 -3 0 6064 3865 3 MP stroke
3 1 -3 1 6065 3992 3 MP stroke
3 2 -4 -1 6064 4114 3 MP stroke
3 1 -3 0 6065 4240 3 MP stroke
3 2 -3 -1 6064 4363 3 MP stroke
5 3 -5 1 6059 4486 3 MP stroke
5 3 -5 0 6059 4609 3 MP stroke
0 2 -1 -1 6177 757 3 MP stroke
-1 1 0 -2 6179 883 3 MP stroke
1 0 -1 0 6177 1010 3 MP stroke
1 1 -1 0 6175 1133 3 MP stroke
1 1 -1 0 6176 1257 3 MP stroke
0 1 -1 -1 6176 1380 3 MP stroke
1 1 -1 0 6175 1506 3 MP stroke
1 0 -1 0 6176 1631 3 MP stroke
0 1 -1 -1 6177 1755 3 MP stroke
10 1 -9 4 6159 1881 3 MP stroke
1 0 -1 0 6176 2004 3 MP stroke
1 1 -1 0 6176 2126 3 MP stroke
1 0 -1 1 6176 2252 3 MP stroke
1 2 -1 -1 6176 2374 3 MP stroke
1 1 -1 0 6176 2500 3 MP stroke
-1 1 6177 2624 2 MP stroke
1 1 -2 -1 6176 2749 3 MP stroke
1 2 -2 -1 6176 2871 3 MP stroke
1 0 -1 0 6175 2998 3 MP stroke
2 1 -2 0 6174 3121 3 MP stroke
2 0 -2 1 6174 3248 3 MP stroke
1 1 -2 0 6174 3369 3 MP stroke
2 2 -2 -1 6175 3494 3 MP stroke
2 1 -2 0 6173 3618 3 MP stroke
2 1 -2 0 6174 3744 3 MP stroke
1 1 -2 -1 6175 3866 3 MP stroke
2 1 -2 0 6173 3991 3 MP stroke
2 2 -2 -1 6174 4114 3 MP stroke
2 0 -2 1 6173 4242 3 MP stroke
2 2 -3 0 6172 4362 3 MP stroke
5 2 -5 1 6169 4488 3 MP stroke
33 0 899 389 2 MP stroke
899 1383 PD
1006 389 PD
-6 1 1006 513 2 MP stroke
-4 0 1006 637 2 MP stroke
2 -14 1006 886 2 MP stroke
-6 3 1006 1010 2 MP stroke
-6 -3 1006 1134 2 MP stroke
-6 -3 1006 1259 2 MP stroke
-1 -1 1006 1383 2 MP stroke
-5 -1 1006 1507 2 MP stroke
-10 -3 1006 1631 2 MP stroke
-3 -4 1006 2377 2 MP stroke
-1 -1 1006 2502 2 MP stroke
-2 -4 1006 2626 2 MP stroke
-2 0 1006 2750 2 MP stroke
-3 -5 1006 2874 2 MP stroke
-1 2 1006 2999 2 MP stroke
-3 -3 1006 3123 2 MP stroke
-3 -1 1006 3247 2 MP stroke
-2 -5 1006 3372 2 MP stroke
-2 -3 1006 3496 2 MP stroke
-3 -4 1006 3620 2 MP stroke
-3 0 1006 3744 2 MP stroke
-3 -3 1006 3869 2 MP stroke
-4 1 1006 3993 2 MP stroke
-5 -2 1006 4117 2 MP stroke
-5 -2 1006 4242 2 MP stroke
-6 -4 1006 4366 2 MP stroke
-6 2 1006 4490 2 MP stroke
1114 389 PD
-4 -2 1114 513 2 MP stroke
-16 1 1114 637 2 MP stroke
-8 -5 1114 886 2 MP stroke
-9 3 1114 1010 2 MP stroke
-7 -4 1114 1134 2 MP stroke
-8 1 1114 1259 2 MP stroke
-8 -4 1114 1383 2 MP stroke
-8 0 1114 1507 2 MP stroke
-9 -3 1114 1631 2 MP stroke
-4 -1 1114 2377 2 MP stroke
-4 -2 1114 2502 2 MP stroke
-5 -4 1114 2626 2 MP stroke
-4 -1 1114 2750 2 MP stroke
-4 -4 1114 2874 2 MP stroke
-4 -2 1114 2999 2 MP stroke
-4 -2 1114 3123 2 MP stroke
-5 -2 1114 3247 2 MP stroke
-4 -4 1114 3372 2 MP stroke
-3 -1 1114 3496 2 MP stroke
-4 -2 1114 3620 2 MP stroke
-4 -1 1114 3744 2 MP stroke
-5 -3 1114 3869 2 MP stroke
-8 -1 1114 3993 2 MP stroke
-8 -3 1114 4117 2 MP stroke
-7 -2 1114 4242 2 MP stroke
-7 -2 1114 4366 2 MP stroke
-7 0 1114 4490 2 MP stroke
-22 5 1222 513 2 MP stroke
-11 4 1222 637 2 MP stroke
-7 3 1222 761 2 MP stroke
-6 -2 1222 886 2 MP stroke
-6 3 1222 1010 2 MP stroke
-5 -3 1222 1134 2 MP stroke
-2 -3 1222 1383 2 MP stroke
-2 -2 1222 1507 2 MP stroke
1222 1631 PD
-2 -2 1222 2502 2 MP stroke
-3 -5 1222 2626 2 MP stroke
-7 -1 1222 2750 2 MP stroke
-4 -2 1222 2874 2 MP stroke
-4 -1 1222 2999 2 MP stroke
-3 -3 1222 3123 2 MP stroke
-2 -2 1222 3247 2 MP stroke
-2 -5 1222 3372 2 MP stroke
-3 -2 1222 3496 2 MP stroke
-3 -4 1222 3620 2 MP stroke
-4 -1 1222 3744 2 MP stroke
-3 -4 1222 3869 2 MP stroke
-6 1 1222 3993 2 MP stroke
-6 -2 1222 4117 2 MP stroke
-6 -1 1222 4242 2 MP stroke
-6 -2 1222 4366 2 MP stroke
-5 0 1222 4490 2 MP stroke
-7 3 1329 513 2 MP stroke
-7 -3 1329 637 2 MP stroke
-7 1 1329 761 2 MP stroke
-6 -4 1329 886 2 MP stroke
-9 2 1329 1010 2 MP stroke
-11 -4 1329 1134 2 MP stroke
-8 -1 1329 1259 2 MP stroke
1329 1507 PD
-5 -2 1329 2502 2 MP stroke
-5 -5 1329 2626 2 MP stroke
-4 -2 1329 2750 2 MP stroke
-4 -4 1329 2874 2 MP stroke
-3 -3 1329 2999 2 MP stroke
-3 -3 1329 3123 2 MP stroke
-3 -1 1329 3247 2 MP stroke
-2 -5 1329 3372 2 MP stroke
-3 -2 1329 3496 2 MP stroke
-4 -2 1329 3620 2 MP stroke
-4 0 1329 3744 2 MP stroke
-6 -5 1329 3869 2 MP stroke
-7 -1 1329 3993 2 MP stroke
-7 -3 1329 4117 2 MP stroke
-7 -2 1329 4242 2 MP stroke
-7 -4 1329 4366 2 MP stroke
-6 -1 1329 4490 2 MP stroke
-5 1 1437 513 2 MP stroke
-5 -1 1437 637 2 MP stroke
-6 -2 1437 761 2 MP stroke
-5 -3 1437 886 2 MP stroke
-7 2 1437 1010 2 MP stroke
-6 -1 1437 1134 2 MP stroke
-6 1 1437 1259 2 MP stroke
2 0 1437 1383 2 MP stroke
-4 -2 1437 2502 2 MP stroke
-3 -1 1437 2626 2 MP stroke
-1 -3 1437 3123 2 MP stroke
-2 0 1437 3247 2 MP stroke
-3 -5 1437 3372 2 MP stroke
-3 -2 1437 3496 2 MP stroke
-2 -4 1437 3620 2 MP stroke
-2 -2 1437 3744 2 MP stroke
-3 -3 1437 3869 2 MP stroke
-4 -1 1437 3993 2 MP stroke
-4 -2 1437 4117 2 MP stroke
-5 -1 1437 4242 2 MP stroke
-4 -3 1437 4366 2 MP stroke
-6 -2 1437 4490 2 MP stroke
-6 -4 1437 4615 2 MP stroke
-10 0 1545 389 2 MP stroke
-9 2 1545 513 2 MP stroke
-7 1 1545 637 2 MP stroke
-7 -2 1545 761 2 MP stroke
-9 -1 1545 886 2 MP stroke
-8 2 1545 1010 2 MP stroke
-9 -1 1545 1134 2 MP stroke
-9 2 1545 1259 2 MP stroke
-8 -3 1545 1383 2 MP stroke
0 1 1545 1507 2 MP stroke
-2 -3 1545 1631 2 MP stroke
-5 -2 1545 2502 2 MP stroke
-4 -2 1545 3123 2 MP stroke
-3 -1 1545 3247 2 MP stroke
-4 -4 1545 3372 2 MP stroke
-3 -2 1545 3496 2 MP stroke
-4 0 1545 3620 2 MP stroke
-4 -1 1545 3744 2 MP stroke
-4 -3 1545 3869 2 MP stroke
-6 0 1545 3993 2 MP stroke
-7 -2 1545 4117 2 MP stroke
-7 -1 1545 4242 2 MP stroke
-8 -2 1545 4366 2 MP stroke
-9 -1 1545 4490 2 MP stroke
-7 -4 1545 4615 2 MP stroke
-5 3 1653 513 2 MP stroke
-6 0 1653 637 2 MP stroke
-7 2 1653 761 2 MP stroke
-6 0 1653 886 2 MP stroke
-7 1 1653 1010 2 MP stroke
-5 -1 1653 1134 2 MP stroke
-7 2 1653 1259 2 MP stroke
-7 -2 1653 1383 2 MP stroke
-3 -2 1653 1507 2 MP stroke
-4 2 1653 2502 2 MP stroke
-1 0 1653 2626 2 MP stroke
-3 -1 1653 2750 2 MP stroke
-3 -2 1653 3123 2 MP stroke
-5 -2 1653 3247 2 MP stroke
-4 -3 1653 3372 2 MP stroke
-2 -1 1653 3496 2 MP stroke
-2 -3 1653 3620 2 MP stroke
-5 -1 1653 3744 2 MP stroke
-6 -5 1653 3869 2 MP stroke
-6 -2 1653 3993 2 MP stroke
-5 -2 1653 4117 2 MP stroke
-6 -2 1653 4242 2 MP stroke
-6 -3 1653 4366 2 MP stroke
-5 -1 1653 4490 2 MP stroke
-7 1 1760 513 2 MP stroke
-8 -1 1760 637 2 MP stroke
-8 3 1760 761 2 MP stroke
-18 0 1760 886 2 MP stroke
1 -7 1760 1010 2 MP stroke
-6 0 1760 1134 2 MP stroke
-8 3 1760 1259 2 MP stroke
-8 1 1760 1383 2 MP stroke
-4 -2 1760 1507 2 MP stroke
-4 -3 1760 1631 2 MP stroke
-2 0 1760 2502 2 MP stroke
-2 0 1760 2626 2 MP stroke
-4 2 1760 2750 2 MP stroke
-4 -4 1760 2874 2 MP stroke
-3 -2 1760 2999 2 MP stroke
-3 -4 1760 3123 2 MP stroke
-5 0 1760 3247 2 MP stroke
-4 -5 1760 3372 2 MP stroke
-4 -1 1760 3496 2 MP stroke
-4 -4 1760 3620 2 MP stroke
-3 0 1760 3744 2 MP stroke
-7 -4 1760 3869 2 MP stroke
-6 -3 1760 3993 2 MP stroke
-8 -3 1760 4117 2 MP stroke
-6 0 1760 4242 2 MP stroke
-8 -3 1760 4366 2 MP stroke
-8 -1 1760 4490 2 MP stroke
-5 0 1868 389 2 MP stroke
-32 9 1868 513 2 MP stroke
-7 0 1868 637 2 MP stroke
-6 0 1868 761 2 MP stroke
-6 -1 1868 886 2 MP stroke
-7 3 1868 1010 2 MP stroke
2 4 1868 1134 2 MP stroke
-6 1 1868 1259 2 MP stroke
-9 0 1868 1383 2 MP stroke
-3 -2 1868 1507 2 MP stroke
-2 -2 1868 1631 2 MP stroke
-2 -4 1868 2626 2 MP stroke
-2 2 1868 2750 2 MP stroke
-1 1 1868 2874 2 MP stroke
-1 1 1868 2999 2 MP stroke
-2 -5 1868 3123 2 MP stroke
-2 0 1868 3247 2 MP stroke
-2 -4 1868 3372 2 MP stroke
-3 -3 1868 3496 2 MP stroke
-2 -4 1868 3620 2 MP stroke
-3 1 1868 3744 2 MP stroke
-4 -3 1868 3869 2 MP stroke
-6 -2 1868 3993 2 MP stroke
-6 -3 1868 4117 2 MP stroke
-6 -1 1868 4242 2 MP stroke
-6 -3 1868 4366 2 MP stroke
-5 -1 1868 4490 2 MP stroke
-5 -4 1868 4615 2 MP stroke
1976 389 PD
-16 3 1976 513 2 MP stroke
-13 -4 1976 637 2 MP stroke
-8 2 1976 761 2 MP stroke
-8 0 1976 886 2 MP stroke
-7 0 1976 1010 2 MP stroke
-3 3 1976 1134 2 MP stroke
-8 2 1976 1259 2 MP stroke
-9 -1 1976 1383 2 MP stroke
-8 0 1976 1507 2 MP stroke
0 -4 1976 1631 2 MP stroke
-4 -4 1976 2502 2 MP stroke
-4 -4 1976 2626 2 MP stroke
-3 -2 1976 2750 2 MP stroke
-5 -5 1976 2874 2 MP stroke
-4 -2 1976 2999 2 MP stroke
-5 -3 1976 3123 2 MP stroke
-4 -2 1976 3247 2 MP stroke
-6 -4 1976 3372 2 MP stroke
-5 -2 1976 3496 2 MP stroke
-6 -3 1976 3620 2 MP stroke
-4 -1 1976 3744 2 MP stroke
-6 -4 1976 3869 2 MP stroke
-8 -1 1976 3993 2 MP stroke
-6 -4 1976 4117 2 MP stroke
-8 -3 1976 4242 2 MP stroke
-7 -4 1976 4366 2 MP stroke
-7 -1 1976 4490 2 MP stroke
-6 0 2084 389 2 MP stroke
-7 2 2084 513 2 MP stroke
-7 -4 2084 637 2 MP stroke
-7 3 2084 761 2 MP stroke
-5 0 2084 886 2 MP stroke
-7 1 2084 1010 2 MP stroke
-8 0 2084 1134 2 MP stroke
-2 1 2084 1259 2 MP stroke
-2 -1 2084 1383 2 MP stroke
2 -1 2084 1507 2 MP stroke
-3 -3 2084 1631 2 MP stroke
-4 0 2084 2377 2 MP stroke
-3 -3 2084 2502 2 MP stroke
-3 -5 2084 2626 2 MP stroke
-3 1 2084 2750 2 MP stroke
-1 -3 2084 2874 2 MP stroke
-3 2 2084 2999 2 MP stroke
-2 -4 2084 3123 2 MP stroke
-1 0 2084 3247 2 MP stroke
-2 -3 2084 3372 2 MP stroke
-3 -2 2084 3496 2 MP stroke
-2 -5 2084 3620 2 MP stroke
-2 -1 2084 3744 2 MP stroke
-3 -4 2084 3869 2 MP stroke
-6 -2 2084 3993 2 MP stroke
-6 -3 2084 4117 2 MP stroke
-5 -2 2084 4242 2 MP stroke
-5 -3 2084 4366 2 MP stroke
-5 -3 2084 4490 2 MP stroke
2191 389 PD
-9 2 2191 513 2 MP stroke
-8 1 2191 637 2 MP stroke
-3 -2 2191 761 2 MP stroke
-11 0 2191 886 2 MP stroke
-10 -1 2191 1010 2 MP stroke
-10 -1 2191 1134 2 MP stroke
-8 1 2191 1259 2 MP stroke
-7 0 2191 1383 2 MP stroke
-13 -1 2191 1631 2 MP stroke
-5 -1 2191 2377 2 MP stroke
-2 1 2191 2502 2 MP stroke
-4 0 2191 2626 2 MP stroke
-4 -2 2191 2750 2 MP stroke
-3 -4 2191 2874 2 MP stroke
-3 1 2191 2999 2 MP stroke
-4 -5 2191 3123 2 MP stroke
-3 -1 2191 3247 2 MP stroke
-5 -2 2191 3372 2 MP stroke
-4 0 2191 3496 2 MP stroke
-5 -3 2191 3620 2 MP stroke
-7 -2 2191 3744 2 MP stroke
-4 -4 2191 3869 2 MP stroke
-5 -1 2191 3993 2 MP stroke
-7 -2 2191 4117 2 MP stroke
-6 -2 2191 4242 2 MP stroke
-6 -4 2191 4366 2 MP stroke
-8 -1 2191 4490 2 MP stroke
-6 1 2299 513 2 MP stroke
-6 0 2299 637 2 MP stroke
-5 2 2299 761 2 MP stroke
-5 -1 2299 886 2 MP stroke
-7 1 2299 1010 2 MP stroke
-7 -4 2299 1134 2 MP stroke
-5 2 2299 1259 2 MP stroke
-6 -1 2299 1383 2 MP stroke
-2 2 2299 1507 2 MP stroke
-1 -1 2299 1631 2 MP stroke
-2 0 2299 1756 2 MP stroke
-2 0 2299 1880 2 MP stroke
-1 0 2299 2253 2 MP stroke
-4 0 2299 2377 2 MP stroke
-2 -3 2299 2502 2 MP stroke
-2 0 2299 2626 2 MP stroke
-1 -2 2299 2750 2 MP stroke
-1 -3 2299 2874 2 MP stroke
-1 -2 2299 2999 2 MP stroke
-2 -4 2299 3123 2 MP stroke
-2 -2 2299 3247 2 MP stroke
-3 -3 2299 3372 2 MP stroke
-3 1 2299 3496 2 MP stroke
-2 -4 2299 3620 2 MP stroke
-2 -2 2299 3744 2 MP stroke
-5 -5 2299 3869 2 MP stroke
-5 -1 2299 3993 2 MP stroke
-4 -4 2299 4117 2 MP stroke
-5 -2 2299 4242 2 MP stroke
-5 -5 2299 4366 2 MP stroke
-4 -1 2299 4490 2 MP stroke
-5 -3 2299 4615 2 MP stroke
-13 0 2407 389 2 MP stroke
-8 2 2407 513 2 MP stroke
-9 0 2407 637 2 MP stroke
-8 2 2407 761 2 MP stroke
-8 -1 2407 886 2 MP stroke
-7 -1 2407 1010 2 MP stroke
-7 -5 2407 1134 2 MP stroke
-4 -1 2407 1507 2 MP stroke
-4 -3 2407 1631 2 MP stroke
-5 -1 2407 1756 2 MP stroke
-5 1 2407 1880 2 MP stroke
-4 -1 2407 2004 2 MP stroke
-5 -1 2407 2129 2 MP stroke
-4 -2 2407 2253 2 MP stroke
-5 -3 2407 2377 2 MP stroke
-5 -1 2407 2502 2 MP stroke
-5 -1 2407 2626 2 MP stroke
-5 3 2407 2750 2 MP stroke
-5 -3 2407 2874 2 MP stroke
-4 1 2407 2999 2 MP stroke
-4 -4 2407 3123 2 MP stroke
-4 -2 2407 3247 2 MP stroke
-5 -4 2407 3372 2 MP stroke
-6 -2 2407 3496 2 MP stroke
-5 -3 2407 3620 2 MP stroke
-5 -2 2407 3744 2 MP stroke
-5 -5 2407 3869 2 MP stroke
-8 -2 2407 3993 2 MP stroke
-7 0 2407 4117 2 MP stroke
-7 -2 2407 4242 2 MP stroke
-8 -3 2407 4366 2 MP stroke
-8 -1 2407 4490 2 MP stroke
2515 389 PD
-7 1 2515 513 2 MP stroke
-11 1 2515 637 2 MP stroke
-5 -6 2515 886 2 MP stroke
-6 -1 2515 1010 2 MP stroke
-7 -1 2515 1134 2 MP stroke
-6 1 2515 1259 2 MP stroke
-6 0 2515 1383 2 MP stroke
-6 2 2515 1507 2 MP stroke
-3 1 2515 1631 2 MP stroke
-2 0 2515 1756 2 MP stroke
-3 9 2515 1880 2 MP stroke
-2 -2 2515 2004 2 MP stroke
-2 -5 2515 2129 2 MP stroke
-2 2 2515 2253 2 MP stroke
-2 -3 2515 2377 2 MP stroke
-2 -1 2515 2502 2 MP stroke
-3 -3 2515 2626 2 MP stroke
-2 -1 2515 2750 2 MP stroke
-2 -4 2515 2874 2 MP stroke
-3 -3 2515 2999 2 MP stroke
-2 -4 2515 3123 2 MP stroke
-4 -2 2515 3247 2 MP stroke
-3 -5 2515 3372 2 MP stroke
-2 -1 2515 3496 2 MP stroke
-3 -2 2515 3620 2 MP stroke
-4 0 2515 3744 2 MP stroke
-4 -3 2515 3869 2 MP stroke
-5 0 2515 3993 2 MP stroke
-6 -4 2515 4117 2 MP stroke
-6 -2 2515 4242 2 MP stroke
-6 -3 2515 4366 2 MP stroke
-7 -1 2515 4490 2 MP stroke
2622 389 PD
-9 2 2622 513 2 MP stroke
-7 -1 2622 637 2 MP stroke
-9 8 2622 761 2 MP stroke
-9 0 2622 886 2 MP stroke
-6 -2 2622 1010 2 MP stroke
-8 -1 2622 1134 2 MP stroke
-9 1 2622 1259 2 MP stroke
-7 0 2622 1383 2 MP stroke
-6 3 2622 1507 2 MP stroke
-8 -1 2622 1631 2 MP stroke
13 -2 2622 1756 2 MP stroke
-4 -1 2622 1880 2 MP stroke
-3 -3 2622 2004 2 MP stroke
-4 -1 2622 2129 2 MP stroke
-4 1 2622 2253 2 MP stroke
-5 1 2622 2377 2 MP stroke
-3 2 2622 2502 2 MP stroke
-3 -3 2622 2626 2 MP stroke
-4 1 2622 2750 2 MP stroke
-3 0 2622 2874 2 MP stroke
-3 -2 2622 2999 2 MP stroke
-4 -3 2622 3123 2 MP stroke
-4 -2 2622 3247 2 MP stroke
-3 -2 2622 3372 2 MP stroke
-5 -1 2622 3496 2 MP stroke
-3 -3 2622 3620 2 MP stroke
-5 2 2622 3744 2 MP stroke
-5 -4 2622 3869 2 MP stroke
-6 -1 2622 3993 2 MP stroke
-6 -4 2622 4117 2 MP stroke
-6 -2 2622 4242 2 MP stroke
-7 -5 2622 4366 2 MP stroke
-8 -1 2622 4490 2 MP stroke
2730 389 PD
-6 1 2730 513 2 MP stroke
-6 1 2730 637 2 MP stroke
-7 2 2730 761 2 MP stroke
-6 -1 2730 886 2 MP stroke
-6 -2 2730 1010 2 MP stroke
-4 -5 2730 1134 2 MP stroke
-2 -1 2730 1259 2 MP stroke
-2 -3 2730 1383 2 MP stroke
-5 0 2730 1507 2 MP stroke
-2 -1 2730 1631 2 MP stroke
-2 -1 2730 1756 2 MP stroke
0 -3 2730 1880 2 MP stroke
-1 -4 2730 2377 2 MP stroke
-2 -2 2730 2502 2 MP stroke
-2 -1 2730 2626 2 MP stroke
-1 -1 2730 2750 2 MP stroke
-1 -2 2730 2874 2 MP stroke
-2 0 2730 2999 2 MP stroke
-2 -3 2730 3123 2 MP stroke
-3 -2 2730 3247 2 MP stroke
-3 -2 2730 3372 2 MP stroke
-2 -1 2730 3496 2 MP stroke
-2 -4 2730 3620 2 MP stroke
-4 0 2730 3744 2 MP stroke
-4 -2 2730 3869 2 MP stroke
-4 0 2730 3993 2 MP stroke
-6 -3 2730 4117 2 MP stroke
-4 -2 2730 4242 2 MP stroke
-6 -5 2730 4366 2 MP stroke
-5 -2 2730 4490 2 MP stroke
2838 389 PD
-10 2 2838 513 2 MP stroke
-7 1 2838 637 2 MP stroke
-9 -2 2838 761 2 MP stroke
-4 -2 2838 1259 2 MP stroke
20 0 2838 1383 2 MP stroke
-1 1 2838 1507 2 MP stroke
10 0 2838 1631 2 MP stroke
2838 2377 PD
-5 1 2838 2502 2 MP stroke
-4 -5 2838 2626 2 MP stroke
-4 -1 2838 2750 2 MP stroke
-5 -4 2838 2874 2 MP stroke
-5 -1 2838 2999 2 MP stroke
-5 -4 2838 3123 2 MP stroke
-4 2 2838 3247 2 MP stroke
-4 -2 2838 3372 2 MP stroke
-5 -1 2838 3496 2 MP stroke
-5 -3 2838 3620 2 MP stroke
-8 1 2838 3744 2 MP stroke
-7 -3 2838 3869 2 MP stroke
-8 -2 2838 3993 2 MP stroke
-8 -3 2838 4117 2 MP stroke
-6 -1 2838 4242 2 MP stroke
-7 -2 2838 4366 2 MP stroke
-9 -1 2838 4490 2 MP stroke
-6 -4 2838 4615 2 MP stroke
-6 3 2945 513 2 MP stroke
4 0 2945 637 2 MP stroke
-4 3 2945 886 2 MP stroke
-7 2 2945 1010 2 MP stroke
-6 -4 2945 1134 2 MP stroke
-5 0 2945 1259 2 MP stroke
-5 -2 2945 1383 2 MP stroke
-7 1 2945 1507 2 MP stroke
-1 0 2945 1631 2 MP stroke
-1 -2 2945 2502 2 MP stroke
-2 -3 2945 2626 2 MP stroke
-2 -1 2945 2750 2 MP stroke
-1 -3 2945 2874 2 MP stroke
-2 -1 2945 2999 2 MP stroke
-1 -3 2945 3123 2 MP stroke
-2 0 2945 3247 2 MP stroke
-1 -4 2945 3372 2 MP stroke
-1 -2 2945 3496 2 MP stroke
-3 -4 2945 3620 2 MP stroke
-4 -1 2945 3744 2 MP stroke
-2 -3 2945 3869 2 MP stroke
-4 -2 2945 3993 2 MP stroke
-5 -4 2945 4117 2 MP stroke
-5 -2 2945 4242 2 MP stroke
-6 0 2945 4366 2 MP stroke
-5 -1 2945 4490 2 MP stroke
-5 -4 2945 4615 2 MP stroke
-11 2 3053 513 2 MP stroke
4 0 3053 637 2 MP stroke
-9 -5 3053 1134 2 MP stroke
-7 -3 3053 1259 2 MP stroke
-7 -1 3053 1383 2 MP stroke
-3 -2 3053 1507 2 MP stroke
-4 -3 3053 1631 2 MP stroke
-5 -5 3053 1756 2 MP stroke
-4 -1 3053 1880 2 MP stroke
-1 -2 3053 2502 2 MP stroke
-3 -4 3053 2626 2 MP stroke
-3 -1 3053 2750 2 MP stroke
-3 -4 3053 2874 2 MP stroke
-4 -2 3053 2999 2 MP stroke
-4 -3 3053 3123 2 MP stroke
-3 0 3053 3247 2 MP stroke
-5 -4 3053 3372 2 MP stroke
-4 -2 3053 3496 2 MP stroke
-4 -2 3053 3620 2 MP stroke
-6 0 3053 3744 2 MP stroke
-5 -4 3053 3869 2 MP stroke
-6 0 3053 3993 2 MP stroke
-7 -3 3053 4117 2 MP stroke
-6 -1 3053 4242 2 MP stroke
-6 -4 3053 4366 2 MP stroke
-7 -1 3053 4490 2 MP stroke
-9 -4 3053 4615 2 MP stroke
3161 389 PD
-5 1 3161 513 2 MP stroke
-2 0 3161 637 2 MP stroke
-2 -3 3161 1134 2 MP stroke
-2 -1 3161 1259 2 MP stroke
-2 -5 3161 1383 2 MP stroke
-2 2 3161 1507 2 MP stroke
-2 5 3161 1631 2 MP stroke
-3 2 3161 1756 2 MP stroke
-2 3 3161 1880 2 MP stroke
-3 7 3161 2004 2 MP stroke
-1 -3 3161 2129 2 MP stroke
-2 -1 3161 2253 2 MP stroke
-4 -5 3161 2377 2 MP stroke
-2 1 3161 2502 2 MP stroke
-3 -4 3161 2626 2 MP stroke
-1 -1 3161 2750 2 MP stroke
-2 -5 3161 2874 2 MP stroke
-3 -3 3161 2999 2 MP stroke
-3 -2 3161 3123 2 MP stroke
-1 0 3161 3247 2 MP stroke
-3 -2 3161 3372 2 MP stroke
-2 -1 3161 3496 2 MP stroke
-4 -3 3161 3620 2 MP stroke
-4 -1 3161 3744 2 MP stroke
-3 -3 3161 3869 2 MP stroke
-5 -1 3161 3993 2 MP stroke
-5 -2 3161 4117 2 MP stroke
-6 -2 3161 4242 2 MP stroke
-5 -5 3161 4366 2 MP stroke
-6 0 3161 4490 2 MP stroke
3269 389 PD
-9 3 3269 513 2 MP stroke
-9 0 3269 637 2 MP stroke
-8 -1 3269 886 2 MP stroke
-7 -2 3269 1010 2 MP stroke
-5 1 3269 1259 2 MP stroke
-5 -2 3269 1383 2 MP stroke
-5 2 3269 1507 2 MP stroke
-4 -2 3269 1631 2 MP stroke
-4 -2 3269 1756 2 MP stroke
-5 0 3269 1880 2 MP stroke
-4 1 3269 2004 2 MP stroke
-5 0 3269 2129 2 MP stroke
-5 -2 3269 2253 2 MP stroke
-3 -3 3269 2377 2 MP stroke
-6 -2 3269 2502 2 MP stroke
-5 -2 3269 2626 2 MP stroke
-5 2 3269 2750 2 MP stroke
-6 -3 3269 2874 2 MP stroke
-4 -3 3269 2999 2 MP stroke
-5 -3 3269 3123 2 MP stroke
-6 0 3269 3247 2 MP stroke
-6 -1 3269 3372 2 MP stroke
-5 -2 3269 3496 2 MP stroke
-5 -3 3269 3620 2 MP stroke
-7 -1 3269 3744 2 MP stroke
-7 -3 3269 3869 2 MP stroke
-7 -2 3269 3993 2 MP stroke
-7 -1 3269 4117 2 MP stroke
-9 -1 3269 4242 2 MP stroke
-7 -3 3269 4366 2 MP stroke
-7 -2 3269 4490 2 MP stroke
3376 389 PD
-8 3 3376 513 2 MP stroke
-5 0 3376 637 2 MP stroke
-6 1 3376 761 2 MP stroke
-6 -2 3376 886 2 MP stroke
-4 0 3376 1010 2 MP stroke
-6 -1 3376 1134 2 MP stroke
-1 2 3376 1507 2 MP stroke
-1 0 3376 1631 2 MP stroke
2 -2 3376 1756 2 MP stroke
-2 0 3376 1880 2 MP stroke
-1 3 3376 2004 2 MP stroke
-2 -2 3376 2129 2 MP stroke
-3 2 3376 2253 2 MP stroke
-3 -4 3376 2377 2 MP stroke
-1 -2 3376 2502 2 MP stroke
-3 -4 3376 2626 2 MP stroke
-2 -2 3376 2750 2 MP stroke
-2 -3 3376 2874 2 MP stroke
-1 -1 3376 2999 2 MP stroke
-2 0 3376 3123 2 MP stroke
-2 -1 3376 3247 2 MP stroke
-1 0 3376 3372 2 MP stroke
-3 1 3376 3496 2 MP stroke
-2 -3 3376 3620 2 MP stroke
-4 -1 3376 3744 2 MP stroke
-5 -4 3376 3869 2 MP stroke
-5 0 3376 3993 2 MP stroke
-4 -4 3376 4117 2 MP stroke
-5 -2 3376 4242 2 MP stroke
-5 -2 3376 4366 2 MP stroke
-9 -1 3376 4490 2 MP stroke
-9 -1 3376 4615 2 MP stroke
3484 389 PD
-15 0 3484 513 2 MP stroke
-9 1 3484 637 2 MP stroke
-9 3 3484 761 2 MP stroke
-8 0 3484 886 2 MP stroke
-8 -1 3484 1010 2 MP stroke
10 -18 3484 1134 2 MP stroke
-3 1 3484 1507 2 MP stroke
-4 -1 3484 1631 2 MP stroke
-7 -3 3484 1880 2 MP stroke
-3 2 3484 2004 2 MP stroke
-5 -1 3484 2129 2 MP stroke
-4 0 3484 2253 2 MP stroke
0 -5 3484 2377 2 MP stroke
1 -4 3484 2502 2 MP stroke
-4 -4 3484 2626 2 MP stroke
-3 -2 3484 2750 2 MP stroke
-4 -3 3484 2874 2 MP stroke
-5 -2 3484 2999 2 MP stroke
-5 -1 3484 3123 2 MP stroke
-4 0 3484 3247 2 MP stroke
-4 -5 3484 3372 2 MP stroke
-4 0 3484 3496 2 MP stroke
-4 -4 3484 3620 2 MP stroke
-6 -2 3484 3744 2 MP stroke
-8 -4 3484 3869 2 MP stroke
-8 -2 3484 3993 2 MP stroke
-8 -4 3484 4117 2 MP stroke
-7 -2 3484 4242 2 MP stroke
-8 -4 3484 4366 2 MP stroke
-8 -2 3484 4490 2 MP stroke
-7 3 3592 513 2 MP stroke
-8 1 3592 637 2 MP stroke
-10 -5 3592 1383 2 MP stroke
-2 -3 3592 1631 2 MP stroke
1 1 3592 1756 2 MP stroke
-3 -1 3592 2129 2 MP stroke
-4 1 3592 2253 2 MP stroke
-2 -2 3592 2377 2 MP stroke
0 -2 3592 2502 2 MP stroke
-2 -3 3592 2626 2 MP stroke
-2 1 3592 2750 2 MP stroke
-3 -4 3592 2874 2 MP stroke
-3 -3 3592 2999 2 MP stroke
-1 -3 3592 3123 2 MP stroke
-3 -2 3592 3247 2 MP stroke
-4 -3 3592 3372 2 MP stroke
-3 0 3592 3496 2 MP stroke
-2 -4 3592 3620 2 MP stroke
-2 0 3592 3744 2 MP stroke
-5 -4 3592 3869 2 MP stroke
-6 -2 3592 3993 2 MP stroke
-5 -4 3592 4117 2 MP stroke
-6 -3 3592 4242 2 MP stroke
-5 -5 3592 4366 2 MP stroke
-10 -2 3592 4490 2 MP stroke
-10 -5 3592 4615 2 MP stroke
3700 389 PD
-12 2 3700 513 2 MP stroke
-12 1 3700 637 2 MP stroke
-6 -3 3700 1259 2 MP stroke
-4 -4 3700 1383 2 MP stroke
-5 0 3700 1507 2 MP stroke
-5 -4 3700 1631 2 MP stroke
-3 0 3700 1756 2 MP stroke
-4 0 3700 1880 2 MP stroke
-1 -2 3700 2004 2 MP stroke
-4 -1 3700 2129 2 MP stroke
-4 -2 3700 2253 2 MP stroke
-5 -3 3700 2377 2 MP stroke
-5 -1 3700 2502 2 MP stroke
-4 -4 3700 2626 2 MP stroke
-6 1 3700 2750 2 MP stroke
-5 -1 3700 2874 2 MP stroke
-5 -3 3700 2999 2 MP stroke
-4 -2 3700 3123 2 MP stroke
-4 -1 3700 3247 2 MP stroke
-5 -3 3700 3372 2 MP stroke
-4 2 3700 3496 2 MP stroke
-5 -2 3700 3620 2 MP stroke
-7 0 3700 3744 2 MP stroke
-8 -2 3700 3869 2 MP stroke
-8 -2 3700 3993 2 MP stroke
-9 -3 3700 4117 2 MP stroke
-9 -1 3700 4242 2 MP stroke
-8 -3 3700 4366 2 MP stroke
-13 -1 3700 4490 2 MP stroke
-15 -3 3700 4615 2 MP stroke
-10 1 3807 513 2 MP stroke
-8 0 3807 637 2 MP stroke
-3 0 3807 1259 2 MP stroke
-1 0 3807 1383 2 MP stroke
-2 -1 3807 1631 2 MP stroke
0 -5 3807 1880 2 MP stroke
-3 3 3807 2004 2 MP stroke
-3 0 3807 2129 2 MP stroke
-1 -3 3807 2253 2 MP stroke
-1 -4 3807 2377 2 MP stroke
-2 1 3807 2502 2 MP stroke
-1 -1 3807 2626 2 MP stroke
-2 1 3807 2750 2 MP stroke
-2 -2 3807 2874 2 MP stroke
-1 -2 3807 2999 2 MP stroke
-2 -3 3807 3123 2 MP stroke
-3 0 3807 3247 2 MP stroke
-1 -2 3807 3372 2 MP stroke
-3 -2 3807 3496 2 MP stroke
-3 -1 3807 3620 2 MP stroke
-3 0 3807 3744 2 MP stroke
-5 -5 3807 3869 2 MP stroke
-5 -1 3807 3993 2 MP stroke
-6 -2 3807 4117 2 MP stroke
-6 0 3807 4242 2 MP stroke
-7 -2 3807 4366 2 MP stroke
-9 -1 3807 4490 2 MP stroke
-11 2 3915 513 2 MP stroke
-13 1 3915 637 2 MP stroke
-4 1 3915 1010 2 MP stroke
-4 0 3915 1134 2 MP stroke
-5 1 3915 1259 2 MP stroke
-3 -1 3915 1383 2 MP stroke
4 12 3915 1507 2 MP stroke
-5 -2 3915 1631 2 MP stroke
-4 1 3915 1756 2 MP stroke
-13 8 3915 1880 2 MP stroke
-5 0 3915 2004 2 MP stroke
-5 -1 3915 2129 2 MP stroke
-3 -1 3915 2253 2 MP stroke
0 -4 3915 2377 2 MP stroke
-3 1 3915 2502 2 MP stroke
-4 -3 3915 2626 2 MP stroke
-4 1 3915 2750 2 MP stroke
-4 -4 3915 2874 2 MP stroke
-4 -3 3915 2999 2 MP stroke
-3 -4 3915 3123 2 MP stroke
-5 -2 3915 3247 2 MP stroke
-5 -1 3915 3372 2 MP stroke
-4 -1 3915 3496 2 MP stroke
-7 -2 3915 3620 2 MP stroke
-5 -2 3915 3744 2 MP stroke
-8 -3 3915 3869 2 MP stroke
-7 -2 3915 3993 2 MP stroke
-8 -3 3915 4117 2 MP stroke
-7 -2 3915 4242 2 MP stroke
-8 -3 3915 4366 2 MP stroke
-11 0 3915 4490 2 MP stroke
-8 0 4023 389 2 MP stroke
-10 3 4023 513 2 MP stroke
-11 -1 4023 637 2 MP stroke
-11 3 4023 761 2 MP stroke
-7 0 4023 1134 2 MP stroke
-3 0 4023 1259 2 MP stroke
-3 -5 4023 1383 2 MP stroke
-2 2 4023 1507 2 MP stroke
-1 -3 4023 1631 2 MP stroke
-3 -1 4023 1756 2 MP stroke
-21 23 4023 1880 2 MP stroke
-3 1 4023 2004 2 MP stroke
-3 1 4023 2129 2 MP stroke
-2 0 4023 2253 2 MP stroke
-3 0 4023 2377 2 MP stroke
-2 -1 4023 2502 2 MP stroke
-3 -4 4023 2626 2 MP stroke
-3 1 4023 2750 2 MP stroke
-1 -4 4023 2874 2 MP stroke
-7 1 4023 2999 2 MP stroke
-9 -1 4023 3123 2 MP stroke
-9 2 4023 3247 2 MP stroke
-15 -10 4023 3372 2 MP stroke
-10 -3 4023 3496 2 MP stroke
-7 0 4023 3620 2 MP stroke
-7 2 4023 3744 2 MP stroke
-5 0 4023 3869 2 MP stroke
-7 2 4023 3993 2 MP stroke
-9 -3 4023 4117 2 MP stroke
-6 2 4023 4242 2 MP stroke
-24 14 4023 4366 2 MP stroke
-10 -2 4023 4490 2 MP stroke
-13 0 4131 389 2 MP stroke
-12 3 4131 513 2 MP stroke
-13 0 4131 637 2 MP stroke
-13 3 4131 761 2 MP stroke
-14 0 4131 886 2 MP stroke
-17 -11 4131 1010 2 MP stroke
-12 33 4131 1134 2 MP stroke
-13 -16 4131 1259 2 MP stroke
-12 2 4131 1383 2 MP stroke
-12 -7 4131 1507 2 MP stroke
-12 -5 4131 1631 2 MP stroke
-11 -1 4131 1756 2 MP stroke
5 -5 4131 1880 2 MP stroke
-18 -2 4131 2004 2 MP stroke
-25 0 4131 2129 2 MP stroke
-12 3 4131 2253 2 MP stroke
-13 1 4131 2377 2 MP stroke
-14 0 4131 2502 2 MP stroke
-8 -5 4131 2626 2 MP stroke
-5 3 4131 2750 2 MP stroke
-2 1 4131 2874 2 MP stroke
-15 0 4131 2999 2 MP stroke
-13 -4 4131 3123 2 MP stroke
-13 19 4131 3247 2 MP stroke
-16 -9 4131 3372 2 MP stroke
-13 -5 4131 3496 2 MP stroke
-12 1 4131 3620 2 MP stroke
-58 2 4131 3744 2 MP stroke
-52 -1 4131 3869 2 MP stroke
-13 2 4131 3993 2 MP stroke
-16 2 4131 4117 2 MP stroke
-20 15 4131 4242 2 MP stroke
-16 -5 4131 4366 2 MP stroke
-13 -2 4131 4490 2 MP stroke
-11 0 4238 389 2 MP stroke
-9 3 4238 513 2 MP stroke
-10 -1 4238 637 2 MP stroke
-10 4 4238 761 2 MP stroke
6 -19 4238 886 2 MP stroke
-9 2 4238 1010 2 MP stroke
-10 -1 4238 1134 2 MP stroke
-11 1 4238 1259 2 MP stroke
-10 -1 4238 1383 2 MP stroke
-10 2 4238 1507 2 MP stroke
-11 -1 4238 1631 2 MP stroke
-9 -3 4238 1756 2 MP stroke
-2 -6 4238 1880 2 MP stroke
-11 -2 4238 2004 2 MP stroke
-10 -5 4238 2129 2 MP stroke
-10 2 4238 2253 2 MP stroke
-10 -2 4238 2377 2 MP stroke
14 -10 4238 2502 2 MP stroke
17 3 4238 2626 2 MP stroke
1 -2 4238 2750 2 MP stroke
-10 1 4238 2874 2 MP stroke
6 14 4238 2999 2 MP stroke
6 5 4238 3123 2 MP stroke
4 30 4238 3247 2 MP stroke
-7 33 4238 3372 2 MP stroke
-14 1 4238 3496 2 MP stroke
-11 -2 4238 3620 2 MP stroke
2 16 4238 3744 2 MP stroke
3 4 4238 3869 2 MP stroke
-14 2 4238 3993 2 MP stroke
-14 -3 4238 4117 2 MP stroke
-12 1 4238 4242 2 MP stroke
-12 -5 4238 4366 2 MP stroke
-11 -1 4238 4490 2 MP stroke
4346 389 PD
-12 2 4346 513 2 MP stroke
-13 1 4346 637 2 MP stroke
-12 3 4346 761 2 MP stroke
-15 0 4346 886 2 MP stroke
-13 3 4346 1010 2 MP stroke
11 4 4346 1134 2 MP stroke
-15 1 4346 1259 2 MP stroke
8 -17 4346 1383 2 MP stroke
4 6 4346 1507 2 MP stroke
1 11 4346 1631 2 MP stroke
-3 -3 4346 1756 2 MP stroke
-15 0 4346 1880 2 MP stroke
-13 2 4346 2004 2 MP stroke
-12 -1 4346 2129 2 MP stroke
-15 3 4346 2253 2 MP stroke
-11 0 4346 2377 2 MP stroke
0 -17 4346 2502 2 MP stroke
-16 -1 4346 2626 2 MP stroke
-16 2 4346 2750 2 MP stroke
-16 1 4346 2874 2 MP stroke
0 77 4346 2999 2 MP stroke
4 -13 4346 3123 2 MP stroke
21 44 4346 3247 2 MP stroke
-15 -1 4346 3372 2 MP stroke
-15 2 4346 3496 2 MP stroke
19 43 4346 3620 2 MP stroke
-3 3 4346 3744 2 MP stroke
-1 -14 4346 3869 2 MP stroke
0 -2 4346 3993 2 MP stroke
11 -4 4346 4117 2 MP stroke
-15 -1 4346 4242 2 MP stroke
-15 -4 4346 4366 2 MP stroke
15 1 4346 4490 2 MP stroke
-7 -4 4346 4615 2 MP stroke
4454 389 PD
-11 3 4454 513 2 MP stroke
-10 0 4454 637 2 MP stroke
-10 2 4454 761 2 MP stroke
-9 1 4454 886 2 MP stroke
-11 2 4454 1010 2 MP stroke
-10 0 4454 1134 2 MP stroke
-13 2 4454 1259 2 MP stroke
-13 0 4454 1383 2 MP stroke
-11 2 4454 1507 2 MP stroke
-12 0 4454 1631 2 MP stroke
4 1 4454 1756 2 MP stroke
13 -4 4454 1880 2 MP stroke
-10 3 4454 2004 2 MP stroke
-10 0 4454 2129 2 MP stroke
-10 1 4454 2253 2 MP stroke
-12 11 4454 2377 2 MP stroke
42 42 4454 2502 2 MP stroke
-6 -21 4454 2626 2 MP stroke
-10 2 4454 2750 2 MP stroke
-11 -1 4454 2874 2 MP stroke
-12 2 4454 2999 2 MP stroke
-12 0 4454 3123 2 MP stroke
-14 0 4454 3247 2 MP stroke
-13 0 4454 3372 2 MP stroke
-13 2 4454 3496 2 MP stroke
-13 -1 4454 3620 2 MP stroke
-13 1 4454 3744 2 MP stroke
4 -31 4454 3869 2 MP stroke
-13 2 4454 3993 2 MP stroke
-12 0 4454 4117 2 MP stroke
-14 -1 4454 4242 2 MP stroke
-14 -2 4454 4366 2 MP stroke
-12 -3 4454 4490 2 MP stroke
-10 -5 4454 4615 2 MP stroke
4562 389 PD
-13 3 4562 513 2 MP stroke
-13 1 4562 637 2 MP stroke
-12 3 4562 761 2 MP stroke
-13 -1 4562 886 2 MP stroke
-13 1 4562 1010 2 MP stroke
-13 0 4562 1134 2 MP stroke
-12 3 4562 1259 2 MP stroke
-12 -1 4562 1383 2 MP stroke
-14 4 4562 1507 2 MP stroke
-13 0 4562 1631 2 MP stroke
-12 3 4562 1756 2 MP stroke
-15 0 4562 1880 2 MP stroke
-15 2 4562 2004 2 MP stroke
-13 1 4562 2129 2 MP stroke
59 -15 4562 2253 2 MP stroke
-13 0 4562 2377 2 MP stroke
-15 2 4562 2502 2 MP stroke
-16 -1 4562 2626 2 MP stroke
-16 2 4562 2750 2 MP stroke
-16 0 4562 2874 2 MP stroke
-16 1 4562 2999 2 MP stroke
-16 -1 4562 3123 2 MP stroke
-15 2 4562 3247 2 MP stroke
-15 -1 4562 3372 2 MP stroke
-16 0 4562 3496 2 MP stroke
-15 -4 4562 3620 2 MP stroke
-16 -1 4562 3744 2 MP stroke
9 -173 4562 3869 2 MP stroke
-16 1 4562 3993 2 MP stroke
-15 -3 4562 4117 2 MP stroke
-15 1 4562 4242 2 MP stroke
-16 -1 4562 4366 2 MP stroke
-15 -1 4562 4490 2 MP stroke
4669 389 PD
-11 3 4669 513 2 MP stroke
-10 -1 4669 637 2 MP stroke
-11 4 4669 761 2 MP stroke
-12 0 4669 886 2 MP stroke
-13 4 4669 1010 2 MP stroke
-10 -1 4669 1134 2 MP stroke
-11 1 4669 1259 2 MP stroke
-12 1 4669 1383 2 MP stroke
-9 3 4669 1507 2 MP stroke
-11 0 4669 1631 2 MP stroke
-12 1 4669 1756 2 MP stroke
-10 -1 4669 1880 2 MP stroke
-11 3 4669 2004 2 MP stroke
-9 0 4669 2129 2 MP stroke
-14 2 4669 2253 2 MP stroke
-13 0 4669 2377 2 MP stroke
-6 -16 4669 2502 2 MP stroke
-13 -1 4669 2626 2 MP stroke
-14 3 4669 2750 2 MP stroke
-11 1 4669 2874 2 MP stroke
-10 0 4669 2999 2 MP stroke
-13 0 4669 3123 2 MP stroke
-12 -1 4669 3247 2 MP stroke
-14 -1 4669 3372 2 MP stroke
-13 2 4669 3496 2 MP stroke
-13 -2 4669 3620 2 MP stroke
-12 3 4669 3744 2 MP stroke
-13 -1 4669 3869 2 MP stroke
-12 1 4669 3993 2 MP stroke
-12 -3 4669 4117 2 MP stroke
-13 -2 4669 4242 2 MP stroke
-12 -4 4669 4366 2 MP stroke
-14 -1 4669 4490 2 MP stroke
4777 389 PD
-16 2 4777 513 2 MP stroke
-14 -1 4777 637 2 MP stroke
-13 2 4777 761 2 MP stroke
-15 0 4777 886 2 MP stroke
-16 2 4777 1010 2 MP stroke
-13 0 4777 1134 2 MP stroke
-12 2 4777 1259 2 MP stroke
-13 0 4777 1383 2 MP stroke
-12 3 4777 1507 2 MP stroke
-15 1 4777 1631 2 MP stroke
-15 1 4777 1756 2 MP stroke
-12 1 4777 1880 2 MP stroke
-12 2 4777 2004 2 MP stroke
-11 3 4777 2129 2 MP stroke
-1 11 4777 2253 2 MP stroke
-12 -19 4777 2377 2 MP stroke
-12 1 4777 2502 2 MP stroke
-12 0 4777 2626 2 MP stroke
-13 2 4777 2750 2 MP stroke
-15 1 4777 2874 2 MP stroke
-16 3 4777 2999 2 MP stroke
-12 -1 4777 3123 2 MP stroke
-15 -2 4777 3247 2 MP stroke
-15 -5 4777 3372 2 MP stroke
-16 -2 4777 3496 2 MP stroke
-15 -9 4777 3620 2 MP stroke
-8 -5 4777 3744 2 MP stroke
-8 -3 4777 3869 2 MP stroke
-12 2 4777 3993 2 MP stroke
-11 -3 4777 4117 2 MP stroke
-7 -2 4777 4242 2 MP stroke
-6 -2 4777 4366 2 MP stroke
-12 -3 4777 4490 2 MP stroke
-14 -5 4777 4615 2 MP stroke
-13 1 4885 389 2 MP stroke
-14 2 4885 513 2 MP stroke
-13 0 4885 637 2 MP stroke
-14 4 4885 761 2 MP stroke
-14 -2 4885 886 2 MP stroke
-14 6 4885 1010 2 MP stroke
-10 -31 4885 1134 2 MP stroke
-16 0 4885 1259 2 MP stroke
-18 -17 4885 1383 2 MP stroke
-9 -54 4885 1507 2 MP stroke
-7 0 4885 1631 2 MP stroke
-5 -7 4885 1756 2 MP stroke
-5 -20 4885 1880 2 MP stroke
-6 -26 4885 2004 2 MP stroke
-6 -3 4885 2129 2 MP stroke
-1 7 4885 2253 2 MP stroke
-6 -3 4885 2377 2 MP stroke
-6 2 4885 2502 2 MP stroke
-5 -1 4885 2626 2 MP stroke
-9 2 4885 2750 2 MP stroke
-13 -2 4885 2874 2 MP stroke
-4 0 4885 2999 2 MP stroke
-4 0 4885 3123 2 MP stroke
-3 1 4885 3247 2 MP stroke
-3 -4 4885 3372 2 MP stroke
-6 2 4885 3496 2 MP stroke
-5 -1 4885 3620 2 MP stroke
-6 -1 4885 3744 2 MP stroke
-6 -4 4885 3869 2 MP stroke
-6 -1 4885 3993 2 MP stroke
-5 -3 4885 4117 2 MP stroke
-6 -2 4885 4242 2 MP stroke
-6 -3 4885 4366 2 MP stroke
-7 -1 4885 4490 2 MP stroke
4992 389 PD
-15 3 4992 513 2 MP stroke
-12 1 4992 637 2 MP stroke
-11 -1 4992 761 2 MP stroke
2 -34 4992 886 2 MP stroke
-11 -20 4992 1010 2 MP stroke
-10 -34 4992 1134 2 MP stroke
-15 -30 4992 1259 2 MP stroke
-19 -8 4992 1383 2 MP stroke
-4 -2 4992 1507 2 MP stroke
-4 -1 4992 1631 2 MP stroke
-4 -3 4992 1756 2 MP stroke
-3 -1 4992 1880 2 MP stroke
-4 1 4992 2004 2 MP stroke
-4 -4 4992 2129 2 MP stroke
-5 -2 4992 2253 2 MP stroke
-4 -2 4992 2377 2 MP stroke
-4 -2 4992 2502 2 MP stroke
-4 -4 4992 2626 2 MP stroke
-3 -2 4992 2750 2 MP stroke
-3 -1 4992 2874 2 MP stroke
-3 -2 4992 2999 2 MP stroke
-4 -1 4992 3123 2 MP stroke
-4 0 4992 3247 2 MP stroke
-8 -1 4992 3372 2 MP stroke
-7 1 4992 3496 2 MP stroke
-8 -1 4992 3620 2 MP stroke
-7 1 4992 3744 2 MP stroke
-6 -2 4992 3869 2 MP stroke
-7 -1 4992 3993 2 MP stroke
-8 -2 4992 4117 2 MP stroke
-7 -2 4992 4242 2 MP stroke
-8 -3 4992 4366 2 MP stroke
-8 0 4992 4490 2 MP stroke
-10 1 5100 389 2 MP stroke
-9 0 5100 513 2 MP stroke
2 -13 5100 637 2 MP stroke
-2 3 5100 761 2 MP stroke
-1 0 5100 886 2 MP stroke
-3 2 5100 1010 2 MP stroke
-2 0 5100 1134 2 MP stroke
-1 1 5100 1259 2 MP stroke
-2 -5 5100 1383 2 MP stroke
-2 0 5100 1507 2 MP stroke
-2 -1 5100 1631 2 MP stroke
-2 -2 5100 1756 2 MP stroke
-2 0 5100 1880 2 MP stroke
-2 -19 5100 2004 2 MP stroke
-1 -5 5100 2129 2 MP stroke
-1 -1 5100 2253 2 MP stroke
-3 -1 5100 2377 2 MP stroke
-3 2 5100 2502 2 MP stroke
-2 -4 5100 2626 2 MP stroke
-3 1 5100 2750 2 MP stroke
-2 -1 5100 2874 2 MP stroke
-2 1 5100 2999 2 MP stroke
-3 -1 5100 3123 2 MP stroke
-2 1 5100 3247 2 MP stroke
-5 -2 5100 3372 2 MP stroke
-6 0 5100 3496 2 MP stroke
-5 -2 5100 3620 2 MP stroke
-6 -1 5100 3744 2 MP stroke
-6 -4 5100 3869 2 MP stroke
-5 1 5100 3993 2 MP stroke
-6 -3 5100 4117 2 MP stroke
-5 -1 5100 4242 2 MP stroke
-5 -5 5100 4366 2 MP stroke
-7 -1 5100 4490 2 MP stroke
-5 -4 5100 4615 2 MP stroke
-14 0 5208 389 2 MP stroke
-5 -8 5208 513 2 MP stroke
-5 -10 5208 637 2 MP stroke
-4 7 5208 761 2 MP stroke
-4 -1 5208 886 2 MP stroke
-4 -2 5208 1010 2 MP stroke
-4 -4 5208 1134 2 MP stroke
-5 -1 5208 1259 2 MP stroke
-6 -2 5208 1383 2 MP stroke
-4 3 5208 1507 2 MP stroke
-3 -1 5208 1631 2 MP stroke
-4 -1 5208 1756 2 MP stroke
-5 -1 5208 1880 2 MP stroke
2 -3 5208 2004 2 MP stroke
-3 -4 5208 2129 2 MP stroke
-5 -1 5208 2253 2 MP stroke
-5 -3 5208 2377 2 MP stroke
-4 0 5208 2502 2 MP stroke
-4 -3 5208 2626 2 MP stroke
-5 1 5208 2750 2 MP stroke
-5 -3 5208 2874 2 MP stroke
-4 -1 5208 2999 2 MP stroke
-5 -1 5208 3123 2 MP stroke
-8 1 5208 3247 2 MP stroke
-4 -1 5208 3372 2 MP stroke
-7 -2 5208 3496 2 MP stroke
-8 -4 5208 3620 2 MP stroke
-8 0 5208 3744 2 MP stroke
-6 -2 5208 3869 2 MP stroke
-8 -1 5208 3993 2 MP stroke
-8 -3 5208 4117 2 MP stroke
-8 -1 5208 4242 2 MP stroke
-9 -4 5208 4366 2 MP stroke
-8 -2 5208 4490 2 MP stroke
-9 -3 5208 4615 2 MP stroke
-10 0 5316 389 2 MP stroke
-3 -3 5316 886 2 MP stroke
-3 2 5316 1010 2 MP stroke
-3 -3 5316 1259 2 MP stroke
-2 -2 5316 1383 2 MP stroke
-2 1 5316 1507 2 MP stroke
-2 -3 5316 1631 2 MP stroke
-3 -3 5316 1756 2 MP stroke
-5 -4 5316 1880 2 MP stroke
-2 0 5316 2004 2 MP stroke
-3 -3 5316 2129 2 MP stroke
-3 1 5316 2253 2 MP stroke
-3 0 5316 2377 2 MP stroke
-3 0 5316 2502 2 MP stroke
-2 -1 5316 2626 2 MP stroke
-2 0 5316 2750 2 MP stroke
-3 -1 5316 2874 2 MP stroke
-2 -2 5316 2999 2 MP stroke
-2 -1 5316 3123 2 MP stroke
-6 -2 5316 3247 2 MP stroke
-5 -1 5316 3372 2 MP stroke
-5 -1 5316 3496 2 MP stroke
-5 -3 5316 3620 2 MP stroke
-6 0 5316 3744 2 MP stroke
-6 -1 5316 3869 2 MP stroke
-6 -1 5316 3993 2 MP stroke
-7 -3 5316 4117 2 MP stroke
-7 -3 5316 4242 2 MP stroke
-7 -4 5316 4366 2 MP stroke
-6 0 5316 4490 2 MP stroke
-6 -2 5316 4615 2 MP stroke
-3 -1 5423 1134 2 MP stroke
-4 2 5423 1259 2 MP stroke
-4 -1 5423 1383 2 MP stroke
-2 3 5423 1507 2 MP stroke
-4 -4 5423 1631 2 MP stroke
-5 -2 5423 1756 2 MP stroke
-5 -2 5423 1880 2 MP stroke
-4 -1 5423 2004 2 MP stroke
-3 -2 5423 2129 2 MP stroke
-4 1 5423 2253 2 MP stroke
-4 0 5423 2377 2 MP stroke
-5 -3 5423 2502 2 MP stroke
-4 -1 5423 2626 2 MP stroke
-4 0 5423 2750 2 MP stroke
-3 -1 5423 2874 2 MP stroke
-6 1 5423 2999 2 MP stroke
-4 -1 5423 3123 2 MP stroke
-5 0 5423 3247 2 MP stroke
-6 -3 5423 3372 2 MP stroke
-6 0 5423 3496 2 MP stroke
-6 -1 5423 3620 2 MP stroke
-8 -1 5423 3744 2 MP stroke
-8 -5 5423 3869 2 MP stroke
-7 0 5423 3993 2 MP stroke
-8 -4 5423 4117 2 MP stroke
-8 -1 5423 4242 2 MP stroke
-9 -4 5423 4366 2 MP stroke
-7 0 5423 4490 2 MP stroke
-8 -3 5423 4615 2 MP stroke
-1 0 5531 1134 2 MP stroke
-3 1 5531 1259 2 MP stroke
10 1 5531 1383 2 MP stroke
-2 -1 5531 1507 2 MP stroke
-1 0 5531 1631 2 MP stroke
-2 1 5531 1756 2 MP stroke
-3 -4 5531 1880 2 MP stroke
-2 0 5531 2004 2 MP stroke
-2 -1 5531 2129 2 MP stroke
-2 0 5531 2253 2 MP stroke
-2 -2 5531 2377 2 MP stroke
-2 2 5531 2502 2 MP stroke
-2 -4 5531 2626 2 MP stroke
-2 1 5531 2750 2 MP stroke
-2 0 5531 2874 2 MP stroke
-3 2 5531 2999 2 MP stroke
-2 -1 5531 3123 2 MP stroke
-3 3 5531 3247 2 MP stroke
-5 -2 5531 3372 2 MP stroke
-4 2 5531 3496 2 MP stroke
-6 -1 5531 3620 2 MP stroke
-6 0 5531 3744 2 MP stroke
-5 -3 5531 3869 2 MP stroke
-5 -2 5531 3993 2 MP stroke
-7 -4 5531 4117 2 MP stroke
-7 -1 5531 4242 2 MP stroke
-5 -3 5531 4366 2 MP stroke
-6 0 5531 4490 2 MP stroke
-6 -4 5531 4615 2 MP stroke
-4 -3 5639 1134 2 MP stroke
-5 0 5639 1259 2 MP stroke
-4 -1 5639 1383 2 MP stroke
-5 -2 5639 1507 2 MP stroke
-4 0 5639 1631 2 MP stroke
-3 2 5639 1756 2 MP stroke
-5 0 5639 1880 2 MP stroke
-4 3 5639 2004 2 MP stroke
-4 -1 5639 2129 2 MP stroke
-4 2 5639 2253 2 MP stroke
-4 -2 5639 2377 2 MP stroke
-5 2 5639 2502 2 MP stroke
-4 -2 5639 2626 2 MP stroke
-4 1 5639 2750 2 MP stroke
-5 -2 5639 2874 2 MP stroke
-6 -1 5639 2999 2 MP stroke
-7 -1 5639 3123 2 MP stroke
-6 -1 5639 3247 2 MP stroke
-7 -2 5639 3372 2 MP stroke
-8 -2 5639 3496 2 MP stroke
-6 -4 5639 3620 2 MP stroke
-7 0 5639 3744 2 MP stroke
-9 -3 5639 3869 2 MP stroke
-9 -1 5639 3993 2 MP stroke
-8 -3 5639 4117 2 MP stroke
-8 -2 5639 4242 2 MP stroke
-9 -4 5639 4366 2 MP stroke
-9 0 5639 4490 2 MP stroke
-6 3 5747 513 2 MP stroke
-2 1 5747 1010 2 MP stroke
-2 0 5747 1134 2 MP stroke
-4 1 5747 1259 2 MP stroke
-4 -1 5747 1383 2 MP stroke
-4 2 5747 1507 2 MP stroke
-2 -1 5747 1631 2 MP stroke
-2 1 5747 1756 2 MP stroke
-3 -3 5747 1880 2 MP stroke
-2 -1 5747 2004 2 MP stroke
-3 -4 5747 2129 2 MP stroke
-3 -1 5747 2253 2 MP stroke
1 -3 5747 2377 2 MP stroke
-1 1 5747 2502 2 MP stroke
-3 -1 5747 2626 2 MP stroke
-3 -2 5747 2750 2 MP stroke
-2 -1 5747 2874 2 MP stroke
-3 -1 5747 2999 2 MP stroke
-3 -1 5747 3123 2 MP stroke
-5 1 5747 3247 2 MP stroke
-6 -2 5747 3372 2 MP stroke
-7 -2 5747 3496 2 MP stroke
-7 0 5747 3620 2 MP stroke
-6 -1 5747 3744 2 MP stroke
-8 -4 5747 3869 2 MP stroke
-5 -2 5747 3993 2 MP stroke
-7 -3 5747 4117 2 MP stroke
-6 -3 5747 4242 2 MP stroke
-6 -4 5747 4366 2 MP stroke
-7 -1 5747 4490 2 MP stroke
-6 -3 5747 4615 2 MP stroke
5854 389 PD
-7 3 5854 513 2 MP stroke
-4 2 5854 1010 2 MP stroke
-5 0 5854 1134 2 MP stroke
-4 1 5854 1259 2 MP stroke
-4 -1 5854 1383 2 MP stroke
8 4 5854 1507 2 MP stroke
-5 -1 5854 1631 2 MP stroke
10 -13 5854 1756 2 MP stroke
-4 -4 5854 1880 2 MP stroke
-5 -1 5854 2004 2 MP stroke
-5 -4 5854 2129 2 MP stroke
-5 -1 5854 2253 2 MP stroke
-3 -1 5854 2377 2 MP stroke
-5 1 5854 2502 2 MP stroke
-5 -2 5854 2626 2 MP stroke
-5 -2 5854 2750 2 MP stroke
-4 -2 5854 2874 2 MP stroke
-5 0 5854 2999 2 MP stroke
-4 -2 5854 3123 2 MP stroke
-6 0 5854 3247 2 MP stroke
-7 -3 5854 3372 2 MP stroke
-7 -1 5854 3496 2 MP stroke
-8 -2 5854 3620 2 MP stroke
-7 -2 5854 3744 2 MP stroke
-7 -5 5854 3869 2 MP stroke
-7 -1 5854 3993 2 MP stroke
-8 -4 5854 4117 2 MP stroke
-8 1 5854 4242 2 MP stroke
-8 -3 5854 4366 2 MP stroke
-9 -1 5854 4490 2 MP stroke
35 -9 5854 4615 2 MP stroke
-7 0 5962 389 2 MP stroke
-9 1 5962 513 2 MP stroke
-3 -2 5962 1134 2 MP stroke
-2 1 5962 1259 2 MP stroke
-3 -4 5962 1383 2 MP stroke
36 30 5962 1507 2 MP stroke
-2 -1 5962 1631 2 MP stroke
-2 -1 5962 1756 2 MP stroke
-1 -1 5962 1880 2 MP stroke
-3 2 5962 2004 2 MP stroke
-3 -1 5962 2129 2 MP stroke
-1 -2 5962 2253 2 MP stroke
-3 -1 5962 2377 2 MP stroke
-3 -2 5962 2502 2 MP stroke
-4 -1 5962 2626 2 MP stroke
-2 0 5962 2750 2 MP stroke
-3 0 5962 2874 2 MP stroke
-3 -1 5962 2999 2 MP stroke
-2 -1 5962 3123 2 MP stroke
-5 0 5962 3247 2 MP stroke
-5 -2 5962 3372 2 MP stroke
-5 0 5962 3496 2 MP stroke
-6 -1 5962 3620 2 MP stroke
-6 0 5962 3744 2 MP stroke
-6 -2 5962 3869 2 MP stroke
-6 -2 5962 3993 2 MP stroke
-7 -3 5962 4117 2 MP stroke
-6 -2 5962 4242 2 MP stroke
-7 -5 5962 4366 2 MP stroke
-13 -1 5962 4490 2 MP stroke
-5 -1 6070 513 2 MP stroke
-5 1 6070 1010 2 MP stroke
-3 -3 6070 1134 2 MP stroke
-5 1 6070 1259 2 MP stroke
-4 -4 6070 1383 2 MP stroke
-4 -1 6070 1507 2 MP stroke
-5 0 6070 1631 2 MP stroke
-4 0 6070 1756 2 MP stroke
-3 -1 6070 1880 2 MP stroke
-5 1 6070 2004 2 MP stroke
-5 0 6070 2129 2 MP stroke
-5 2 6070 2253 2 MP stroke
-4 -1 6070 2377 2 MP stroke
-5 -2 6070 2502 2 MP stroke
-5 -3 6070 2626 2 MP stroke
-5 1 6070 2750 2 MP stroke
-4 -2 6070 2874 2 MP stroke
-5 -1 6070 2999 2 MP stroke
-4 -3 6070 3123 2 MP stroke
-8 -1 6070 3247 2 MP stroke
-7 -3 6070 3372 2 MP stroke
-8 0 6070 3496 2 MP stroke
-7 -1 6070 3620 2 MP stroke
-8 0 6070 3744 2 MP stroke
-9 -4 6070 3869 2 MP stroke
-8 0 6070 3993 2 MP stroke
-10 -4 6070 4117 2 MP stroke
-8 -2 6070 4242 2 MP stroke
-9 -4 6070 4366 2 MP stroke
-16 -3 6070 4490 2 MP stroke
-16 -6 6070 4615 2 MP stroke
-2 -5 6178 761 2 MP stroke
1 -5 6178 886 2 MP stroke
-2 0 6178 1010 2 MP stroke
-4 -1 6178 1134 2 MP stroke
-3 -2 6178 1259 2 MP stroke
-3 -4 6178 1383 2 MP stroke
-4 -1 6178 1507 2 MP stroke
-3 0 6178 1631 2 MP stroke
-2 -2 6178 1756 2 MP stroke
-28 5 6178 1880 2 MP stroke
-3 0 6178 2004 2 MP stroke
-3 -3 6178 2129 2 MP stroke
-3 0 6178 2253 2 MP stroke
-3 -4 6178 2377 2 MP stroke
-3 -2 6178 2502 2 MP stroke
-2 -2 6178 2626 2 MP stroke
-4 -2 6178 2750 2 MP stroke
-4 -4 6178 2874 2 MP stroke
-4 -1 6178 2999 2 MP stroke
-6 -2 6178 3123 2 MP stroke
-6 2 6178 3247 2 MP stroke
-6 -3 6178 3372 2 MP stroke
-5 -3 6178 3496 2 MP stroke
-7 -2 6178 3620 2 MP stroke
-6 0 6178 3744 2 MP stroke
-5 -4 6178 3869 2 MP stroke
-7 -2 6178 3993 2 MP stroke
-6 -4 6178 4117 2 MP stroke
-7 1 6178 4242 2 MP stroke
-9 -4 6178 4366 2 MP stroke
-14 -1 6178 4490 2 MP stroke
gr

c8

end %%Color Dict

eplot
%%EndObject

epage
end

showpage

%%Trailer
%%EOF
