%!PS-Adobe-2.0 EPSF-1.2
%%Creator: MATLAB, The MathWorks, Inc. Version 8.3.0.532 (R2014a). Operating System: Linux 3.19.0-31-generic #36~14.04.1-Ubuntu SMP Thu Oct 8 10:21:08 UTC 2015 x86_64.
%%Title: ../../data/output/p4/win_size5n_level2n_iter1min_eig0.0001.eps
%%CreationDate: 11/22/2015  18:44:40
%%DocumentNeededFonts: Helvetica
%%DocumentProcessColors: Cyan Magenta Yellow Black
%%Extensions: CMYK
%%Pages: 1
%%BoundingBox:    78   215   548   583
%%EndComments

%%BeginProlog
% MathWorks dictionary
/MathWorks 160 dict begin
% definition operators
/bdef {bind def} bind def
/ldef {load def} bind def
/xdef {exch def} bdef
/xstore {exch store} bdef
% operator abbreviations
/c  /clip ldef
/cc /concat ldef
/cp /closepath ldef
/gr /grestore ldef
/gs /gsave ldef
/mt /moveto ldef
/np /newpath ldef
/cm /currentmatrix ldef
/sm /setmatrix ldef
/rm /rmoveto ldef
/rl /rlineto ldef
/s {show newpath} bdef
/sc {setcmykcolor} bdef
/sr /setrgbcolor ldef
/sg /setgray ldef
/w /setlinewidth ldef
/j /setlinejoin ldef
/cap /setlinecap ldef
/rc {rectclip} bdef
/rf {rectfill} bdef
% page state control
/pgsv () def
/bpage {/pgsv save def} bdef
/epage {pgsv restore} bdef
/bplot /gsave ldef
/eplot {stroke grestore} bdef
% orientation switch
/portraitMode 0 def /landscapeMode 1 def /rotateMode 2 def
% coordinate system mappings
/dpi2point 0 def
% font control
/FontSize 0 def
/FMS {/FontSize xstore findfont [FontSize 0 0 FontSize neg 0 0]
  makefont setfont} bdef
/reencode {exch dup where {pop load} {pop StandardEncoding} ifelse
  exch dup 3 1 roll findfont dup length dict begin
  { 1 index /FID ne {def}{pop pop} ifelse } forall
  /Encoding exch def currentdict end definefont pop} bdef
/isroman {findfont /CharStrings get /Agrave known} bdef
/FMSR {3 1 roll 1 index dup isroman {reencode} {pop pop} ifelse
  exch FMS} bdef
/csm {1 dpi2point div -1 dpi2point div scale neg translate
 dup landscapeMode eq {pop -90 rotate}
  {rotateMode eq {90 rotate} if} ifelse} bdef
% line types: solid, dotted, dashed, dotdash
/SO { [] 0 setdash } bdef
/DO { [.5 dpi2point mul 4 dpi2point mul] 0 setdash } bdef
/DA { [6 dpi2point mul] 0 setdash } bdef
/DD { [.5 dpi2point mul 4 dpi2point mul 6 dpi2point mul 4
  dpi2point mul] 0 setdash } bdef
% macros for lines and objects
/L {lineto stroke} bdef
/MP {3 1 roll moveto 1 sub {rlineto} repeat} bdef
/AP {{rlineto} repeat} bdef
/PDlw -1 def
/W {/PDlw currentlinewidth def setlinewidth} def
/PP {closepath eofill} bdef
/DP {closepath stroke} bdef
/MR {4 -2 roll moveto dup  0 exch rlineto exch 0 rlineto
  neg 0 exch rlineto closepath} bdef
/FR {MR stroke} bdef
/PR {MR fill} bdef
/L1i {{currentfile picstr readhexstring pop} image} bdef
/tMatrix matrix def
/MakeOval {newpath tMatrix currentmatrix pop translate scale
0 0 1 0 360 arc tMatrix setmatrix} bdef
/FO {MakeOval stroke} bdef
/PO {MakeOval fill} bdef
/PD {currentlinewidth 2 div 0 360 arc fill
   PDlw -1 eq not {PDlw w /PDlw -1 def} if} def
/FA {newpath tMatrix currentmatrix pop translate scale
  0 0 1 5 -2 roll arc tMatrix setmatrix stroke} bdef
/PA {newpath tMatrix currentmatrix pop	translate 0 0 moveto scale
  0 0 1 5 -2 roll arc closepath tMatrix setmatrix fill} bdef
/FAn {newpath tMatrix currentmatrix pop translate scale
  0 0 1 5 -2 roll arcn tMatrix setmatrix stroke} bdef
/PAn {newpath tMatrix currentmatrix pop translate 0 0 moveto scale
  0 0 1 5 -2 roll arcn closepath tMatrix setmatrix fill} bdef
/vradius 0 def /hradius 0 def /lry 0 def
/lrx 0 def /uly 0 def /ulx 0 def /rad 0 def
/MRR {/vradius xdef /hradius xdef /lry xdef /lrx xdef /uly xdef
  /ulx xdef newpath tMatrix currentmatrix pop ulx hradius add uly
  vradius add translate hradius vradius scale 0 0 1 180 270 arc 
  tMatrix setmatrix lrx hradius sub uly vradius add translate
  hradius vradius scale 0 0 1 270 360 arc tMatrix setmatrix
  lrx hradius sub lry vradius sub translate hradius vradius scale
  0 0 1 0 90 arc tMatrix setmatrix ulx hradius add lry vradius sub
  translate hradius vradius scale 0 0 1 90 180 arc tMatrix setmatrix
  closepath} bdef
/FRR {MRR stroke } bdef
/PRR {MRR fill } bdef
/MlrRR {/lry xdef /lrx xdef /uly xdef /ulx xdef /rad lry uly sub 2 div def
  newpath tMatrix currentmatrix pop ulx rad add uly rad add translate
  rad rad scale 0 0 1 90 270 arc tMatrix setmatrix lrx rad sub lry rad
  sub translate rad rad scale 0 0 1 270 90 arc tMatrix setmatrix
  closepath} bdef
/FlrRR {MlrRR stroke } bdef
/PlrRR {MlrRR fill } bdef
/MtbRR {/lry xdef /lrx xdef /uly xdef /ulx xdef /rad lrx ulx sub 2 div def
  newpath tMatrix currentmatrix pop ulx rad add uly rad add translate
  rad rad scale 0 0 1 180 360 arc tMatrix setmatrix lrx rad sub lry rad
  sub translate rad rad scale 0 0 1 0 180 arc tMatrix setmatrix
  closepath} bdef
/FtbRR {MtbRR stroke } bdef
/PtbRR {MtbRR fill } bdef
/stri 6 array def /dtri 6 array def
/smat 6 array def /dmat 6 array def
/tmat1 6 array def /tmat2 6 array def /dif 3 array def
/asub {/ind2 exch def /ind1 exch def dup dup
  ind1 get exch ind2 get sub exch } bdef
/tri_to_matrix {
  2 0 asub 3 1 asub 4 0 asub 5 1 asub
  dup 0 get exch 1 get 7 -1 roll astore } bdef
/compute_transform {
  dmat dtri tri_to_matrix tmat1 invertmatrix 
  smat stri tri_to_matrix tmat2 concatmatrix } bdef
/ds {stri astore pop} bdef
/dt {dtri astore pop} bdef
/db {2 copy /cols xdef /rows xdef mul dup 3 mul string
  currentfile exch readhexstring pop
  dup 0 3 index getinterval /rbmap xdef
  dup 2 index dup getinterval /gbmap xdef
  1 index dup 2 mul exch getinterval /bbmap xdef pop pop}bdef
/it {gs np dtri aload pop moveto lineto lineto cp c
  cols rows 8 compute_transform 
  rbmap gbmap bbmap true 3 colorimage gr}bdef
/il {newpath moveto lineto stroke}bdef
currentdict end def
%%EndProlog

%%BeginSetup
MathWorks begin

0 cap

end
%%EndSetup

%%Page: 1 1
%%BeginPageSetup
%%PageBoundingBox:    78   215   548   583
MathWorks begin
bpage
%%EndPageSetup

%%BeginObject: obj1
bplot

/dpi2point 12 def
portraitMode 0216 7344 csm

  731   341  5640  4420 MR c np
85 dict begin %Colortable dictionary
/c0 { 0.000000 0.000000 0.000000 sr} bdef
/c1 { 1.000000 1.000000 1.000000 sr} bdef
/c2 { 0.900000 0.000000 0.000000 sr} bdef
/c3 { 0.000000 0.820000 0.000000 sr} bdef
/c4 { 0.000000 0.000000 0.800000 sr} bdef
/c5 { 0.910000 0.820000 0.320000 sr} bdef
/c6 { 1.000000 0.260000 0.820000 sr} bdef
/c7 { 0.000000 0.820000 0.820000 sr} bdef
c0
1 j
1 sg
   0    0 6913 5186 PR
6 w
0 -4226 5356 0 0 4226 899 389 4 MP
PP
-5356 0 0 -4226 5356 0 0 4226 899 389 5 MP stroke
4 w
DO
SO
6 w
0 sg
 899  389 mt 6255  389 L
 899 4615 mt 6255 4615 L
 899  389 mt  899 4615 L
6255  389 mt 6255 4615 L
 899 4615 mt 6255 4615 L
 899  389 mt  899 4615 L
1406 4615 mt 1406 4561 L
1406  389 mt 1406  442 L
%%IncludeResource: font Helvetica
/Helvetica /ISOLatin1Encoding 120 FMSR

1373 4760 mt 
(5) s
1945 4615 mt 1945 4561 L
1945  389 mt 1945  442 L
1879 4760 mt 
(10) s
2484 4615 mt 2484 4561 L
2484  389 mt 2484  442 L
2418 4760 mt 
(15) s
3022 4615 mt 3022 4561 L
3022  389 mt 3022  442 L
2956 4760 mt 
(20) s
3561 4615 mt 3561 4561 L
3561  389 mt 3561  442 L
3495 4760 mt 
(25) s
4100 4615 mt 4100 4561 L
4100  389 mt 4100  442 L
4034 4760 mt 
(30) s
4638 4615 mt 4638 4561 L
4638  389 mt 4638  442 L
4572 4760 mt 
(35) s
5177 4615 mt 5177 4561 L
5177  389 mt 5177  442 L
5111 4760 mt 
(40) s
5716 4615 mt 5716 4561 L
5716  389 mt 5716  442 L
5650 4760 mt 
(45) s
6255 4615 mt 6255 4561 L
6255  389 mt 6255  442 L
6189 4760 mt 
(50) s
 899  974 mt  952  974 L
6255  974 mt 6201  974 L
 798 1018 mt 
(5) s
 899 1596 mt  952 1596 L
6255 1596 mt 6201 1596 L
 731 1640 mt 
(10) s
 899 2217 mt  952 2217 L
6255 2217 mt 6201 2217 L
 731 2261 mt 
(15) s
 899 2839 mt  952 2839 L
6255 2839 mt 6201 2839 L
 731 2883 mt 
(20) s
 899 3460 mt  952 3460 L
6255 3460 mt 6201 3460 L
 731 3504 mt 
(25) s
 899 4082 mt  952 4082 L
6255 4082 mt 6201 4082 L
 731 4126 mt 
(30) s
 899  389 mt 6255  389 L
 899 4615 mt 6255 4615 L
 899  389 mt  899 4615 L
6255  389 mt 6255 4615 L
gs 899 389 5357 4227 MR c np
/c8 { 0.000000 0.000000 1.000000 sr} bdef
c8
3 1 975 389 2 MP stroke
14 1 -13 6 979 514 3 MP stroke
23 7 -23 6 960 630 3 MP stroke
5 8 -8 -4 994 871 3 MP stroke
10 5 -10 1 985 1004 3 MP stroke
12 5 -13 2 982 1127 3 MP stroke
13 6 -14 2 979 1251 3 MP stroke
8 6 -9 -1 990 1374 3 MP stroke
12 8 -14 0 980 1496 3 MP stroke
17 11 -19 -1 971 1614 3 MP stroke
12 3 -12 4 981 2375 3 MP stroke
10 4 -10 2 986 2497 3 MP stroke
10 3 -11 3 986 2621 3 MP stroke
8 10 -11 -4 988 2733 3 MP stroke
8 9 -11 -4 988 2858 3 MP stroke
9 4 -10 2 987 2993 3 MP stroke
9 4 -10 1 986 3117 3 MP stroke
3 4 -4 -2 1000 3240 3 MP stroke
3 3 -4 -1 1000 3366 3 MP stroke
3 2 -3 0 999 3491 3 MP stroke
4 3 -4 -1 998 3616 3 MP stroke
6 2 -6 2 993 3741 3 MP stroke
7 3 -7 1 991 3866 3 MP stroke
10 2 -10 3 986 3991 3 MP stroke
10 9 -12 -2 985 4102 3 MP stroke
11 4 -12 3 983 4237 3 MP stroke
11 8 -13 -1 983 4352 3 MP stroke
14 2 -13 5 978 4490 3 MP stroke
10 3 -10 3 1093 510 3 MP stroke
28 4 -27 12 1057 637 3 MP stroke
16 2 -15 6 1084 886 3 MP stroke
17 0 -15 10 1080 1015 3 MP stroke
7 12 -11 -7 1099 1113 3 MP stroke
13 3 -13 4 1088 1257 3 MP stroke
11 5 -12 1 1090 1375 3 MP stroke
14 7 -15 1 1085 1497 3 MP stroke
12 8 -14 -1 1089 1619 3 MP stroke
10 3 -10 2 1094 2374 3 MP stroke
9 3 -9 2 1095 2497 3 MP stroke
8 4 -9 1 1097 2621 3 MP stroke
7 9 -10 -4 1098 2733 3 MP stroke
9 9 -11 -4 1095 2859 3 MP stroke
9 6 -10 -1 1095 2990 3 MP stroke
9 5 -10 0 1096 3114 3 MP stroke
8 7 -9 -2 1097 3238 3 MP stroke
8 4 -9 0 1099 3364 3 MP stroke
7 4 -7 0 1100 3490 3 MP stroke
9 4 -9 1 1096 3614 3 MP stroke
12 4 -12 3 1089 3741 3 MP stroke
11 6 -12 0 1091 3860 3 MP stroke
15 5 -15 4 1083 3987 3 MP stroke
14 8 -15 0 1085 4106 3 MP stroke
15 4 -14 4 1084 4238 3 MP stroke
14 5 -14 3 1085 4360 3 MP stroke
17 3 -16 7 1080 4489 3 MP stroke
12 0 -11 6 1199 515 3 MP stroke
15 4 -15 5 1191 634 3 MP stroke
12 3 -12 3 1198 758 3 MP stroke
12 4 -12 3 1198 881 3 MP stroke
16 1 -14 8 1191 1012 3 MP stroke
9 9 -12 -3 1202 1119 3 MP stroke
4 4 -6 -1 1212 1376 3 MP stroke
5 4 -6 -1 1210 1500 3 MP stroke
5 4 -6 -1 1211 1624 3 MP stroke
7 4 -8 1 1208 2496 3 MP stroke
6 4 -7 0 1209 2619 3 MP stroke
4 7 -6 -4 1212 2738 3 MP stroke
8 5 -9 0 1206 2866 3 MP stroke
8 4 -9 2 1204 2993 3 MP stroke
9 4 -9 1 1204 3116 3 MP stroke
9 6 -10 0 1204 3239 3 MP stroke
7 4 -8 0 1207 3366 3 MP stroke
11 4 -11 2 1200 3490 3 MP stroke
9 5 -10 1 1202 3615 3 MP stroke
6 3 -6 1 1209 3740 3 MP stroke
7 2 -7 2 1207 3865 3 MP stroke
10 2 -10 3 1203 3991 3 MP stroke
8 9 -10 -4 1205 4103 3 MP stroke
11 2 -11 4 1200 4240 3 MP stroke
11 8 -13 -1 1198 4355 3 MP stroke
11 3 -11 3 1201 4488 3 MP stroke
15 5 -15 4 1299 508 3 MP stroke
12 6 -13 1 1306 629 3 MP stroke
16 2 -15 6 1299 762 3 MP stroke
9 8 -11 -2 1310 871 3 MP stroke
16 6 -17 3 1296 1002 3 MP stroke
18 17 -23 -6 1291 1105 3 MP stroke
19 4 -18 7 1291 1255 3 MP stroke
1 0 -1 1 1327 1506 3 MP stroke
6 6 -8 -2 1318 2492 3 MP stroke
7 7 -9 -3 1316 2615 3 MP stroke
2 3 -3 -1 1323 2743 3 MP stroke
5 7 -7 -4 1318 2862 3 MP stroke
5 3 -5 0 1320 2994 3 MP stroke
4 2 -5 1 1320 3119 3 MP stroke
8 4 -9 1 1314 3243 3 MP stroke
4 3 -5 0 1319 3366 3 MP stroke
10 5 -10 1 1308 3490 3 MP stroke
12 4 -12 3 1305 3615 3 MP stroke
11 6 -12 1 1307 3737 3 MP stroke
13 5 -14 3 1303 3862 3 MP stroke
15 5 -16 4 1298 3987 3 MP stroke
15 4 -15 5 1298 4112 3 MP stroke
15 5 -16 3 1299 4235 3 MP stroke
8 15 -13 -9 1310 4340 3 MP stroke
16 4 -16 6 1296 4487 3 MP stroke
14 0 -13 7 1410 516 3 MP stroke
10 6 -11 0 1417 630 3 MP stroke
13 4 -13 4 1409 758 3 MP stroke
11 7 -12 -1 1414 874 3 MP stroke
16 6 -17 3 1405 1004 3 MP stroke
16 5 -16 5 1404 1130 3 MP stroke
14 2 -14 6 1409 1257 3 MP stroke
5 3 -5 0 1427 1380 3 MP stroke
11 6 -12 1 1414 2494 3 MP stroke
10 3 -10 2 1417 2621 3 MP stroke
2 1 -2 0 1433 3122 3 MP stroke
5 2 -5 1 1425 3245 3 MP stroke
7 4 -7 0 1423 3367 3 MP stroke
4 3 -5 0 1428 3492 3 MP stroke
5 3 -6 1 1426 3616 3 MP stroke
6 4 -7 -1 1426 3738 3 MP stroke
6 4 -7 0 1423 3863 3 MP stroke
9 5 -10 1 1419 3987 3 MP stroke
9 4 -10 1 1418 4112 3 MP stroke
10 4 -10 2 1417 4236 3 MP stroke
9 9 -12 -3 1419 4350 3 MP stroke
10 3 -10 3 1416 4487 3 MP stroke
16 2 -15 7 1513 513 3 MP stroke
11 2 -10 4 1523 637 3 MP stroke
18 2 -17 8 1509 763 3 MP stroke
16 6 -17 3 1513 879 3 MP stroke
16 4 -16 5 1514 1005 3 MP stroke
16 5 -16 4 1512 1127 3 MP stroke
16 4 -16 5 1513 1256 3 MP stroke
15 4 -15 5 1513 1379 3 MP stroke
11 6 -12 1 1524 1499 3 MP stroke
-2 4 0 -4 1548 3115 3 MP stroke
6 2 -7 1 1533 3245 3 MP stroke
6 3 -6 1 1532 3368 3 MP stroke
9 3 -10 3 1525 3491 3 MP stroke
11 4 -11 3 1523 3616 3 MP stroke
10 2 -10 4 1524 3743 3 MP stroke
13 4 -14 3 1519 3864 3 MP stroke
14 4 -14 4 1517 3990 3 MP stroke
13 4 -13 4 1517 4113 3 MP stroke
14 6 -14 2 1517 4235 3 MP stroke
15 4 -15 4 1516 4362 3 MP stroke
14 4 -14 5 1516 4486 3 MP stroke
11 1 -10 5 1630 514 3 MP stroke
9 8 -11 -1 1632 625 3 MP stroke
16 0 -14 9 1621 765 3 MP stroke
12 7 -14 0 1628 875 3 MP stroke
13 1 -12 7 1627 1012 3 MP stroke
8 10 -11 -4 1636 1117 3 MP stroke
14 1 -13 7 1624 1260 3 MP stroke
13 4 -13 3 1627 1380 3 MP stroke
10 5 -10 1 1633 1500 3 MP stroke
6 -6 -3 9 1641 2514 3 MP stroke
9 8 -11 -2 1633 2614 3 MP stroke
10 0 -8 5 1634 2753 3 MP stroke
8 2 -8 2 1637 3120 3 MP stroke
10 3 -10 2 1633 3243 3 MP stroke
10 4 -11 2 1632 3367 3 MP stroke
5 2 -5 1 1642 3493 3 MP stroke
6 1 -6 2 1641 3618 3 MP stroke
8 3 -8 2 1636 3741 3 MP stroke
8 4 -9 1 1636 3864 3 MP stroke
8 3 -8 2 1635 3988 3 MP stroke
8 3 -9 2 1636 4113 3 MP stroke
8 4 -9 1 1636 4236 3 MP stroke
7 6 -9 -1 1637 4357 3 MP stroke
9 5 -10 1 1635 4483 3 MP stroke
8 4 -9 1 1635 4608 3 MP stroke
12 4 -13 3 1735 508 3 MP stroke
9 6 -11 0 1741 626 3 MP stroke
13 3 -13 5 1734 760 3 MP stroke
16 7 -17 2 1727 877 3 MP stroke
11 5 -12 2 1736 1002 3 MP stroke
9 4 -10 1 1742 1129 3 MP stroke
11 -1 -9 7 1738 1265 3 MP stroke
10 -4 -7 8 1743 1393 3 MP stroke
8 4 -9 1 1744 1501 3 MP stroke
13 6 -14 2 1733 1623 3 MP stroke
9 0 -8 5 1742 2504 3 MP stroke
9 8 -11 -2 1741 2612 3 MP stroke
8 -2 -7 6 1744 2756 3 MP stroke
5 2 -5 1 1749 2872 3 MP stroke
4 1 -4 2 1752 2997 3 MP stroke
4 2 -5 0 1752 3120 3 MP stroke
8 3 -8 1 1744 3243 3 MP stroke
10 4 -10 1 1740 3367 3 MP stroke
13 4 -13 4 1734 3491 3 MP stroke
13 4 -13 4 1734 3616 3 MP stroke
12 6 -12 2 1735 3737 3 MP stroke
13 5 -14 3 1734 3862 3 MP stroke
12 6 -13 2 1735 3985 3 MP stroke
8 10 -11 -4 1741 4101 3 MP stroke
17 4 -16 6 1726 4240 3 MP stroke
16 6 -16 3 1729 4360 3 MP stroke
15 4 -15 4 1730 4486 3 MP stroke
10 2 1836 389 2 MP stroke
7 2 -7 2 1853 511 3 MP stroke
23 17 -27 -3 1819 609 3 MP stroke
11 5 -12 2 1846 755 3 MP stroke
14 6 -15 2 1840 879 3 MP stroke
21 0 -18 11 1828 1015 3 MP stroke
12 5 -12 2 1843 1128 3 MP stroke
13 2 -12 5 1842 1258 3 MP stroke
12 8 -14 -1 1844 1370 3 MP stroke
6 2 -6 1 1857 1503 3 MP stroke
4 2 -4 0 1859 1628 3 MP stroke
7 5 -8 -1 1854 2618 3 MP stroke
9 2 -8 3 1851 2750 3 MP stroke
6 6 -7 -3 1856 2865 3 MP stroke
7 0 -6 4 1853 3001 3 MP stroke
8 1 -7 3 1852 3123 3 MP stroke
7 3 -8 1 1853 3243 3 MP stroke
9 5 -10 1 1849 3365 3 MP stroke
5 3 -6 1 1857 3492 3 MP stroke
6 2 -7 1 1856 3617 3 MP stroke
7 4 -7 0 1854 3740 3 MP stroke
7 4 -8 0 1853 3863 3 MP stroke
9 5 -9 0 1851 3987 3 MP stroke
8 4 -9 1 1850 4110 3 MP stroke
9 5 -10 1 1848 4236 3 MP stroke
9 5 -10 1 1848 4359 3 MP stroke
11 5 -12 1 1846 4483 3 MP stroke
10 4 -11 2 1847 4608 3 MP stroke
6 1 -5 2 1963 389 3 MP stroke
8 1 -8 3 1961 512 3 MP stroke
17 14 -21 -3 1939 615 3 MP stroke
19 2 -17 8 1939 763 3 MP stroke
8 4 -8 1 1959 881 3 MP stroke
6 10 -10 -5 1962 993 3 MP stroke
9 2 -8 3 1958 1133 3 MP stroke
8 3 -9 2 1958 1254 3 MP stroke
11 4 -11 3 1953 1378 3 MP stroke
9 4 -10 2 1956 1502 3 MP stroke
0 1 -1 -1 1974 1629 3 MP stroke
13 7 -15 1 1949 2491 3 MP stroke
9 5 -10 1 1956 2618 3 MP stroke
9 2 -9 4 1958 2748 3 MP stroke
7 7 -9 -2 1960 2863 3 MP stroke
8 3 -8 2 1960 2996 3 MP stroke
8 3 -8 1 1960 3120 3 MP stroke
8 4 -8 1 1960 3242 3 MP stroke
10 4 -11 2 1955 3367 3 MP stroke
12 5 -12 2 1951 3490 3 MP stroke
12 4 -12 3 1951 3614 3 MP stroke
12 4 -12 3 1952 3739 3 MP stroke
13 5 -13 2 1950 3863 3 MP stroke
14 6 -15 3 1947 3985 3 MP stroke
15 6 -16 3 1946 4109 3 MP stroke
13 6 -14 2 1947 4234 3 MP stroke
15 6 -16 3 1945 4357 3 MP stroke
16 8 -17 2 1943 4480 3 MP stroke
15 6 -16 3 1945 4607 3 MP stroke
11 0 -10 6 2062 514 3 MP stroke
10 10 -13 -3 2062 621 3 MP stroke
13 2 -12 5 2056 762 3 MP stroke
8 6 -10 -1 2067 875 3 MP stroke
13 3 -13 4 2059 1008 3 MP stroke
11 2 -11 4 2062 1133 3 MP stroke
2 -1 -1 2 2079 1260 3 MP stroke
5 7 -7 -4 2073 1370 3 MP stroke
3 5 -5 -3 2078 1497 3 MP stroke
7 5 -8 0 2068 1625 3 MP stroke
3 3 -3 -1 2078 2372 3 MP stroke
4 1 -4 1 2075 2500 3 MP stroke
2 5 -4 -3 2077 2616 3 MP stroke
9 2 -9 3 2066 2748 3 MP stroke
5 4 -6 -1 2072 2869 3 MP stroke
7 1 -7 2 2070 2999 3 MP stroke
7 5 -8 -1 2069 3116 3 MP stroke
8 4 -8 1 2067 3241 3 MP stroke
10 3 -10 3 2062 3367 3 MP stroke
5 3 -5 0 2073 3493 3 MP stroke
5 3 -5 0 2073 3617 3 MP stroke
6 3 -7 1 2072 3740 3 MP stroke
7 3 -8 1 2070 3864 3 MP stroke
8 4 -9 1 2067 3988 3 MP stroke
8 5 -9 0 2066 4111 3 MP stroke
9 4 -10 2 2064 4236 3 MP stroke
10 5 -11 1 2063 4360 3 MP stroke
11 4 -12 3 2060 4486 3 MP stroke
11 4 -12 2 2062 4609 3 MP stroke
11 2 -10 3 2170 389 3 MP stroke
17 1 -16 9 2158 516 3 MP stroke
6 9 -9 -4 2176 623 3 MP stroke
14 5 -14 3 2163 756 3 MP stroke
18 3 -17 7 2156 886 3 MP stroke
16 5 -16 4 2159 1006 3 MP stroke
14 5 -14 3 2164 1129 3 MP stroke
17 3 -16 6 2156 1257 3 MP stroke
7 6 -9 -1 2177 1373 3 MP stroke
7 3 -7 1 2178 1628 3 MP stroke
8 8 -11 -3 2174 2365 3 MP stroke
11 2 -10 4 2170 2501 3 MP stroke
9 6 -11 0 2171 2617 3 MP stroke
6 4 -7 0 2177 2744 3 MP stroke
6 6 -7 -2 2178 2865 3 MP stroke
8 4 -8 0 2176 2994 3 MP stroke
7 4 -8 1 2176 3117 3 MP stroke
8 4 -9 1 2175 3241 3 MP stroke
11 3 -11 3 2169 3369 3 MP stroke
11 3 -11 3 2169 3492 3 MP stroke
10 3 -10 3 2170 3616 3 MP stroke
12 5 -13 3 2167 3738 3 MP stroke
5 11 -9 -7 2179 3850 3 MP stroke
14 5 -14 3 2163 3989 3 MP stroke
9 10 -12 -3 2170 4101 3 MP stroke
14 4 -14 4 2162 4238 3 MP stroke
18 5 -18 6 2156 4361 3 MP stroke
16 2 -15 7 2158 4491 3 MP stroke
13 1 -12 7 2272 514 3 MP stroke
14 6 -15 3 2271 630 3 MP stroke
14 1 -13 7 2270 763 3 MP stroke
14 4 -14 4 2271 883 3 MP stroke
15 5 -15 3 2270 1005 3 MP stroke
14 9 -16 0 2270 1120 3 MP stroke
11 4 -11 3 2276 1253 3 MP stroke
5 8 -8 -4 2287 1370 3 MP stroke
4 -1 -3 3 2291 1510 3 MP stroke
5 5 -6 -2 2287 1623 3 MP stroke
7 2 -7 2 2285 1754 3 MP stroke
4 2 -4 0 2290 1876 3 MP stroke
10 2 -10 4 2279 2253 3 MP stroke
6 8 -9 -3 2286 2363 3 MP stroke
8 3 -9 2 2282 2498 3 MP stroke
8 3 -9 2 2282 2622 3 MP stroke
6 6 -7 -2 2286 2742 3 MP stroke
5 7 -8 -4 2288 2862 3 MP stroke
6 5 -7 -1 2288 2991 3 MP stroke
5 2 -6 1 2288 3120 3 MP stroke
7 3 -7 1 2283 3244 3 MP stroke
4 7 -6 -4 2289 3357 3 MP stroke
5 1 -4 2 2289 3496 3 MP stroke
5 8 -8 -5 2289 3605 3 MP stroke
10 5 -11 1 2279 3738 3 MP stroke
5 9 -8 -5 2288 3851 3 MP stroke
10 4 -10 2 2278 3988 3 MP stroke
11 4 -11 2 2278 4112 3 MP stroke
10 5 -11 2 2277 4234 3 MP stroke
8 8 -11 -3 2281 4351 3 MP stroke
11 -1 -9 6 2278 4494 3 MP stroke
14 4 2354 389 2 MP stroke
16 3 -15 6 2374 512 3 MP stroke
13 2 -13 5 2381 637 3 MP stroke
17 3 -16 6 2373 760 3 MP stroke
16 8 -17 2 2374 875 3 MP stroke
15 4 -15 5 2375 1007 3 MP stroke
12 11 -15 -3 2382 1116 3 MP stroke
7 3 -7 1 2391 1503 3 MP stroke
7 4 -7 1 2392 1625 3 MP stroke
9 3 -10 2 2388 1752 3 MP stroke
11 5 -11 1 2385 1873 3 MP stroke
11 1 -10 5 2385 2006 3 MP stroke
8 6 -9 -1 2390 2120 3 MP stroke
10 0 -9 5 2388 2255 3 MP stroke
10 3 -10 3 2387 2376 3 MP stroke
8 4 -9 1 2390 2496 3 MP stroke
8 3 -9 2 2390 2620 3 MP stroke
8 2 -8 3 2392 2748 3 MP stroke
8 5 -9 0 2390 2867 3 MP stroke
7 2 -7 2 2393 2996 3 MP stroke
3 9 -6 -7 2399 3107 3 MP stroke
8 3 -9 2 2389 3244 3 MP stroke
13 8 -14 -1 2381 3360 3 MP stroke
11 4 -12 3 2384 3491 3 MP stroke
13 3 -13 5 2380 3618 3 MP stroke
12 5 -13 2 2383 3739 3 MP stroke
6 8 -8 -4 2394 3855 3 MP stroke
15 4 -14 5 2377 3989 3 MP stroke
14 5 -14 3 2378 4111 3 MP stroke
14 5 -15 3 2378 4234 3 MP stroke
12 7 -13 0 2383 4354 3 MP stroke
15 4 -14 5 2376 4486 3 MP stroke
16 1 -14 8 2483 515 3 MP stroke
15 3 -15 5 2485 635 3 MP stroke
10 12 -13 -5 2493 865 3 MP stroke
10 3 -10 3 2494 1005 3 MP stroke
13 8 -14 0 2487 1123 3 MP stroke
17 -1 -14 10 2481 1265 3 MP stroke
14 3 -14 5 2487 1381 3 MP stroke
13 2 -12 5 2489 1507 3 MP stroke
7 0 -6 4 2501 1635 3 MP stroke
10 0 -9 5 2497 1758 3 MP stroke
9 -4 -6 8 2498 1892 3 MP stroke
9 5 -9 1 2496 1998 3 MP stroke
7 9 -10 -5 2499 2113 3 MP stroke
8 -1 -7 5 2498 2256 3 MP stroke
8 6 -9 -1 2498 2368 3 MP stroke
8 4 -9 1 2497 2496 3 MP stroke
2 5 -4 -3 2508 2617 3 MP stroke
10 1 -9 4 2496 2752 3 MP stroke
8 4 -9 0 2498 2869 3 MP stroke
8 3 -8 1 2499 2995 3 MP stroke
3 9 -6 -6 2505 3106 3 MP stroke
7 3 -8 1 2500 3243 3 MP stroke
6 8 -8 -4 2502 3358 3 MP stroke
5 2 -5 1 2505 3494 3 MP stroke
5 1 -5 1 2505 3619 3 MP stroke
6 3 -7 1 2501 3741 3 MP stroke
7 3 -8 1 2500 3864 3 MP stroke
7 4 -8 1 2499 3987 3 MP stroke
8 3 -8 2 2497 4112 3 MP stroke
10 4 -10 2 2495 4236 3 MP stroke
7 7 -9 -2 2498 4353 3 MP stroke
10 3 -11 3 2493 4486 3 MP stroke
10 2 2588 389 2 MP stroke
17 2 -16 8 2589 515 3 MP stroke
16 2 -15 7 2589 637 3 MP stroke
16 6 -17 3 2590 754 3 MP stroke
16 0 -14 8 2591 890 3 MP stroke
13 6 -14 2 2595 1001 3 MP stroke
15 6 -15 3 2591 1127 3 MP stroke
16 -1 -14 10 2591 1266 3 MP stroke
18 7 -18 3 2586 1374 3 MP stroke
15 3 -15 6 2592 1505 3 MP stroke
6 6 -8 -2 2608 1621 3 MP stroke
5 1 -5 2 2612 1756 3 MP stroke
6 2 -6 2 2610 1878 3 MP stroke
6 2 -6 2 2610 2003 3 MP stroke
6 5 -7 -1 2611 2120 3 MP stroke
7 -2 -5 5 2608 2259 3 MP stroke
6 4 -7 0 2608 2370 3 MP stroke
7 4 -8 1 2607 2496 3 MP stroke
8 3 -8 2 2606 2622 3 MP stroke
8 3 -8 2 2605 2748 3 MP stroke
6 7 -9 -3 2609 2862 3 MP stroke
7 4 -8 0 2608 2994 3 MP stroke
7 4 -7 0 2608 3117 3 MP stroke
7 3 -7 0 2609 3244 3 MP stroke
11 8 -12 -1 2600 3360 3 MP stroke
11 3 -11 3 2601 3494 3 MP stroke
8 10 -11 -4 2605 3604 3 MP stroke
12 3 -12 4 2597 3742 3 MP stroke
12 5 -12 2 2597 3861 3 MP stroke
13 4 -13 3 2596 3989 3 MP stroke
7 8 -9 -3 2606 4105 3 MP stroke
13 4 -13 3 2596 4236 3 MP stroke
6 6 -8 -2 2609 4356 3 MP stroke
17 5 -17 5 2587 4484 3 MP stroke
2 0 2698 389 2 MP stroke
19 -1 -17 11 2694 518 3 MP stroke
18 3 -17 7 2694 636 3 MP stroke
15 -1 -13 9 2700 768 3 MP stroke
16 2 -15 7 2698 886 3 MP stroke
11 7 -12 0 2706 1000 3 MP stroke
8 10 -11 -5 2712 1117 3 MP stroke
5 3 -6 0 2720 1379 3 MP stroke
9 2 -9 3 2711 1505 3 MP stroke
7 2 -7 2 2714 1629 3 MP stroke
-1 4 -1 -4 2729 1872 3 MP stroke
5 2 -6 1 2719 2374 3 MP stroke
4 4 -5 -2 2721 2495 3 MP stroke
6 3 -6 1 2718 2622 3 MP stroke
7 4 -8 1 2714 2745 3 MP stroke
6 10 -9 -5 2716 2857 3 MP stroke
7 3 -8 2 2715 2995 3 MP stroke
6 4 -7 0 2717 3118 3 MP stroke
6 2 -6 2 2718 3244 3 MP stroke
7 7 -9 -2 2713 3361 3 MP stroke
10 4 -11 2 2708 3491 3 MP stroke
2 6 -4 -4 2724 3611 3 MP stroke
7 2 -7 2 2715 3743 3 MP stroke
6 8 -9 -4 2716 3854 3 MP stroke
8 3 -8 2 2714 3991 3 MP stroke
7 10 -10 -5 2714 4100 3 MP stroke
10 4 -10 1 2711 4237 3 MP stroke
8 4 -9 2 2712 4360 3 MP stroke
10 4 -10 2 2709 4484 3 MP stroke
7 3 -13 3 2706 4610 3 MP stroke
16 -3 -13 11 2807 522 3 MP stroke
15 1 -14 7 2810 639 3 MP stroke
17 5 -17 4 2804 756 3 MP stroke
9 3 -9 2 2818 1254 3 MP stroke
5 7 -7 -4 2827 1370 3 MP stroke
8 0 -7 5 2822 1510 3 MP stroke
3 6 -5 -3 2830 1621 3 MP stroke
2 4 -3 -2 2832 2370 3 MP stroke
6 2 -6 1 2826 2499 3 MP stroke
6 3 -6 1 2825 2621 3 MP stroke
7 3 -7 1 2822 2747 3 MP stroke
8 2 -8 3 2821 2872 3 MP stroke
8 2 -8 3 2821 2996 3 MP stroke
8 3 -8 2 2822 3119 3 MP stroke
8 2 -8 2 2822 3245 3 MP stroke
7 8 -9 -3 2822 3358 3 MP stroke
11 3 -11 3 2815 3493 3 MP stroke
5 7 -7 -4 2827 3608 3 MP stroke
12 4 -13 4 2812 3740 3 MP stroke
13 4 -14 3 2812 3864 3 MP stroke
13 4 -13 4 2811 3989 3 MP stroke
13 4 -13 3 2812 4113 3 MP stroke
12 7 -13 1 2813 4232 3 MP stroke
13 5 -13 3 2812 4360 3 MP stroke
12 4 -13 3 2812 4485 3 MP stroke
10 4 -14 3 2812 4609 3 MP stroke
21 1 -19 11 2904 518 3 MP stroke
6 -1 -5 4 2933 641 3 MP stroke
12 -2 -10 8 2921 892 3 MP stroke
17 6 -17 3 2912 1251 3 MP stroke
16 5 -16 5 2913 1377 3 MP stroke
9 3 -9 3 2927 1505 3 MP stroke
6 2 -6 1 2933 2500 3 MP stroke
9 4 -10 1 2926 2621 3 MP stroke
9 3 -9 2 2928 2746 3 MP stroke
4 8 -6 -5 2936 2859 3 MP stroke
7 3 -7 1 2930 2996 3 MP stroke
2 8 -5 -6 2939 3107 3 MP stroke
3 1 -3 1 2939 3246 3 MP stroke
3 10 -7 -7 2937 3353 3 MP stroke
5 2 -5 1 2936 3494 3 MP stroke
5 2 -5 1 2935 3617 3 MP stroke
6 3 -7 1 2932 3741 3 MP stroke
8 3 -8 1 2929 3864 3 MP stroke
8 4 -9 1 2929 3987 3 MP stroke
9 5 -10 0 2926 4111 3 MP stroke
9 3 -9 3 2926 4237 3 MP stroke
8 7 -10 -2 2929 4355 3 MP stroke
11 4 -11 3 2922 4485 3 MP stroke
26 5 -24 10 3002 511 3 MP stroke
5 0 -5 3 3043 637 3 MP stroke
14 7 -16 2 3023 1247 3 MP stroke
11 4 -11 2 3032 1379 3 MP stroke
8 2 -8 2 3037 1505 3 MP stroke
8 2 -8 2 3036 1629 3 MP stroke
6 6 -8 -2 3040 1746 3 MP stroke
13 4 -13 3 3027 1875 3 MP stroke
3 3 -4 -1 3045 2495 3 MP stroke
9 3 -9 3 3035 2622 3 MP stroke
8 3 -9 2 3036 2746 3 MP stroke
9 3 -9 2 3036 2870 3 MP stroke
8 2 -8 2 3037 2996 3 MP stroke
8 3 -8 2 3036 3120 3 MP stroke
10 3 -10 3 3032 3244 3 MP stroke
6 8 -9 -4 3040 3358 3 MP stroke
11 4 -11 3 3030 3492 3 MP stroke
12 4 -12 2 3030 3616 3 MP stroke
13 4 -13 3 3027 3740 3 MP stroke
14 5 -14 3 3026 3864 3 MP stroke
13 6 -14 2 3026 3985 3 MP stroke
14 5 -14 3 3024 4112 3 MP stroke
14 3 -14 5 3025 4240 3 MP stroke
12 5 -12 2 3028 4360 3 MP stroke
18 4 -17 6 3016 4487 3 MP stroke
16 8 -18 2 3020 4602 3 MP stroke
19 4 -12 4 3116 389 3 MP stroke
19 0 -17 10 3122 517 3 MP stroke
8 4 -9 1 3145 631 3 MP stroke
8 4 -9 2 3143 1129 3 MP stroke
4 5 -6 -2 3151 1252 3 MP stroke
9 2 -9 3 3144 1380 3 MP stroke
8 -1 -7 5 3147 1509 3 MP stroke
7 -2 -5 5 3148 1637 3 MP stroke
8 0 -7 4 3144 1758 3 MP stroke
8 -2 -6 6 3145 1885 3 MP stroke
8 -5 -5 9 3145 2018 3 MP stroke
7 0 -6 4 3147 2131 3 MP stroke
8 -5 -5 9 3146 2264 3 MP stroke
7 4 -8 0 3147 2371 3 MP stroke
8 3 -8 1 3145 2499 3 MP stroke
5 9 -8 -6 3150 2608 3 MP stroke
6 3 -7 1 3148 2745 3 MP stroke
5 5 -7 -2 3149 2867 3 MP stroke
7 3 -7 1 3147 2995 3 MP stroke
8 2 -8 3 3144 3120 3 MP stroke
4 1 -3 1 3153 3246 3 MP stroke
5 9 -8 -5 3149 3356 3 MP stroke
5 2 -5 1 3150 3493 3 MP stroke
5 3 -5 1 3149 3617 3 MP stroke
7 3 -7 2 3146 3740 3 MP stroke
8 4 -9 1 3145 3864 3 MP stroke
9 4 -10 1 3142 3987 3 MP stroke
10 4 -11 2 3141 4112 3 MP stroke
12 5 -12 2 3138 4236 3 MP stroke
9 10 -12 -3 3141 4350 3 MP stroke
11 3 -11 4 3137 4488 3 MP stroke
19 -2 -16 12 3232 521 3 MP stroke
10 4 -10 1 3249 631 3 MP stroke
9 14 -13 -8 3248 861 3 MP stroke
16 4 -15 5 3237 1007 3 MP stroke
8 -1 -7 6 3252 1263 3 MP stroke
8 6 -10 -1 3252 1374 3 MP stroke
7 -1 -6 5 3255 1513 3 MP stroke
7 2 -7 2 3255 1630 3 MP stroke
7 2 -7 2 3255 1754 3 MP stroke
7 3 -7 1 3255 1877 3 MP stroke
8 -2 -6 6 3253 2012 3 MP stroke
7 3 -8 1 3255 2124 3 MP stroke
7 7 -9 -2 3253 2241 3 MP stroke
7 9 -10 -4 3253 2360 3 MP stroke
8 2 -8 3 3251 2500 3 MP stroke
6 8 -8 -4 3255 2612 3 MP stroke
7 1 -7 3 3255 2750 3 MP stroke
8 3 -9 2 3252 2870 3 MP stroke
8 3 -8 2 3251 2996 3 MP stroke
8 2 -8 3 3251 3120 3 MP stroke
11 3 -11 3 3247 3244 3 MP stroke
7 9 -10 -4 3253 3356 3 MP stroke
11 3 -11 3 3247 3492 3 MP stroke
5 8 -7 -5 3257 3605 3 MP stroke
12 5 -13 3 3243 3738 3 MP stroke
13 6 -14 2 3241 3860 3 MP stroke
15 6 -15 2 3239 3986 3 MP stroke
16 5 -16 4 3237 4110 3 MP stroke
14 7 -15 2 3240 4231 3 MP stroke
15 6 -15 3 3238 4359 3 MP stroke
15 3 -14 6 3238 4489 3 MP stroke
20 0 -18 11 3336 519 3 MP stroke
17 6 -18 4 3342 629 3 MP stroke
17 0 -15 9 3343 766 3 MP stroke
10 11 -13 -4 3354 867 3 MP stroke
12 2 -11 5 3351 1010 3 MP stroke
14 8 -15 1 3347 1123 3 MP stroke
5 1 -4 2 3366 1508 3 MP stroke
3 6 -5 -4 3369 1621 3 MP stroke
3 0 -3 2 3371 1757 3 MP stroke
6 2 -7 2 3364 1877 3 MP stroke
8 -3 -6 7 3362 2012 3 MP stroke
7 3 -8 1 3362 2123 3 MP stroke
8 1 -8 4 3360 2253 3 MP stroke
6 10 -9 -6 3363 2357 3 MP stroke
8 2 -8 2 3360 2500 3 MP stroke
4 7 -7 -4 3366 2614 3 MP stroke
8 3 -9 2 3360 2745 3 MP stroke
7 3 -8 2 3361 2870 3 MP stroke
9 2 -9 3 3358 2996 3 MP stroke
3 8 -6 -5 3370 3109 3 MP stroke
9 2 -9 3 3357 3245 3 MP stroke
3 6 -5 -3 3368 3360 3 MP stroke
10 2 -10 4 3356 3494 3 MP stroke
5 9 -9 -5 3365 3603 3 MP stroke
7 3 -8 1 3362 3740 3 MP stroke
9 4 -9 1 3359 3864 3 MP stroke
10 4 -11 2 3355 3986 3 MP stroke
10 5 -11 2 3354 4111 3 MP stroke
11 4 -12 3 3353 4237 3 MP stroke
10 4 -10 2 3356 4362 3 MP stroke
11 5 -12 2 3352 4484 3 MP stroke
18 0 -16 10 3449 519 3 MP stroke
18 7 -19 4 3448 628 3 MP stroke
21 -1 -18 12 3442 769 3 MP stroke
12 8 -13 0 3459 873 3 MP stroke
17 1 -16 8 3451 1011 3 MP stroke
11 8 -13 -1 3461 1122 3 MP stroke
2 1 -2 -1 3482 1506 3 MP stroke
2 0 -2 1 3481 1631 3 MP stroke
6 2 -6 2 3472 1879 3 MP stroke
8 3 -8 2 3468 2001 3 MP stroke
7 3 -7 1 3469 2126 3 MP stroke
5 4 -6 -1 3473 2246 3 MP stroke
-2 13 -3 -13 3485 2351 3 MP stroke
7 2 -7 2 3470 2498 3 MP stroke
7 6 -9 -1 3469 2616 3 MP stroke
8 4 -8 1 3468 2745 3 MP stroke
7 4 -8 0 3469 2869 3 MP stroke
8 3 -8 2 3467 2994 3 MP stroke
10 3 -10 3 3463 3119 3 MP stroke
11 4 -11 2 3463 3244 3 MP stroke
10 4 -11 2 3464 3367 3 MP stroke
9 3 -9 2 3468 3493 3 MP stroke
11 4 -11 3 3461 3614 3 MP stroke
10 4 -11 2 3463 3740 3 MP stroke
14 3 -14 5 3456 3865 3 MP stroke
17 3 -16 6 3451 3992 3 MP stroke
14 10 -16 -2 3456 4101 3 MP stroke
16 6 -17 4 3450 4233 3 MP stroke
16 7 -17 2 3451 4357 3 MP stroke
13 6 -14 2 3456 4482 3 MP stroke
12 5 -19 4 3447 4607 3 MP stroke
20 0 -18 10 3553 519 3 MP stroke
13 6 -14 2 3565 629 3 MP stroke
1 0 -1 0 3589 1755 3 MP stroke
9 7 -11 -1 3573 2117 3 MP stroke
10 2 -10 4 3572 2253 3 MP stroke
3 8 -5 -6 3584 2362 3 MP stroke
7 2 -7 2 3576 2499 3 MP stroke
6 3 -6 1 3579 2622 3 MP stroke
6 1 -6 2 3580 2749 3 MP stroke
6 3 -7 0 3580 2870 3 MP stroke
8 4 -9 1 3576 2993 3 MP stroke
8 4 -9 1 3574 3118 3 MP stroke
9 4 -10 1 3573 3242 3 MP stroke
4 3 -5 -1 3584 3367 3 MP stroke
5 2 -5 1 3581 3492 3 MP stroke
6 3 -6 1 3579 3616 3 MP stroke
6 2 -6 1 3581 3742 3 MP stroke
8 9 -11 -4 3575 3853 3 MP stroke
11 4 -12 2 3570 3987 3 MP stroke
10 10 -13 -3 3569 4099 3 MP stroke
10 5 -11 1 3572 4236 3 MP stroke
12 5 -13 2 3568 4359 3 MP stroke
21 8 -21 4 3550 4480 3 MP stroke
1 0 3660 389 2 MP stroke
17 0 -15 9 3667 517 3 MP stroke
15 4 -15 4 3671 633 3 MP stroke
6 3 -7 0 3688 1378 3 MP stroke
10 5 -10 1 3680 1501 3 MP stroke
6 4 -7 -1 3688 1625 3 MP stroke
2 3 -3 -2 3695 1751 3 MP stroke
4 2 -4 1 3691 1878 3 MP stroke
8 3 -8 2 3682 2003 3 MP stroke
6 7 -8 -3 3686 2116 3 MP stroke
9 2 -9 3 3680 2251 3 MP stroke
3 8 -6 -5 3692 2362 3 MP stroke
8 2 -8 2 3684 2499 3 MP stroke
6 7 -9 -3 3686 2614 3 MP stroke
8 1 -8 3 3685 2749 3 MP stroke
9 2 -8 3 3682 2873 3 MP stroke
9 4 -10 2 3681 2994 3 MP stroke
9 3 -10 2 3680 3119 3 MP stroke
9 4 -10 1 3681 3242 3 MP stroke
8 5 -9 0 3681 3365 3 MP stroke
10 5 -11 2 3679 3490 3 MP stroke
12 5 -13 2 3674 3614 3 MP stroke
12 5 -12 3 3674 3738 3 MP stroke
14 4 -14 4 3672 3866 3 MP stroke
13 5 -14 2 3673 3987 3 MP stroke
14 4 -14 4 3671 4112 3 MP stroke
15 5 -15 4 3668 4236 3 MP stroke
13 8 -15 0 3671 4355 3 MP stroke
22 10 -24 3 3654 4477 3 MP stroke
20 16 -24 -3 3657 4588 3 MP stroke
23 1 -21 12 3763 517 3 MP stroke
20 6 -20 5 3767 631 3 MP stroke
4 7 -7 -5 3799 1369 3 MP stroke
8 3 -8 2 3791 1629 3 MP stroke
6 4 -7 -1 3794 1874 3 MP stroke
8 1 -8 4 3790 2005 3 MP stroke
6 5 -7 -1 3793 2120 3 MP stroke
6 5 -7 -1 3795 2244 3 MP stroke
7 3 -8 1 3793 2374 3 MP stroke
7 2 -7 2 3793 2500 3 MP stroke
6 5 -7 -1 3795 2619 3 MP stroke
5 2 -5 1 3796 2749 3 MP stroke
7 2 -8 2 3793 2872 3 MP stroke
10 4 -10 2 3787 2994 3 MP stroke
11 4 -11 2 3785 3119 3 MP stroke
9 5 -10 1 3789 3239 3 MP stroke
9 3 -9 2 3790 3366 3 MP stroke
11 3 -11 3 3785 3492 3 MP stroke
7 3 -8 1 3793 3616 3 MP stroke
7 4 -8 0 3792 3740 3 MP stroke
8 10 -11 -4 3789 3851 3 MP stroke
8 2 -8 2 3792 3992 3 MP stroke
8 10 -11 -4 3789 4100 3 MP stroke
13 2 -12 5 3782 4239 3 MP stroke
13 5 -13 3 3780 4359 3 MP stroke
19 8 -20 3 3767 4479 3 MP stroke
17 3 -17 7 3880 511 3 MP stroke
20 5 -20 6 3876 632 3 MP stroke
45 -9 -36 33 3828 1040 3 MP stroke
9 1 -9 4 3898 1259 3 MP stroke
4 6 -6 -3 3906 1371 3 MP stroke
4 -1 -4 3 3908 1508 3 MP stroke
5 7 -7 -4 3905 1620 3 MP stroke
9 2 -9 3 3897 1754 3 MP stroke
20 -3 -17 13 3876 1891 3 MP stroke
8 2 -8 3 3899 2004 3 MP stroke
8 5 -9 0 3898 2123 3 MP stroke
5 7 -7 -3 3905 2242 3 MP stroke
6 2 -7 2 3903 2374 3 MP stroke
6 1 -6 3 3902 2500 3 MP stroke
8 4 -8 1 3899 2621 3 MP stroke
7 5 -8 -1 3902 2743 3 MP stroke
6 4 -7 0 3901 2869 3 MP stroke
11 2 -11 4 3894 2996 3 MP stroke
9 9 -12 -3 3895 3107 3 MP stroke
15 4 -14 4 3885 3244 3 MP stroke
11 10 -13 -3 3891 3355 3 MP stroke
12 4 -13 3 3891 3490 3 MP stroke
14 7 -15 1 3887 3611 3 MP stroke
12 5 -13 1 3892 3738 3 MP stroke
9 6 -11 0 3895 3860 3 MP stroke
14 5 -14 4 3886 3987 3 MP stroke
13 5 -13 3 3889 4112 3 MP stroke
15 1 -14 7 3887 4242 3 MP stroke
15 4 -15 4 3885 4361 3 MP stroke
27 2 -24 13 3862 4495 3 MP stroke
19 4 -10 3 3974 389 3 MP stroke
19 6 -19 5 3984 508 3 MP stroke
18 3 -17 8 3986 636 3 MP stroke
20 -5 -16 15 3985 776 3 MP stroke
20 -11 -13 21 3985 914 3 MP stroke
15 6 -15 3 3992 1128 3 MP stroke
21 -11 -14 21 3983 1286 3 MP stroke
15 15 -20 -5 3989 1356 3 MP stroke
16 18 -21 -7 3988 1475 3 MP stroke
17 2 -16 8 3990 1632 3 MP stroke
7 1 -7 3 4008 1755 3 MP stroke
4 6 -6 -4 4014 1869 3 MP stroke
8 2 -8 3 4006 2002 3 MP stroke
7 -1 -6 5 4008 2133 3 MP stroke
4 -6 -1 8 4016 2266 3 MP stroke
7 4 -8 0 4008 2371 3 MP stroke
8 6 -9 -1 4006 2492 3 MP stroke
8 8 -10 -3 4006 2612 3 MP stroke
5 5 -6 -2 4013 2742 3 MP stroke
5 3 -6 1 4012 2870 3 MP stroke
11 0 -10 6 4002 3001 3 MP stroke
20 6 -20 5 3983 3115 3 MP stroke
17 0 -15 9 3991 3253 3 MP stroke
19 13 -22 -1 3982 3353 3 MP stroke
18 7 -18 3 3986 3487 3 MP stroke
14 4 -14 4 3993 3617 3 MP stroke
9 3 -9 2 4005 3741 3 MP stroke
8 -1 -7 5 4006 3873 3 MP stroke
14 5 -14 3 3996 3988 3 MP stroke
13 6 -14 2 3996 4110 3 MP stroke
12 0 -11 7 3998 4246 3 MP stroke
22 -6 -17 17 3981 4383 3 MP stroke
24 1 -22 12 3975 4496 3 MP stroke
29 -23 -16 36 4080 442 3 MP stroke
19 1 -17 9 4094 517 3 MP stroke
13 -2 -11 9 4104 645 3 MP stroke
21 6 -21 6 4087 757 3 MP stroke
19 3 -18 8 4092 886 3 MP stroke
23 16 -26 -1 4081 985 3 MP stroke
25 -13 -17 25 4083 1167 3 MP stroke
23 10 -24 4 4082 1247 3 MP stroke
22 53 -41 -35 4077 1284 3 MP stroke
23 44 -38 -26 4075 1426 3 MP stroke
26 26 -34 -9 4074 1589 3 MP stroke
21 7 -21 5 4088 1748 3 MP stroke
1 6 -4 -5 4128 1867 3 MP stroke
15 4 -15 4 4102 2001 3 MP stroke
16 -7 -12 15 4099 2146 3 MP stroke
16 -12 -9 19 4103 2279 3 MP stroke
13 -2 -11 9 4105 2385 3 MP stroke
11 7 -12 0 4108 2490 3 MP stroke
5 10 -8 -6 4118 2608 3 MP stroke
3 4 -4 -1 4124 2743 3 MP stroke
5 1 -4 2 4120 2873 3 MP stroke
15 2 -14 7 4100 2999 3 MP stroke
18 5 -18 6 4093 3118 3 MP stroke
19 -10 -13 19 4094 3271 3 MP stroke
20 18 -25 -5 4087 3342 3 MP stroke
21 7 -21 5 4088 3486 3 MP stroke
16 3 -15 6 4098 3618 3 MP stroke
14 2 -13 6 4103 3744 3 MP stroke
12 0 -10 6 4108 3873 3 MP stroke
14 1 -13 6 4102 3995 3 MP stroke
13 9 -15 -1 4103 4103 3 MP stroke
21 -8 -15 19 4091 4263 3 MP stroke
21 5 -20 7 4088 4362 3 MP stroke
23 2 -21 11 4085 4494 3 MP stroke
25 -3 -21 16 4190 403 3 MP stroke
23 4 -22 8 4193 510 3 MP stroke
16 9 -18 1 4205 624 3 MP stroke
19 6 -19 5 4200 756 3 MP stroke
12 6 -14 1 4213 877 3 MP stroke
16 2 -15 8 4205 1012 3 MP stroke
20 -7 -14 17 4201 1155 3 MP stroke
21 -8 -15 18 4199 1281 3 MP stroke
16 27 -25 -16 4201 1334 3 MP stroke
13 45 -30 -33 4205 1421 3 MP stroke
20 12 -22 0 4196 1615 3 MP stroke
18 13 -21 -2 4199 1736 3 MP stroke
12 11 -15 -3 4213 1861 3 MP stroke
18 9 -20 3 4200 1992 3 MP stroke
17 2 -15 7 4206 2130 3 MP stroke
14 -4 -11 11 4211 2264 3 MP stroke
14 0 -12 8 4211 2382 3 MP stroke
8 11 -11 -5 4220 2482 3 MP stroke
9 5 -10 0 4220 2617 3 MP stroke
0 8 -4 -7 4236 2734 3 MP stroke
12 2 -11 4 4215 2873 3 MP stroke
12 0 -11 6 4215 3001 3 MP stroke
9 5 -10 1 4220 3116 3 MP stroke
16 -1 -14 10 4206 3254 3 MP stroke
20 4 -20 8 4198 3370 3 MP stroke
21 5 -20 7 4197 3492 3 MP stroke
17 5 -17 5 4203 3614 3 MP stroke
16 -1 -13 9 4208 3750 3 MP stroke
10 -2 -8 7 4219 3875 3 MP stroke
15 -1 -13 9 4209 3999 3 MP stroke
14 -2 -11 10 4211 4126 3 MP stroke
19 4 -19 7 4200 4239 3 MP stroke
16 -1 -14 9 4206 4373 3 MP stroke
14 3 -14 5 4211 4489 3 MP stroke
27 7 -5 1 4271 389 3 MP stroke
26 1 -24 13 4295 518 3 MP stroke
16 7 -17 2 4315 629 3 MP stroke
21 4 -20 8 4303 760 3 MP stroke
18 6 -18 4 4310 878 3 MP stroke
11 0 -10 6 4324 1013 3 MP stroke
4 -4 -2 6 4339 1144 3 MP stroke
8 -4 -5 9 4330 1270 3 MP stroke
4 6 -6 -4 4337 1372 3 MP stroke
10 2 -10 4 4324 1506 3 MP stroke
12 5 -12 2 4321 1626 3 MP stroke
10 7 -12 -1 4324 1745 3 MP stroke
17 3 -16 7 4312 1880 3 MP stroke
18 -2 -15 12 4311 2014 3 MP stroke
12 1 -11 6 4322 2130 3 MP stroke
12 -1 -10 8 4322 2259 3 MP stroke
7 0 -6 4 4331 2378 3 MP stroke
1 2 -2 -1 4343 2497 3 MP stroke
2 -1 -1 2 4343 2630 3 MP stroke
14 0 -13 8 4319 2755 3 MP stroke
18 4 -17 6 4310 2871 3 MP stroke
14 -6 -10 13 4320 3015 3 MP stroke
6 2 -6 1 4335 3121 3 MP stroke
7 -13 -1 15 4336 3273 3 MP stroke
10 1 -9 5 4325 3374 3 MP stroke
13 5 -13 3 4320 3491 3 MP stroke
9 7 -11 -1 4326 3610 3 MP stroke
16 8 -17 2 4312 3733 3 MP stroke
15 9 -16 0 4315 3855 3 MP stroke
8 1 -8 4 4328 3992 3 MP stroke
5 -1 -4 3 4337 4120 3 MP stroke
10 -4 -8 9 4327 4253 3 MP stroke
11 7 -13 0 4323 4354 3 MP stroke
7 2 -7 2 4332 4488 3 MP stroke
8 3 -11 3 4325 4610 3 MP stroke
18 -1 -15 10 4419 520 3 MP stroke
19 -2 -16 12 4416 647 3 MP stroke
21 2 -20 10 4411 763 3 MP stroke
14 2 -14 6 4425 886 3 MP stroke
23 1 -21 11 4408 1014 3 MP stroke
19 10 -21 2 4414 1120 3 MP stroke
23 4 -22 9 4408 1256 3 MP stroke
20 5 -19 6 4413 1379 3 MP stroke
23 1 -21 12 4409 1511 3 MP stroke
24 -2 -21 15 4406 1643 3 MP stroke
18 3 -17 7 4419 1755 3 MP stroke
15 3 -14 5 4424 1878 3 MP stroke
18 -11 -12 20 4421 2031 3 MP stroke
13 -10 -7 16 4429 2154 3 MP stroke
14 -5 -10 12 4427 2267 3 MP stroke
18 0 -16 10 4418 2383 3 MP stroke
14 11 -17 -2 4423 2485 3 MP stroke
17 12 -20 -1 4418 2607 3 MP stroke
19 12 -22 -1 4414 2732 3 MP stroke
19 7 -20 4 4414 2866 3 MP stroke
20 2 -18 9 4413 3002 3 MP stroke
20 7 -20 4 4414 3116 3 MP stroke
27 2 -25 13 4400 3251 3 MP stroke
24 7 -24 7 4404 3364 3 MP stroke
26 4 -24 11 4403 3496 3 MP stroke
25 8 -25 6 4403 3612 3 MP stroke
24 11 -25 4 4404 3730 3 MP stroke
25 13 -27 2 4403 3851 3 MP stroke
27 3 -25 11 4401 3994 3 MP stroke
27 6 -27 9 4400 4114 3 MP stroke
26 12 -27 4 4401 4225 3 MP stroke
25 9 -26 6 4402 4354 3 MP stroke
26 13 -27 3 4401 4473 3 MP stroke
28 12 -29 4 4396 4598 3 MP stroke
14 -1 -12 9 4535 520 3 MP stroke
9 6 -11 0 4542 629 3 MP stroke
21 -1 -18 12 4521 769 3 MP stroke
19 2 -18 8 4524 887 3 MP stroke
26 0 -23 14 4512 1017 3 MP stroke
23 14 -25 0 4514 1115 3 MP stroke
25 6 -24 9 4510 1254 3 MP stroke
27 4 -26 11 4508 1382 3 MP stroke
27 -1 -24 15 4508 1516 3 MP stroke
27 -1 -23 15 4509 1641 3 MP stroke
24 4 -22 10 4513 1755 3 MP stroke
24 5 -23 9 4512 1876 3 MP stroke
24 -5 -19 17 4517 2021 3 MP stroke
15 -10 -9 17 4533 2154 3 MP stroke
22 2 -20 10 4518 2257 3 MP stroke
20 9 -22 3 4521 2364 3 MP stroke
24 9 -25 5 4512 2490 3 MP stroke
26 10 -27 6 4508 2614 3 MP stroke
26 9 -26 7 4508 2740 3 MP stroke
24 5 -23 9 4512 2872 3 MP stroke
25 1 -23 12 4512 3004 3 MP stroke
28 -4 -23 18 4508 3139 3 MP stroke
23 -3 -18 15 4517 3261 3 MP stroke
26 10 -27 5 4510 3358 3 MP stroke
32 9 -32 10 4497 3488 3 MP stroke
32 10 -32 9 4495 3610 3 MP stroke
30 11 -31 6 4500 3730 3 MP stroke
29 10 -29 6 4503 3857 3 MP stroke
29 2 -27 14 4504 3997 3 MP stroke
35 8 -34 12 4491 4111 3 MP stroke
35 6 -33 13 4492 4239 3 MP stroke
34 2 -31 16 4496 4371 3 MP stroke
32 8 -31 10 4496 4483 3 MP stroke
24 -3 -20 16 4623 525 3 MP stroke
25 4 -24 10 4619 636 3 MP stroke
25 -2 -22 15 4619 772 3 MP stroke
23 2 -21 11 4622 889 3 MP stroke
25 4 -24 10 4619 1011 3 MP stroke
24 11 -26 4 4620 1120 3 MP stroke
22 6 -22 7 4625 1254 3 MP stroke
22 2 -21 10 4625 1384 3 MP stroke
25 -4 -21 17 4621 1522 3 MP stroke
24 1 -22 12 4622 1637 3 MP stroke
23 5 -22 8 4623 1752 3 MP stroke
25 5 -24 9 4618 1877 3 MP stroke
24 3 -22 10 4622 2006 3 MP stroke
25 -1 -22 14 4620 2137 3 MP stroke
23 1 -21 11 4624 2257 3 MP stroke
23 6 -23 7 4624 2372 3 MP stroke
40 -31 -23 49 4598 2574 3 MP stroke
28 -17 -18 30 4619 2668 3 MP stroke
28 -6 -23 20 4616 2769 3 MP stroke
24 -1 -21 14 4622 2882 3 MP stroke
26 -10 -19 23 4620 3025 3 MP stroke
29 -8 -22 23 4614 3146 3 MP stroke
30 -14 -21 28 4613 3282 3 MP stroke
32 -3 -27 20 4607 3387 3 MP stroke
30 -3 -26 19 4610 3510 3 MP stroke
28 -4 -23 19 4614 3636 3 MP stroke
21 11 -23 2 4625 3730 3 MP stroke
25 6 -25 8 4619 3865 3 MP stroke
25 2 -23 12 4619 3995 3 MP stroke
25 5 -24 10 4617 4115 3 MP stroke
24 11 -25 3 4620 4227 3 MP stroke
20 21 -26 -8 4625 4329 3 MP stroke
23 8 -24 5 4624 4479 3 MP stroke
27 14 -29 2 4614 4594 3 MP stroke
25 1 -22 13 4729 519 3 MP stroke
26 5 -25 10 4724 634 3 MP stroke
26 0 -23 14 4727 768 3 MP stroke
26 5 -25 10 4723 883 3 MP stroke
26 9 -27 6 4724 999 3 MP stroke
17 27 -26 -15 4738 1087 3 MP stroke
17 19 -23 -7 4741 1226 3 MP stroke
25 16 -28 -1 4725 1358 3 MP stroke
23 18 -28 -3 4727 1477 3 MP stroke
25 9 -26 6 4726 1621 3 MP stroke
28 7 -28 9 4720 1749 3 MP stroke
27 8 -27 7 4722 1872 3 MP stroke
27 7 -27 9 4721 1998 3 MP stroke
25 11 -27 4 4725 2115 3 MP stroke
20 -5 -15 15 4739 2270 3 MP stroke
8 21 -16 -14 4757 2337 3 MP stroke
29 4 -27 11 4720 2502 3 MP stroke
30 0 -27 16 4718 2635 3 MP stroke
27 2 -24 13 4723 2754 3 MP stroke
24 10 -25 4 4727 2863 3 MP stroke
23 3 -22 10 4731 2999 3 MP stroke
16 8 -17 1 4744 3111 3 MP stroke
19 -1 -16 11 4741 3253 3 MP stroke
24 -4 -20 16 4730 3385 3 MP stroke
20 4 -20 8 4737 3494 3 MP stroke
13 7 -14 1 4750 3611 3 MP stroke
15 7 -16 2 4746 3737 3 MP stroke
15 6 -16 3 4746 3860 3 MP stroke
19 7 -20 4 4739 3984 3 MP stroke
19 7 -20 4 4738 4108 3 MP stroke
16 8 -18 1 4745 4229 3 MP stroke
14 11 -17 -2 4747 4348 3 MP stroke
12 2 -11 5 4753 4489 3 MP stroke
17 13 -20 -3 4742 4593 3 MP stroke
5 1 4851 389 2 MP stroke
21 6 -21 6 4841 507 3 MP stroke
23 6 -23 7 4838 630 3 MP stroke
26 9 -26 6 4832 752 3 MP stroke
16 12 -19 -2 4850 866 3 MP stroke
6 42 -22 -34 4865 929 3 MP stroke
3 57 -26 -49 4868 1025 3 MP stroke
7 46 -25 -37 4863 1170 3 MP stroke
8 38 -23 -30 4861 1309 3 MP stroke
17 19 -23 -8 4847 1474 3 MP stroke
20 14 -23 -2 4844 1609 3 MP stroke
18 13 -21 -2 4848 1734 3 MP stroke
16 13 -19 -3 4851 1858 3 MP stroke
11 23 -19 -14 4858 1964 3 MP stroke
17 7 -18 2 4850 2119 3 MP stroke
3 1 -3 1 4877 2252 3 MP stroke
6 13 -10 -8 4870 2353 3 MP stroke
17 -4 -14 12 4852 2513 3 MP stroke
18 3 -17 7 4848 2626 3 MP stroke
22 2 -20 10 4842 2753 3 MP stroke
13 10 -16 -2 4856 2858 3 MP stroke
11 0 -10 6 4862 3002 3 MP stroke
8 5 -9 0 4868 3115 3 MP stroke
10 0 -9 6 4865 3249 3 MP stroke
5 6 -7 -3 4873 3361 3 MP stroke
9 0 -7 5 4868 3500 3 MP stroke
6 6 -7 -2 4871 3610 3 MP stroke
7 2 -7 2 4869 3743 3 MP stroke
8 9 -10 -4 4867 3855 3 MP stroke
11 3 -12 3 4862 3989 3 MP stroke
12 5 -12 2 4860 4111 3 MP stroke
14 6 -15 3 4856 4234 3 MP stroke
13 7 -14 1 4859 4356 3 MP stroke
13 6 -14 1 4858 4481 3 MP stroke
22 5 -22 8 4947 510 3 MP stroke
17 4 -17 6 4958 634 3 MP stroke
15 7 -16 2 4962 751 3 MP stroke
9 20 -16 -12 4969 849 3 MP stroke
6 42 -23 -34 4972 930 3 MP stroke
3 37 -18 -31 4979 1062 3 MP stroke
6 25 -16 -19 4976 1211 3 MP stroke
13 18 -19 -9 4964 1351 3 MP stroke
10 15 -15 -8 4969 1479 3 MP stroke
10 14 -15 -7 4971 1607 3 MP stroke
7 12 -11 -7 4977 1734 3 MP stroke
6 10 -10 -5 4978 1861 3 MP stroke
7 8 -9 -4 4977 1990 3 MP stroke
14 9 -17 0 4962 2113 3 MP stroke
13 8 -14 0 4965 2241 3 MP stroke
14 6 -15 2 4965 2370 3 MP stroke
11 1 -11 5 4970 2501 3 MP stroke
15 6 -16 3 4963 2618 3 MP stroke
10 3 -10 3 4971 2748 3 MP stroke
9 10 -12 -4 4973 2857 3 MP stroke
16 4 -15 5 4961 2995 3 MP stroke
13 5 -13 3 4965 3116 3 MP stroke
10 2 -9 4 4971 3248 3 MP stroke
8 4 -9 1 4976 3366 3 MP stroke
15 -1 -12 9 4963 3502 3 MP stroke
13 5 -14 2 4966 3613 3 MP stroke
16 2 -15 7 4962 3745 3 MP stroke
13 7 -14 1 4965 3859 3 MP stroke
16 5 -16 5 4959 3987 3 MP stroke
16 6 -17 3 4959 4109 3 MP stroke
16 6 -16 3 4960 4234 3 MP stroke
15 7 -16 2 4961 4357 3 MP stroke
14 6 -15 3 4962 4482 3 MP stroke
17 9 -19 2 4956 4602 3 MP stroke
38 -5 -32 25 5026 409 3 MP stroke
25 1 -22 13 5050 519 3 MP stroke
6 13 -11 -9 5086 614 3 MP stroke
5 6 -6 -2 5089 751 3 MP stroke
1 12 -6 -10 5096 863 3 MP stroke
2 14 -7 -12 5094 983 3 MP stroke
8 12 -12 -6 5082 1112 3 MP stroke
10 5 -11 0 5080 1250 3 MP stroke
10 3 -10 3 5079 1381 3 MP stroke
4 1 -3 1 5092 1506 3 MP stroke
9 4 -9 2 5081 1626 3 MP stroke
8 4 -9 1 5084 1750 3 MP stroke
8 4 -8 0 5084 1875 3 MP stroke
9 4 -10 1 5082 1998 3 MP stroke
9 3 -10 2 5082 2124 3 MP stroke
9 4 -10 1 5082 2247 3 MP stroke
9 3 -9 2 5083 2374 3 MP stroke
9 2 -9 3 5083 2498 3 MP stroke
8 3 -8 2 5084 2621 3 MP stroke
10 3 -10 2 5080 2747 3 MP stroke
4 1 -4 1 5091 2873 3 MP stroke
5 1 -5 2 5091 2997 3 MP stroke
6 1 -6 2 5090 3121 3 MP stroke
9 2 -9 4 5081 3246 3 MP stroke
6 7 -8 -3 5088 3360 3 MP stroke
9 2 -9 4 5082 3494 3 MP stroke
7 11 -10 -7 5085 3601 3 MP stroke
11 3 -10 3 5078 3742 3 MP stroke
11 4 -11 2 5079 3864 3 MP stroke
12 4 -12 3 5076 3987 3 MP stroke
12 6 -13 1 5076 4109 3 MP stroke
12 5 -13 2 5075 4235 3 MP stroke
9 8 -11 -2 5080 4353 3 MP stroke
15 5 -15 3 5070 4484 3 MP stroke
5167 389 PD
10 13 -14 -5 5185 491 3 MP stroke
1 15 -7 -13 5202 608 3 MP stroke
4 8 -7 -5 5197 747 3 MP stroke
7 3 -7 1 5193 882 3 MP stroke
8 2 -8 3 5193 1009 3 MP stroke
7 4 -8 0 5193 1127 3 MP stroke
9 2 -8 3 5190 1258 3 MP stroke
8 9 -11 -4 5192 1367 3 MP stroke
10 1 -9 4 5188 1509 3 MP stroke
8 4 -9 1 5192 1624 3 MP stroke
8 4 -8 0 5192 1750 3 MP stroke
8 4 -9 1 5190 1875 3 MP stroke
7 3 -8 1 5192 1999 3 MP stroke
8 4 -9 1 5192 2124 3 MP stroke
8 3 -9 2 5191 2248 3 MP stroke
8 3 -9 2 5191 2373 3 MP stroke
9 2 -9 3 5190 2500 3 MP stroke
4 10 -7 -7 5199 2607 3 MP stroke
11 3 -10 3 5187 2748 3 MP stroke
11 3 -11 3 5185 2871 3 MP stroke
12 5 -13 2 5184 2993 3 MP stroke
13 5 -13 3 5181 3116 3 MP stroke
12 6 -13 2 5182 3240 3 MP stroke
12 3 -12 3 5184 3369 3 MP stroke
15 4 -14 5 5178 3492 3 MP stroke
8 8 -10 -3 5189 3607 3 MP stroke
15 5 -15 4 5178 3739 3 MP stroke
10 6 -11 1 5186 3860 3 MP stroke
13 6 -14 2 5180 3984 3 MP stroke
16 4 -16 5 5177 4113 3 MP stroke
16 5 -17 5 5175 4236 3 MP stroke
10 5 -11 1 5187 4357 3 MP stroke
15 8 -16 1 5176 4480 3 MP stroke
10 9 -13 -2 5186 4600 3 MP stroke
8 1 -7 3 5300 886 3 MP stroke
7 3 -7 1 5301 1006 3 MP stroke
6 4 -7 0 5303 1254 3 MP stroke
6 7 -8 -3 5303 1371 3 MP stroke
9 -1 -7 6 5297 1512 3 MP stroke
6 3 -7 0 5304 1627 3 MP stroke
11 1 -11 5 5294 1757 3 MP stroke
5 4 -6 -1 5305 1874 3 MP stroke
6 2 -6 1 5302 2001 3 MP stroke
8 2 -8 3 5299 2126 3 MP stroke
9 2 -9 3 5299 2251 3 MP stroke
9 2 -9 3 5297 2376 3 MP stroke
10 0 -9 6 5295 2503 3 MP stroke
6 10 -10 -5 5302 2608 3 MP stroke
8 2 -8 3 5299 2748 3 MP stroke
4 8 -7 -5 5307 2861 3 MP stroke
5 1 -5 2 5305 2996 3 MP stroke
8 2 -8 2 5301 3120 3 MP stroke
7 3 -7 2 5301 3243 3 MP stroke
8 3 -8 2 5299 3369 3 MP stroke
10 2 -10 3 5297 3494 3 MP stroke
11 9 -13 -2 5293 3607 3 MP stroke
10 2 -10 4 5295 3743 3 MP stroke
12 3 -12 4 5293 3865 3 MP stroke
15 3 -14 5 5286 3989 3 MP stroke
11 9 -13 -2 5293 4102 3 MP stroke
16 4 -16 4 5285 4238 3 MP stroke
11 12 -14 -5 5293 4345 3 MP stroke
14 6 -14 3 5287 4482 3 MP stroke
13 6 -14 2 5290 4606 3 MP stroke
11 2 -10 4 5402 1134 3 MP stroke
8 2 -8 3 5407 1258 3 MP stroke
5 4 -6 0 5412 1376 3 MP stroke
8 -4 -6 7 5410 1517 3 MP stroke
7 3 -7 1 5410 1627 3 MP stroke
11 0 -10 6 5400 1758 3 MP stroke
8 15 -13 -10 5405 1852 3 MP stroke
8 1 -7 3 5407 2003 3 MP stroke
6 3 -6 0 5411 2124 3 MP stroke
9 1 -8 4 5406 2252 3 MP stroke
9 6 -10 -1 5404 2368 3 MP stroke
11 4 -11 2 5402 2497 3 MP stroke
10 8 -12 -2 5402 2611 3 MP stroke
10 2 -10 4 5402 2748 3 MP stroke
9 6 -10 0 5404 2865 3 MP stroke
13 3 -12 5 5397 2998 3 MP stroke
14 6 -15 2 5396 3115 3 MP stroke
11 4 -11 2 5401 3243 3 MP stroke
13 4 -13 4 5396 3367 3 MP stroke
14 3 -13 5 5396 3494 3 MP stroke
5 7 -7 -3 5413 3609 3 MP stroke
11 4 -11 3 5401 3741 3 MP stroke
13 6 -14 2 5396 3861 3 MP stroke
16 4 -16 6 5390 3990 3 MP stroke
16 5 -16 5 5390 4113 3 MP stroke
18 5 -18 5 5388 4236 3 MP stroke
12 2 -12 5 5399 4366 3 MP stroke
13 5 -14 3 5396 4485 3 MP stroke
8 1 -8 3 5515 1134 3 MP stroke
7 1 -7 3 5517 1258 3 MP stroke
-6 -4 7 0 5543 1390 3 MP stroke
6 3 -6 1 5518 1504 3 MP stroke
7 5 -8 0 5516 1623 3 MP stroke
10 -1 -8 6 5513 1760 3 MP stroke
10 11 -14 -4 5509 1859 3 MP stroke
9 1 -9 4 5513 2004 3 MP stroke
4 6 -6 -3 5521 2120 3 MP stroke
9 1 -9 4 5512 2253 3 MP stroke
3 2 -3 0 5524 2376 3 MP stroke
5 -1 -4 4 5521 2506 3 MP stroke
1 8 -4 -6 5526 2612 3 MP stroke
10 2 -10 4 5511 2750 3 MP stroke
5 8 -8 -4 5520 2860 3 MP stroke
6 0 -5 3 5519 3000 3 MP stroke
7 6 -9 -1 5515 3113 3 MP stroke
8 1 -7 3 5516 3247 3 MP stroke
8 3 -8 2 5514 3369 3 MP stroke
10 3 -10 3 5511 3493 3 MP stroke
10 3 -11 2 5511 3616 3 MP stroke
11 4 -11 2 5508 3739 3 MP stroke
11 3 -11 3 5510 3865 3 MP stroke
12 4 -12 3 5507 3988 3 MP stroke
12 5 -12 3 5506 4111 3 MP stroke
14 5 -14 3 5502 4237 3 MP stroke
10 8 -12 -2 5508 4352 3 MP stroke
15 6 -16 4 5500 4483 3 MP stroke
-1 8 -2 -8 5638 1117 3 MP stroke
7 2 -7 3 5624 1258 3 MP stroke
-5 0 4 -2 5648 1381 3 MP stroke
7 3 -7 1 5625 1503 3 MP stroke
4 -1 -3 3 5630 1634 3 MP stroke
6 -5 -3 7 5628 1767 3 MP stroke
8 6 -9 -1 5622 1869 3 MP stroke
11 3 -11 3 5616 2002 3 MP stroke
12 2 -11 4 5616 2127 3 MP stroke
11 1 -10 5 5618 2254 3 MP stroke
6 9 -9 -5 5627 2361 3 MP stroke
11 1 -10 5 5618 2501 3 MP stroke
6 8 -9 -4 5625 2612 3 MP stroke
12 3 -12 4 5614 2747 3 MP stroke
8 9 -10 -3 5621 2860 3 MP stroke
11 3 -11 3 5618 2996 3 MP stroke
5 4 -6 -1 5628 3116 3 MP stroke
13 3 -13 5 5613 3245 3 MP stroke
11 7 -12 0 5615 3362 3 MP stroke
13 4 -13 3 5612 3490 3 MP stroke
13 6 -14 2 5611 3613 3 MP stroke
13 4 -13 4 5613 3740 3 MP stroke
12 4 -12 3 5615 3864 3 MP stroke
15 4 -15 5 5607 3989 3 MP stroke
9 7 -11 -2 5619 4106 3 MP stroke
15 7 -16 2 5608 4234 3 MP stroke
16 7 -17 3 5605 4357 3 MP stroke
17 7 -17 3 5605 4481 3 MP stroke
16 7 -17 3 5607 4605 3 MP stroke
11 -5 -8 11 5726 526 3 MP stroke
8 0 -7 4 5730 1013 3 MP stroke
8 6 -9 -1 5730 1124 3 MP stroke
10 3 -10 3 5726 1256 3 MP stroke
-2 2 1 -3 5750 1378 3 MP stroke
11 2 -10 5 5724 1507 3 MP stroke
7 3 -8 2 5731 1628 3 MP stroke
10 1 -9 5 5727 1758 3 MP stroke
5 3 -5 0 5737 1876 3 MP stroke
6 3 -6 0 5734 2000 3 MP stroke
3 3 -4 -1 5740 2123 3 MP stroke
5 1 -5 2 5737 2253 3 MP stroke
-8 9 3 -12 5760 2358 3 MP stroke
9 2 -9 3 5729 2500 3 MP stroke
5 9 -8 -5 5735 2611 3 MP stroke
6 2 -6 1 5735 2748 3 MP stroke
6 2 -6 2 5734 2872 3 MP stroke
7 2 -7 2 5733 2996 3 MP stroke
2 6 -4 -4 5740 3111 3 MP stroke
8 1 -8 4 5731 3247 3 MP stroke
6 8 -9 -4 5732 3357 3 MP stroke
10 4 -11 2 5726 3490 3 MP stroke
11 4 -11 3 5724 3616 3 MP stroke
12 5 -13 2 5722 3737 3 MP stroke
6 6 -8 -2 5733 3859 3 MP stroke
12 4 -12 3 5722 3989 3 MP stroke
10 7 -11 -1 5726 4107 3 MP stroke
14 5 -14 2 5719 4235 3 MP stroke
16 6 -16 4 5714 4359 3 MP stroke
14 5 -15 3 5718 4485 3 MP stroke
20 2 -18 9 5814 516 3 MP stroke
10 0 -9 5 5836 1012 3 MP stroke
8 6 -10 0 5837 1124 3 MP stroke
7 2 -7 2 5841 1257 3 MP stroke
1 4 -2 -3 5851 1374 3 MP stroke
8 1 -7 4 5837 1507 3 MP stroke
5 7 -7 -3 5842 1618 3 MP stroke
7 1 -6 3 5841 1756 3 MP stroke
9 3 -9 2 5835 1876 3 MP stroke
11 3 -11 3 5833 2002 3 MP stroke
10 9 -12 -3 5834 2114 3 MP stroke
12 2 -11 4 5831 2252 3 MP stroke
7 7 -9 -3 5839 2366 3 MP stroke
10 2 -9 4 5834 2502 3 MP stroke
3 9 -6 -6 5846 2610 3 MP stroke
11 4 -11 3 5831 2745 3 MP stroke
13 4 -13 3 5828 2869 3 MP stroke
13 4 -13 3 5828 2994 3 MP stroke
6 8 -8 -3 5840 3109 3 MP stroke
14 4 -14 4 5826 3244 3 MP stroke
15 6 -16 3 5823 3363 3 MP stroke
15 5 -15 4 5823 3491 3 MP stroke
15 6 -16 3 5823 3614 3 MP stroke
14 7 -16 1 5825 3734 3 MP stroke
15 5 -15 4 5825 3862 3 MP stroke
15 7 -16 2 5824 3985 3 MP stroke
10 8 -12 -2 5834 4105 3 MP stroke
16 4 -16 5 5821 4238 3 MP stroke
16 8 -17 2 5821 4356 3 MP stroke
13 5 -13 3 5827 4485 3 MP stroke
10 6 -11 0 5834 4604 3 MP stroke
12 3 5914 389 2 MP stroke
17 3 -16 7 5928 513 3 MP stroke
4 6 -6 -3 5953 1124 3 MP stroke
12 3 -12 4 5937 1257 3 MP stroke
10 3 -10 2 5942 1379 3 MP stroke
8 0 -7 4 5947 1508 3 MP stroke
2 8 -5 -6 5956 1616 3 MP stroke
7 2 -7 2 5948 1755 3 MP stroke
-2 10 -2 -9 5963 1861 3 MP stroke
4 0 -3 2 5953 2005 3 MP stroke
2 8 -5 -6 5955 2115 3 MP stroke
9 2 -8 3 5943 2253 3 MP stroke
8 7 -10 -1 5945 2365 3 MP stroke
5 2 -5 1 5952 2501 3 MP stroke
7 8 -10 -4 5948 2612 3 MP stroke
6 1 -6 2 5949 2749 3 MP stroke
7 9 -10 -4 5947 2860 3 MP stroke
8 2 -8 3 5947 2996 3 MP stroke
4 5 -6 -2 5953 3113 3 MP stroke
9 4 -9 2 5943 3243 3 MP stroke
8 9 -11 -3 5944 3355 3 MP stroke
12 3 -11 4 5937 3495 3 MP stroke
9 5 -10 0 5942 3612 3 MP stroke
12 4 -12 3 5937 3740 3 MP stroke
14 9 -16 0 5931 3855 3 MP stroke
15 6 -16 3 5932 3986 3 MP stroke
16 5 -16 5 5929 4112 3 MP stroke
16 7 -17 3 5928 4231 3 MP stroke
18 8 -19 3 5924 4354 3 MP stroke
17 1 -16 8 5928 4493 3 MP stroke
12 0 -10 7 6046 392 3 MP stroke
9 5 -9 1 6051 506 3 MP stroke
8 3 -8 2 6052 1007 3 MP stroke
6 4 -7 0 6057 1130 3 MP stroke
8 2 -7 3 6053 1258 3 MP stroke
11 5 -12 2 6047 1376 3 MP stroke
10 4 -10 2 6048 1502 3 MP stroke
10 4 -10 2 6050 1626 3 MP stroke
6 1 -6 2 6057 1754 3 MP stroke
2 7 -4 -5 6065 1866 3 MP stroke
9 0 -8 5 6051 2006 3 MP stroke
8 2 -8 3 6053 2127 3 MP stroke
9 2 -9 4 6052 2251 3 MP stroke
8 8 -10 -3 6053 2364 3 MP stroke
10 2 -10 3 6049 2501 3 MP stroke
11 3 -11 4 6046 2623 3 MP stroke
12 4 -12 3 6045 2748 3 MP stroke
12 5 -12 3 6045 2868 3 MP stroke
10 4 -10 2 6048 2993 3 MP stroke
11 4 -12 3 6047 3117 3 MP stroke
14 5 -14 3 6042 3242 3 MP stroke
14 4 -14 4 6040 3367 3 MP stroke
13 4 -13 4 6042 3493 3 MP stroke
12 8 -14 -1 6045 3607 3 MP stroke
16 5 -16 4 6037 3740 3 MP stroke
15 6 -15 3 6040 3861 3 MP stroke
17 5 -17 5 6034 3989 3 MP stroke
13 10 -15 -2 6043 4101 3 MP stroke
17 9 -19 2 6034 4229 3 MP stroke
17 10 -19 1 6034 4351 3 MP stroke
23 7 -22 7 6023 4484 3 MP stroke
-3 6 0 -7 6184 747 3 MP stroke
-7 1 6 -5 6192 881 3 MP stroke
6 1 -6 2 6167 1008 3 MP stroke
9 2 -9 3 6160 1133 3 MP stroke
8 5 -9 0 6161 1250 3 MP stroke
5 3 -5 0 6168 1379 3 MP stroke
5 3 -6 0 6167 1503 3 MP stroke
6 3 -7 1 6165 1627 3 MP stroke
4 2 -4 0 6168 1753 3 MP stroke
19 3 -18 7 6139 1880 3 MP stroke
10 1 -10 4 6158 2005 3 MP stroke
6 5 -7 -2 6164 2121 3 MP stroke
7 2 -7 2 6165 2250 3 MP stroke
12 5 -13 2 6153 2372 3 MP stroke
8 3 -8 2 6160 2498 3 MP stroke
4 2 -4 0 6169 2623 3 MP stroke
7 4 -8 1 6163 2745 3 MP stroke
7 5 -8 -1 6163 2867 3 MP stroke
5 4 -6 0 6165 2992 3 MP stroke
10 3 -10 2 6157 3120 3 MP stroke
9 1 -8 4 6159 3246 3 MP stroke
9 14 -14 -8 6158 3345 3 MP stroke
11 2 -10 4 6157 3496 3 MP stroke
8 6 -10 0 6160 3611 3 MP stroke
11 2 -10 4 6155 3743 3 MP stroke
11 6 -13 1 6153 3859 3 MP stroke
11 3 -11 3 6155 3990 3 MP stroke
9 4 -9 1 6159 4111 3 MP stroke
15 -2 -12 10 6148 4248 3 MP stroke
14 6 -15 3 6147 4357 3 MP stroke
19 7 -19 4 6139 4482 3 MP stroke
899 1383 PD
899 1507 PD
899 2502 PD
899 2626 PD
899 2750 PD
899 3372 PD
1006 389 PD
-40 7 1006 513 2 MP stroke
-69 -1 1006 637 2 MP stroke
-20 -19 1006 886 2 MP stroke
-31 -5 1006 1010 2 MP stroke
-37 -5 1006 1134 2 MP stroke
-41 -6 1006 1259 2 MP stroke
-25 -10 1006 1383 2 MP stroke
-40 -11 1006 1507 2 MP stroke
-54 -18 1006 1631 2 MP stroke
-37 2 1006 2377 2 MP stroke
-30 -3 1006 2502 2 MP stroke
-31 -2 1006 2626 2 MP stroke
-29 -21 1006 2750 2 MP stroke
-29 -20 1006 2874 2 MP stroke
-29 -4 1006 2999 2 MP stroke
-30 -5 1006 3123 2 MP stroke
-10 -9 1006 3247 2 MP stroke
-10 -7 1006 3372 2 MP stroke
-10 -5 1006 3496 2 MP stroke
-12 -5 1006 3620 2 MP stroke
-19 -1 1006 3744 2 MP stroke
-22 -2 1006 3869 2 MP stroke
-30 1 1006 3993 2 MP stroke
-33 -17 1006 4117 2 MP stroke
-35 -2 1006 4242 2 MP stroke
-36 -15 1006 4366 2 MP stroke
-41 5 1006 4490 2 MP stroke
1114 389 PD
-31 0 1114 513 2 MP stroke
-84 12 1114 637 2 MP stroke
-45 6 1114 886 2 MP stroke
-49 15 1114 1010 2 MP stroke
-26 -28 1114 1134 2 MP stroke
-39 2 1114 1259 2 MP stroke
-36 -7 1114 1383 2 MP stroke
-44 -9 1114 1507 2 MP stroke
-39 -13 1114 1631 2 MP stroke
-30 -1 1114 2377 2 MP stroke
-28 -3 1114 2502 2 MP stroke
-26 -4 1114 2626 2 MP stroke
-26 -21 1114 2750 2 MP stroke
-30 -19 1114 2874 2 MP stroke
-29 -10 1114 2999 2 MP stroke
-28 -9 1114 3123 2 MP stroke
-26 -11 1114 3247 2 MP stroke
-24 -8 1114 3372 2 MP stroke
-21 -6 1114 3496 2 MP stroke
-27 -5 1114 3620 2 MP stroke
-37 0 1114 3744 2 MP stroke
-35 -9 1114 3869 2 MP stroke
-46 -2 1114 3993 2 MP stroke
-44 -11 1114 4117 2 MP stroke
-44 0 1114 4242 2 MP stroke
-43 -3 1114 4366 2 MP stroke
-50 6 1114 4490 2 MP stroke
-34 8 1222 513 2 MP stroke
-46 2 1222 637 2 MP stroke
-36 0 1222 761 2 MP stroke
-36 -2 1222 886 2 MP stroke
-45 10 1222 1010 2 MP stroke
-32 -18 1222 1134 2 MP stroke
-16 -8 1222 1383 2 MP stroke
-18 -8 1222 1507 2 MP stroke
-17 -8 1222 1631 2 MP stroke
-22 -5 1222 2502 2 MP stroke
-20 -7 1222 2626 2 MP stroke
-16 -16 1222 2750 2 MP stroke
-25 -8 1222 2874 2 MP stroke
-27 -4 1222 2999 2 MP stroke
-27 -6 1222 3123 2 MP stroke
-28 -8 1222 3247 2 MP stroke
-23 -6 1222 3372 2 MP stroke
-33 -4 1222 3496 2 MP stroke
-30 -4 1222 3620 2 MP stroke
-19 -3 1222 3744 2 MP stroke
-22 -2 1222 3869 2 MP stroke
-29 1 1222 3993 2 MP stroke
-27 -18 1222 4117 2 MP stroke
-33 2 1222 4242 2 MP stroke
-37 -12 1222 4366 2 MP stroke
-32 1 1222 4490 2 MP stroke
1329 389 PD
-45 -1 1329 513 2 MP stroke
-36 -7 1329 637 2 MP stroke
-45 7 1329 761 2 MP stroke
-30 -17 1329 886 2 MP stroke
-50 -5 1329 1010 2 MP stroke
-61 -35 1329 1134 2 MP stroke
-56 3 1329 1259 2 MP stroke
-3 0 1329 1507 2 MP stroke
-19 -12 1329 2502 2 MP stroke
-22 -14 1329 2626 2 MP stroke
-9 -8 1329 2750 2 MP stroke
-18 -16 1329 2874 2 MP stroke
-14 -5 1329 2999 2 MP stroke
-14 -3 1329 3123 2 MP stroke
-24 -3 1329 3247 2 MP stroke
-15 -6 1329 3372 2 MP stroke
-31 -5 1329 3496 2 MP stroke
-36 -2 1329 3620 2 MP stroke
-34 -6 1329 3744 2 MP stroke
-40 -4 1329 3869 2 MP stroke
-47 -2 1329 3993 2 MP stroke
-46 0 1329 4117 2 MP stroke
-46 -4 1329 4242 2 MP stroke
-32 -35 1329 4366 2 MP stroke
-49 3 1329 4490 2 MP stroke
1437 389 PD
-40 10 1437 513 2 MP stroke
-31 -7 1437 637 2 MP stroke
-41 1 1437 761 2 MP stroke
-35 -13 1437 886 2 MP stroke
-49 -3 1437 1010 2 MP stroke
-49 1 1437 1134 2 MP stroke
-42 4 1437 1259 2 MP stroke
-15 -3 1437 1383 2 MP stroke
-35 -7 1437 2502 2 MP stroke
-30 -3 1437 2626 2 MP stroke
-6 -1 1437 3123 2 MP stroke
-17 -1 1437 3247 2 MP stroke
-21 -5 1437 3372 2 MP stroke
-14 -4 1437 3496 2 MP stroke
-17 -3 1437 3620 2 MP stroke
-18 -7 1437 3744 2 MP stroke
-21 -6 1437 3869 2 MP stroke
-28 -5 1437 3993 2 MP stroke
-29 -4 1437 4117 2 MP stroke
-30 -4 1437 4242 2 MP stroke
-30 -19 1437 4366 2 MP stroke
-31 0 1437 4490 2 MP stroke
1545 389 PD
-47 7 1545 513 2 MP stroke
-32 4 1545 637 2 MP stroke
-53 10 1545 761 2 MP stroke
-49 -4 1545 886 2 MP stroke
-47 0 1545 1010 2 MP stroke
-49 -3 1545 1134 2 MP stroke
-48 2 1545 1259 2 MP stroke
-47 1 1545 1383 2 MP stroke
-33 -7 1545 1507 2 MP stroke
3 -12 1545 3123 2 MP stroke
-19 -1 1545 3247 2 MP stroke
-19 -3 1545 3372 2 MP stroke
-30 -2 1545 3496 2 MP stroke
-33 -1 1545 3620 2 MP stroke
-31 3 1545 3744 2 MP stroke
-40 -2 1545 3869 2 MP stroke
-42 1 1545 3993 2 MP stroke
-41 0 1545 4117 2 MP stroke
-42 -5 1545 4242 2 MP stroke
-44 0 1545 4366 2 MP stroke
-43 1 1545 4490 2 MP stroke
1653 389 PD
-33 6 1653 513 2 MP stroke
-32 -13 1653 637 2 MP stroke
-46 13 1653 761 2 MP stroke
-39 -11 1653 886 2 MP stroke
-38 9 1653 1010 2 MP stroke
-28 -21 1653 1134 2 MP stroke
-42 8 1653 1259 2 MP stroke
-39 0 1653 1383 2 MP stroke
-30 -6 1653 1507 2 MP stroke
-15 21 1653 2502 2 MP stroke
-31 -14 1653 2626 2 MP stroke
-27 8 1653 2750 2 MP stroke
-24 -1 1653 3123 2 MP stroke
-30 -2 1653 3247 2 MP stroke
-32 -3 1653 3372 2 MP stroke
-16 -2 1653 3496 2 MP stroke
-18 0 1653 3620 2 MP stroke
-25 -1 1653 3744 2 MP stroke
-26 -4 1653 3869 2 MP stroke
-26 -3 1653 3993 2 MP stroke
-26 -2 1653 4117 2 MP stroke
-26 -5 1653 4242 2 MP stroke
-25 -10 1653 4366 2 MP stroke
-28 -6 1653 4490 2 MP stroke
-27 -6 1653 4615 2 MP stroke
1760 389 PD
-38 -2 1760 513 2 MP stroke
-30 -11 1760 637 2 MP stroke
-39 4 1760 761 2 MP stroke
-50 -7 1760 886 2 MP stroke
-36 -6 1760 1010 2 MP stroke
-28 -4 1760 1134 2 MP stroke
-31 13 1760 1259 2 MP stroke
-24 18 1760 1383 2 MP stroke
-25 -5 1760 1507 2 MP stroke
-41 -6 1760 1631 2 MP stroke
-26 7 1760 2502 2 MP stroke
-30 -16 1760 2626 2 MP stroke
-23 12 1760 2750 2 MP stroke
-16 -1 1760 2874 2 MP stroke
-12 0 1760 2999 2 MP stroke
-13 -3 1760 3123 2 MP stroke
-24 -3 1760 3247 2 MP stroke
-30 -4 1760 3372 2 MP stroke
-39 -1 1760 3496 2 MP stroke
-39 0 1760 3620 2 MP stroke
-37 -5 1760 3744 2 MP stroke
-40 -4 1760 3869 2 MP stroke
-38 -6 1760 3993 2 MP stroke
-30 -20 1760 4117 2 MP stroke
-50 4 1760 4242 2 MP stroke
-47 -3 1760 4366 2 MP stroke
-45 0 1760 4490 2 MP stroke
1868 389 PD
-22 0 1868 513 2 MP stroke
-76 -31 1868 637 2 MP stroke
-34 -4 1868 761 2 MP stroke
-43 -5 1868 886 2 MP stroke
-58 16 1868 1010 2 MP stroke
-37 -4 1868 1134 2 MP stroke
-38 4 1868 1259 2 MP stroke
-38 -14 1868 1383 2 MP stroke
-17 -3 1868 1507 2 MP stroke
-13 -3 1868 1631 2 MP stroke
-22 -9 1868 2626 2 MP stroke
-25 3 1868 2750 2 MP stroke
-19 -12 1868 2874 2 MP stroke
-21 6 1868 2999 2 MP stroke
-23 3 1868 3123 2 MP stroke
-23 -3 1868 3247 2 MP stroke
-29 -6 1868 3372 2 MP stroke
-17 -3 1868 3496 2 MP stroke
-19 -2 1868 3620 2 MP stroke
-21 -4 1868 3744 2 MP stroke
-23 -6 1868 3869 2 MP stroke
-26 -6 1868 3993 2 MP stroke
-27 -6 1868 4117 2 MP stroke
-30 -5 1868 4242 2 MP stroke
-30 -6 1868 4366 2 MP stroke
-34 -6 1868 4490 2 MP stroke
-32 -5 1868 4615 2 MP stroke
-18 2 1976 389 2 MP stroke
-23 2 1976 513 2 MP stroke
-58 -25 1976 637 2 MP stroke
-54 10 1976 761 2 MP stroke
-25 -4 1976 886 2 MP stroke
-24 -22 1976 1010 2 MP stroke
-26 2 1976 1134 2 MP stroke
-27 -3 1976 1259 2 MP stroke
-34 -2 1976 1383 2 MP stroke
-30 -3 1976 1507 2 MP stroke
-3 -3 1976 1631 2 MP stroke
-42 -10 1976 2502 2 MP stroke
-30 -7 1976 2626 2 MP stroke
-27 2 1976 2750 2 MP stroke
-25 -13 1976 2874 2 MP stroke
-24 -1 1976 2999 2 MP stroke
-24 -2 1976 3123 2 MP stroke
-24 -4 1976 3247 2 MP stroke
-32 -3 1976 3372 2 MP stroke
-37 -4 1976 3496 2 MP stroke
-37 -3 1976 3620 2 MP stroke
-36 -2 1976 3744 2 MP stroke
-39 -4 1976 3869 2 MP stroke
-44 -5 1976 3993 2 MP stroke
-46 -5 1976 4117 2 MP stroke
-43 -6 1976 4242 2 MP stroke
-47 -6 1976 4366 2 MP stroke
-50 -8 1976 4490 2 MP stroke
-47 -5 1976 4615 2 MP stroke
2084 389 PD
-32 7 2084 513 2 MP stroke
-35 -19 2084 637 2 MP stroke
-40 6 2084 761 2 MP stroke
-27 -12 2084 886 2 MP stroke
-38 2 2084 1010 2 MP stroke
-33 3 2084 1134 2 MP stroke
-6 3 2084 1259 2 MP stroke
-18 -17 2084 1383 2 MP stroke
-11 -13 2084 1507 2 MP stroke
-24 -6 2084 1631 2 MP stroke
-9 -6 2084 2377 2 MP stroke
-13 -1 2084 2502 2 MP stroke
-11 -13 2084 2626 2 MP stroke
-27 1 2084 2750 2 MP stroke
-18 -6 2084 2874 2 MP stroke
-21 2 2084 2999 2 MP stroke
-23 -8 2084 3123 2 MP stroke
-25 -5 2084 3247 2 MP stroke
-32 -2 2084 3372 2 MP stroke
-16 -3 2084 3496 2 MP stroke
-16 -3 2084 3620 2 MP stroke
-19 -3 2084 3744 2 MP stroke
-22 -4 2084 3869 2 MP stroke
-26 -4 2084 3993 2 MP stroke
-27 -6 2084 4117 2 MP stroke
-30 -4 2084 4242 2 MP stroke
-32 -5 2084 4366 2 MP stroke
-36 -1 2084 4490 2 MP stroke
-34 -4 2084 4615 2 MP stroke
-31 3 2191 389 2 MP stroke
-49 12 2191 513 2 MP stroke
-24 -18 2191 637 2 MP stroke
-42 -2 2191 761 2 MP stroke
-52 7 2191 886 2 MP stroke
-48 0 2191 1010 2 MP stroke
-41 -2 2191 1134 2 MP stroke
-51 4 2191 1259 2 MP stroke
-23 -11 2191 1383 2 MP stroke
-20 -2 2191 1631 2 MP stroke
-28 -15 2191 2377 2 MP stroke
-31 3 2191 2502 2 MP stroke
-31 -9 2191 2626 2 MP stroke
-21 -6 2191 2750 2 MP stroke
-20 -11 2191 2874 2 MP stroke
-23 -5 2191 2999 2 MP stroke
-23 -5 2191 3123 2 MP stroke
-25 -5 2191 3247 2 MP stroke
-33 0 2191 3372 2 MP stroke
-33 -1 2191 3496 2 MP stroke
-31 -1 2191 3620 2 MP stroke
-37 -3 2191 3744 2 MP stroke
-21 -26 2191 3869 2 MP stroke
-42 -1 2191 3993 2 MP stroke
-33 -19 2191 4117 2 MP stroke
-43 0 2191 4242 2 MP stroke
-53 1 2191 4366 2 MP stroke
-48 8 2191 4490 2 MP stroke
2299 389 PD
-39 8 2299 513 2 MP stroke
-43 -4 2299 637 2 MP stroke
-42 9 2299 761 2 MP stroke
-42 1 2299 886 2 MP stroke
-44 -2 2299 1010 2 MP stroke
-45 -14 2299 1134 2 MP stroke
-34 -3 2299 1259 2 MP stroke
-20 -17 2299 1383 2 MP stroke
-11 6 2299 1507 2 MP stroke
-18 -10 2299 1631 2 MP stroke
-21 0 2299 1756 2 MP stroke
-13 -4 2299 1880 2 MP stroke
-30 4 2299 2253 2 MP stroke
-22 -17 2299 2377 2 MP stroke
-26 -2 2299 2502 2 MP stroke
-26 -2 2299 2626 2 MP stroke
-20 -10 2299 2750 2 MP stroke
-19 -16 2299 2874 2 MP stroke
-18 -9 2299 2999 2 MP stroke
-17 -2 2299 3123 2 MP stroke
-23 -2 2299 3247 2 MP stroke
-16 -19 2299 3372 2 MP stroke
-14 2 2299 3496 2 MP stroke
-18 -20 2299 3620 2 MP stroke
-31 -5 2299 3744 2 MP stroke
-19 -23 2299 3869 2 MP stroke
-31 -3 2299 3993 2 MP stroke
-32 -3 2299 4117 2 MP stroke
-33 -6 2299 4242 2 MP stroke
-29 -18 2299 4366 2 MP stroke
-30 10 2299 4490 2 MP stroke
2407 389 PD
-48 5 2407 513 2 MP stroke
-39 5 2407 637 2 MP stroke
-50 5 2407 761 2 MP stroke
-50 -9 2407 886 2 MP stroke
-47 2 2407 1010 2 MP stroke
-40 -21 2407 1134 2 MP stroke
-23 -3 2407 1507 2 MP stroke
-22 -5 2407 1631 2 MP stroke
-29 -2 2407 1756 2 MP stroke
-33 -6 2407 1880 2 MP stroke
-32 7 2407 2004 2 MP stroke
-26 -10 2407 2129 2 MP stroke
-28 7 2407 2253 2 MP stroke
-30 2 2407 2377 2 MP stroke
-26 -5 2407 2502 2 MP stroke
-26 -4 2407 2626 2 MP stroke
-23 1 2407 2750 2 MP stroke
-26 -7 2407 2874 2 MP stroke
-21 -1 2407 2999 2 MP stroke
-14 -23 2407 3123 2 MP stroke
-27 -1 2407 3247 2 MP stroke
-40 -13 2407 3372 2 MP stroke
-35 -2 2407 3496 2 MP stroke
-40 3 2407 3620 2 MP stroke
-37 -3 2407 3744 2 MP stroke
-21 -18 2407 3869 2 MP stroke
-44 1 2407 3993 2 MP stroke
-43 -3 2407 4117 2 MP stroke
-44 -5 2407 4242 2 MP stroke
-37 -12 2407 4366 2 MP stroke
-45 1 2407 4490 2 MP stroke
2515 389 PD
-46 10 2515 513 2 MP stroke
-45 3 2515 637 2 MP stroke
-35 -26 2515 886 2 MP stroke
-31 -2 2515 1010 2 MP stroke
-42 -11 2515 1134 2 MP stroke
-48 16 2515 1259 2 MP stroke
-42 3 2515 1383 2 MP stroke
-38 5 2515 1507 2 MP stroke
-20 8 2515 1631 2 MP stroke
-27 7 2515 1756 2 MP stroke
-23 20 2515 1880 2 MP stroke
-28 -5 2515 2004 2 MP stroke
-26 -21 2515 2129 2 MP stroke
-24 8 2515 2253 2 MP stroke
-26 -10 2515 2377 2 MP stroke
-27 -5 2515 2502 2 MP stroke
-11 -12 2515 2626 2 MP stroke
-28 6 2515 2750 2 MP stroke
-26 -5 2515 2874 2 MP stroke
-24 -3 2515 2999 2 MP stroke
-16 -23 2515 3123 2 MP stroke
-23 -3 2515 3247 2 MP stroke
-21 -18 2515 3372 2 MP stroke
-15 -1 2515 3496 2 MP stroke
-15 0 2515 3620 2 MP stroke
-21 -2 2515 3744 2 MP stroke
-23 -4 2515 3869 2 MP stroke
-24 -5 2515 3993 2 MP stroke
-26 -3 2515 4117 2 MP stroke
-30 -4 2515 4242 2 MP stroke
-26 -15 2515 4366 2 MP stroke
-33 -1 2515 4490 2 MP stroke
2622 389 PD
-49 10 2622 513 2 MP stroke
-48 7 2622 637 2 MP stroke
-49 -4 2622 761 2 MP stroke
-45 12 2622 886 2 MP stroke
-41 -7 2622 1010 2 MP stroke
-46 -4 2622 1134 2 MP stroke
-45 17 2622 1259 2 MP stroke
-54 -6 2622 1383 2 MP stroke
-45 4 2622 1507 2 MP stroke
-22 -12 2622 1631 2 MP stroke
-15 2 2622 1756 2 MP stroke
-18 0 2622 1880 2 MP stroke
-18 1 2622 2004 2 MP stroke
-18 -10 2622 2129 2 MP stroke
-19 11 2622 2253 2 MP stroke
-21 -7 2622 2377 2 MP stroke
-23 -5 2622 2502 2 MP stroke
-24 -2 2622 2626 2 MP stroke
-25 0 2622 2750 2 MP stroke
-22 -15 2622 2874 2 MP stroke
-22 -5 2622 2999 2 MP stroke
-21 -6 2622 3123 2 MP stroke
-20 -3 2622 3247 2 MP stroke
-34 -13 2622 3372 2 MP stroke
-32 1 2622 3496 2 MP stroke
-28 -20 2622 3620 2 MP stroke
-37 2 2622 3744 2 MP stroke
-37 -6 2622 3869 2 MP stroke
-39 -1 2622 3993 2 MP stroke
-25 -15 2622 4117 2 MP stroke
-39 -3 2622 4242 2 MP stroke
-21 -12 2622 4366 2 MP stroke
-52 -1 2622 4490 2 MP stroke
2730 389 PD
-53 16 2730 513 2 MP stroke
-53 6 2730 637 2 MP stroke
-43 16 2730 761 2 MP stroke
-47 7 2730 886 2 MP stroke
-36 -10 2730 1010 2 MP stroke
-29 -22 2730 1134 2 MP stroke
-16 -4 2730 1383 2 MP stroke
-28 1 2730 1507 2 MP stroke
-23 0 2730 1631 2 MP stroke
-2 -12 2730 1880 2 MP stroke
-17 -2 2730 2377 2 MP stroke
-14 -9 2730 2502 2 MP stroke
-18 -3 2730 2626 2 MP stroke
-24 -4 2730 2750 2 MP stroke
-23 -22 2730 2874 2 MP stroke
-23 -2 2730 2999 2 MP stroke
-20 -5 2730 3123 2 MP stroke
-18 -1 2730 3247 2 MP stroke
-26 -13 2730 3372 2 MP stroke
-33 -3 2730 3496 2 MP stroke
-10 -13 2730 3620 2 MP stroke
-22 1 2730 3744 2 MP stroke
-23 -19 2730 3869 2 MP stroke
-24 0 2730 3993 2 MP stroke
-26 -22 2730 4117 2 MP stroke
-29 -4 2730 4242 2 MP stroke
-27 -4 2730 4366 2 MP stroke
-31 -4 2730 4490 2 MP stroke
-37 -2 2730 4615 2 MP stroke
2838 389 PD
-44 20 2838 513 2 MP stroke
-42 9 2838 637 2 MP stroke
-51 -1 2838 761 2 MP stroke
-29 -3 2838 1259 2 MP stroke
-18 -17 2838 1383 2 MP stroke
-23 8 2838 1507 2 MP stroke
-13 -13 2838 1631 2 MP stroke
-9 -9 2838 2377 2 MP stroke
-18 -2 2838 2502 2 MP stroke
-19 -4 2838 2626 2 MP stroke
-23 -2 2838 2750 2 MP stroke
-25 1 2838 2874 2 MP stroke
-25 0 2838 2999 2 MP stroke
-24 -2 2838 3123 2 MP stroke
-24 0 2838 3247 2 MP stroke
-25 -17 2838 3372 2 MP stroke
-34 0 2838 3496 2 MP stroke
-18 -16 2838 3620 2 MP stroke
-39 0 2838 3744 2 MP stroke
-40 -2 2838 3869 2 MP stroke
-40 0 2838 3993 2 MP stroke
-39 -1 2838 4117 2 MP stroke
-38 -9 2838 4242 2 MP stroke
-39 -3 2838 4366 2 MP stroke
-39 -2 2838 4490 2 MP stroke
-40 -3 2838 4615 2 MP stroke
2945 389 PD
-60 16 2945 513 2 MP stroke
-17 8 2945 637 2 MP stroke
-34 14 2945 886 2 MP stroke
-50 -5 2945 1259 2 MP stroke
-48 -1 2945 1383 2 MP stroke
-27 1 2945 1507 2 MP stroke
-18 -1 2945 2502 2 MP stroke
-29 -4 2945 2626 2 MP stroke
-26 -2 2945 2750 2 MP stroke
-15 -20 2945 2874 2 MP stroke
-22 -2 2945 2999 2 MP stroke
-11 -22 2945 3123 2 MP stroke
-9 0 2945 3247 2 MP stroke
-15 -26 2945 3372 2 MP stroke
-14 -1 2945 3496 2 MP stroke
-15 -2 2945 3620 2 MP stroke
-20 -2 2945 3744 2 MP stroke
-24 -4 2945 3869 2 MP stroke
-25 -5 2945 3993 2 MP stroke
-29 -6 2945 4117 2 MP stroke
-28 -2 2945 4242 2 MP stroke
-26 -13 2945 4366 2 MP stroke
-34 -2 2945 4490 2 MP stroke
3053 389 PD
-75 8 3053 513 2 MP stroke
-15 3 3053 637 2 MP stroke
-46 -10 3053 1259 2 MP stroke
-32 -2 3053 1383 2 MP stroke
-24 0 3053 1507 2 MP stroke
-25 0 3053 1631 2 MP stroke
-21 -12 3053 1756 2 MP stroke
-39 -2 3053 1880 2 MP stroke
-12 -8 3053 2502 2 MP stroke
-27 -1 3053 2626 2 MP stroke
-26 -2 3053 2750 2 MP stroke
-26 -2 3053 2874 2 MP stroke
-24 -1 3053 2999 2 MP stroke
-25 -1 3053 3123 2 MP stroke
-31 0 3053 3247 2 MP stroke
-22 -18 3053 3372 2 MP stroke
-34 -1 3053 3496 2 MP stroke
-35 -2 3053 3620 2 MP stroke
-39 -1 3053 3744 2 MP stroke
-41 -2 3053 3869 2 MP stroke
-41 -6 3053 3993 2 MP stroke
-43 -2 3053 4117 2 MP stroke
-42 3 3053 4242 2 MP stroke
-37 -4 3053 4366 2 MP stroke
-54 3 3053 4490 2 MP stroke
-51 -11 3053 4615 2 MP stroke
-57 4 3161 389 2 MP stroke
-56 14 3161 513 2 MP stroke
-25 -5 3161 637 2 MP stroke
-27 -3 3161 1134 2 MP stroke
-16 -9 3161 1259 2 MP stroke
-26 0 3161 1383 2 MP stroke
-21 7 3161 1507 2 MP stroke
-18 11 3161 1631 2 MP stroke
-24 6 3161 1756 2 MP stroke
-22 11 3161 1880 2 MP stroke
-21 23 3161 2004 2 MP stroke
-20 6 3161 2129 2 MP stroke
-20 20 3161 2253 2 MP stroke
-22 -6 3161 2377 2 MP stroke
-24 -2 3161 2502 2 MP stroke
-19 -24 3161 2626 2 MP stroke
-20 -4 3161 2750 2 MP stroke
-19 -9 3161 2874 2 MP stroke
-21 -3 3161 2999 2 MP stroke
-25 0 3161 3123 2 MP stroke
-11 0 3161 3247 2 MP stroke
-20 -21 3161 3372 2 MP stroke
-16 -2 3161 3496 2 MP stroke
-17 -2 3161 3620 2 MP stroke
-22 -2 3161 3744 2 MP stroke
-25 -4 3161 3869 2 MP stroke
-29 -5 3161 3993 2 MP stroke
-31 -3 3161 4117 2 MP stroke
-35 -4 3161 4242 2 MP stroke
-32 -19 3161 4366 2 MP stroke
-35 2 3161 4490 2 MP stroke
3269 389 PD
-53 20 3269 513 2 MP stroke
-30 -5 3269 637 2 MP stroke
-34 -33 3269 886 2 MP stroke
-47 2 3269 1010 2 MP stroke
-24 10 3269 1259 2 MP stroke
-27 -10 3269 1383 2 MP stroke
-20 11 3269 1507 2 MP stroke
-21 1 3269 1631 2 MP stroke
-21 0 3269 1756 2 MP stroke
-21 -2 3269 1880 2 MP stroke
-22 14 3269 2004 2 MP stroke
-22 -4 3269 2129 2 MP stroke
-25 -14 3269 2253 2 MP stroke
-26 -21 3269 2377 2 MP stroke
-26 1 3269 2502 2 MP stroke
-22 -18 3269 2626 2 MP stroke
-21 3 3269 2750 2 MP stroke
-26 -2 3269 2874 2 MP stroke
-26 -1 3269 2999 2 MP stroke
-26 0 3269 3123 2 MP stroke
-33 0 3269 3247 2 MP stroke
-26 -20 3269 3372 2 MP stroke
-33 -1 3269 3496 2 MP stroke
-19 -20 3269 3620 2 MP stroke
-39 -3 3269 3744 2 MP stroke
-42 -7 3269 3869 2 MP stroke
-45 -5 3269 3993 2 MP stroke
-48 -3 3269 4117 2 MP stroke
-44 -9 3269 4242 2 MP stroke
-46 -4 3269 4366 2 MP stroke
-45 5 3269 4490 2 MP stroke
3376 389 PD
-58 17 3376 513 2 MP stroke
-52 -4 3376 637 2 MP stroke
-48 14 3376 761 2 MP stroke
-35 -23 3376 886 2 MP stroke
-36 5 3376 1010 2 MP stroke
-44 -10 3376 1134 2 MP stroke
-14 3 3376 1507 2 MP stroke
-12 -14 3376 1631 2 MP stroke
-8 3 3376 1756 2 MP stroke
-19 -1 3376 1880 2 MP stroke
-20 15 3376 2004 2 MP stroke
-22 -5 3376 2129 2 MP stroke
-24 4 3376 2253 2 MP stroke
-22 -26 3376 2377 2 MP stroke
-24 0 3376 2502 2 MP stroke
-17 -16 3376 2626 2 MP stroke
-25 -3 3376 2750 2 MP stroke
-23 -2 3376 2874 2 MP stroke
-27 0 3376 2999 2 MP stroke
-12 -19 3376 3123 2 MP stroke
-28 1 3376 3247 2 MP stroke
-13 -15 3376 3372 2 MP stroke
-30 2 3376 3496 2 MP stroke
-20 -22 3376 3620 2 MP stroke
-22 -3 3376 3744 2 MP stroke
-26 -4 3376 3869 2 MP stroke
-32 -5 3376 3993 2 MP stroke
-33 -4 3376 4117 2 MP stroke
-35 -2 3376 4242 2 MP stroke
-30 -2 3376 4366 2 MP stroke
-36 -4 3376 4490 2 MP stroke
3484 389 PD
-51 16 3484 513 2 MP stroke
-55 -5 3484 637 2 MP stroke
-60 20 3484 761 2 MP stroke
-38 -13 3484 886 2 MP stroke
-49 9 3484 1010 2 MP stroke
-36 -13 3484 1134 2 MP stroke
-4 -2 3484 1507 2 MP stroke
-5 1 3484 1631 2 MP stroke
-18 1 3484 1880 2 MP stroke
-24 -1 3484 2004 2 MP stroke
-22 -2 3484 2129 2 MP stroke
-17 -8 3484 2253 2 MP stroke
-2 -39 3484 2377 2 MP stroke
-21 -2 3484 2502 2 MP stroke
-24 -11 3484 2626 2 MP stroke
-24 -4 3484 2750 2 MP stroke
-23 -5 3484 2874 2 MP stroke
-25 -3 3484 2999 2 MP stroke
-31 -1 3484 3123 2 MP stroke
-32 -1 3484 3247 2 MP stroke
-31 -3 3484 3372 2 MP stroke
-25 -1 3484 3496 2 MP stroke
-34 -3 3484 3620 2 MP stroke
-32 -2 3484 3744 2 MP stroke
-42 1 3484 3869 2 MP stroke
-49 5 3484 3993 2 MP stroke
-44 -18 3484 4117 2 MP stroke
-51 -5 3484 4242 2 MP stroke
-50 -7 3484 4366 2 MP stroke
-42 -6 3484 4490 2 MP stroke
-56 -4 3484 4615 2 MP stroke
3592 389 PD
-57 16 3592 513 2 MP stroke
-41 -6 3592 637 2 MP stroke
-4 -1 3592 1756 2 MP stroke
-30 -13 3592 2129 2 MP stroke
-30 4 3592 2253 2 MP stroke
-13 -21 3592 2377 2 MP stroke
-23 -1 3592 2502 2 MP stroke
-19 -3 3592 2626 2 MP stroke
-18 1 3592 2750 2 MP stroke
-19 -4 3592 2874 2 MP stroke
-25 -5 3592 2999 2 MP stroke
-27 -4 3592 3123 2 MP stroke
-29 -4 3592 3247 2 MP stroke
-13 -6 3592 3372 2 MP stroke
-16 -3 3592 3496 2 MP stroke
-19 -3 3592 3620 2 MP stroke
-17 -1 3592 3744 2 MP stroke
-28 -20 3592 3869 2 MP stroke
-34 -4 3592 3993 2 MP stroke
-36 -21 3592 4117 2 MP stroke
-31 -5 3592 4242 2 MP stroke
-37 -5 3592 4366 2 MP stroke
-63 -6 3592 4490 2 MP stroke
3700 389 PD
-48 13 3700 513 2 MP stroke
-44 0 3700 637 2 MP stroke
-19 -5 3700 1383 2 MP stroke
-30 -5 3700 1507 2 MP stroke
-19 -7 3700 1631 2 MP stroke
-8 -7 3700 1756 2 MP stroke
-13 -1 3700 1880 2 MP stroke
-26 1 3700 2004 2 MP stroke
-22 -16 3700 2129 2 MP stroke
-29 1 3700 2253 2 MP stroke
-14 -20 3700 2377 2 MP stroke
-24 -1 3700 2502 2 MP stroke
-23 -15 3700 2626 2 MP stroke
-23 2 3700 2750 2 MP stroke
-26 2 3700 2874 2 MP stroke
-29 -3 3700 2999 2 MP stroke
-30 -2 3700 3123 2 MP stroke
-29 -4 3700 3247 2 MP stroke
-28 -7 3700 3372 2 MP stroke
-32 -4 3700 3496 2 MP stroke
-39 -4 3700 3620 2 MP stroke
-38 -3 3700 3744 2 MP stroke
-42 1 3700 3869 2 MP stroke
-41 -4 3700 3993 2 MP stroke
-43 -1 3700 4117 2 MP stroke
-47 -2 3700 4242 2 MP stroke
-44 -11 3700 4366 2 MP stroke
-70 -10 3700 4490 2 MP stroke
-67 -30 3700 4615 2 MP stroke
3807 389 PD
-65 16 3807 513 2 MP stroke
-60 -1 3807 637 2 MP stroke
-15 -19 3807 1383 2 MP stroke
-24 0 3807 1631 2 MP stroke
-20 -7 3807 1880 2 MP stroke
-25 5 3807 2004 2 MP stroke
-21 -10 3807 2129 2 MP stroke
-19 -10 3807 2253 2 MP stroke
-22 -2 3807 2377 2 MP stroke
-21 0 3807 2502 2 MP stroke
-19 -8 3807 2626 2 MP stroke
-16 0 3807 2750 2 MP stroke
-22 0 3807 2874 2 MP stroke
-30 -3 3807 2999 2 MP stroke
-33 -2 3807 3123 2 MP stroke
-28 -7 3807 3247 2 MP stroke
-26 -4 3807 3372 2 MP stroke
-33 -1 3807 3496 2 MP stroke
-22 -3 3807 3620 2 MP stroke
-23 -4 3807 3744 2 MP stroke
-29 -22 3807 3869 2 MP stroke
-23 1 3807 3993 2 MP stroke
-29 -21 3807 4117 2 MP stroke
-37 2 3807 4242 2 MP stroke
-40 -4 3807 4366 2 MP stroke
-60 -8 3807 4490 2 MP stroke
3915 389 PD
-52 5 3915 513 2 MP stroke
-59 1 3915 637 2 MP stroke
-123 63 3915 1010 2 MP stroke
-26 4 3915 1259 2 MP stroke
-15 -15 3915 1383 2 MP stroke
-11 4 3915 1507 2 MP stroke
-17 -15 3915 1631 2 MP stroke
-27 1 3915 1756 2 MP stroke
-56 24 3915 1880 2 MP stroke
-24 3 3915 2004 2 MP stroke
-26 -6 3915 2129 2 MP stroke
-17 -14 3915 2253 2 MP stroke
-19 -1 3915 2377 2 MP stroke
-19 1 3915 2502 2 MP stroke
-24 -4 3915 2626 2 MP stroke
-21 -8 3915 2750 2 MP stroke
-21 -5 3915 2874 2 MP stroke
-32 1 3915 2999 2 MP stroke
-32 -19 3915 3123 2 MP stroke
-44 1 3915 3247 2 MP stroke
-37 -20 3915 3372 2 MP stroke
-37 -3 3915 3496 2 MP stroke
-43 -8 3915 3620 2 MP stroke
-36 -5 3915 3744 2 MP stroke
-31 -9 3915 3869 2 MP stroke
-43 -2 3915 3993 2 MP stroke
-39 -2 3915 4117 2 MP stroke
-42 7 3915 4242 2 MP stroke
-45 -1 3915 4366 2 MP stroke
-77 18 3915 4490 2 MP stroke
-59 3 4023 389 2 MP stroke
-58 0 4023 513 2 MP stroke
-54 7 4023 637 2 MP stroke
-54 30 4023 761 2 MP stroke
-51 49 4023 886 2 MP stroke
-46 -3 4023 1134 2 MP stroke
-54 48 4023 1259 2 MP stroke
-54 -32 4023 1383 2 MP stroke
-56 -39 4023 1507 2 MP stroke
-49 9 4023 1631 2 MP stroke
-22 2 4023 1756 2 MP stroke
-15 -15 4023 1880 2 MP stroke
-25 1 4023 2004 2 MP stroke
-21 9 4023 2129 2 MP stroke
-8 21 4023 2253 2 MP stroke
-23 -6 4023 2377 2 MP stroke
-26 -11 4023 2502 2 MP stroke
-27 -17 4023 2626 2 MP stroke
-16 -10 4023 2750 2 MP stroke
-17 -3 4023 2874 2 MP stroke
-31 8 4023 2999 2 MP stroke
-60 -3 4023 3123 2 MP stroke
-47 15 4023 3247 2 MP stroke
-63 -20 4023 3372 2 MP stroke
-55 -6 4023 3496 2 MP stroke
-44 1 4023 3620 2 MP stroke
-27 -1 4023 3744 2 MP stroke
-24 9 4023 3869 2 MP stroke
-41 -2 4023 3993 2 MP stroke
-41 -5 4023 4117 2 MP stroke
-36 11 4023 4242 2 MP stroke
-59 34 4023 4366 2 MP stroke
-70 18 4023 4490 2 MP stroke
-67 89 4131 389 2 MP stroke
-54 13 4131 513 2 MP stroke
-38 17 4131 637 2 MP stroke
-65 2 4131 761 2 MP stroke
-57 8 4131 886 2 MP stroke
-76 -26 4131 1010 2 MP stroke
-65 58 4131 1134 2 MP stroke
-73 -8 4131 1259 2 MP stroke
-95 -134 4131 1383 2 MP stroke
-94 -107 4131 1507 2 MP stroke
-91 -51 4131 1631 2 MP stroke
-64 -3 4131 1756 2 MP stroke
-7 -18 4131 1880 2 MP stroke
-44 1 4131 2004 2 MP stroke
-44 32 4131 2129 2 MP stroke
-37 45 4131 2253 2 MP stroke
-37 17 4131 2377 2 MP stroke
-35 -12 4131 2502 2 MP stroke
-21 -24 4131 2626 2 MP stroke
-11 -8 4131 2750 2 MP stroke
-15 1 4131 2874 2 MP stroke
-45 7 4131 2999 2 MP stroke
-56 1 4131 3123 2 MP stroke
-50 43 4131 3247 2 MP stroke
-69 -35 4131 3372 2 MP stroke
-64 -5 4131 3496 2 MP stroke
-48 4 4131 3620 2 MP stroke
-41 6 4131 3744 2 MP stroke
-33 10 4131 3869 2 MP stroke
-42 8 4131 3993 2 MP stroke
-43 -15 4131 4117 2 MP stroke
-55 40 4131 4242 2 MP stroke
-63 3 4131 4366 2 MP stroke
-67 15 4131 4490 2 MP stroke
-69 30 4238 389 2 MP stroke
-67 5 4238 513 2 MP stroke
-51 -12 4238 637 2 MP stroke
-57 0 4238 761 2 MP stroke
-39 -8 4238 886 2 MP stroke
-48 10 4238 1010 2 MP stroke
-51 38 4238 1134 2 MP stroke
-54 40 4238 1259 2 MP stroke
-62 -65 4238 1383 2 MP stroke
-63 -119 4238 1507 2 MP stroke
-64 -16 4238 1631 2 MP stroke
-60 -22 4238 1756 2 MP stroke
-40 -22 4238 1880 2 MP stroke
-58 -9 4238 2004 2 MP stroke
-47 8 4238 2129 2 MP stroke
-38 22 4238 2253 2 MP stroke
-39 13 4238 2377 2 MP stroke
-29 -25 4238 2502 2 MP stroke
-28 -9 4238 2626 2 MP stroke
-6 -23 4238 2750 2 MP stroke
-34 3 4238 2874 2 MP stroke
-34 8 4238 2999 2 MP stroke
-28 -6 4238 3123 2 MP stroke
-46 17 4238 3247 2 MP stroke
-60 6 4238 3372 2 MP stroke
-61 3 4238 3496 2 MP stroke
-52 -1 4238 3620 2 MP stroke
-43 15 4238 3744 2 MP stroke
-27 13 4238 3869 2 MP stroke
-42 15 4238 3993 2 MP stroke
-38 19 4238 4117 2 MP stroke
-57 4 4238 4242 2 MP stroke
-46 16 4238 4366 2 MP stroke
-41 4 4238 4490 2 MP stroke
-80 1 4346 389 2 MP stroke
-75 18 4346 513 2 MP stroke
-48 -6 4346 637 2 MP stroke
-63 7 4346 761 2 MP stroke
-54 -4 4346 886 2 MP stroke
-32 9 4346 1010 2 MP stroke
-9 16 4346 1134 2 MP stroke
-21 20 4346 1259 2 MP stroke
-15 -15 4346 1383 2 MP stroke
-32 3 4346 1507 2 MP stroke
-37 -3 4346 1631 2 MP stroke
-34 -12 4346 1756 2 MP stroke
-50 7 4346 1880 2 MP stroke
-50 22 4346 2004 2 MP stroke
-35 7 4346 2129 2 MP stroke
-34 14 4346 2253 2 MP stroke
-21 5 4346 2377 2 MP stroke
-5 -6 4346 2502 2 MP stroke
-4 6 4346 2626 2 MP stroke
-40 13 4346 2750 2 MP stroke
-53 3 4346 2874 2 MP stroke
-36 29 4346 2999 2 MP stroke
-17 -1 4346 3123 2 MP stroke
-11 41 4346 3247 2 MP stroke
-30 7 4346 3372 2 MP stroke
-39 -2 4346 3496 2 MP stroke
-31 -11 4346 3620 2 MP stroke
-51 -9 4346 3744 2 MP stroke
-47 -14 4346 3869 2 MP stroke
-26 3 4346 3993 2 MP stroke
-13 6 4346 4117 2 MP stroke
-27 20 4346 4242 2 MP stroke
-36 -12 4346 4366 2 MP stroke
-21 0 4346 4490 2 MP stroke
-32 -2 4346 4615 2 MP stroke
4454 389 PD
-50 17 4454 513 2 MP stroke
-54 22 4454 637 2 MP stroke
-63 12 4454 761 2 MP stroke
-43 6 4454 886 2 MP stroke
-67 15 4454 1010 2 MP stroke
-61 -12 4454 1134 2 MP stroke
-68 6 4454 1259 2 MP stroke
-60 2 4454 1383 2 MP stroke
-66 16 4454 1507 2 MP stroke
-69 27 4454 1631 2 MP stroke
-52 6 4454 1756 2 MP stroke
-44 3 4454 1880 2 MP stroke
-45 47 4454 2004 2 MP stroke
-32 41 4454 2129 2 MP stroke
-37 26 4454 2253 2 MP stroke
-52 16 4454 2377 2 MP stroke
-48 -19 4454 2502 2 MP stroke
-56 -20 4454 2626 2 MP stroke
-62 -19 4454 2750 2 MP stroke
-60 -4 4454 2874 2 MP stroke
-59 12 4454 2999 2 MP stroke
-60 -3 4454 3123 2 MP stroke
-79 17 4454 3247 2 MP stroke
-74 -1 4454 3372 2 MP stroke
-75 11 4454 3496 2 MP stroke
-76 -2 4454 3620 2 MP stroke
-75 -10 4454 3744 2 MP stroke
-78 -16 4454 3869 2 MP stroke
-78 12 4454 3993 2 MP stroke
-81 6 4454 4117 2 MP stroke
-80 -13 4454 4242 2 MP stroke
-78 -6 4454 4366 2 MP stroke
-80 -14 4454 4490 2 MP stroke
-87 -13 4454 4615 2 MP stroke
4562 389 PD
-39 16 4562 513 2 MP stroke
-31 -8 4562 637 2 MP stroke
-59 20 4562 761 2 MP stroke
-56 9 4562 886 2 MP stroke
-73 21 4562 1010 2 MP stroke
-73 -19 4562 1134 2 MP stroke
-76 4 4562 1259 2 MP stroke
-80 10 4562 1383 2 MP stroke
-78 24 4562 1507 2 MP stroke
-76 25 4562 1631 2 MP stroke
-71 9 4562 1756 2 MP stroke
-73 5 4562 1880 2 MP stroke
-64 34 4562 2004 2 MP stroke
-38 42 4562 2129 2 MP stroke
-64 14 4562 2253 2 MP stroke
-63 -10 4562 2377 2 MP stroke
-75 -7 4562 2502 2 MP stroke
-81 -6 4562 2626 2 MP stroke
-80 -3 4562 2750 2 MP stroke
-73 7 4562 2874 2 MP stroke
-73 17 4562 2999 2 MP stroke
-77 34 4562 3123 2 MP stroke
-63 29 4562 3247 2 MP stroke
-79 -9 4562 3372 2 MP stroke
-97 2 4562 3496 2 MP stroke
-99 -1 4562 3620 2 MP stroke
-93 -8 4562 3744 2 MP stroke
-88 -6 4562 3869 2 MP stroke
-85 18 4562 3993 2 MP stroke
-105 6 4562 4117 2 MP stroke
-103 10 4562 4242 2 MP stroke
-97 21 4562 4366 2 MP stroke
-97 3 4562 4490 2 MP stroke
4669 389 PD
-66 28 4669 513 2 MP stroke
-74 9 4669 637 2 MP stroke
-72 26 4669 761 2 MP stroke
-68 14 4669 886 2 MP stroke
-74 11 4669 1010 2 MP stroke
-75 -10 4669 1134 2 MP stroke
-66 2 4669 1259 2 MP stroke
-65 11 4669 1383 2 MP stroke
-69 32 4669 1507 2 MP stroke
-69 18 4669 1631 2 MP stroke
-68 4 4669 1756 2 MP stroke
-75 6 4669 1880 2 MP stroke
-69 12 4669 2004 2 MP stroke
-71 22 4669 2129 2 MP stroke
-66 15 4669 2253 2 MP stroke
-68 2 4669 2377 2 MP stroke
-94 121 4669 2502 2 MP stroke
-68 72 4669 2626 2 MP stroke
-76 39 4669 2750 2 MP stroke
-68 22 4669 2874 2 MP stroke
-68 49 4669 2999 2 MP stroke
-77 46 4669 3123 2 MP stroke
-77 63 4669 3247 2 MP stroke
-89 35 4669 3372 2 MP stroke
-85 33 4669 3496 2 MP stroke
-78 35 4669 3620 2 MP stroke
-67 -12 4669 3744 2 MP stroke
-75 4 4669 3869 2 MP stroke
-73 14 4669 3993 2 MP stroke
-76 8 4669 4117 2 MP stroke
-74 -12 4669 4242 2 MP stroke
-70 -45 4669 4366 2 MP stroke
-69 -6 4669 4490 2 MP stroke
-84 -19 4669 4615 2 MP stroke
4777 389 PD
-70 19 4777 513 2 MP stroke
-78 7 4777 637 2 MP stroke
-73 21 4777 761 2 MP stroke
-79 7 4777 886 2 MP stroke
-80 -5 4777 1010 2 MP stroke
-65 -62 4777 1134 2 MP stroke
-59 -40 4777 1259 2 MP stroke
-80 -26 4777 1383 2 MP stroke
-78 -33 4777 1507 2 MP stroke
-77 -4 4777 1631 2 MP stroke
-85 2 4777 1756 2 MP stroke
-82 -1 4777 1880 2 MP stroke
-83 3 4777 2004 2 MP stroke
-79 -10 4777 2129 2 MP stroke
-53 32 4777 2253 2 MP stroke
-36 -54 4777 2377 2 MP stroke
-84 11 4777 2502 2 MP stroke
-86 25 4777 2626 2 MP stroke
-78 17 4777 2750 2 MP stroke
-75 -7 4777 2874 2 MP stroke
-68 10 4777 2999 2 MP stroke
-50 -11 4777 3123 2 MP stroke
-52 17 4777 3247 2 MP stroke
-67 29 4777 3372 2 MP stroke
-60 6 4777 3496 2 MP stroke
-41 -8 4777 3620 2 MP stroke
-47 -5 4777 3744 2 MP stroke
-47 -6 4777 3869 2 MP stroke
-58 -5 4777 3993 2 MP stroke
-59 -5 4777 4117 2 MP stroke
-50 -12 4777 4242 2 MP stroke
-47 -20 4777 4366 2 MP stroke
-35 4 4777 4490 2 MP stroke
-55 -25 4777 4615 2 MP stroke
4885 389 PD
-65 0 4885 513 2 MP stroke
-70 0 4885 637 2 MP stroke
-79 -3 4885 761 2 MP stroke
-54 -22 4885 886 2 MP stroke
-42 -115 4885 1010 2 MP stroke
-43 -158 4885 1134 2 MP stroke
-47 -126 4885 1259 2 MP stroke
-47 -104 4885 1383 2 MP stroke
-61 -41 4885 1507 2 MP stroke
-64 -24 4885 1631 2 MP stroke
-58 -24 4885 1756 2 MP stroke
-53 -25 4885 1880 2 MP stroke
-46 -54 4885 2004 2 MP stroke
-53 -8 4885 2129 2 MP stroke
-11 0 4885 2253 2 MP stroke
-25 -32 4885 2377 2 MP stroke
-47 23 4885 2502 2 MP stroke
-54 7 4885 2626 2 MP stroke
-63 13 4885 2750 2 MP stroke
-45 -18 4885 2874 2 MP stroke
-33 9 4885 2999 2 MP stroke
-26 -8 4885 3123 2 MP stroke
-29 8 4885 3247 2 MP stroke
-19 -14 4885 3372 2 MP stroke
-24 9 4885 3496 2 MP stroke
-21 -12 4885 3620 2 MP stroke
-23 1 4885 3744 2 MP stroke
-28 -18 4885 3869 2 MP stroke
-35 -1 4885 3993 2 MP stroke
-37 -4 4885 4117 2 MP stroke
-44 -5 4885 4242 2 MP stroke
-40 -9 4885 4366 2 MP stroke
-41 -8 4885 4490 2 MP stroke
4992 389 PD
-67 5 4992 513 2 MP stroke
-51 3 4992 637 2 MP stroke
-46 -8 4992 761 2 MP stroke
-39 -49 4992 886 2 MP stroke
-43 -114 4992 1010 2 MP stroke
-31 -103 4992 1134 2 MP stroke
-32 -67 4992 1259 2 MP stroke
-47 -41 4992 1383 2 MP stroke
-38 -36 4992 1507 2 MP stroke
-36 -31 4992 1631 2 MP stroke
-26 -29 4992 1756 2 MP stroke
-24 -24 4992 1880 2 MP stroke
-24 -18 4992 2004 2 MP stroke
-47 -16 4992 2129 2 MP stroke
-41 -12 4992 2253 2 MP stroke
-42 -5 4992 2377 2 MP stroke
-33 4 4992 2502 2 MP stroke
-45 -5 4992 2626 2 MP stroke
-31 1 4992 2750 2 MP stroke
-31 -21 4992 2874 2 MP stroke
-46 1 4992 2999 2 MP stroke
-40 -4 4992 3123 2 MP stroke
-30 5 4992 3247 2 MP stroke
-25 -5 4992 3372 2 MP stroke
-41 15 4992 3496 2 MP stroke
-40 -5 4992 3620 2 MP stroke
-45 8 4992 3744 2 MP stroke
-41 -9 4992 3869 2 MP stroke
-49 -1 4992 3993 2 MP stroke
-50 -5 4992 4117 2 MP stroke
-48 -5 4992 4242 2 MP stroke
-47 -7 4992 4366 2 MP stroke
-45 -5 4992 4490 2 MP stroke
-55 -11 4992 4615 2 MP stroke
-106 45 5100 389 2 MP stroke
-72 19 5100 513 2 MP stroke
-25 -32 5100 637 2 MP stroke
-17 -12 5100 761 2 MP stroke
-10 -33 5100 886 2 MP stroke
-13 -39 5100 1010 2 MP stroke
-30 -28 5100 1134 2 MP stroke
-31 -9 5100 1259 2 MP stroke
-31 1 5100 1383 2 MP stroke
-11 0 5100 1507 2 MP stroke
-28 -3 5100 1631 2 MP stroke
-25 -5 5100 1756 2 MP stroke
-24 -5 5100 1880 2 MP stroke
-28 -5 5100 2004 2 MP stroke
-28 -3 5100 2129 2 MP stroke
-28 -5 5100 2253 2 MP stroke
-26 -1 5100 2377 2 MP stroke
-26 -1 5100 2502 2 MP stroke
-24 -3 5100 2626 2 MP stroke
-30 -1 5100 2750 2 MP stroke
-13 0 5100 2874 2 MP stroke
-14 0 5100 2999 2 MP stroke
-16 0 5100 3123 2 MP stroke
-28 3 5100 3247 2 MP stroke
-20 -15 5100 3372 2 MP stroke
-27 2 5100 3496 2 MP stroke
-25 -26 5100 3620 2 MP stroke
-32 1 5100 3744 2 MP stroke
-32 -3 5100 3869 2 MP stroke
-36 -3 5100 3993 2 MP stroke
-37 -7 5100 4117 2 MP stroke
-38 -5 5100 4242 2 MP stroke
-31 -15 5100 4366 2 MP stroke
-45 -3 5100 4490 2 MP stroke
5208 389 PD
-37 -27 5208 513 2 MP stroke
-13 -42 5208 637 2 MP stroke
-18 -19 5208 761 2 MP stroke
-22 -3 5208 886 2 MP stroke
-23 2 5208 1010 2 MP stroke
-23 -7 5208 1134 2 MP stroke
-26 2 5208 1259 2 MP stroke
-27 -20 5208 1383 2 MP stroke
-29 6 5208 1507 2 MP stroke
-25 -6 5208 1631 2 MP stroke
-24 -6 5208 1756 2 MP stroke
-27 -4 5208 1880 2 MP stroke
-24 -4 5208 2004 2 MP stroke
-25 -4 5208 2129 2 MP stroke
-26 -3 5208 2253 2 MP stroke
-26 -2 5208 2377 2 MP stroke
-27 1 5208 2502 2 MP stroke
-16 -26 5208 2626 2 MP stroke
-31 1 5208 2750 2 MP stroke
-34 0 5208 2874 2 MP stroke
-37 -4 5208 2999 2 MP stroke
-40 -4 5208 3123 2 MP stroke
-39 -5 5208 3247 2 MP stroke
-36 0 5208 3372 2 MP stroke
-44 1 5208 3496 2 MP stroke
-29 -16 5208 3620 2 MP stroke
-45 -1 5208 3744 2 MP stroke
-33 -8 5208 3869 2 MP stroke
-42 -7 5208 3993 2 MP stroke
-47 1 5208 4117 2 MP stroke
-50 -1 5208 4242 2 MP stroke
-32 -8 5208 4366 2 MP stroke
-48 -9 5208 4490 2 MP stroke
-35 -17 5208 4615 2 MP stroke
5316 389 PD
-23 3 5316 886 2 MP stroke
-22 -3 5316 1010 2 MP stroke
-20 -5 5316 1259 2 MP stroke
-21 -15 5316 1383 2 MP stroke
-26 11 5316 1507 2 MP stroke
-19 -4 5316 1631 2 MP stroke
-33 6 5316 1756 2 MP stroke
-17 -7 5316 1880 2 MP stroke
-20 -2 5316 2004 2 MP stroke
-25 0 5316 2129 2 MP stroke
-26 1 5316 2253 2 MP stroke
-28 2 5316 2377 2 MP stroke
-30 7 5316 2502 2 MP stroke
-24 -23 5316 2626 2 MP stroke
-25 1 5316 2750 2 MP stroke
-16 -18 5316 2874 2 MP stroke
-16 -1 5316 2999 2 MP stroke
-23 -1 5316 3123 2 MP stroke
-22 -2 5316 3247 2 MP stroke
-25 -1 5316 3372 2 MP stroke
-29 1 5316 3496 2 MP stroke
-36 -15 5316 3620 2 MP stroke
-31 3 5316 3744 2 MP stroke
-35 0 5316 3869 2 MP stroke
-44 1 5316 3993 2 MP stroke
-36 -17 5316 4117 2 MP stroke
-47 0 5316 4242 2 MP stroke
-37 -26 5316 4366 2 MP stroke
-43 -5 5316 4490 2 MP stroke
-40 -7 5316 4615 2 MP stroke
-31 4 5423 1134 2 MP stroke
-24 2 5423 1259 2 MP stroke
-17 -7 5423 1383 2 MP stroke
-19 17 5423 1507 2 MP stroke
-20 -3 5423 1631 2 MP stroke
-33 8 5423 1756 2 MP stroke
-31 -38 5423 1880 2 MP stroke
-23 2 5423 2004 2 MP stroke
-18 -5 5423 2129 2 MP stroke
-25 3 5423 2253 2 MP stroke
-29 -10 5423 2377 2 MP stroke
-32 -3 5423 2502 2 MP stroke
-33 -17 5423 2626 2 MP stroke
-31 2 5423 2750 2 MP stroke
-29 -9 5423 2874 2 MP stroke
-38 4 5423 2999 2 MP stroke
-42 -6 5423 3123 2 MP stroke
-33 -2 5423 3247 2 MP stroke
-40 -1 5423 3372 2 MP stroke
-40 3 5423 3496 2 MP stroke
-17 -14 5423 3620 2 MP stroke
-33 0 5423 3744 2 MP stroke
-41 -6 5423 3869 2 MP stroke
-49 3 5423 3993 2 MP stroke
-49 1 5423 4117 2 MP stroke
-53 -1 5423 4242 2 MP stroke
-36 5 5423 4366 2 MP stroke
-41 -2 5423 4490 2 MP stroke
-24 3 5531 1134 2 MP stroke
-21 2 5531 1259 2 MP stroke
19 7 5531 1383 2 MP stroke
-19 -2 5531 1507 2 MP stroke
-23 -8 5531 1631 2 MP stroke
-26 10 5531 1756 2 MP stroke
-36 -25 5531 1880 2 MP stroke
-27 4 5531 2004 2 MP stroke
-16 -12 5531 2129 2 MP stroke
-28 4 5531 2253 2 MP stroke
-10 -1 5531 2377 2 MP stroke
-14 8 5531 2502 2 MP stroke
-9 -20 5531 2626 2 MP stroke
-30 4 5531 2750 2 MP stroke
-19 -18 5531 2874 2 MP stroke
-17 4 5531 2999 2 MP stroke
-25 -11 5531 3123 2 MP stroke
-22 3 5531 3247 2 MP stroke
-25 -1 5531 3372 2 MP stroke
-30 0 5531 3496 2 MP stroke
-31 -2 5531 3620 2 MP stroke
-34 -3 5531 3744 2 MP stroke
-32 -1 5531 3869 2 MP stroke
-36 -2 5531 3993 2 MP stroke
-37 -3 5531 4117 2 MP stroke
-43 -2 5531 4242 2 MP stroke
-35 -16 5531 4366 2 MP stroke
-47 -3 5531 4490 2 MP stroke
-3 -25 5639 1134 2 MP stroke
-22 2 5639 1259 2 MP stroke
13 -4 5639 1383 2 MP stroke
-21 -3 5639 1507 2 MP stroke
-12 6 5639 1631 2 MP stroke
-14 18 5639 1756 2 MP stroke
-26 -12 5639 1880 2 MP stroke
-34 1 5639 2004 2 MP stroke
-34 2 5639 2129 2 MP stroke
-31 6 5639 2253 2 MP stroke
-21 -21 5639 2377 2 MP stroke
-31 4 5639 2502 2 MP stroke
-23 -18 5639 2626 2 MP stroke
-37 1 5639 2750 2 MP stroke
-28 -17 5639 2874 2 MP stroke
-32 0 5639 2999 2 MP stroke
-17 -8 5639 3123 2 MP stroke
-39 3 5639 3247 2 MP stroke
-36 -10 5639 3372 2 MP stroke
-40 -3 5639 3496 2 MP stroke
-42 -5 5639 3620 2 MP stroke
-39 0 5639 3744 2 MP stroke
-36 -2 5639 3869 2 MP stroke
-47 1 5639 3993 2 MP stroke
-31 -13 5639 4117 2 MP stroke
-47 -6 5639 4242 2 MP stroke
-51 -6 5639 4366 2 MP stroke
-51 -6 5639 4490 2 MP stroke
-49 -7 5639 4615 2 MP stroke
-29 24 5747 513 2 MP stroke
-24 7 5747 1010 2 MP stroke
-26 -11 5747 1134 2 MP stroke
-31 0 5747 1259 2 MP stroke
4 -8 5747 1383 2 MP stroke
-33 5 5747 1507 2 MP stroke
-24 -1 5747 1631 2 MP stroke
-29 7 5747 1756 2 MP stroke
-15 -4 5747 1880 2 MP stroke
-19 -4 5747 2004 2 MP stroke
-11 -7 5747 2129 2 MP stroke
-15 2 5747 2253 2 MP stroke
16 -31 5747 2377 2 MP stroke
-27 1 5747 2502 2 MP stroke
-20 -20 5747 2626 2 MP stroke
-18 -1 5747 2750 2 MP stroke
-19 0 5747 2874 2 MP stroke
-21 -1 5747 2999 2 MP stroke
-11 -16 5747 3123 2 MP stroke
-24 4 5747 3247 2 MP stroke
-24 -19 5747 3372 2 MP stroke
-32 -4 5747 3496 2 MP stroke
-34 -1 5747 3620 2 MP stroke
-38 -5 5747 3744 2 MP stroke
-22 -12 5747 3869 2 MP stroke
-37 -1 5747 3993 2 MP stroke
-32 -11 5747 4117 2 MP stroke
-42 -5 5747 4242 2 MP stroke
-49 -3 5747 4366 2 MP stroke
-44 -2 5747 4490 2 MP stroke
5854 389 PD
-58 12 5854 513 2 MP stroke
-27 7 5854 1010 2 MP stroke
-27 -10 5854 1134 2 MP stroke
-20 0 5854 1259 2 MP stroke
-5 -12 5854 1383 2 MP stroke
-24 4 5854 1507 2 MP stroke
-19 -16 5854 1631 2 MP stroke
-19 3 5854 1756 2 MP stroke
-28 -2 5854 1880 2 MP stroke
-32 1 5854 2004 2 MP stroke
-32 -18 5854 2129 2 MP stroke
-34 3 5854 2253 2 MP stroke
-24 -14 5854 2377 2 MP stroke
-29 4 5854 2502 2 MP stroke
-14 -22 5854 2626 2 MP stroke
-34 -2 5854 2750 2 MP stroke
-39 -2 5854 2874 2 MP stroke
-39 -2 5854 2999 2 MP stroke
-22 -17 5854 3123 2 MP stroke
-42 1 5854 3247 2 MP stroke
-47 -6 5854 3372 2 MP stroke
-46 -1 5854 3496 2 MP stroke
-47 -3 5854 3620 2 MP stroke
-45 -9 5854 3744 2 MP stroke
-44 -3 5854 3869 2 MP stroke
-46 -6 5854 3993 2 MP stroke
-32 -14 5854 4117 2 MP stroke
-49 1 5854 4242 2 MP stroke
-50 -8 5854 4366 2 MP stroke
-40 -2 5854 4490 2 MP stroke
-31 -11 5854 4615 2 MP stroke
5962 389 PD
-50 7 5962 513 2 MP stroke
-15 -13 5962 1134 2 MP stroke
-37 2 5962 1259 2 MP stroke
-30 -2 5962 1383 2 MP stroke
-22 5 5962 1507 2 MP stroke
-11 -21 5962 1631 2 MP stroke
-21 1 5962 1756 2 MP stroke
-1 -28 5962 1880 2 MP stroke
-12 3 5962 2004 2 MP stroke
-12 -20 5962 2129 2 MP stroke
-27 3 5962 2253 2 MP stroke
-27 -13 5962 2377 2 MP stroke
-15 0 5962 2502 2 MP stroke
-24 -18 5962 2626 2 MP stroke
-19 1 5962 2750 2 MP stroke
-25 -18 5962 2874 2 MP stroke
-23 0 5962 2999 2 MP stroke
-15 -12 5962 3123 2 MP stroke
-28 -2 5962 3247 2 MP stroke
-29 -20 5962 3372 2 MP stroke
-36 3 5962 3496 2 MP stroke
-30 -8 5962 3620 2 MP stroke
-37 -1 5962 3744 2 MP stroke
-47 -14 5962 3869 2 MP stroke
-46 -4 5962 3993 2 MP stroke
-49 0 5962 4117 2 MP stroke
-51 -8 5962 4242 2 MP stroke
-57 -9 5962 4366 2 MP stroke
-50 11 5962 4490 2 MP stroke
-34 10 6070 389 2 MP stroke
-28 -6 6070 513 2 MP stroke
-26 -1 6070 1010 2 MP stroke
-20 -4 6070 1134 2 MP stroke
-24 2 6070 1259 2 MP stroke
-35 -5 6070 1383 2 MP stroke
-32 -3 6070 1507 2 MP stroke
-30 -3 6070 1631 2 MP stroke
-19 0 6070 1756 2 MP stroke
-9 -19 6070 1880 2 MP stroke
-27 7 6070 2004 2 MP stroke
-25 1 6070 2129 2 MP stroke
-27 2 6070 2253 2 MP stroke
-27 -16 6070 2377 2 MP stroke
-31 2 6070 2502 2 MP stroke
-35 1 6070 2626 2 MP stroke
-37 1 6070 2750 2 MP stroke
-37 -3 6070 2874 2 MP stroke
-32 -4 6070 2999 2 MP stroke
-35 -3 6070 3123 2 MP stroke
-42 -2 6070 3247 2 MP stroke
-44 -1 6070 3372 2 MP stroke
-41 1 6070 3496 2 MP stroke
-39 -14 6070 3620 2 MP stroke
-49 0 6070 3744 2 MP stroke
-45 -5 6070 3869 2 MP stroke
-53 1 6070 3993 2 MP stroke
-42 -18 6070 4117 2 MP stroke
-55 -11 6070 4242 2 MP stroke
-55 -14 6070 4366 2 MP stroke
-69 1 6070 4490 2 MP stroke
6 -21 6178 761 2 MP stroke
20 -10 6178 886 2 MP stroke
-17 0 6178 1010 2 MP stroke
-27 2 6178 1134 2 MP stroke
-26 -9 6178 1259 2 MP stroke
-15 -4 6178 1383 2 MP stroke
-17 -4 6178 1507 2 MP stroke
-20 -3 6178 1631 2 MP stroke
-14 -3 6178 1756 2 MP stroke
-57 7 6178 1880 2 MP stroke
-30 5 6178 2004 2 MP stroke
-21 -10 6178 2129 2 MP stroke
-20 -1 6178 2253 2 MP stroke
-38 -3 6178 2377 2 MP stroke
-26 -2 6178 2502 2 MP stroke
-13 -3 6178 2626 2 MP stroke
-23 -4 6178 2750 2 MP stroke
-23 -8 6178 2874 2 MP stroke
-19 -7 6178 2999 2 MP stroke
-31 -1 6178 3123 2 MP stroke
-27 3 6178 3247 2 MP stroke
-34 -35 6178 3372 2 MP stroke
-31 4 6178 3496 2 MP stroke
-28 -9 6178 3620 2 MP stroke
-33 3 6178 3744 2 MP stroke
-38 -9 6178 3869 2 MP stroke
-34 0 6178 3993 2 MP stroke
-28 -5 6178 4117 2 MP stroke
-42 16 6178 4242 2 MP stroke
-46 -6 6178 4366 2 MP stroke
-58 -4 6178 4490 2 MP stroke
gr

c8

end %%Color Dict

eplot
%%EndObject

epage
end

showpage

%%Trailer
%%EOF
