%!PS-Adobe-2.0 EPSF-1.2
%%Creator: MATLAB, The MathWorks, Inc. Version 8.3.0.532 (R2014a). Operating System: Linux 3.19.0-31-generic #36~14.04.1-Ubuntu SMP Thu Oct 8 10:21:08 UTC 2015 x86_64.
%%Title: ../../data/output/p4/win_size5n_level4n_iter1min_eig0.0001.eps
%%CreationDate: 11/22/2015  18:44:43
%%DocumentNeededFonts: Helvetica
%%DocumentProcessColors: Cyan Magenta Yellow Black
%%Extensions: CMYK
%%Pages: 1
%%BoundingBox:    78   215   548   583
%%EndComments

%%BeginProlog
% MathWorks dictionary
/MathWorks 160 dict begin
% definition operators
/bdef {bind def} bind def
/ldef {load def} bind def
/xdef {exch def} bdef
/xstore {exch store} bdef
% operator abbreviations
/c  /clip ldef
/cc /concat ldef
/cp /closepath ldef
/gr /grestore ldef
/gs /gsave ldef
/mt /moveto ldef
/np /newpath ldef
/cm /currentmatrix ldef
/sm /setmatrix ldef
/rm /rmoveto ldef
/rl /rlineto ldef
/s {show newpath} bdef
/sc {setcmykcolor} bdef
/sr /setrgbcolor ldef
/sg /setgray ldef
/w /setlinewidth ldef
/j /setlinejoin ldef
/cap /setlinecap ldef
/rc {rectclip} bdef
/rf {rectfill} bdef
% page state control
/pgsv () def
/bpage {/pgsv save def} bdef
/epage {pgsv restore} bdef
/bplot /gsave ldef
/eplot {stroke grestore} bdef
% orientation switch
/portraitMode 0 def /landscapeMode 1 def /rotateMode 2 def
% coordinate system mappings
/dpi2point 0 def
% font control
/FontSize 0 def
/FMS {/FontSize xstore findfont [FontSize 0 0 FontSize neg 0 0]
  makefont setfont} bdef
/reencode {exch dup where {pop load} {pop StandardEncoding} ifelse
  exch dup 3 1 roll findfont dup length dict begin
  { 1 index /FID ne {def}{pop pop} ifelse } forall
  /Encoding exch def currentdict end definefont pop} bdef
/isroman {findfont /CharStrings get /Agrave known} bdef
/FMSR {3 1 roll 1 index dup isroman {reencode} {pop pop} ifelse
  exch FMS} bdef
/csm {1 dpi2point div -1 dpi2point div scale neg translate
 dup landscapeMode eq {pop -90 rotate}
  {rotateMode eq {90 rotate} if} ifelse} bdef
% line types: solid, dotted, dashed, dotdash
/SO { [] 0 setdash } bdef
/DO { [.5 dpi2point mul 4 dpi2point mul] 0 setdash } bdef
/DA { [6 dpi2point mul] 0 setdash } bdef
/DD { [.5 dpi2point mul 4 dpi2point mul 6 dpi2point mul 4
  dpi2point mul] 0 setdash } bdef
% macros for lines and objects
/L {lineto stroke} bdef
/MP {3 1 roll moveto 1 sub {rlineto} repeat} bdef
/AP {{rlineto} repeat} bdef
/PDlw -1 def
/W {/PDlw currentlinewidth def setlinewidth} def
/PP {closepath eofill} bdef
/DP {closepath stroke} bdef
/MR {4 -2 roll moveto dup  0 exch rlineto exch 0 rlineto
  neg 0 exch rlineto closepath} bdef
/FR {MR stroke} bdef
/PR {MR fill} bdef
/L1i {{currentfile picstr readhexstring pop} image} bdef
/tMatrix matrix def
/MakeOval {newpath tMatrix currentmatrix pop translate scale
0 0 1 0 360 arc tMatrix setmatrix} bdef
/FO {MakeOval stroke} bdef
/PO {MakeOval fill} bdef
/PD {currentlinewidth 2 div 0 360 arc fill
   PDlw -1 eq not {PDlw w /PDlw -1 def} if} def
/FA {newpath tMatrix currentmatrix pop translate scale
  0 0 1 5 -2 roll arc tMatrix setmatrix stroke} bdef
/PA {newpath tMatrix currentmatrix pop	translate 0 0 moveto scale
  0 0 1 5 -2 roll arc closepath tMatrix setmatrix fill} bdef
/FAn {newpath tMatrix currentmatrix pop translate scale
  0 0 1 5 -2 roll arcn tMatrix setmatrix stroke} bdef
/PAn {newpath tMatrix currentmatrix pop translate 0 0 moveto scale
  0 0 1 5 -2 roll arcn closepath tMatrix setmatrix fill} bdef
/vradius 0 def /hradius 0 def /lry 0 def
/lrx 0 def /uly 0 def /ulx 0 def /rad 0 def
/MRR {/vradius xdef /hradius xdef /lry xdef /lrx xdef /uly xdef
  /ulx xdef newpath tMatrix currentmatrix pop ulx hradius add uly
  vradius add translate hradius vradius scale 0 0 1 180 270 arc 
  tMatrix setmatrix lrx hradius sub uly vradius add translate
  hradius vradius scale 0 0 1 270 360 arc tMatrix setmatrix
  lrx hradius sub lry vradius sub translate hradius vradius scale
  0 0 1 0 90 arc tMatrix setmatrix ulx hradius add lry vradius sub
  translate hradius vradius scale 0 0 1 90 180 arc tMatrix setmatrix
  closepath} bdef
/FRR {MRR stroke } bdef
/PRR {MRR fill } bdef
/MlrRR {/lry xdef /lrx xdef /uly xdef /ulx xdef /rad lry uly sub 2 div def
  newpath tMatrix currentmatrix pop ulx rad add uly rad add translate
  rad rad scale 0 0 1 90 270 arc tMatrix setmatrix lrx rad sub lry rad
  sub translate rad rad scale 0 0 1 270 90 arc tMatrix setmatrix
  closepath} bdef
/FlrRR {MlrRR stroke } bdef
/PlrRR {MlrRR fill } bdef
/MtbRR {/lry xdef /lrx xdef /uly xdef /ulx xdef /rad lrx ulx sub 2 div def
  newpath tMatrix currentmatrix pop ulx rad add uly rad add translate
  rad rad scale 0 0 1 180 360 arc tMatrix setmatrix lrx rad sub lry rad
  sub translate rad rad scale 0 0 1 0 180 arc tMatrix setmatrix
  closepath} bdef
/FtbRR {MtbRR stroke } bdef
/PtbRR {MtbRR fill } bdef
/stri 6 array def /dtri 6 array def
/smat 6 array def /dmat 6 array def
/tmat1 6 array def /tmat2 6 array def /dif 3 array def
/asub {/ind2 exch def /ind1 exch def dup dup
  ind1 get exch ind2 get sub exch } bdef
/tri_to_matrix {
  2 0 asub 3 1 asub 4 0 asub 5 1 asub
  dup 0 get exch 1 get 7 -1 roll astore } bdef
/compute_transform {
  dmat dtri tri_to_matrix tmat1 invertmatrix 
  smat stri tri_to_matrix tmat2 concatmatrix } bdef
/ds {stri astore pop} bdef
/dt {dtri astore pop} bdef
/db {2 copy /cols xdef /rows xdef mul dup 3 mul string
  currentfile exch readhexstring pop
  dup 0 3 index getinterval /rbmap xdef
  dup 2 index dup getinterval /gbmap xdef
  1 index dup 2 mul exch getinterval /bbmap xdef pop pop}bdef
/it {gs np dtri aload pop moveto lineto lineto cp c
  cols rows 8 compute_transform 
  rbmap gbmap bbmap true 3 colorimage gr}bdef
/il {newpath moveto lineto stroke}bdef
currentdict end def
%%EndProlog

%%BeginSetup
MathWorks begin

0 cap

end
%%EndSetup

%%Page: 1 1
%%BeginPageSetup
%%PageBoundingBox:    78   215   548   583
MathWorks begin
bpage
%%EndPageSetup

%%BeginObject: obj1
bplot

/dpi2point 12 def
portraitMode 0216 7344 csm

  731   341  5640  4420 MR c np
85 dict begin %Colortable dictionary
/c0 { 0.000000 0.000000 0.000000 sr} bdef
/c1 { 1.000000 1.000000 1.000000 sr} bdef
/c2 { 0.900000 0.000000 0.000000 sr} bdef
/c3 { 0.000000 0.820000 0.000000 sr} bdef
/c4 { 0.000000 0.000000 0.800000 sr} bdef
/c5 { 0.910000 0.820000 0.320000 sr} bdef
/c6 { 1.000000 0.260000 0.820000 sr} bdef
/c7 { 0.000000 0.820000 0.820000 sr} bdef
c0
1 j
1 sg
   0    0 6913 5186 PR
6 w
0 -4226 5356 0 0 4226 899 389 4 MP
PP
-5356 0 0 -4226 5356 0 0 4226 899 389 5 MP stroke
4 w
DO
SO
6 w
0 sg
 899  389 mt 6255  389 L
 899 4615 mt 6255 4615 L
 899  389 mt  899 4615 L
6255  389 mt 6255 4615 L
 899 4615 mt 6255 4615 L
 899  389 mt  899 4615 L
1406 4615 mt 1406 4561 L
1406  389 mt 1406  442 L
%%IncludeResource: font Helvetica
/Helvetica /ISOLatin1Encoding 120 FMSR

1373 4760 mt 
(5) s
1945 4615 mt 1945 4561 L
1945  389 mt 1945  442 L
1879 4760 mt 
(10) s
2484 4615 mt 2484 4561 L
2484  389 mt 2484  442 L
2418 4760 mt 
(15) s
3022 4615 mt 3022 4561 L
3022  389 mt 3022  442 L
2956 4760 mt 
(20) s
3561 4615 mt 3561 4561 L
3561  389 mt 3561  442 L
3495 4760 mt 
(25) s
4100 4615 mt 4100 4561 L
4100  389 mt 4100  442 L
4034 4760 mt 
(30) s
4638 4615 mt 4638 4561 L
4638  389 mt 4638  442 L
4572 4760 mt 
(35) s
5177 4615 mt 5177 4561 L
5177  389 mt 5177  442 L
5111 4760 mt 
(40) s
5716 4615 mt 5716 4561 L
5716  389 mt 5716  442 L
5650 4760 mt 
(45) s
6255 4615 mt 6255 4561 L
6255  389 mt 6255  442 L
6189 4760 mt 
(50) s
 899  974 mt  952  974 L
6255  974 mt 6201  974 L
 798 1018 mt 
(5) s
 899 1596 mt  952 1596 L
6255 1596 mt 6201 1596 L
 731 1640 mt 
(10) s
 899 2217 mt  952 2217 L
6255 2217 mt 6201 2217 L
 731 2261 mt 
(15) s
 899 2839 mt  952 2839 L
6255 2839 mt 6201 2839 L
 731 2883 mt 
(20) s
 899 3460 mt  952 3460 L
6255 3460 mt 6201 3460 L
 731 3504 mt 
(25) s
 899 4082 mt  952 4082 L
6255 4082 mt 6201 4082 L
 731 4126 mt 
(30) s
 899  389 mt 6255  389 L
 899 4615 mt 6255 4615 L
 899  389 mt  899 4615 L
6255  389 mt 6255 4615 L
gs 899 389 5357 4227 MR c np
/c8 { 0.000000 0.000000 1.000000 sr} bdef
c8
6 -1 -5 4 994 516 3 MP stroke
10 12 -14 -5 985 615 3 MP stroke
-4 9 0 -10 1012 867 3 MP stroke
3 5 -5 -3 999 1001 3 MP stroke
6 3 -6 1 993 1131 3 MP stroke
5 1 -5 2 996 2377 3 MP stroke
1 -4 0 4 1005 2509 3 MP stroke
0 -7 3 6 1007 2638 3 MP stroke
-5 3 3 -6 1017 2742 3 MP stroke
-10 5 7 -10 1023 2862 3 MP stroke
-7 -8 9 4 1021 3013 3 MP stroke
-6 0 5 -3 1018 3121 3 MP stroke
-5 1 4 -4 1016 3244 3 MP stroke
-5 3 3 -5 1016 3365 3 MP stroke
-5 2 4 -5 1016 3491 3 MP stroke
-6 2 5 -5 1019 3614 3 MP stroke
-3 3 1 -4 1010 3738 3 MP stroke
-1 3 0 -3 1007 3864 3 MP stroke
-2 0 2 -1 1010 3994 3 MP stroke
4 1 -4 1 997 4116 3 MP stroke
5 -1 -4 4 995 4245 3 MP stroke
2 7 -4 -5 1000 4353 3 MP stroke
11 1 -10 5 984 4491 3 MP stroke
5 1 -5 1 998 4613 3 MP stroke
19 1 -17 9 1077 516 3 MP stroke
15 12 -18 -2 1081 618 3 MP stroke
18 6 -19 4 1078 879 3 MP stroke
21 4 -20 8 1071 1007 3 MP stroke
20 5 -20 6 1074 1130 3 MP stroke
10 6 -11 0 1093 2368 3 MP stroke
11 7 -13 -1 1092 2490 3 MP stroke
11 8 -12 -1 1091 2614 3 MP stroke
10 11 -13 -4 1091 2731 3 MP stroke
9 18 -15 -11 1091 2842 3 MP stroke
13 8 -15 0 1087 2985 3 MP stroke
12 8 -14 0 1088 3110 3 MP stroke
13 8 -14 0 1088 3236 3 MP stroke
12 7 -13 0 1088 3361 3 MP stroke
12 7 -14 0 1090 3485 3 MP stroke
14 8 -15 1 1086 3609 3 MP stroke
13 6 -14 2 1088 3736 3 MP stroke
15 6 -16 3 1082 3860 3 MP stroke
17 7 -18 3 1080 3984 3 MP stroke
18 7 -19 3 1077 4108 3 MP stroke
18 7 -19 4 1077 4232 3 MP stroke
17 5 -17 4 1081 4359 3 MP stroke
15 -1 -13 9 1085 4496 3 MP stroke
18 14 -21 -3 1076 4592 3 MP stroke
14 0 -13 7 1194 517 3 MP stroke
12 10 -15 -2 1197 620 3 MP stroke
15 3 -15 5 1192 760 3 MP stroke
12 2 -11 5 1199 886 3 MP stroke
13 2 -12 5 1196 1009 3 MP stroke
8 4 -9 1 1203 1128 3 MP stroke
3 5 -5 -3 1214 2493 3 MP stroke
9 7 -10 -1 1203 2614 3 MP stroke
13 5 -14 3 1193 2743 3 MP stroke
9 8 -12 -2 1203 2861 3 MP stroke
10 8 -11 -1 1200 2987 3 MP stroke
9 6 -11 0 1202 3112 3 MP stroke
8 6 -10 -1 1204 3238 3 MP stroke
8 5 -9 0 1205 3363 3 MP stroke
11 6 -12 0 1200 3486 3 MP stroke
9 6 -10 0 1202 3612 3 MP stroke
10 6 -11 0 1201 3734 3 MP stroke
12 6 -13 2 1196 3861 3 MP stroke
15 6 -16 3 1191 3985 3 MP stroke
9 5 -11 1 1202 4109 3 MP stroke
8 4 -9 1 1204 4236 3 MP stroke
8 7 -10 -2 1204 4354 3 MP stroke
9 6 -11 0 1203 4480 3 MP stroke
8 6 -10 0 1203 4605 3 MP stroke
14 3 -13 5 1300 513 3 MP stroke
12 14 -16 -6 1304 613 3 MP stroke
12 5 -13 2 1305 753 3 MP stroke
13 9 -15 -1 1302 872 3 MP stroke
17 4 -17 6 1294 1005 3 MP stroke
17 14 -21 -3 1294 1111 3 MP stroke
7 8 -9 -3 1315 2487 3 MP stroke
7 9 -10 -4 1314 2610 3 MP stroke
4 6 -6 -4 1321 2739 3 MP stroke
4 4 -5 -1 1321 2868 3 MP stroke
8 5 -9 0 1311 2992 3 MP stroke
8 3 -8 1 1313 3120 3 MP stroke
8 4 -9 1 1312 3241 3 MP stroke
6 4 -7 0 1316 3364 3 MP stroke
5 4 -6 0 1319 3489 3 MP stroke
6 4 -7 0 1315 3615 3 MP stroke
8 5 -9 0 1313 3738 3 MP stroke
11 6 -12 1 1307 3860 3 MP stroke
12 7 -13 0 1305 3983 3 MP stroke
9 6 -10 0 1310 4108 3 MP stroke
11 6 -12 1 1305 4233 3 MP stroke
12 8 -14 -1 1304 4353 3 MP stroke
13 8 -15 0 1303 4478 3 MP stroke
12 8 -13 0 1304 4603 3 MP stroke
15 1 -14 7 1409 515 3 MP stroke
14 11 -17 -2 1407 618 3 MP stroke
15 4 -15 4 1407 757 3 MP stroke
12 8 -13 0 1412 873 3 MP stroke
13 3 -13 4 1413 1006 3 MP stroke
12 4 -13 3 1413 1130 3 MP stroke
11 3 -11 3 1416 1255 3 MP stroke
7 4 -8 0 1423 1377 3 MP stroke
7 6 -9 -1 1423 2492 3 MP stroke
6 5 -7 -1 1424 2619 3 MP stroke
-1 1 0 -1 1438 3120 3 MP stroke
2 3 -3 -1 1433 3243 3 MP stroke
-1 2 0 -2 1438 3367 3 MP stroke
4 3 -5 0 1428 3490 3 MP stroke
6 4 -7 0 1426 3615 3 MP stroke
3 4 -4 -2 1430 3738 3 MP stroke
7 4 -8 0 1423 3862 3 MP stroke
9 5 -10 0 1419 3984 3 MP stroke
11 7 -12 0 1415 4107 3 MP stroke
11 6 -12 1 1414 4233 3 MP stroke
12 7 -14 0 1413 4355 3 MP stroke
13 7 -14 0 1411 4480 3 MP stroke
12 7 -14 0 1413 4604 3 MP stroke
2 0 1502 389 2 MP stroke
17 3 -16 7 1509 512 3 MP stroke
17 6 -17 4 1510 631 3 MP stroke
19 4 -18 7 1506 758 3 MP stroke
18 10 -20 1 1506 871 3 MP stroke
20 5 -20 7 1503 1004 3 MP stroke
20 6 -20 5 1505 1129 3 MP stroke
19 6 -19 5 1506 1252 3 MP stroke
15 6 -16 2 1514 1375 3 MP stroke
13 6 -14 2 1519 1498 3 MP stroke
9 4 -10 1 1526 3118 3 MP stroke
7 4 -8 0 1531 3243 3 MP stroke
8 4 -9 1 1528 3366 3 MP stroke
11 5 -12 2 1521 3489 3 MP stroke
13 5 -13 2 1519 3614 3 MP stroke
14 6 -15 3 1514 3736 3 MP stroke
13 6 -13 2 1518 3861 3 MP stroke
14 7 -16 2 1516 3983 3 MP stroke
16 7 -17 3 1513 4109 3 MP stroke
16 6 -17 4 1511 4233 3 MP stroke
17 8 -18 2 1511 4354 3 MP stroke
17 8 -18 2 1510 4479 3 MP stroke
17 8 -19 2 1510 4603 3 MP stroke
14 1 -13 7 1625 515 3 MP stroke
1 11 -5 -9 1648 616 3 MP stroke
15 2 -15 7 1623 761 3 MP stroke
12 7 -14 1 1628 875 3 MP stroke
15 3 -15 6 1623 1008 3 MP stroke
13 4 -12 4 1626 1131 3 MP stroke
16 4 -16 5 1621 1256 3 MP stroke
13 5 -13 3 1626 1377 3 MP stroke
12 6 -14 1 1627 1498 3 MP stroke
11 -3 -9 8 1632 2510 3 MP stroke
5 9 -8 -5 1640 2610 3 MP stroke
9 3 -9 2 1636 2748 3 MP stroke
9 3 -9 2 1635 3118 3 MP stroke
10 4 -10 2 1632 3241 3 MP stroke
10 4 -11 2 1632 3366 3 MP stroke
11 3 -11 3 1630 3492 3 MP stroke
10 4 -11 2 1632 3616 3 MP stroke
12 5 -12 2 1628 3739 3 MP stroke
14 5 -15 3 1625 3861 3 MP stroke
14 6 -15 2 1625 3985 3 MP stroke
10 4 -11 2 1631 4112 3 MP stroke
11 4 -11 2 1629 4238 3 MP stroke
10 9 -12 -2 1630 4352 3 MP stroke
14 3 -13 5 1625 4488 3 MP stroke
6 3 -6 1 1748 509 3 MP stroke
7 21 -15 -15 1742 598 3 MP stroke
6 1 -6 2 1749 761 3 MP stroke
10 4 -10 2 1740 881 3 MP stroke
5 4 -6 0 1749 1003 3 MP stroke
3 3 -3 -1 1753 1130 3 MP stroke
15 2 -14 6 1732 1260 3 MP stroke
12 0 -11 7 1735 1385 3 MP stroke
9 5 -10 1 1740 1500 3 MP stroke
13 7 -14 1 1734 1623 3 MP stroke
9 0 -8 5 1742 2503 3 MP stroke
8 9 -11 -4 1743 2609 3 MP stroke
7 2 -7 2 1745 2748 3 MP stroke
8 -1 -6 5 1746 2879 3 MP stroke
7 3 -8 1 1745 2994 3 MP stroke
7 4 -8 0 1746 3118 3 MP stroke
8 4 -8 1 1744 3242 3 MP stroke
9 4 -10 1 1741 3366 3 MP stroke
8 3 -8 1 1744 3492 3 MP stroke
8 3 -9 2 1745 3616 3 MP stroke
9 4 -9 1 1742 3739 3 MP stroke
12 4 -12 2 1736 3864 3 MP stroke
10 7 -12 0 1738 3983 3 MP stroke
11 4 -11 3 1738 4112 3 MP stroke
12 4 -12 3 1736 4238 3 MP stroke
5 3 -6 0 1750 4361 3 MP stroke
2 3 -2 -2 1756 4486 3 MP stroke
8 2 -7 2 1851 389 3 MP stroke
4 1 -4 1 1859 512 3 MP stroke
20 27 -29 -13 1823 589 3 MP stroke
11 3 -11 3 1846 757 3 MP stroke
3 -2 -2 4 1861 891 3 MP stroke
18 0 -16 10 1835 1014 3 MP stroke
10 4 -11 2 1848 1129 3 MP stroke
1 0 -1 0 1866 1259 3 MP stroke
0 2 -1 -2 1866 1380 3 MP stroke
4 3 -5 0 1859 1502 3 MP stroke
4 3 -5 0 1860 1627 3 MP stroke
4 11 -8 -8 1859 2605 3 MP stroke
2 2 -3 0 1863 2747 3 MP stroke
2 0 -2 1 1865 2874 3 MP stroke
3 0 -2 2 1863 3001 3 MP stroke
3 1 -3 0 1863 3122 3 MP stroke
2 3 -3 -1 1862 3243 3 MP stroke
5 4 -6 -1 1859 3366 3 MP stroke
7 3 -8 1 1854 3492 3 MP stroke
8 3 -8 2 1853 3616 3 MP stroke
5 3 -5 0 1857 3740 3 MP stroke
0 3 -1 -2 1867 3864 3 MP stroke
2 1 -2 0 1864 3992 3 MP stroke
5 2 -5 1 1859 4115 3 MP stroke
4 2 -4 0 1860 4237 3 MP stroke
1 4 -2 -3 1866 4359 3 MP stroke
6 1 -6 2 1857 4490 3 MP stroke
15 2 -14 6 1944 513 3 MP stroke
17 22 -24 -10 1940 598 3 MP stroke
19 5 -18 6 1939 758 3 MP stroke
20 7 -20 5 1937 878 3 MP stroke
17 4 -17 5 1942 1007 3 MP stroke
17 13 -20 -2 1938 1115 3 MP stroke
17 4 -16 6 1943 1256 3 MP stroke
18 6 -18 5 1939 1375 3 MP stroke
13 5 -14 2 1950 1501 3 MP stroke
9 5 -10 1 1957 1624 3 MP stroke
11 7 -13 0 1953 2489 3 MP stroke
10 11 -13 -4 1955 2607 3 MP stroke
8 3 -8 1 1960 2745 3 MP stroke
7 4 -8 0 1962 2869 3 MP stroke
6 3 -6 1 1962 2996 3 MP stroke
6 3 -7 1 1962 3119 3 MP stroke
6 4 -7 0 1962 3241 3 MP stroke
9 5 -10 1 1957 3365 3 MP stroke
12 5 -13 3 1951 3490 3 MP stroke
13 5 -14 3 1950 3614 3 MP stroke
15 5 -16 4 1945 3738 3 MP stroke
15 5 -16 3 1946 3863 3 MP stroke
16 5 -16 4 1944 3987 3 MP stroke
15 11 -18 -2 1944 4099 3 MP stroke
18 5 -18 5 1940 4237 3 MP stroke
19 11 -21 0 1936 4350 3 MP stroke
19 7 -19 4 1938 4483 3 MP stroke
1 0 2041 389 2 MP stroke
19 3 -18 8 2045 512 3 MP stroke
7 17 -13 -11 2066 605 3 MP stroke
18 1 -17 8 2048 763 3 MP stroke
19 7 -19 4 2045 878 3 MP stroke
20 2 -19 9 2043 1011 3 MP stroke
17 9 -19 1 2048 1121 3 MP stroke
15 1 -14 7 2055 1260 3 MP stroke
13 2 -12 5 2059 1382 3 MP stroke
9 6 -10 0 2064 1498 3 MP stroke
10 5 -11 1 2063 1624 3 MP stroke
8 5 -9 0 2066 2370 3 MP stroke
10 4 -10 2 2064 2497 3 MP stroke
9 6 -10 -1 2065 2616 3 MP stroke
7 4 -7 1 2068 2745 3 MP stroke
5 4 -6 -1 2073 2869 3 MP stroke
7 4 -7 0 2070 2994 3 MP stroke
7 5 -8 0 2070 3116 3 MP stroke
8 4 -9 0 2068 3241 3 MP stroke
9 4 -9 2 2064 3366 3 MP stroke
9 4 -9 1 2065 3491 3 MP stroke
8 4 -9 1 2066 3615 3 MP stroke
11 4 -11 2 2061 3740 3 MP stroke
13 5 -14 2 2057 3863 3 MP stroke
14 5 -14 3 2055 3988 3 MP stroke
9 9 -12 -3 2063 4103 3 MP stroke
10 4 -10 1 2063 4237 3 MP stroke
11 3 -11 3 2062 4362 3 MP stroke
11 3 -11 4 2060 4488 3 MP stroke
1 0 2155 389 2 MP stroke
16 5 -16 5 2157 508 3 MP stroke
12 17 -17 -9 2163 607 3 MP stroke
17 1 -15 9 2158 764 3 MP stroke
22 7 -22 6 2148 879 3 MP stroke
22 2 -20 9 2149 1012 3 MP stroke
20 12 -22 0 2150 1118 3 MP stroke
17 4 -16 5 2158 1256 3 MP stroke
7 6 -9 -1 2176 1374 3 MP stroke
7 3 -7 1 2177 1626 3 MP stroke
8 6 -10 -1 2175 2368 3 MP stroke
9 2 -9 3 2174 2500 3 MP stroke
9 14 -13 -8 2170 2601 3 MP stroke
7 4 -8 1 2177 2744 3 MP stroke
10 6 -11 0 2169 2865 3 MP stroke
6 3 -7 1 2178 2993 3 MP stroke
6 4 -7 0 2178 3117 3 MP stroke
7 4 -8 0 2177 3241 3 MP stroke
8 4 -9 1 2174 3367 3 MP stroke
12 4 -13 3 2167 3492 3 MP stroke
12 4 -12 3 2167 3615 3 MP stroke
8 3 -8 2 2175 3740 3 MP stroke
12 3 -12 4 2169 3865 3 MP stroke
11 4 -11 2 2170 3989 3 MP stroke
14 14 -18 -5 2163 4094 3 MP stroke
11 3 -11 4 2168 4239 3 MP stroke
13 6 -14 2 2165 4358 3 MP stroke
14 0 -13 8 2164 4495 3 MP stroke
17 3 -16 6 2265 512 3 MP stroke
13 8 -15 1 2271 625 3 MP stroke
14 1 -13 7 2271 764 3 MP stroke
13 6 -14 2 2273 879 3 MP stroke
14 2 -13 6 2272 1010 3 MP stroke
18 12 -21 -1 2261 1116 3 MP stroke
11 3 -11 4 2277 1257 3 MP stroke
6 6 -8 -2 2286 1372 3 MP stroke
4 1 -4 1 2292 1508 3 MP stroke
6 1 -5 2 2288 1632 3 MP stroke
6 3 -6 1 2287 1752 3 MP stroke
2 3 -3 -1 2293 1874 3 MP stroke
7 2 -7 2 2285 2251 3 MP stroke
5 6 -7 -3 2289 2367 3 MP stroke
7 1 -7 3 2285 2501 3 MP stroke
3 16 -9 -13 2291 2595 3 MP stroke
4 2 -4 1 2290 2747 3 MP stroke
2 5 -4 -3 2293 2865 3 MP stroke
2 3 -3 -2 2295 2992 3 MP stroke
1 2 -2 -1 2296 3120 3 MP stroke
2 2 -3 -1 2295 3244 3 MP stroke
3 2 -4 0 2293 3369 3 MP stroke
5 2 -5 1 2289 3493 3 MP stroke
4 5 -5 -2 2290 3612 3 MP stroke
5 2 -5 0 2290 3742 3 MP stroke
5 7 -7 -4 2287 3856 3 MP stroke
7 3 -8 1 2283 3990 3 MP stroke
8 12 -12 -6 2280 4098 3 MP stroke
12 4 -12 4 2274 4237 3 MP stroke
12 8 -13 -1 2274 4354 3 MP stroke
14 2 -13 5 2272 4490 3 MP stroke
6 2 2351 389 2 MP stroke
24 3 -22 11 2358 514 3 MP stroke
23 17 -27 -2 2357 612 3 MP stroke
21 2 -20 10 2364 763 3 MP stroke
20 8 -21 4 2365 875 3 MP stroke
17 2 -16 7 2373 1010 3 MP stroke
19 14 -22 -2 2367 1113 3 MP stroke
10 2 -10 4 2386 1504 3 MP stroke
10 4 -10 1 2387 1625 3 MP stroke
11 6 -12 1 2386 1747 3 MP stroke
10 5 -11 1 2384 1873 3 MP stroke
11 2 -11 4 2385 2003 3 MP stroke
8 12 -12 -6 2387 2107 3 MP stroke
10 3 -9 2 2387 2251 3 MP stroke
9 6 -10 -1 2388 2369 3 MP stroke
8 2 -8 3 2389 2500 3 MP stroke
7 11 -11 -6 2389 2605 3 MP stroke
9 2 -9 3 2390 2749 3 MP stroke
7 4 -8 0 2392 2869 3 MP stroke
8 2 -7 3 2391 2998 3 MP stroke
7 3 -7 1 2393 3120 3 MP stroke
12 4 -12 3 2382 3242 3 MP stroke
9 3 -10 2 2389 3367 3 MP stroke
10 4 -10 2 2387 3492 3 MP stroke
10 4 -10 2 2386 3616 3 MP stroke
14 5 -14 3 2379 3739 3 MP stroke
16 9 -18 0 2375 3855 3 MP stroke
15 4 -15 4 2376 3990 3 MP stroke
13 11 -16 -3 2377 4099 3 MP stroke
19 5 -19 6 2367 4238 3 MP stroke
21 8 -22 4 2364 4355 3 MP stroke
20 4 -19 7 2368 4488 3 MP stroke
12 4 2463 389 2 MP stroke
18 -1 -16 11 2479 520 3 MP stroke
19 9 -20 2 2475 624 3 MP stroke
11 8 -13 -1 2492 874 3 MP stroke
7 2 -7 2 2500 1008 3 MP stroke
6 10 -10 -5 2499 1116 3 MP stroke
16 2 -15 8 2481 1260 3 MP stroke
19 3 -18 8 2477 1381 3 MP stroke
13 4 -13 4 2489 1504 3 MP stroke
10 3 -9 3 2495 1630 3 MP stroke
10 3 -10 3 2494 1753 3 MP stroke
9 4 -10 1 2496 1875 3 MP stroke
9 5 -10 1 2495 1997 3 MP stroke
8 10 -11 -4 2497 2111 3 MP stroke
9 1 -8 4 2497 2253 3 MP stroke
8 5 -10 0 2498 2368 3 MP stroke
9 4 -10 1 2497 2496 3 MP stroke
7 13 -11 -7 2497 2602 3 MP stroke
9 0 -8 5 2496 2752 3 MP stroke
8 3 -9 1 2498 2870 3 MP stroke
7 2 -7 2 2499 2996 3 MP stroke
3 9 -7 -6 2506 3105 3 MP stroke
7 3 -7 1 2499 3243 3 MP stroke
9 4 -9 1 2496 3368 3 MP stroke
12 3 -12 3 2492 3493 3 MP stroke
7 12 -11 -7 2500 3599 3 MP stroke
11 4 -12 3 2493 3740 3 MP stroke
16 8 -17 1 2482 3857 3 MP stroke
8 3 -8 2 2498 3990 3 MP stroke
11 11 -14 -4 2491 4099 3 MP stroke
12 4 -12 3 2490 4238 3 MP stroke
10 7 -12 -1 2493 4355 3 MP stroke
14 4 -14 4 2487 4486 3 MP stroke
19 4 -12 4 2579 389 3 MP stroke
16 4 -16 6 2589 510 3 MP stroke
16 11 -19 -1 2588 619 3 MP stroke
14 1 -13 6 2595 764 3 MP stroke
16 5 -16 5 2588 882 3 MP stroke
11 4 -11 2 2600 1006 3 MP stroke
10 13 -14 -6 2599 1112 3 MP stroke
16 4 -16 5 2591 1255 3 MP stroke
14 5 -15 3 2593 1377 3 MP stroke
10 2 -10 4 2601 1505 3 MP stroke
4 5 -5 -2 2613 1623 3 MP stroke
2 1 -2 1 2617 1755 3 MP stroke
2 2 -2 -1 2617 1877 3 MP stroke
10 6 -12 0 2602 1994 3 MP stroke
8 11 -11 -5 2603 2110 3 MP stroke
9 2 -9 3 2605 2253 3 MP stroke
7 5 -9 0 2607 2369 3 MP stroke
9 2 -9 3 2605 2501 3 MP stroke
6 12 -10 -7 2608 2604 3 MP stroke
9 2 -9 3 2605 2749 3 MP stroke
7 7 -9 -2 2606 2864 3 MP stroke
8 3 -8 1 2607 2995 3 MP stroke
9 8 -11 -3 2604 3109 3 MP stroke
7 3 -7 2 2607 3244 3 MP stroke
10 6 -12 0 2600 3361 3 MP stroke
11 3 -10 3 2600 3493 3 MP stroke
10 16 -15 -8 2599 3592 3 MP stroke
8 2 -8 2 2607 3744 3 MP stroke
11 3 -11 3 2601 3864 3 MP stroke
11 3 -11 4 2599 3991 3 MP stroke
10 10 -13 -4 2602 4100 3 MP stroke
12 3 -12 4 2599 4239 3 MP stroke
10 7 -12 -1 2600 4355 3 MP stroke
13 4 -13 3 2596 4486 3 MP stroke
11 1 -9 4 2706 389 3 MP stroke
14 -3 -11 10 2704 522 3 MP stroke
10 3 -10 2 2710 634 3 MP stroke
7 -2 -6 6 2715 767 3 MP stroke
6 -4 -4 7 2720 895 3 MP stroke
9 4 -9 2 2710 1006 3 MP stroke
3 8 -6 -5 2722 1118 3 MP stroke
4 6 -6 -4 2723 1372 3 MP stroke
3 0 -3 2 2725 1509 3 MP stroke
5 8 -7 -4 2718 1616 3 MP stroke
-11 -1 10 -6 2752 1879 3 MP stroke
1 4 -2 -3 2728 2371 3 MP stroke
1 0 -1 0 2728 2502 3 MP stroke
-1 16 -6 -14 2729 2594 3 MP stroke
3 2 -3 0 2724 2748 3 MP stroke
3 1 -3 0 2725 2873 3 MP stroke
1 1 -2 0 2727 2996 3 MP stroke
0 11 -5 -10 2728 3101 3 MP stroke
0 -1 0 0 2728 3247 3 MP stroke
2 3 -3 -2 2725 3365 3 MP stroke
5 1 -5 2 2718 3494 3 MP stroke
7 18 -14 -12 2712 3586 3 MP stroke
8 2 -8 3 2713 3743 3 MP stroke
-5 0 5 -3 2741 3867 3 MP stroke
1 -2 0 2 2729 3997 3 MP stroke
2 7 -5 -6 2726 4103 3 MP stroke
3 0 -2 2 2724 4244 3 MP stroke
0 6 -2 -5 2728 4354 3 MP stroke
4 2 -4 0 2723 4487 3 MP stroke
17 5 2763 389 2 MP stroke
29 2 -27 14 2781 518 3 MP stroke
16 8 -17 2 2805 626 3 MP stroke
26 3 -24 11 2786 762 3 MP stroke
16 7 -17 3 2804 1251 3 MP stroke
12 7 -13 0 2813 1371 3 MP stroke
12 3 -11 4 2815 1505 3 MP stroke
9 2 -9 4 2818 1629 3 MP stroke
5 4 -6 -1 2827 2370 3 MP stroke
7 3 -7 1 2824 2499 3 MP stroke
5 17 -11 -13 2824 2593 3 MP stroke
9 3 -8 2 2820 2748 3 MP stroke
8 8 -10 -3 2821 2861 3 MP stroke
8 3 -8 2 2822 2996 3 MP stroke
1 7 -4 -5 2834 3109 3 MP stroke
9 2 -9 3 2820 3246 3 MP stroke
9 6 -11 -1 2820 3361 3 MP stroke
11 3 -11 3 2815 3494 3 MP stroke
10 15 -15 -8 2816 3593 3 MP stroke
16 4 -16 5 2807 3741 3 MP stroke
16 9 -18 1 2804 3855 3 MP stroke
13 3 -12 4 2811 3991 3 MP stroke
13 11 -16 -3 2810 4098 3 MP stroke
15 4 -15 4 2808 4237 3 MP stroke
16 10 -19 0 2804 4349 3 MP stroke
16 4 -16 5 2806 4486 3 MP stroke
26 6 -13 4 2880 389 3 MP stroke
26 1 -23 13 2894 519 3 MP stroke
13 8 -15 1 2918 625 3 MP stroke
17 4 -16 6 2912 882 3 MP stroke
17 6 -17 4 2911 1250 3 MP stroke
16 5 -16 4 2914 1378 3 MP stroke
14 5 -15 4 2917 1502 3 MP stroke
8 3 -9 2 2928 2497 3 MP stroke
2 14 -7 -11 2939 2599 3 MP stroke
8 3 -8 2 2930 2747 3 MP stroke
7 7 -8 -2 2930 2863 3 MP stroke
7 2 -7 2 2932 2996 3 MP stroke
6 11 -10 -7 2933 3102 3 MP stroke
9 2 -9 3 2929 3245 3 MP stroke
8 8 -11 -3 2927 3357 3 MP stroke
9 2 -8 3 2928 3494 3 MP stroke
8 17 -14 -10 2926 3590 3 MP stroke
10 3 -10 2 2926 3742 3 MP stroke
13 4 -13 3 2919 3863 3 MP stroke
12 4 -12 3 2919 3989 3 MP stroke
10 12 -14 -6 2924 4095 3 MP stroke
11 3 -11 3 2925 4238 3 MP stroke
9 5 -10 0 2928 4359 3 MP stroke
12 3 -12 4 2922 4487 3 MP stroke
11 3 2982 389 2 MP stroke
28 2 -25 13 2998 516 3 MP stroke
3 5 -5 -2 3045 629 3 MP stroke
8 1 -8 3 3038 1258 3 MP stroke
6 3 -6 0 3041 1379 3 MP stroke
9 3 -9 2 3035 1502 3 MP stroke
9 4 -10 1 3034 1626 3 MP stroke
9 7 -11 -2 3034 1745 3 MP stroke
10 3 -10 2 3033 1876 3 MP stroke
5 3 -6 0 3043 2497 3 MP stroke
7 11 -10 -6 3037 2606 3 MP stroke
7 3 -7 2 3038 2746 3 MP stroke
7 2 -8 2 3039 2871 3 MP stroke
8 2 -8 2 3037 2996 3 MP stroke
7 12 -11 -6 3037 3102 3 MP stroke
11 2 -10 4 3031 3246 3 MP stroke
12 8 -14 -1 3028 3359 3 MP stroke
8 3 -8 2 3037 3494 3 MP stroke
11 11 -14 -3 3028 3603 3 MP stroke
9 2 -8 3 3035 3743 3 MP stroke
8 4 -8 1 3037 3863 3 MP stroke
11 3 -11 4 3032 3990 3 MP stroke
11 9 -14 -2 3030 4101 3 MP stroke
9 4 -10 2 3033 4237 3 MP stroke
10 5 -11 2 3031 4359 3 MP stroke
12 8 -14 -1 3029 4478 3 MP stroke
23 1 -20 11 3116 517 3 MP stroke
6 11 -10 -6 3148 617 3 MP stroke
9 12 -12 -5 3140 1114 3 MP stroke
6 0 -6 3 3149 1259 3 MP stroke
6 2 -6 2 3149 1381 3 MP stroke
3 -4 -2 5 3156 1515 3 MP stroke
0 15 -6 -13 3159 1601 3 MP stroke
4 -3 -3 4 3154 1762 3 MP stroke
4 -6 -1 7 3154 1892 3 MP stroke
5 -13 1 14 3154 2032 3 MP stroke
3 -11 2 12 3158 2152 3 MP stroke
4 6 -6 -3 3153 2242 3 MP stroke
3 2 -3 -1 3155 2374 3 MP stroke
4 1 -3 2 3153 2501 3 MP stroke
0 16 -7 -14 3158 2593 3 MP stroke
1 1 -2 0 3158 2747 3 MP stroke
0 3 -1 -3 3159 2868 3 MP stroke
2 1 -3 0 3156 2997 3 MP stroke
2 10 -6 -8 3153 3103 3 MP stroke
4 1 -4 2 3152 3246 3 MP stroke
3 3 -4 0 3154 3367 3 MP stroke
3 0 -3 2 3154 3497 3 MP stroke
5 11 -9 -7 3149 3600 3 MP stroke
5 2 -5 1 3150 3742 3 MP stroke
5 6 -6 -3 3150 3859 3 MP stroke
7 2 -7 2 3147 3992 3 MP stroke
9 11 -12 -4 3140 4099 3 MP stroke
10 3 -10 2 3142 4238 3 MP stroke
9 6 -10 -1 3143 4355 3 MP stroke
11 2 -10 5 3139 4490 3 MP stroke
17 5 3195 389 2 MP stroke
35 4 -32 15 3200 515 3 MP stroke
12 14 -16 -6 3242 613 3 MP stroke
23 5 -23 8 3223 881 3 MP stroke
22 7 -22 6 3224 1002 3 MP stroke
13 1 -12 6 3243 1261 3 MP stroke
11 5 -11 1 3246 1376 3 MP stroke
7 1 -7 3 3254 1507 3 MP stroke
4 17 -11 -13 3257 1598 3 MP stroke
7 1 -7 3 3254 1756 3 MP stroke
7 2 -7 2 3254 1877 3 MP stroke
8 -1 -7 5 3253 2009 3 MP stroke
6 11 -10 -7 3255 2108 3 MP stroke
7 0 -7 4 3254 2254 3 MP stroke
7 1 -7 3 3254 2376 3 MP stroke
9 2 -8 3 3252 2500 3 MP stroke
7 16 -13 -10 3251 2597 3 MP stroke
9 1 -9 4 3250 2749 3 MP stroke
8 6 -9 -1 3251 2867 3 MP stroke
9 2 -9 3 3251 2997 3 MP stroke
5 11 -9 -7 3257 3103 3 MP stroke
11 2 -11 4 3246 3245 3 MP stroke
12 8 -14 -1 3245 3359 3 MP stroke
13 3 -13 5 3242 3493 3 MP stroke
7 17 -13 -12 3252 3587 3 MP stroke
16 4 -16 5 3238 3740 3 MP stroke
15 9 -17 0 3237 3855 3 MP stroke
13 4 -14 3 3242 3989 3 MP stroke
16 12 -19 -2 3235 4098 3 MP stroke
15 5 -15 4 3239 4236 3 MP stroke
15 8 -17 1 3237 4355 3 MP stroke
17 2 -16 8 3234 4491 3 MP stroke
20 5 -8 2 3323 389 3 MP stroke
17 2 -16 7 3342 513 3 MP stroke
20 15 -24 -3 3335 611 3 MP stroke
15 2 -14 7 3346 762 3 MP stroke
13 6 -14 2 3350 878 3 MP stroke
13 -1 -11 8 3351 1016 3 MP stroke
2 8 -6 -6 3371 1118 3 MP stroke
9 1 -9 4 3358 1508 3 MP stroke
6 15 -12 -10 3362 1602 3 MP stroke
7 1 -6 3 3362 1756 3 MP stroke
7 3 -8 1 3362 1876 3 MP stroke
8 -3 -6 7 3360 2012 3 MP stroke
6 10 -9 -5 3361 2111 3 MP stroke
8 1 -8 3 3360 2252 3 MP stroke
7 7 -9 -2 3361 2366 3 MP stroke
8 2 -7 3 3360 2499 3 MP stroke
6 15 -12 -10 3361 2597 3 MP stroke
9 3 -9 2 3359 2747 3 MP stroke
8 7 -10 -2 3360 2863 3 MP stroke
7 2 -7 2 3362 2997 3 MP stroke
6 11 -10 -6 3361 3104 3 MP stroke
10 2 -10 4 3355 3244 3 MP stroke
6 3 -6 0 3365 3368 3 MP stroke
10 1 -9 4 3357 3496 3 MP stroke
7 16 -13 -10 3359 3591 3 MP stroke
11 4 -11 2 3354 3740 3 MP stroke
12 6 -13 1 3352 3862 3 MP stroke
14 6 -14 2 3347 3986 3 MP stroke
15 5 -15 4 3345 4110 3 MP stroke
10 4 -10 2 3355 4237 3 MP stroke
8 6 -10 -1 3360 4355 3 MP stroke
14 2 -13 6 3348 4491 3 MP stroke
13 2 -12 4 3458 389 3 MP stroke
16 2 -15 6 3452 513 3 MP stroke
10 12 -14 -5 3462 616 3 MP stroke
17 0 -15 9 3450 766 3 MP stroke
14 3 -14 5 3456 885 3 MP stroke
16 1 -14 9 3451 1014 3 MP stroke
5 12 -9 -8 3472 1111 3 MP stroke
9 3 -9 2 3468 1505 3 MP stroke
5 15 -11 -11 3471 1602 3 MP stroke
8 7 -10 -2 3468 1868 3 MP stroke
8 1 -7 4 3467 2005 3 MP stroke
11 12 -15 -5 3461 2108 3 MP stroke
8 1 -8 4 3467 2252 3 MP stroke
7 7 -9 -3 3469 2366 3 MP stroke
8 2 -8 3 3468 2500 3 MP stroke
7 15 -12 -10 3467 2598 3 MP stroke
8 2 -8 2 3467 2748 3 MP stroke
8 3 -8 1 3468 2871 3 MP stroke
8 2 -8 2 3468 2996 3 MP stroke
1 6 -3 -5 3482 3110 3 MP stroke
7 2 -7 2 3470 3245 3 MP stroke
3 6 -4 -3 3477 3362 3 MP stroke
7 2 -7 3 3469 3495 3 MP stroke
8 14 -13 -8 3466 3594 3 MP stroke
10 3 -10 3 3465 3741 3 MP stroke
11 3 -11 3 3461 3865 3 MP stroke
13 3 -12 4 3459 3991 3 MP stroke
13 5 -13 3 3457 4111 3 MP stroke
11 5 -11 1 3462 4236 3 MP stroke
12 5 -13 2 3460 4360 3 MP stroke
18 4 -18 6 3447 4488 3 MP stroke
15 1 -14 7 3562 390 3 MP stroke
15 1 -14 7 3562 515 3 MP stroke
5 12 -9 -8 3580 616 3 MP stroke
-1 -5 3 4 3594 1765 3 MP stroke
-9 8 5 -11 3607 2110 3 MP stroke
1 -3 0 3 3590 2260 3 MP stroke
-8 1 6 -6 3607 2373 3 MP stroke
-3 0 3 -2 3597 2501 3 MP stroke
1 9 -5 -8 3589 2608 3 MP stroke
-8 -2 8 -2 3607 2752 3 MP stroke
-7 0 6 -4 3606 2873 3 MP stroke
-2 1 1 -3 3597 2996 3 MP stroke
-3 1 2 -3 3598 3119 3 MP stroke
-2 0 2 -1 3597 3248 3 MP stroke
-3 0 3 -1 3597 3371 3 MP stroke
3 1 -3 1 3587 3495 3 MP stroke
3 7 -6 -5 3584 3606 3 MP stroke
2 0 -2 1 3588 3746 3 MP stroke
8 4 -9 2 3574 3864 3 MP stroke
6 4 -7 0 3579 3987 3 MP stroke
8 6 -9 -1 3575 4109 3 MP stroke
8 6 -10 0 3575 4232 3 MP stroke
9 6 -10 -1 3574 4357 3 MP stroke
15 5 -15 4 3560 4487 3 MP stroke
33 6 -28 11 3629 389 3 MP stroke
31 5 -29 13 3636 512 3 MP stroke
20 16 -25 -4 3657 610 3 MP stroke
19 5 -19 6 3662 1377 3 MP stroke
15 1 -14 7 3670 1510 3 MP stroke
10 15 -15 -8 3676 1604 3 MP stroke
14 1 -13 7 3672 1757 3 MP stroke
13 4 -13 3 3673 1876 3 MP stroke
15 0 -13 8 3671 2009 3 MP stroke
9 9 -12 -4 3681 2112 3 MP stroke
12 1 -11 5 3676 2254 3 MP stroke
9 7 -11 -1 3680 2366 3 MP stroke
9 2 -8 3 3681 2501 3 MP stroke
8 12 -12 -6 3682 2605 3 MP stroke
9 1 -8 3 3682 2750 3 MP stroke
7 7 -10 -2 3684 2862 3 MP stroke
12 1 -11 5 3675 2999 3 MP stroke
7 12 -11 -7 3683 3101 3 MP stroke
14 3 -14 5 3671 3244 3 MP stroke
14 7 -15 1 3669 3361 3 MP stroke
15 4 -14 5 3669 3492 3 MP stroke
13 14 -17 -5 3670 3596 3 MP stroke
18 5 -18 5 3663 3740 3 MP stroke
14 7 -15 2 3672 3859 3 MP stroke
14 7 -15 2 3670 3983 3 MP stroke
15 8 -16 1 3669 4105 3 MP stroke
15 8 -16 1 3668 4230 3 MP stroke
14 8 -16 0 3672 4353 3 MP stroke
24 8 -25 6 3649 4481 3 MP stroke
23 7 3722 389 2 MP stroke
35 8 -34 12 3738 507 3 MP stroke
26 17 -30 -1 3754 611 3 MP stroke
10 3 -10 3 3785 1380 3 MP stroke
13 13 -17 -4 3779 1609 3 MP stroke
11 2 -11 4 3786 1878 3 MP stroke
11 -1 -9 6 3787 2009 3 MP stroke
9 9 -12 -3 3787 2115 3 MP stroke
5 5 -6 -2 3798 2245 3 MP stroke
5 11 -9 -7 3794 2357 3 MP stroke
8 2 -8 2 3792 2500 3 MP stroke
3 10 -7 -8 3799 2607 3 MP stroke
8 1 -7 4 3791 2750 3 MP stroke
8 3 -8 1 3793 2871 3 MP stroke
11 1 -10 5 3786 3000 3 MP stroke
9 10 -13 -4 3788 3104 3 MP stroke
6 0 -6 3 3795 3248 3 MP stroke
7 6 -9 -1 3791 3363 3 MP stroke
11 4 -11 2 3785 3492 3 MP stroke
11 14 -15 -6 3782 3595 3 MP stroke
9 4 -10 2 3788 3738 3 MP stroke
11 7 -12 0 3784 3858 3 MP stroke
9 5 -10 1 3787 3985 3 MP stroke
8 3 -9 2 3791 4112 3 MP stroke
16 7 -17 2 3775 4232 3 MP stroke
18 8 -19 3 3770 4354 3 MP stroke
25 8 -25 7 3756 4482 3 MP stroke
26 3 -25 12 3863 389 3 MP stroke
20 1 -18 10 3874 517 3 MP stroke
18 12 -22 -1 3877 617 3 MP stroke
26 -1 -22 15 3864 1021 3 MP stroke
14 2 -13 6 3887 1258 3 MP stroke
17 0 -15 9 3882 1388 3 MP stroke
17 -5 -13 14 3883 1522 3 MP stroke
14 14 -18 -5 3884 1608 3 MP stroke
13 9 -15 0 3888 1743 3 MP stroke
14 -3 -11 10 3889 1890 3 MP stroke
11 -1 -9 6 3895 2010 3 MP stroke
9 6 -10 0 3896 2119 3 MP stroke
6 0 -5 3 3903 2254 3 MP stroke
3 10 -7 -8 3908 2358 3 MP stroke
8 1 -7 3 3899 2501 3 MP stroke
2 10 -6 -8 3910 2606 3 MP stroke
10 5 -11 1 3894 2743 3 MP stroke
10 4 -11 2 3894 2868 3 MP stroke
8 0 -7 5 3899 3001 3 MP stroke
13 8 -15 0 3887 3110 3 MP stroke
14 0 -12 8 3888 3252 3 MP stroke
14 5 -15 4 3886 3365 3 MP stroke
14 3 -14 5 3885 3494 3 MP stroke
15 14 -19 -4 3882 3596 3 MP stroke
13 7 -14 1 3888 3736 3 MP stroke
14 8 -16 1 3885 3856 3 MP stroke
13 8 -15 0 3886 3981 3 MP stroke
13 11 -16 -2 3887 4099 3 MP stroke
22 8 -23 5 3870 4231 3 MP stroke
18 12 -20 -1 3878 4349 3 MP stroke
25 9 -26 6 3863 4480 3 MP stroke
19 8 -25 5 3864 4603 3 MP stroke
25 1 -23 13 3973 393 3 MP stroke
22 2 -20 10 3979 517 3 MP stroke
22 16 -26 -2 3976 612 3 MP stroke
23 7 -23 7 3976 755 3 MP stroke
22 -1 -19 13 3979 894 3 MP stroke
23 3 -21 10 3977 1135 3 MP stroke
16 -1 -13 9 3992 1265 3 MP stroke
17 -6 -12 14 3991 1400 3 MP stroke
17 -11 -11 19 3992 1533 3 MP stroke
11 7 -13 0 3999 1620 3 MP stroke
10 1 -10 5 4002 1757 3 MP stroke
15 0 -13 9 3992 1884 3 MP stroke
7 -1 -6 5 4009 2009 3 MP stroke
7 1 -7 3 4009 2129 3 MP stroke
5 4 -6 0 4012 2247 3 MP stroke
6 4 -7 0 4010 2371 3 MP stroke
6 3 -7 1 4010 2497 3 MP stroke
0 15 -6 -14 4020 2596 3 MP stroke
1 3 -2 -2 4020 2746 3 MP stroke
0 7 -3 -6 4021 2862 3 MP stroke
16 2 -15 7 3990 2999 3 MP stroke
18 5 -18 5 3987 3118 3 MP stroke
21 5 -21 8 3979 3243 3 MP stroke
22 4 -22 8 3979 3369 3 MP stroke
18 2 -17 8 3986 3496 3 MP stroke
15 9 -17 1 3990 3607 3 MP stroke
15 0 -13 8 3995 3747 3 MP stroke
12 7 -14 1 3997 3858 3 MP stroke
14 8 -15 1 3994 3981 3 MP stroke
14 11 -17 -2 3992 4099 3 MP stroke
17 6 -18 4 3987 4233 3 MP stroke
21 4 -20 8 3980 4364 3 MP stroke
22 6 -22 7 3978 4485 3 MP stroke
28 3 -26 13 4074 392 3 MP stroke
27 2 -25 13 4076 517 3 MP stroke
26 18 -30 -1 4075 610 3 MP stroke
26 8 -26 7 4077 754 3 MP stroke
28 3 -26 12 4076 887 3 MP stroke
27 1 -24 14 4078 1015 3 MP stroke
25 10 -26 5 4079 1122 3 MP stroke
30 6 -28 11 4070 1256 3 MP stroke
25 -1 -21 14 4083 1393 3 MP stroke
30 -6 -24 21 4074 1527 3 MP stroke
20 10 -22 2 4089 1617 3 MP stroke
24 7 -24 7 4083 1747 3 MP stroke
17 0 -15 10 4096 1885 3 MP stroke
18 -6 -13 15 4096 2022 3 MP stroke
28 -6 -22 20 4077 2147 3 MP stroke
21 2 -19 9 4089 2255 3 MP stroke
21 2 -19 10 4089 2379 3 MP stroke
17 6 -18 4 4096 2494 3 MP stroke
17 25 -25 -12 4092 2582 3 MP stroke
11 1 -10 5 4109 2751 3 MP stroke
12 3 -12 5 4105 2873 3 MP stroke
28 3 -26 12 4076 2999 3 MP stroke
28 11 -29 5 4074 3110 3 MP stroke
28 6 -27 10 4073 3243 3 MP stroke
28 6 -28 10 4074 3367 3 MP stroke
32 2 -29 16 4066 3500 3 MP stroke
31 8 -30 9 4068 3613 3 MP stroke
28 3 -26 12 4076 3748 3 MP stroke
15 7 -16 2 4099 3859 3 MP stroke
17 7 -18 3 4096 3984 3 MP stroke
18 15 -22 -4 4093 4093 3 MP stroke
25 7 -25 7 4080 4235 3 MP stroke
25 11 -27 4 4078 4352 3 MP stroke
28 10 -28 6 4074 4479 3 MP stroke
27 12 -29 4 4076 4599 3 MP stroke
24 0 -21 13 4190 397 3 MP stroke
25 1 -22 13 4188 518 3 MP stroke
11 25 -20 -16 4211 592 3 MP stroke
27 4 -25 11 4184 762 3 MP stroke
27 4 -25 12 4184 886 3 MP stroke
27 2 -24 12 4186 1014 3 MP stroke
25 11 -26 3 4187 1120 3 MP stroke
24 5 -24 9 4191 1254 3 MP stroke
24 -3 -20 16 4191 1396 3 MP stroke
26 -10 -19 23 4189 1536 3 MP stroke
23 10 -24 4 4190 1618 3 MP stroke
23 12 -25 2 4190 1738 3 MP stroke
30 6 -29 10 4179 1876 3 MP stroke
27 1 -24 13 4186 2010 3 MP stroke
22 9 -23 4 4192 2117 3 MP stroke
23 1 -21 12 4192 2256 3 MP stroke
20 6 -20 5 4198 2372 3 MP stroke
16 5 -16 5 4205 2496 3 MP stroke
17 19 -23 -7 4201 2592 3 MP stroke
13 6 -14 1 4213 2741 3 MP stroke
17 3 -16 6 4205 2873 3 MP stroke
24 -3 -20 15 4192 3011 3 MP stroke
29 5 -28 11 4179 3122 3 MP stroke
17 -3 -14 12 4206 3258 3 MP stroke
19 2 -18 8 4201 3371 3 MP stroke
22 2 -20 10 4193 3498 3 MP stroke
23 15 -27 -1 4190 3596 3 MP stroke
22 0 -20 12 4194 3750 3 MP stroke
20 3 -19 8 4200 3868 3 MP stroke
20 3 -19 8 4198 3992 3 MP stroke
19 7 -20 4 4200 4108 3 MP stroke
21 6 -21 6 4197 4237 3 MP stroke
24 12 -26 2 4188 4350 3 MP stroke
21 2 -20 9 4196 4491 3 MP stroke
19 13 -22 -1 4199 4595 3 MP stroke
27 5 -22 8 4289 389 3 MP stroke
24 1 -22 13 4298 518 3 MP stroke
18 14 -21 -2 4307 616 3 MP stroke
20 4 -19 8 4304 760 3 MP stroke
19 3 -18 8 4309 886 3 MP stroke
14 -4 -11 11 4320 1021 3 MP stroke
15 5 -15 3 4315 1129 3 MP stroke
14 -1 -12 8 4320 1265 3 MP stroke
10 1 -9 4 4326 1384 3 MP stroke
12 -9 -7 15 4323 1529 3 MP stroke
9 13 -13 -7 4327 1609 3 MP stroke
8 12 -12 -7 4329 1735 3 MP stroke
17 -9 -12 17 4314 1901 3 MP stroke
16 -4 -13 12 4316 2017 3 MP stroke
10 -4 -7 9 4328 2139 3 MP stroke
9 -2 -8 7 4328 2258 3 MP stroke
20 12 -23 0 4304 2359 3 MP stroke
14 9 -16 0 4316 2489 3 MP stroke
20 19 -25 -5 4301 2594 3 MP stroke
25 8 -25 7 4295 2741 3 MP stroke
23 12 -25 3 4297 2857 3 MP stroke
9 -3 -7 8 4328 3007 3 MP stroke
4 -8 0 9 4340 3140 3 MP stroke
14 -4 -11 11 4321 3259 3 MP stroke
16 -2 -14 11 4314 3380 3 MP stroke
18 -5 -14 14 4313 3511 3 MP stroke
20 14 -24 -2 4304 3598 3 MP stroke
20 10 -22 2 4305 3730 3 MP stroke
17 6 -18 4 4312 3863 3 MP stroke
21 -3 -18 14 4304 4004 3 MP stroke
27 8 -27 8 4292 4109 3 MP stroke
26 10 -27 6 4291 4229 3 MP stroke
30 12 -31 6 4285 4350 3 MP stroke
23 10 -24 4 4298 4475 3 MP stroke
21 6 -3 0 4393 389 3 MP stroke
21 -2 -18 13 4413 522 3 MP stroke
15 10 -17 -1 4423 622 3 MP stroke
20 -3 -17 14 4415 773 3 MP stroke
14 -4 -11 10 4429 897 3 MP stroke
17 -2 -14 11 4421 1018 3 MP stroke
15 5 -15 4 4424 1128 3 MP stroke
17 5 -17 5 4418 1253 3 MP stroke
20 -2 -17 13 4415 1393 3 MP stroke
22 -4 -17 15 4412 1522 3 MP stroke
4 9 -7 -5 4444 1616 3 MP stroke
3 8 -6 -5 4445 1742 3 MP stroke
20 -4 -16 15 4416 1893 3 MP stroke
14 -11 -8 17 4428 2030 3 MP stroke
10 5 -10 1 4433 2122 3 MP stroke
10 -3 -7 8 4434 2262 3 MP stroke
13 3 -13 5 4428 2375 3 MP stroke
5 9 -8 -5 4441 2484 3 MP stroke
10 20 -17 -12 4430 2591 3 MP stroke
10 12 -14 -5 4432 2728 3 MP stroke
16 8 -18 2 4421 2862 3 MP stroke
15 1 -14 7 4424 3002 3 MP stroke
16 2 -15 7 4422 3123 3 MP stroke
20 4 -19 8 4412 3246 3 MP stroke
16 2 -15 7 4422 3372 3 MP stroke
21 -1 -18 12 4412 3505 3 MP stroke
21 15 -24 -2 4409 3597 3 MP stroke
22 13 -25 0 4409 3725 3 MP stroke
23 1 -21 12 4408 3874 3 MP stroke
23 0 -20 12 4408 3999 3 MP stroke
23 12 -25 2 4405 4101 3 MP stroke
22 6 -21 7 4409 4236 3 MP stroke
25 9 -26 6 4404 4356 3 MP stroke
22 12 -24 2 4408 4473 3 MP stroke
3 1 4489 389 2 MP stroke
27 3 -25 12 4509 514 3 MP stroke
26 11 -27 5 4507 623 3 MP stroke
29 7 -28 9 4503 756 3 MP stroke
29 10 -30 7 4503 874 3 MP stroke
29 1 -26 15 4504 1017 3 MP stroke
27 12 -28 4 4506 1120 3 MP stroke
28 8 -28 8 4505 1251 3 MP stroke
28 1 -25 14 4507 1388 3 MP stroke
27 2 -25 14 4507 1512 3 MP stroke
26 9 -26 6 4509 1622 3 MP stroke
27 3 -25 13 4507 1758 3 MP stroke
29 8 -29 9 4504 1871 3 MP stroke
32 -2 -27 19 4499 2018 3 MP stroke
29 6 -28 11 4504 2126 3 MP stroke
26 7 -26 8 4508 2248 3 MP stroke
26 -2 -22 16 4511 2389 3 MP stroke
27 6 -26 9 4506 2497 3 MP stroke
23 23 -29 -7 4511 2588 3 MP stroke
28 5 -27 11 4505 2746 3 MP stroke
27 4 -25 11 4508 2874 3 MP stroke
33 3 -31 15 4497 3000 3 MP stroke
30 6 -29 11 4501 3119 3 MP stroke
31 4 -29 13 4499 3248 3 MP stroke
32 3 -29 15 4497 3373 3 MP stroke
32 5 -30 13 4497 3496 3 MP stroke
32 12 -33 7 4495 3604 3 MP stroke
36 18 -39 4 4485 3720 3 MP stroke
39 6 -37 16 4484 3869 3 MP stroke
34 -4 -28 22 4495 4010 3 MP stroke
29 14 -32 3 4501 4098 3 MP stroke
35 8 -34 12 4491 4236 3 MP stroke
38 11 -38 11 4484 4355 3 MP stroke
37 9 -37 12 4486 4482 3 MP stroke
11 4 4595 389 2 MP stroke
31 6 -30 12 4607 510 3 MP stroke
24 14 -27 1 4619 616 3 MP stroke
29 6 -28 11 4610 758 3 MP stroke
26 4 -25 11 4616 884 3 MP stroke
30 6 -29 11 4609 1006 3 MP stroke
28 10 -29 6 4613 1122 3 MP stroke
27 6 -27 9 4615 1255 3 MP stroke
24 9 -24 5 4620 1373 3 MP stroke
23 6 -23 7 4622 1502 3 MP stroke
21 19 -27 -6 4624 1600 3 MP stroke
22 28 -31 -13 4619 1707 3 MP stroke
29 7 -28 10 4611 1876 3 MP stroke
27 5 -26 10 4615 2002 3 MP stroke
25 12 -27 3 4619 2112 3 MP stroke
28 5 -27 10 4614 2249 3 MP stroke
25 2 -22 12 4619 2380 3 MP stroke
24 -1 -21 14 4622 2510 3 MP stroke
21 20 -26 -7 4624 2592 3 MP stroke
26 7 -26 8 4616 2745 3 MP stroke
28 6 -27 11 4612 2871 3 MP stroke
35 -5 -29 24 4601 3019 3 MP stroke
31 6 -29 12 4607 3120 3 MP stroke
31 6 -29 12 4608 3244 3 MP stroke
30 8 -30 9 4608 3364 3 MP stroke
29 6 -28 11 4611 3492 3 MP stroke
25 19 -30 -4 4617 3590 3 MP stroke
21 27 -29 -12 4621 3698 3 MP stroke
30 8 -30 9 4609 3861 3 MP stroke
27 7 -27 8 4616 3986 3 MP stroke
26 13 -28 3 4616 4098 3 MP stroke
26 15 -29 1 4615 4220 3 MP stroke
26 16 -30 0 4614 4342 3 MP stroke
30 13 -32 5 4606 4472 3 MP stroke
26 5 -18 6 4719 389 3 MP stroke
29 3 -27 13 4719 515 3 MP stroke
33 16 -36 4 4709 616 3 MP stroke
28 2 -25 13 4723 767 3 MP stroke
27 3 -25 12 4724 887 3 MP stroke
28 3 -26 13 4722 1012 3 MP stroke
26 5 -25 10 4724 1132 3 MP stroke
29 7 -29 9 4718 1252 3 MP stroke
30 19 -34 0 4712 1354 3 MP stroke
28 31 -38 -12 4715 1453 3 MP stroke
26 34 -37 -16 4719 1573 3 MP stroke
24 23 -31 -7 4724 1718 3 MP stroke
30 -3 -25 19 4719 1894 3 MP stroke
23 3 -21 10 4731 2005 3 MP stroke
25 9 -26 6 4726 2118 3 MP stroke
29 9 -29 8 4717 2244 3 MP stroke
16 25 -24 -13 4741 2333 3 MP stroke
27 12 -29 4 4722 2484 3 MP stroke
24 9 -25 5 4727 2613 3 MP stroke
26 1 -24 14 4725 2755 3 MP stroke
27 6 -26 10 4721 2871 3 MP stroke
24 9 -25 5 4727 2988 3 MP stroke
29 5 -27 11 4720 3120 3 MP stroke
27 6 -26 9 4724 3245 3 MP stroke
28 6 -27 10 4721 3367 3 MP stroke
28 10 -29 6 4720 3483 3 MP stroke
21 27 -29 -12 4729 3574 3 MP stroke
15 29 -25 -18 4741 3691 3 MP stroke
22 3 -21 9 4731 3868 3 MP stroke
24 3 -22 10 4730 3992 3 MP stroke
23 9 -24 5 4730 4106 3 MP stroke
19 10 -21 2 4737 4228 3 MP stroke
20 16 -24 -3 4734 4341 3 MP stroke
28 16 -32 1 4717 4467 3 MP stroke
22 2 -21 10 4841 389 3 MP stroke
26 0 -23 14 4832 521 3 MP stroke
21 16 -25 -3 4839 612 3 MP stroke
25 2 -23 11 4835 764 3 MP stroke
25 14 -28 1 4833 864 3 MP stroke
26 12 -28 4 4831 994 3 MP stroke
22 44 -38 -27 4832 1054 3 MP stroke
19 54 -39 -37 4835 1157 3 MP stroke
30 39 -42 -17 4816 1316 3 MP stroke
23 27 -32 -11 4834 1459 3 MP stroke
23 26 -31 -11 4835 1586 3 MP stroke
16 14 -20 -4 4852 1732 3 MP stroke
15 10 -17 -1 4853 1865 3 MP stroke
10 16 -16 -9 4862 1975 3 MP stroke
16 7 -17 2 4853 2121 3 MP stroke
14 3 -14 5 4857 2251 3 MP stroke
11 12 -14 -4 4859 2357 3 MP stroke
13 6 -14 2 4857 2492 3 MP stroke
13 14 -17 -6 4857 2602 3 MP stroke
23 6 -22 7 4838 2745 3 MP stroke
18 3 -17 7 4848 2873 3 MP stroke
21 1 -19 11 4844 3003 3 MP stroke
20 4 -19 8 4844 3121 3 MP stroke
21 1 -19 11 4843 3250 3 MP stroke
24 -11 -17 22 4841 3399 3 MP stroke
26 -10 -19 22 4836 3522 3 MP stroke
17 16 -22 -5 4847 3594 3 MP stroke
24 0 -21 13 4837 3750 3 MP stroke
17 5 -17 5 4850 3865 3 MP stroke
18 1 -16 9 4849 3996 3 MP stroke
15 9 -17 0 4854 4106 3 MP stroke
20 13 -23 -1 4842 4221 3 MP stroke
17 14 -21 -3 4847 4343 3 MP stroke
22 13 -25 0 4839 4470 3 MP stroke
34 2 -31 16 4926 393 3 MP stroke
29 5 -28 12 4934 512 3 MP stroke
18 13 -22 -2 4954 617 3 MP stroke
22 6 -22 6 4947 755 3 MP stroke
16 33 -27 -20 4954 826 3 MP stroke
17 36 -30 -22 4952 944 3 MP stroke
12 52 -32 -39 4958 1036 3 MP stroke
16 47 -34 -33 4950 1170 3 MP stroke
23 40 -37 -23 4939 1310 3 MP stroke
22 31 -32 -15 4942 1452 3 MP stroke
14 23 -21 -13 4961 1590 3 MP stroke
11 18 -17 -10 4968 1724 3 MP stroke
9 20 -16 -13 4972 1843 3 MP stroke
9 12 -13 -6 4972 1983 3 MP stroke
13 11 -16 -2 4965 2111 3 MP stroke
17 8 -19 2 4957 2241 3 MP stroke
17 5 -17 5 4959 2373 3 MP stroke
19 4 -18 7 4954 2499 3 MP stroke
9 12 -13 -6 4974 2604 3 MP stroke
20 1 -19 10 4953 2753 3 MP stroke
17 3 -16 7 4957 2875 3 MP stroke
23 3 -22 10 4947 3000 3 MP stroke
18 6 -19 5 4955 3116 3 MP stroke
23 0 -21 13 4947 3254 3 MP stroke
20 0 -17 11 4953 3377 3 MP stroke
18 -2 -16 11 4958 3504 3 MP stroke
14 12 -17 -3 4962 3601 3 MP stroke
10 8 -12 -1 4970 3733 3 MP stroke
22 6 -22 6 4950 3863 3 MP stroke
21 2 -20 9 4951 3994 3 MP stroke
11 8 -13 -1 4969 4103 3 MP stroke
14 10 -17 -1 4962 4224 3 MP stroke
14 13 -18 -3 4962 4345 3 MP stroke
17 9 -19 1 4958 4476 3 MP stroke
13 4 5043 389 2 MP stroke
23 3 -21 10 5055 514 3 MP stroke
10 16 -15 -9 5077 609 3 MP stroke
9 12 -13 -6 5082 740 3 MP stroke
9 9 -11 -3 5081 871 3 MP stroke
5 25 -15 -20 5085 961 3 MP stroke
4 38 -19 -31 5084 1059 3 MP stroke
4 34 -18 -28 5086 1193 3 MP stroke
9 13 -13 -6 5080 1359 3 MP stroke
10 5 -11 2 5079 1500 3 MP stroke
9 10 -12 -4 5080 1616 3 MP stroke
8 4 -9 1 5083 1750 3 MP stroke
6 12 -10 -7 5085 1860 3 MP stroke
7 10 -10 -5 5084 1988 3 MP stroke
3 8 -6 -5 5092 2113 3 MP stroke
11 7 -12 0 5077 2242 3 MP stroke
8 3 -8 2 5083 2373 3 MP stroke
10 3 -10 3 5079 2498 3 MP stroke
-2 10 -2 -10 5103 2605 3 MP stroke
9 1 -8 3 5083 2751 3 MP stroke
10 7 -11 -1 5079 2864 3 MP stroke
11 0 -10 6 5078 3002 3 MP stroke
17 10 -19 1 5065 3108 3 MP stroke
9 2 -9 3 5083 3246 3 MP stroke
10 2 -9 4 5079 3372 3 MP stroke
13 2 -13 5 5074 3496 3 MP stroke
6 13 -10 -8 5087 3597 3 MP stroke
7 7 -9 -2 5085 3734 3 MP stroke
8 4 -9 1 5083 3864 3 MP stroke
12 0 -11 7 5077 3997 3 MP stroke
8 8 -10 -2 5082 4104 3 MP stroke
10 9 -12 -3 5079 4228 3 MP stroke
11 6 -12 1 5077 4357 3 MP stroke
14 1 -13 7 5072 4492 3 MP stroke
2 0 5174 389 2 MP stroke
5 11 -9 -7 5194 493 3 MP stroke
0 13 -5 -11 5204 611 3 MP stroke
1 11 -6 -9 5203 741 3 MP stroke
4 5 -6 -2 5199 877 3 MP stroke
5 4 -6 0 5197 1003 3 MP stroke
6 3 -6 1 5195 1130 3 MP stroke
6 6 -8 -1 5194 1250 3 MP stroke
8 4 -9 1 5190 1376 3 MP stroke
9 6 -10 0 5188 1498 3 MP stroke
8 7 -10 -2 5192 1619 3 MP stroke
8 9 -10 -4 5192 1742 3 MP stroke
9 11 -13 -5 5187 1860 3 MP stroke
8 -1 -6 5 5193 2009 3 MP stroke
6 5 -8 -1 5195 2119 3 MP stroke
3 5 -5 -3 5202 2242 3 MP stroke
5 6 -7 -3 5196 2366 3 MP stroke
10 2 -9 4 5188 2500 3 MP stroke
4 10 -7 -7 5199 2606 3 MP stroke
5 0 -4 3 5198 2751 3 MP stroke
2 5 -3 -4 5204 2866 3 MP stroke
11 1 -10 5 5185 3001 3 MP stroke
4 4 -5 -2 5199 3117 3 MP stroke
6 4 -7 0 5195 3241 3 MP stroke
10 -2 -8 7 5189 3378 3 MP stroke
10 2 -10 4 5187 3494 3 MP stroke
7 13 -11 -8 5192 3596 3 MP stroke
9 6 -10 -1 5190 3735 3 MP stroke
10 3 -10 2 5188 3864 3 MP stroke
12 1 -11 6 5184 3994 3 MP stroke
10 8 -13 -1 5185 4103 3 MP stroke
14 6 -15 3 5178 4234 3 MP stroke
13 6 -14 2 5180 4357 3 MP stroke
17 2 -16 7 5175 4490 3 MP stroke
0 6 -2 -5 5315 875 3 MP stroke
2 5 -4 -3 5311 1001 3 MP stroke
1 3 -2 -2 5313 1252 3 MP stroke
3 2 -3 -1 5310 1380 3 MP stroke
3 0 -3 2 5308 1507 3 MP stroke
3 0 -3 2 5309 1631 3 MP stroke
5 2 -6 1 5306 1753 3 MP stroke
5 4 -6 -1 5306 1873 3 MP stroke
3 4 -4 -2 5310 1997 3 MP stroke
-2 9 -2 -9 5318 2111 3 MP stroke
0 -1 0 1 5317 2255 3 MP stroke
5 4 -6 -1 5303 2371 3 MP stroke
4 -4 -2 5 5309 2509 3 MP stroke
-1 15 -6 -14 5315 2596 3 MP stroke
4 -1 -3 2 5310 2754 3 MP stroke
-2 4 0 -4 5319 2867 3 MP stroke
6 1 -6 2 5303 2999 3 MP stroke
4 7 -7 -4 5306 3111 3 MP stroke
4 -1 -4 4 5308 3250 3 MP stroke
-1 -2 2 1 5317 3376 3 MP stroke
5 -2 -4 5 5307 3501 3 MP stroke
3 13 -8 -9 5307 3596 3 MP stroke
2 1 -3 0 5311 3742 3 MP stroke
4 0 -4 2 5309 3870 3 MP stroke
2 3 -3 -1 5311 3989 3 MP stroke
5 6 -7 -3 5305 4106 3 MP stroke
10 3 -10 3 5296 4239 3 MP stroke
3 2 -4 0 5309 4362 3 MP stroke
6 0 -6 3 5303 4492 3 MP stroke
14 8 -15 0 5394 1123 3 MP stroke
13 6 -13 1 5397 1251 3 MP stroke
12 5 -13 2 5397 1376 3 MP stroke
14 6 -15 2 5393 1499 3 MP stroke
14 7 -15 2 5394 1623 3 MP stroke
14 6 -15 2 5394 1747 3 MP stroke
14 6 -15 3 5393 1872 3 MP stroke
12 6 -13 1 5399 1997 3 MP stroke
12 4 -12 3 5399 2124 3 MP stroke
12 4 -12 3 5398 2250 3 MP stroke
11 3 -11 4 5400 2374 3 MP stroke
7 -1 -6 5 5410 2505 3 MP stroke
5 16 -10 -11 5410 2596 3 MP stroke
13 1 -12 6 5397 2752 3 MP stroke
10 5 -10 1 5404 2868 3 MP stroke
13 1 -12 7 5398 3000 3 MP stroke
8 9 -11 -3 5405 3109 3 MP stroke
13 2 -12 5 5398 3247 3 MP stroke
15 6 -16 3 5392 3365 3 MP stroke
19 2 -17 9 5386 3498 3 MP stroke
13 13 -17 -4 5395 3598 3 MP stroke
19 2 -17 9 5386 3746 3 MP stroke
13 6 -14 2 5396 3862 3 MP stroke
22 3 -21 9 5379 3993 3 MP stroke
15 14 -19 -5 5392 4093 3 MP stroke
19 5 -19 6 5385 4237 3 MP stroke
22 9 -24 4 5378 4353 3 MP stroke
21 5 -20 7 5380 4488 3 MP stroke
9 6 -10 0 5512 1125 3 MP stroke
9 5 -9 0 5513 1253 3 MP stroke
8 3 -8 2 5515 1379 3 MP stroke
8 6 -9 -1 5514 1499 3 MP stroke
7 0 -6 4 5517 1635 3 MP stroke
11 3 -11 4 5508 1753 3 MP stroke
13 6 -14 2 5503 1871 3 MP stroke
5 4 -6 -1 5520 1998 3 MP stroke
9 3 -9 3 5511 2125 3 MP stroke
11 2 -10 4 5510 2251 3 MP stroke
7 5 -8 -1 5516 2369 3 MP stroke
10 -2 -7 7 5513 2509 3 MP stroke
3 17 -9 -13 5522 2594 3 MP stroke
9 -1 -8 6 5515 2754 3 MP stroke
10 5 -11 1 5511 2867 3 MP stroke
9 -2 -7 7 5515 3004 3 MP stroke
11 10 -13 -3 5508 3107 3 MP stroke
14 1 -13 6 5504 3250 3 MP stroke
9 8 -11 -2 5512 3360 3 MP stroke
14 1 -13 6 5503 3498 3 MP stroke
6 11 -10 -6 5516 3601 3 MP stroke
11 0 -9 6 5510 3748 3 MP stroke
11 7 -13 0 5507 3858 3 MP stroke
13 1 -12 6 5505 3994 3 MP stroke
11 13 -15 -5 5505 4095 3 MP stroke
16 2 -15 6 5500 4241 3 MP stroke
15 6 -16 2 5501 4358 3 MP stroke
15 3 -14 6 5501 4488 3 MP stroke
6 5 -7 -1 5625 1126 3 MP stroke
7 3 -8 2 5624 1254 3 MP stroke
7 3 -8 1 5624 1379 3 MP stroke
6 4 -7 0 5626 1501 3 MP stroke
5 2 -5 1 5628 1629 3 MP stroke
6 2 -7 2 5627 1753 3 MP stroke
6 1 -6 2 5628 1879 3 MP stroke
9 5 -10 0 5622 1998 3 MP stroke
9 4 -10 1 5619 2123 3 MP stroke
10 4 -10 1 5619 2247 3 MP stroke
4 8 -6 -5 5630 2364 3 MP stroke
8 2 -8 3 5623 2501 3 MP stroke
4 7 -6 -3 5628 2615 3 MP stroke
8 1 -7 4 5623 2751 3 MP stroke
6 5 -7 -1 5627 2866 3 MP stroke
7 1 -7 3 5624 2999 3 MP stroke
10 10 -13 -4 5618 3106 3 MP stroke
10 1 -9 4 5618 3247 3 MP stroke
10 5 -11 1 5618 3364 3 MP stroke
12 2 -12 4 5615 3495 3 MP stroke
8 16 -14 -9 5619 3590 3 MP stroke
14 3 -14 5 5611 3743 3 MP stroke
15 6 -15 3 5608 3862 3 MP stroke
20 3 -19 8 5600 3992 3 MP stroke
15 13 -19 -3 5606 4095 3 MP stroke
16 2 -16 7 5606 4241 3 MP stroke
16 7 -17 3 5604 4357 3 MP stroke
18 3 -17 7 5603 4488 3 MP stroke
7 -3 -5 7 5733 521 3 MP stroke
4 3 -4 -1 5739 1007 3 MP stroke
4 3 -4 0 5738 1129 3 MP stroke
5 3 -5 0 5737 1255 3 MP stroke
4 3 -5 0 5738 1379 3 MP stroke
5 2 -5 1 5736 1503 3 MP stroke
3 2 -4 0 5740 1628 3 MP stroke
2 1 -2 0 5741 1754 3 MP stroke
4 4 -5 -2 5739 1874 3 MP stroke
7 7 -9 -2 5732 1992 3 MP stroke
8 7 -10 -1 5729 2117 3 MP stroke
8 6 -10 0 5729 2243 3 MP stroke
1 7 -4 -6 5743 2364 3 MP stroke
6 0 -5 3 5734 2503 3 MP stroke
3 8 -6 -5 5739 2610 3 MP stroke
4 1 -4 1 5738 2750 3 MP stroke
3 6 -5 -4 5738 2863 3 MP stroke
5 1 -5 2 5736 2998 3 MP stroke
10 11 -13 -4 5725 3104 3 MP stroke
8 1 -7 3 5731 3247 3 MP stroke
8 3 -8 2 5729 3369 3 MP stroke
13 5 -13 3 5721 3490 3 MP stroke
2 15 -8 -13 5740 3591 3 MP stroke
10 3 -10 3 5727 3742 3 MP stroke
12 7 -14 0 5721 3858 3 MP stroke
14 2 -13 6 5718 3993 3 MP stroke
16 13 -19 -3 5714 4097 3 MP stroke
18 2 -17 7 5712 4242 3 MP stroke
18 6 -18 4 5711 4359 3 MP stroke
19 2 -17 8 5709 4492 3 MP stroke
17 1 -16 8 5820 515 3 MP stroke
13 4 -14 3 5827 1005 3 MP stroke
12 4 -12 4 5829 1130 3 MP stroke
8 2 -8 3 5837 1256 3 MP stroke
10 3 -10 2 5835 1380 3 MP stroke
8 2 -8 3 5837 1505 3 MP stroke
6 6 -8 -1 5840 1622 3 MP stroke
8 3 -8 1 5839 1753 3 MP stroke
11 6 -12 1 5831 1872 3 MP stroke
13 6 -14 2 5829 1996 3 MP stroke
14 5 -15 3 5825 2122 3 MP stroke
14 6 -15 3 5825 2246 3 MP stroke
13 9 -15 -1 5827 2364 3 MP stroke
14 3 -13 5 5826 2499 3 MP stroke
13 9 -15 -1 5826 2612 3 MP stroke
15 5 -16 4 5824 2744 3 MP stroke
13 5 -13 2 5828 2869 3 MP stroke
13 4 -13 4 5828 2994 3 MP stroke
12 13 -16 -4 5826 3100 3 MP stroke
16 3 -15 6 5823 3245 3 MP stroke
16 8 -18 2 5820 3360 3 MP stroke
19 5 -19 6 5817 3492 3 MP stroke
4 12 -8 -9 5845 3598 3 MP stroke
21 6 -21 6 5812 3739 3 MP stroke
13 6 -14 1 5827 3861 3 MP stroke
19 4 -18 6 5816 3990 3 MP stroke
20 16 -24 -3 5812 4092 3 MP stroke
22 5 -21 8 5810 4239 3 MP stroke
25 9 -26 6 5803 4354 3 MP stroke
22 3 -21 9 5810 4489 3 MP stroke
18 4 -18 7 5926 511 3 MP stroke
13 4 -13 4 5935 1129 3 MP stroke
11 4 -11 3 5939 1254 3 MP stroke
9 5 -10 1 5942 1374 3 MP stroke
10 4 -10 2 5941 1503 3 MP stroke
9 4 -10 2 5943 1627 3 MP stroke
8 3 -8 2 5945 1752 3 MP stroke
9 4 -10 2 5942 1875 3 MP stroke
11 3 -11 3 5940 2002 3 MP stroke
9 3 -9 2 5943 2126 3 MP stroke
8 3 -8 1 5945 2248 3 MP stroke
11 5 -12 2 5940 2370 3 MP stroke
11 5 -12 2 5939 2494 3 MP stroke
12 3 -12 4 5937 2623 3 MP stroke
10 4 -11 2 5942 2744 3 MP stroke
11 4 -11 2 5940 2868 3 MP stroke
12 4 -12 2 5939 2993 3 MP stroke
12 5 -13 2 5939 3117 3 MP stroke
14 6 -14 2 5933 3241 3 MP stroke
8 8 -10 -2 5944 3358 3 MP stroke
15 2 -14 6 5933 3495 3 MP stroke
2 7 -5 -5 5956 3605 3 MP stroke
11 1 -10 5 5940 3746 3 MP stroke
19 7 -20 4 5924 3860 3 MP stroke
17 3 -16 6 5929 3993 3 MP stroke
17 11 -20 0 5927 4100 3 MP stroke
17 8 -18 2 5927 4229 3 MP stroke
14 5 -15 3 5932 4359 3 MP stroke
19 0 -17 10 5925 4494 3 MP stroke
11 9 -14 -1 6045 498 3 MP stroke
10 3 -11 3 6049 1006 3 MP stroke
9 4 -9 1 6052 1128 3 MP stroke
7 3 -7 1 6056 1255 3 MP stroke
9 6 -10 0 6051 1374 3 MP stroke
10 6 -11 0 6048 1498 3 MP stroke
9 6 -10 0 6050 1622 3 MP stroke
5 4 -6 0 6059 1749 3 MP stroke
6 2 -6 2 6056 1878 3 MP stroke
6 0 -5 4 6056 2007 3 MP stroke
7 0 -6 4 6055 2129 3 MP stroke
7 4 -8 0 6055 2247 3 MP stroke
6 4 -6 0 6058 2372 3 MP stroke
7 2 -7 1 6056 2498 3 MP stroke
8 4 -9 1 6054 2621 3 MP stroke
7 3 -8 1 6054 2745 3 MP stroke
8 5 -9 0 6052 2867 3 MP stroke
7 5 -8 -1 6055 2991 3 MP stroke
8 5 -9 0 6053 3115 3 MP stroke
11 5 -12 2 6048 3242 3 MP stroke
9 9 -11 -3 6051 3356 3 MP stroke
14 2 -13 6 6042 3495 3 MP stroke
2 9 -6 -7 6064 3604 3 MP stroke
16 3 -15 6 6038 3744 3 MP stroke
10 3 -10 3 6048 3865 3 MP stroke
14 3 -13 5 6042 3991 3 MP stroke
14 5 -14 3 6042 4112 3 MP stroke
19 8 -20 4 6031 4231 3 MP stroke
16 8 -17 2 6036 4354 3 MP stroke
21 3 -20 9 6029 4491 3 MP stroke
-3 6 0 -7 6182 750 3 MP stroke
-4 2 3 -5 6186 881 3 MP stroke
5 3 -5 1 6166 1006 3 MP stroke
4 2 -4 0 6171 1132 3 MP stroke
4 4 -5 -1 6168 1251 3 MP stroke
5 4 -6 -1 6167 1376 3 MP stroke
1 4 -2 -3 6175 1500 3 MP stroke
-2 -2 2 1 6181 1633 3 MP stroke
-5 1 4 -3 6187 1752 3 MP stroke
2 -3 -1 4 6173 1886 3 MP stroke
1 -4 2 4 6178 2014 3 MP stroke
-4 2 3 -4 6185 2124 3 MP stroke
-6 4 3 -7 6189 2242 3 MP stroke
-2 2 0 -3 6181 2371 3 MP stroke
-10 -3 10 -3 6200 2504 3 MP stroke
-6 5 4 -8 6189 2614 3 MP stroke
-4 5 1 -7 6184 2740 3 MP stroke
-2 5 0 -6 6180 2865 3 MP stroke
-8 0 7 -4 6193 2997 3 MP stroke
-9 3 7 -7 6194 3115 3 MP stroke
0 1 6177 3248 2 MP stroke
-2 6 0 -6 6179 3359 3 MP stroke
3 0 -3 1 6171 3497 3 MP stroke
-4 12 -1 -13 6182 3596 3 MP stroke
5 0 -4 3 6167 3746 3 MP stroke
7 6 -9 -2 6163 3859 3 MP stroke
10 1 -10 4 6158 3993 3 MP stroke
13 7 -14 1 6149 4107 3 MP stroke
10 0 -9 6 6159 4245 3 MP stroke
10 5 -11 1 6156 4358 3 MP stroke
18 6 -18 4 6141 4483 3 MP stroke
1006 389 PD
-17 7 1006 513 2 MP stroke
-35 -27 1006 637 2 MP stroke
6 -29 1006 886 2 MP stroke
-12 -12 1006 1010 2 MP stroke
-19 -2 1006 1134 2 MP stroke
-15 2 1006 2377 2 MP stroke
-1 11 1006 2502 2 MP stroke
4 18 1006 2626 2 MP stroke
14 -14 1006 2750 2 MP stroke
24 -22 1006 2874 2 MP stroke
24 18 1006 2999 2 MP stroke
17 -5 1006 3123 2 MP stroke
14 -7 1006 3247 2 MP stroke
13 -12 1006 3372 2 MP stroke
14 -10 1006 3496 2 MP stroke
18 -11 1006 3620 2 MP stroke
5 -10 1006 3744 2 MP stroke
1 -8 1006 3869 2 MP stroke
6 0 1006 3993 2 MP stroke
-13 0 1006 4117 2 MP stroke
-15 7 1006 4242 2 MP stroke
-10 -18 1006 4366 2 MP stroke
-32 6 1006 4490 2 MP stroke
-13 -1 1006 4615 2 MP stroke
1114 389 PD
-54 12 1114 513 2 MP stroke
-51 -21 1114 637 2 MP stroke
-55 -3 1114 886 2 MP stroke
-63 5 1114 1010 2 MP stroke
-60 2 1114 1134 2 MP stroke
-32 -9 1114 2377 2 MP stroke
-35 -13 1114 2502 2 MP stroke
-35 -13 1114 2626 2 MP stroke
-36 -23 1114 2750 2 MP stroke
-38 -43 1114 2874 2 MP stroke
-42 -14 1114 2999 2 MP stroke
-40 -13 1114 3123 2 MP stroke
-40 -11 1114 3247 2 MP stroke
-39 -11 1114 3372 2 MP stroke
-38 -11 1114 3496 2 MP stroke
-43 -10 1114 3620 2 MP stroke
-40 -6 1114 3744 2 MP stroke
-48 -6 1114 3869 2 MP stroke
-52 -6 1114 3993 2 MP stroke
-56 -6 1114 4117 2 MP stroke
-56 -6 1114 4242 2 MP stroke
-50 -3 1114 4366 2 MP stroke
-42 15 1114 4490 2 MP stroke
-59 -26 1114 4615 2 MP stroke
1222 389 PD
-41 11 1222 513 2 MP stroke
-40 -19 1222 637 2 MP stroke
-45 4 1222 761 2 MP stroke
-34 5 1222 886 2 MP stroke
-38 4 1222 1010 2 MP stroke
-28 -5 1222 1134 2 MP stroke
-13 -12 1222 2502 2 MP stroke
-29 -13 1222 2626 2 MP stroke
-43 -4 1222 2750 2 MP stroke
-31 -15 1222 2874 2 MP stroke
-33 -13 1222 2999 2 MP stroke
-31 -11 1222 3123 2 MP stroke
-28 -10 1222 3247 2 MP stroke
-26 -9 1222 3372 2 MP stroke
-34 -10 1222 3496 2 MP stroke
-30 -8 1222 3620 2 MP stroke
-32 -10 1222 3744 2 MP stroke
-39 -6 1222 3869 2 MP stroke
-47 -5 1222 3993 2 MP stroke
-31 -7 1222 4117 2 MP stroke
-27 -5 1222 4242 2 MP stroke
-28 -14 1222 4366 2 MP stroke
-30 -10 1222 4490 2 MP stroke
-29 -10 1222 4615 2 MP stroke
1329 389 PD
-42 5 1329 513 2 MP stroke
-41 -30 1329 637 2 MP stroke
-37 -6 1329 761 2 MP stroke
-42 -15 1329 886 2 MP stroke
-52 1 1329 1010 2 MP stroke
-56 -26 1329 1134 2 MP stroke
-23 -18 1329 2502 2 MP stroke
-25 -20 1329 2626 2 MP stroke
-14 -15 1329 2750 2 MP stroke
-13 -7 1329 2874 2 MP stroke
-27 -7 1329 2999 2 MP stroke
-24 -2 1329 3123 2 MP stroke
-26 -5 1329 3247 2 MP stroke
-20 -8 1329 3372 2 MP stroke
-16 -7 1329 3496 2 MP stroke
-21 -5 1329 3620 2 MP stroke
-25 -6 1329 3744 2 MP stroke
-34 -8 1329 3869 2 MP stroke
-37 -10 1329 3993 2 MP stroke
-29 -9 1329 4117 2 MP stroke
-36 -8 1329 4242 2 MP stroke
-39 -14 1329 4366 2 MP stroke
-41 -12 1329 4490 2 MP stroke
-38 -12 1329 4615 2 MP stroke
1437 389 PD
-42 9 1437 513 2 MP stroke
-47 -21 1437 637 2 MP stroke
-45 0 1437 761 2 MP stroke
-38 -13 1437 886 2 MP stroke
-37 0 1437 1010 2 MP stroke
-37 -1 1437 1134 2 MP stroke
-32 -1 1437 1259 2 MP stroke
-22 -6 1437 1383 2 MP stroke
-23 -11 1437 2502 2 MP stroke
-20 -8 1437 2626 2 MP stroke
1 -4 1437 3123 2 MP stroke
-7 -5 1437 3247 2 MP stroke
1 -7 1437 3372 2 MP stroke
-14 -6 1437 3496 2 MP stroke
-18 -5 1437 3620 2 MP stroke
-11 -8 1437 3744 2 MP stroke
-22 -7 1437 3869 2 MP stroke
-28 -9 1437 3993 2 MP stroke
-34 -10 1437 4117 2 MP stroke
-35 -8 1437 4242 2 MP stroke
-38 -11 1437 4366 2 MP stroke
-40 -10 1437 4490 2 MP stroke
-38 -11 1437 4615 2 MP stroke
1545 389 PD
-52 6 1545 513 2 MP stroke
-52 -2 1545 637 2 MP stroke
-57 4 1545 761 2 MP stroke
-59 -14 1545 886 2 MP stroke
-62 1 1545 1010 2 MP stroke
-60 0 1545 1134 2 MP stroke
-58 -2 1545 1259 2 MP stroke
-47 -6 1545 1383 2 MP stroke
-40 -7 1545 1507 2 MP stroke
-29 -4 1545 3123 2 MP stroke
-22 -4 1545 3247 2 MP stroke
-26 -5 1545 3372 2 MP stroke
-36 -5 1545 3496 2 MP stroke
-39 -4 1545 3620 2 MP stroke
-46 -5 1545 3744 2 MP stroke
-40 -6 1545 3869 2 MP stroke
-45 -8 1545 3993 2 MP stroke
-49 -5 1545 4117 2 MP stroke
-51 -5 1545 4242 2 MP stroke
-52 -10 1545 4366 2 MP stroke
-53 -9 1545 4490 2 MP stroke
-54 -10 1545 4615 2 MP stroke
1653 389 PD
-41 9 1653 513 2 MP stroke
-10 -30 1653 637 2 MP stroke
-45 7 1653 761 2 MP stroke
-39 -10 1653 886 2 MP stroke
-45 4 1653 1010 2 MP stroke
-39 1 1653 1134 2 MP stroke
-48 2 1653 1259 2 MP stroke
-40 -3 1653 1383 2 MP stroke
-40 -8 1653 1507 2 MP stroke
-30 16 1653 2502 2 MP stroke
-21 -21 1653 2626 2 MP stroke
-26 0 1653 2750 2 MP stroke
-27 -3 1653 3123 2 MP stroke
-31 -4 1653 3247 2 MP stroke
-32 -4 1653 3372 2 MP stroke
-34 -1 1653 3496 2 MP stroke
-32 -2 1653 3620 2 MP stroke
-37 -3 1653 3744 2 MP stroke
-43 -5 1653 3869 2 MP stroke
-43 -6 1653 3993 2 MP stroke
-33 -3 1653 4117 2 MP stroke
-35 -2 1653 4242 2 MP stroke
-35 -16 1653 4366 2 MP stroke
-41 3 1653 4490 2 MP stroke
1760 389 PD
-18 -3 1760 513 2 MP stroke
-33 -54 1760 637 2 MP stroke
-17 2 1760 761 2 MP stroke
-30 -3 1760 886 2 MP stroke
-17 -7 1760 1010 2 MP stroke
-10 -5 1760 1134 2 MP stroke
-42 7 1760 1259 2 MP stroke
-36 9 1760 1383 2 MP stroke
-30 -6 1760 1507 2 MP stroke
-40 -7 1760 1631 2 MP stroke
-26 6 1760 2502 2 MP stroke
-28 -21 1760 2626 2 MP stroke
-22 0 1760 2750 2 MP stroke
-20 10 1760 2874 2 MP stroke
-23 -4 1760 2999 2 MP stroke
-22 -5 1760 3123 2 MP stroke
-24 -4 1760 3247 2 MP stroke
-29 -5 1760 3372 2 MP stroke
-24 -3 1760 3496 2 MP stroke
-24 -2 1760 3620 2 MP stroke
-27 -4 1760 3744 2 MP stroke
-36 -3 1760 3869 2 MP stroke
-34 -10 1760 3993 2 MP stroke
-33 -2 1760 4117 2 MP stroke
-36 -1 1760 4242 2 MP stroke
-16 -5 1760 4366 2 MP stroke
-6 -6 1760 4490 2 MP stroke
-24 2 1868 389 2 MP stroke
-13 0 1868 513 2 MP stroke
-74 -61 1868 637 2 MP stroke
-33 -1 1868 761 2 MP stroke
-9 9 1868 886 2 MP stroke
-49 14 1868 1010 2 MP stroke
-31 -3 1868 1134 2 MP stroke
-3 0 1868 1259 2 MP stroke
-3 -5 1868 1383 2 MP stroke
-14 -5 1868 1507 2 MP stroke
-13 -4 1868 1631 2 MP stroke
-17 -29 1868 2626 2 MP stroke
-8 -3 1868 2750 2 MP stroke
-5 1 1868 2874 2 MP stroke
-7 4 1868 2999 2 MP stroke
-8 -1 1868 3123 2 MP stroke
-9 -5 1868 3247 2 MP stroke
-15 -7 1868 3372 2 MP stroke
-22 -3 1868 3496 2 MP stroke
-23 -2 1868 3620 2 MP stroke
-16 -4 1868 3744 2 MP stroke
-2 -7 1868 3869 2 MP stroke
-6 -1 1868 3993 2 MP stroke
-14 -1 1868 4117 2 MP stroke
-12 -5 1868 4242 2 MP stroke
-4 -10 1868 4366 2 MP stroke
-17 2 1868 4490 2 MP stroke
1976 389 PD
-46 6 1976 513 2 MP stroke
-60 -49 1976 637 2 MP stroke
-55 3 1976 761 2 MP stroke
-59 -3 1976 886 2 MP stroke
-51 2 1976 1010 2 MP stroke
-58 -21 1976 1134 2 MP stroke
-49 3 1976 1259 2 MP stroke
-55 -3 1976 1383 2 MP stroke
-40 -4 1976 1507 2 MP stroke
-29 -6 1976 1631 2 MP stroke
-36 -13 1976 2502 2 MP stroke
-34 -23 1976 2626 2 MP stroke
-24 -4 1976 2750 2 MP stroke
-22 -5 1976 2874 2 MP stroke
-20 -2 1976 2999 2 MP stroke
-21 -3 1976 3123 2 MP stroke
-21 -6 1976 3247 2 MP stroke
-29 -6 1976 3372 2 MP stroke
-38 -3 1976 3496 2 MP stroke
-40 -3 1976 3620 2 MP stroke
-47 -2 1976 3744 2 MP stroke
-46 -3 1976 3869 2 MP stroke
-48 -2 1976 3993 2 MP stroke
-50 -20 1976 4117 2 MP stroke
-54 0 1976 4242 2 MP stroke
-61 -16 1976 4366 2 MP stroke
-57 -3 1976 4490 2 MP stroke
2084 389 PD
-57 7 2084 513 2 MP stroke
-31 -43 2084 637 2 MP stroke
-53 10 2084 761 2 MP stroke
-58 -4 2084 886 2 MP stroke
-60 10 2084 1010 2 MP stroke
-55 -12 2084 1134 2 MP stroke
-43 8 2084 1259 2 MP stroke
-37 4 2084 1383 2 MP stroke
-30 -9 2084 1507 2 MP stroke
-32 -6 2084 1631 2 MP stroke
-27 -7 2084 2377 2 MP stroke
-30 -3 2084 2502 2 MP stroke
-29 -11 2084 2626 2 MP stroke
-23 -4 2084 2750 2 MP stroke
-17 -6 2084 2874 2 MP stroke
-21 -5 2084 2999 2 MP stroke
-22 -7 2084 3123 2 MP stroke
-25 -6 2084 3247 2 MP stroke
-29 -4 2084 3372 2 MP stroke
-28 -4 2084 3496 2 MP stroke
-27 -4 2084 3620 2 MP stroke
-34 -2 2084 3744 2 MP stroke
-41 -4 2084 3869 2 MP stroke
-43 -2 2084 3993 2 MP stroke
-33 -17 2084 4117 2 MP stroke
-31 -4 2084 4242 2 MP stroke
-33 -1 2084 4366 2 MP stroke
-35 2 2084 4490 2 MP stroke
2191 389 PD
-50 0 2191 513 2 MP stroke
-45 -39 2191 637 2 MP stroke
-48 12 2191 761 2 MP stroke
-65 -1 2191 886 2 MP stroke
-62 11 2191 1010 2 MP stroke
-63 -16 2191 1134 2 MP stroke
-49 2 2191 1259 2 MP stroke
-24 -10 2191 1383 2 MP stroke
-21 -4 2191 1631 2 MP stroke
-26 -10 2191 2377 2 MP stroke
-26 1 2191 2502 2 MP stroke
-34 -33 2191 2626 2 MP stroke
-22 -5 2191 2750 2 MP stroke
-33 -9 2191 2874 2 MP stroke
-20 -5 2191 2999 2 MP stroke
-20 -6 2191 3123 2 MP stroke
-22 -6 2191 3247 2 MP stroke
-26 -4 2191 3372 2 MP stroke
-37 -1 2191 3496 2 MP stroke
-36 -2 2191 3620 2 MP stroke
-24 -2 2191 3744 2 MP stroke
-34 0 2191 3869 2 MP stroke
-32 -2 2191 3993 2 MP stroke
-46 -28 2191 4117 2 MP stroke
-34 1 2191 4242 2 MP stroke
-40 -6 2191 4366 2 MP stroke
-40 13 2191 4490 2 MP stroke
2299 389 PD
-50 5 2299 513 2 MP stroke
-43 -11 2299 637 2 MP stroke
-41 10 2299 761 2 MP stroke
-40 -5 2299 886 2 MP stroke
-40 6 2299 1010 2 MP stroke
-59 -19 2299 1134 2 MP stroke
-33 2 2299 1259 2 MP stroke
-21 -13 2299 1383 2 MP stroke
-11 2 2299 1507 2 MP stroke
-16 3 2299 1631 2 MP stroke
-18 -3 2299 1756 2 MP stroke
-9 -7 2299 1880 2 MP stroke
-21 0 2299 2253 2 MP stroke
-17 -13 2299 2377 2 MP stroke
-21 2 2299 2502 2 MP stroke
-17 -44 2299 2626 2 MP stroke
-13 -2 2299 2750 2 MP stroke
-10 -12 2299 2874 2 MP stroke
-7 -9 2299 2999 2 MP stroke
-5 -4 2299 3123 2 MP stroke
-7 -4 2299 3247 2 MP stroke
-10 -3 2299 3372 2 MP stroke
-15 -2 2299 3496 2 MP stroke
-14 -10 2299 3620 2 MP stroke
-14 -2 2299 3744 2 MP stroke
-19 -17 2299 3869 2 MP stroke
-24 -2 2299 3993 2 MP stroke
-31 -25 2299 4117 2 MP stroke
-37 -1 2299 4242 2 MP stroke
-38 -13 2299 4366 2 MP stroke
-40 5 2299 4490 2 MP stroke
2407 389 PD
-71 12 2407 513 2 MP stroke
-77 -27 2407 637 2 MP stroke
-63 12 2407 761 2 MP stroke
-63 -7 2407 886 2 MP stroke
-50 7 2407 1010 2 MP stroke
-62 -23 2407 1134 2 MP stroke
-31 1 2407 1507 2 MP stroke
-30 -5 2407 1631 2 MP stroke
-33 -8 2407 1756 2 MP stroke
-34 -6 2407 1880 2 MP stroke
-33 3 2407 2004 2 MP stroke
-32 -28 2407 2129 2 MP stroke
-29 0 2407 2253 2 MP stroke
-29 -9 2407 2377 2 MP stroke
-26 1 2407 2502 2 MP stroke
-29 -27 2407 2626 2 MP stroke
-26 2 2407 2750 2 MP stroke
-23 -5 2407 2874 2 MP stroke
-23 2 2407 2999 2 MP stroke
-21 -2 2407 3123 2 MP stroke
-37 -2 2407 3247 2 MP stroke
-28 -3 2407 3372 2 MP stroke
-30 -2 2407 3496 2 MP stroke
-31 -2 2407 3620 2 MP stroke
-42 -2 2407 3744 2 MP stroke
-50 -14 2407 3869 2 MP stroke
-46 1 2407 3993 2 MP stroke
-46 -21 2407 4117 2 MP stroke
-59 2 2407 4242 2 MP stroke
-65 -7 2407 4366 2 MP stroke
-58 5 2407 4490 2 MP stroke
2515 389 PD
-52 18 2515 513 2 MP stroke
-60 -11 2515 637 2 MP stroke
-36 -13 2515 886 2 MP stroke
-22 0 2515 1010 2 MP stroke
-26 -23 2515 1134 2 MP stroke
-49 9 2515 1259 2 MP stroke
-56 6 2515 1383 2 MP stroke
-39 1 2515 1507 2 MP stroke
-29 2 2515 1631 2 MP stroke
-31 0 2515 1756 2 MP stroke
-29 -4 2515 1880 2 MP stroke
-30 -6 2515 2004 2 MP stroke
-29 -22 2515 2129 2 MP stroke
-26 4 2515 2253 2 MP stroke
-27 -9 2515 2377 2 MP stroke
-28 -5 2515 2502 2 MP stroke
-29 -31 2515 2626 2 MP stroke
-27 7 2515 2750 2 MP stroke
-26 -3 2515 2874 2 MP stroke
-23 -1 2515 2999 2 MP stroke
-16 -24 2515 3123 2 MP stroke
-23 -3 2515 3247 2 MP stroke
-28 -3 2515 3372 2 MP stroke
-35 0 2515 3496 2 MP stroke
-26 -28 2515 3620 2 MP stroke
-34 -1 2515 3744 2 MP stroke
-50 -11 2515 3869 2 MP stroke
-25 -1 2515 3993 2 MP stroke
-38 -22 2515 4117 2 MP stroke
-37 -1 2515 4242 2 MP stroke
-34 -12 2515 4366 2 MP stroke
-42 0 2515 4490 2 MP stroke
-55 4 2622 389 2 MP stroke
-49 3 2622 513 2 MP stroke
-53 -19 2622 637 2 MP stroke
-40 9 2622 761 2 MP stroke
-50 1 2622 886 2 MP stroke
-33 -2 2622 1010 2 MP stroke
-37 -28 2622 1134 2 MP stroke
-47 1 2622 1259 2 MP stroke
-44 -3 2622 1383 2 MP stroke
-31 2 2622 1507 2 MP stroke
-14 -10 2622 1631 2 MP stroke
-7 0 2622 1756 2 MP stroke
-7 -4 2622 1880 2 MP stroke
-32 -10 2622 2004 2 MP stroke
-30 -24 2622 2129 2 MP stroke
-26 3 2622 2253 2 MP stroke
-24 -8 2622 2377 2 MP stroke
-26 2 2622 2502 2 MP stroke
-24 -29 2622 2626 2 MP stroke
-26 2 2622 2750 2 MP stroke
-25 -12 2622 2874 2 MP stroke
-23 -3 2622 2999 2 MP stroke
-29 -17 2622 3123 2 MP stroke
-22 -1 2622 3247 2 MP stroke
-34 -11 2622 3372 2 MP stroke
-32 0 2622 3496 2 MP stroke
-38 -36 2622 3620 2 MP stroke
-23 2 2622 3744 2 MP stroke
-32 -2 2622 3869 2 MP stroke
-34 2 2622 3993 2 MP stroke
-33 -21 2622 4117 2 MP stroke
-35 1 2622 4242 2 MP stroke
-34 -12 2622 4366 2 MP stroke
-39 -1 2622 4490 2 MP stroke
-33 4 2730 389 2 MP stroke
-37 19 2730 513 2 MP stroke
-30 -1 2730 637 2 MP stroke
-21 12 2730 761 2 MP stroke
-14 16 2730 886 2 MP stroke
-29 -2 2730 1010 2 MP stroke
-14 -21 2730 1134 2 MP stroke
-13 -15 2730 1383 2 MP stroke
-8 4 2730 1507 2 MP stroke
-19 -19 2730 1631 2 MP stroke
32 -7 2730 1880 2 MP stroke
-4 -9 2730 2377 2 MP stroke
-3 0 2730 2502 2 MP stroke
-7 -46 2730 2626 2 MP stroke
-9 -2 2730 2750 2 MP stroke
-8 -1 2730 2874 2 MP stroke
-5 -3 2730 2999 2 MP stroke
-7 -32 2730 3123 2 MP stroke
-2 -1 2730 3247 2 MP stroke
-8 -9 2730 3372 2 MP stroke
-17 0 2730 3496 2 MP stroke
-32 -46 2730 3620 2 MP stroke
-25 2 2730 3744 2 MP stroke
16 -5 2730 3869 2 MP stroke
-1 6 2730 3993 2 MP stroke
-9 -20 2730 4117 2 MP stroke
-8 4 2730 4242 2 MP stroke
-4 -17 2730 4366 2 MP stroke
-11 -3 2730 4490 2 MP stroke
2838 389 PD
-84 19 2838 513 2 MP stroke
-50 -9 2838 637 2 MP stroke
-76 12 2838 761 2 MP stroke
-51 -5 2838 1259 2 MP stroke
-38 -12 2838 1383 2 MP stroke
-34 2 2838 1507 2 MP stroke
-29 2 2838 1631 2 MP stroke
-17 -8 2838 2377 2 MP stroke
-21 -2 2838 2502 2 MP stroke
-25 -46 2838 2626 2 MP stroke
-26 0 2838 2750 2 MP stroke
-27 -16 2838 2874 2 MP stroke
-24 -1 2838 2999 2 MP stroke
-8 -19 2838 3123 2 MP stroke
-27 2 2838 3247 2 MP stroke
-29 -12 2838 3372 2 MP stroke
-34 1 2838 3496 2 MP stroke
-37 -35 2838 3620 2 MP stroke
-47 2 2838 3744 2 MP stroke
-52 -13 2838 3869 2 MP stroke
-39 2 2838 3993 2 MP stroke
-44 -22 2838 4117 2 MP stroke
-45 -1 2838 4242 2 MP stroke
-53 -17 2838 4366 2 MP stroke
-48 1 2838 4490 2 MP stroke
-78 4 2945 389 2 MP stroke
-74 19 2945 513 2 MP stroke
-42 -11 2945 637 2 MP stroke
-49 2 2945 886 2 MP stroke
-51 -5 2945 1259 2 MP stroke
-47 -1 2945 1383 2 MP stroke
-43 -1 2945 1507 2 MP stroke
-26 -3 2945 2502 2 MP stroke
-13 -38 2945 2626 2 MP stroke
-23 -1 2945 2750 2 MP stroke
-23 -13 2945 2874 2 MP stroke
-20 -1 2945 2999 2 MP stroke
-22 -28 2945 3123 2 MP stroke
-25 1 2945 3247 2 MP stroke
-29 -18 2945 3372 2 MP stroke
-25 1 2945 3496 2 MP stroke
-33 -40 2945 3620 2 MP stroke
-29 0 2945 3744 2 MP stroke
-39 -3 2945 3869 2 MP stroke
-38 -1 2945 3993 2 MP stroke
-35 -28 2945 4117 2 MP stroke
-31 -1 2945 4242 2 MP stroke
-27 -7 2945 4366 2 MP stroke
-35 1 2945 4490 2 MP stroke
3053 389 PD
-80 16 3053 513 2 MP stroke
-13 -10 3053 637 2 MP stroke
-23 2 3053 1259 2 MP stroke
-18 -4 3053 1383 2 MP stroke
-27 -3 3053 1507 2 MP stroke
-29 -4 3053 1631 2 MP stroke
-30 -13 3053 1756 2 MP stroke
-30 -2 3053 1880 2 MP stroke
-16 -5 3053 2502 2 MP stroke
-26 -26 3053 2626 2 MP stroke
-22 -2 3053 2750 2 MP stroke
-22 -1 3053 2874 2 MP stroke
-24 -1 3053 2999 2 MP stroke
-27 -27 3053 3123 2 MP stroke
-32 3 3053 3247 2 MP stroke
-39 -14 3053 3372 2 MP stroke
-24 0 3053 3496 2 MP stroke
-39 -20 3053 3620 2 MP stroke
-26 2 3053 3744 2 MP stroke
-24 -5 3053 3869 2 MP stroke
-32 1 3053 3993 2 MP stroke
-37 -18 3053 4117 2 MP stroke
-30 -3 3053 4242 2 MP stroke
-33 -5 3053 4366 2 MP stroke
-38 -13 3053 4490 2 MP stroke
3161 389 PD
-65 15 3161 513 2 MP stroke
-23 -26 3161 637 2 MP stroke
-33 -25 3161 1134 2 MP stroke
-18 3 3161 1259 2 MP stroke
-18 0 3161 1383 2 MP stroke
-7 13 3161 1507 2 MP stroke
-8 -43 3161 1631 2 MP stroke
-10 10 3161 1756 2 MP stroke
-8 19 3161 1880 2 MP stroke
-6 42 3161 2004 2 MP stroke
-1 35 3161 2129 2 MP stroke
-14 -14 3161 2253 2 MP stroke
-9 -4 3161 2377 2 MP stroke
-11 1 3161 2502 2 MP stroke
-10 -47 3161 2626 2 MP stroke
-5 -3 3161 2750 2 MP stroke
-3 -9 3161 2874 2 MP stroke
-8 -2 3161 2999 2 MP stroke
-14 -28 3161 3123 2 MP stroke
-13 1 3161 3247 2 MP stroke
-11 -5 3161 3372 2 MP stroke
-10 3 3161 3496 2 MP stroke
-21 -27 3161 3620 2 MP stroke
-16 -1 3161 3744 2 MP stroke
-17 -13 3161 3869 2 MP stroke
-21 1 3161 3993 2 MP stroke
-33 -22 3161 4117 2 MP stroke
-29 -2 3161 4242 2 MP stroke
-28 -12 3161 4366 2 MP stroke
-32 5 3161 4490 2 MP stroke
3269 389 PD
-101 17 3269 513 2 MP stroke
-43 -30 3269 637 2 MP stroke
-69 3 3269 886 2 MP stroke
-67 -2 3269 1010 2 MP stroke
-38 8 3269 1259 2 MP stroke
-34 -6 3269 1383 2 MP stroke
-22 3 3269 1507 2 MP stroke
-23 -46 3269 1631 2 MP stroke
-22 3 3269 1756 2 MP stroke
-22 -1 3269 1880 2 MP stroke
-23 10 3269 2004 2 MP stroke
-24 -28 3269 2129 2 MP stroke
-22 5 3269 2253 2 MP stroke
-22 2 3269 2377 2 MP stroke
-25 1 3269 2502 2 MP stroke
-31 -39 3269 2626 2 MP stroke
-28 3 3269 2750 2 MP stroke
-27 -8 3269 2874 2 MP stroke
-27 1 3269 2999 2 MP stroke
-21 -27 3269 3123 2 MP stroke
-34 2 3269 3247 2 MP stroke
-38 -14 3269 3372 2 MP stroke
-40 2 3269 3496 2 MP stroke
-30 -45 3269 3620 2 MP stroke
-47 1 3269 3744 2 MP stroke
-49 -14 3269 3869 2 MP stroke
-41 -1 3269 3993 2 MP stroke
-53 -21 3269 4117 2 MP stroke
-45 -2 3269 4242 2 MP stroke
-49 -10 3269 4366 2 MP stroke
-51 9 3269 4490 2 MP stroke
-61 2 3376 389 2 MP stroke
-50 7 3376 513 2 MP stroke
-65 -29 3376 637 2 MP stroke
-44 8 3376 761 2 MP stroke
-40 -6 3376 886 2 MP stroke
-36 14 3376 1010 2 MP stroke
-11 -22 3376 1134 2 MP stroke
-27 5 3376 1507 2 MP stroke
-26 -39 3376 1631 2 MP stroke
-20 3 3376 1756 2 MP stroke
-22 -3 3376 1880 2 MP stroke
-22 15 3376 2004 2 MP stroke
-24 -23 3376 2129 2 MP stroke
-24 2 3376 2253 2 MP stroke
-24 -13 3376 2377 2 MP stroke
-23 0 3376 2502 2 MP stroke
-27 -39 3376 2626 2 MP stroke
-26 -1 3376 2750 2 MP stroke
-26 -13 3376 2874 2 MP stroke
-21 0 3376 2999 2 MP stroke
-25 -25 3376 3123 2 MP stroke
-31 1 3376 3247 2 MP stroke
-17 -4 3376 3372 2 MP stroke
-28 4 3376 3496 2 MP stroke
-30 -39 3376 3620 2 MP stroke
-33 -2 3376 3744 2 MP stroke
-37 -6 3376 3869 2 MP stroke
-43 -5 3376 3993 2 MP stroke
-46 -3 3376 4117 2 MP stroke
-31 -3 3376 4242 2 MP stroke
-26 -12 3376 4366 2 MP stroke
-41 7 3376 4490 2 MP stroke
-38 4 3484 389 2 MP stroke
-47 6 3484 513 2 MP stroke
-36 -26 3484 637 2 MP stroke
-49 14 3484 761 2 MP stroke
-42 4 3484 886 2 MP stroke
-47 13 3484 1010 2 MP stroke
-21 -31 3484 1134 2 MP stroke
-25 0 3484 1507 2 MP stroke
-24 -40 3484 1631 2 MP stroke
-26 -14 3484 1880 2 MP stroke
-24 5 3484 2004 2 MP stroke
-38 -26 3484 2129 2 MP stroke
-25 3 3484 2253 2 MP stroke
-24 -14 3484 2377 2 MP stroke
-24 1 3484 2502 2 MP stroke
-29 -38 3484 2626 2 MP stroke
-25 0 3484 2750 2 MP stroke
-24 -2 3484 2874 2 MP stroke
-24 -1 3484 2999 2 MP stroke
-5 -18 3484 3123 2 MP stroke
-21 0 3484 3247 2 MP stroke
-11 -13 3484 3372 2 MP stroke
-22 2 3484 3496 2 MP stroke
-31 -34 3484 3620 2 MP stroke
-29 0 3484 3744 2 MP stroke
-34 -1 3484 3869 2 MP stroke
-37 2 3484 3993 2 MP stroke
-40 -3 3484 4117 2 MP stroke
-33 -5 3484 4242 2 MP stroke
-37 -4 3484 4366 2 MP stroke
-55 4 3484 4490 2 MP stroke
-44 8 3592 389 2 MP stroke
-44 9 3592 513 2 MP stroke
-21 -29 3592 637 2 MP stroke
5 13 3592 1756 2 MP stroke
20 -30 3592 2129 2 MP stroke
-2 10 3592 2253 2 MP stroke
21 -10 3592 2377 2 MP stroke
8 -3 3592 2502 2 MP stroke
-8 -26 3592 2626 2 MP stroke
23 0 3592 2750 2 MP stroke
20 -5 3592 2874 2 MP stroke
6 -6 3592 2999 2 MP stroke
8 -7 3592 3123 2 MP stroke
7 0 3592 3247 2 MP stroke
8 -2 3592 3372 2 MP stroke
-8 0 3592 3496 2 MP stroke
-14 -19 3592 3620 2 MP stroke
-6 3 3592 3744 2 MP stroke
-27 -3 3592 3869 2 MP stroke
-20 -6 3592 3993 2 MP stroke
-26 -9 3592 4117 2 MP stroke
-27 -10 3592 4242 2 MP stroke
-28 -10 3592 4366 2 MP stroke
-47 1 3592 4490 2 MP stroke
-99 11 3700 389 2 MP stroke
-93 12 3700 513 2 MP stroke
-68 -31 3700 637 2 MP stroke
-57 0 3700 1383 2 MP stroke
-44 10 3700 1507 2 MP stroke
-39 -35 3700 1631 2 MP stroke
-41 8 3700 1756 2 MP stroke
-40 -1 3700 1880 2 MP stroke
-42 13 3700 2004 2 MP stroke
-31 -21 3700 2129 2 MP stroke
-35 6 3700 2253 2 MP stroke
-31 -12 3700 2377 2 MP stroke
-27 2 3700 2502 2 MP stroke
-30 -27 3700 2626 2 MP stroke
-26 3 3700 2750 2 MP stroke
-26 -14 3700 2874 2 MP stroke
-36 5 3700 2999 2 MP stroke
-28 -29 3700 3123 2 MP stroke
-43 2 3700 3247 2 MP stroke
-46 -10 3700 3372 2 MP stroke
-45 1 3700 3496 2 MP stroke
-47 -29 3700 3620 2 MP stroke
-55 1 3700 3744 2 MP stroke
-43 -8 3700 3869 2 MP stroke
-45 -8 3700 3993 2 MP stroke
-47 -11 3700 4117 2 MP stroke
-48 -11 3700 4242 2 MP stroke
-44 -13 3700 4366 2 MP stroke
-76 -3 3700 4490 2 MP stroke
3807 389 PD
-103 6 3807 513 2 MP stroke
-83 -27 3807 637 2 MP stroke
-32 0 3807 1383 2 MP stroke
-45 -26 3807 1631 2 MP stroke
-32 2 3807 1880 2 MP stroke
-29 11 3807 2004 2 MP stroke
-32 -17 3807 2129 2 MP stroke
-15 -10 3807 2253 2 MP stroke
-22 -27 3807 2377 2 MP stroke
-23 0 3807 2502 2 MP stroke
-15 -27 3807 2626 2 MP stroke
-23 4 3807 2750 2 MP stroke
-22 -2 3807 2874 2 MP stroke
-31 6 3807 2999 2 MP stroke
-32 -23 3807 3123 2 MP stroke
-18 4 3807 3247 2 MP stroke
-25 -10 3807 3372 2 MP stroke
-33 -2 3807 3496 2 MP stroke
-40 -31 3807 3620 2 MP stroke
-29 -4 3807 3744 2 MP stroke
-35 -11 3807 3869 2 MP stroke
-30 -7 3807 3993 2 MP stroke
-25 -3 3807 4117 2 MP stroke
-49 -8 3807 4242 2 MP stroke
-56 -9 3807 4366 2 MP stroke
-76 -1 3807 4490 2 MP stroke
-77 12 3915 389 2 MP stroke
-59 14 3915 513 2 MP stroke
-60 -21 3915 637 2 MP stroke
-73 26 3915 1010 2 MP stroke
-41 5 3915 1259 2 MP stroke
-48 14 3915 1383 2 MP stroke
-45 29 3915 1507 2 MP stroke
-49 -28 3915 1631 2 MP stroke
-42 -13 3915 1756 2 MP stroke
-37 20 3915 1880 2 MP stroke
-29 12 3915 2004 2 MP stroke
-29 -10 3915 2129 2 MP stroke
-17 4 3915 2253 2 MP stroke
-14 -27 3915 2377 2 MP stroke
-23 2 3915 2502 2 MP stroke
-11 -28 3915 2626 2 MP stroke
-32 -6 3915 2750 2 MP stroke
-32 -4 3915 2874 2 MP stroke
-23 7 3915 2999 2 MP stroke
-43 -13 3915 3123 2 MP stroke
-39 13 3915 3247 2 MP stroke
-44 -3 3915 3372 2 MP stroke
-44 3 3915 3496 2 MP stroke
-52 -28 3915 3620 2 MP stroke
-41 -7 3915 3744 2 MP stroke
-46 -12 3915 3869 2 MP stroke
-44 -12 3915 3993 2 MP stroke
-44 -20 3915 4117 2 MP stroke
-68 -6 3915 4242 2 MP stroke
-57 -18 3915 4366 2 MP stroke
-78 -4 3915 4490 2 MP stroke
-76 -7 3915 4615 2 MP stroke
-73 17 4023 389 2 MP stroke
-64 14 4023 513 2 MP stroke
-73 -27 4023 637 2 MP stroke
-70 1 4023 761 2 MP stroke
-63 21 4023 886 2 MP stroke
-67 11 4023 1134 2 MP stroke
-44 15 4023 1259 2 MP stroke
-44 31 4023 1383 2 MP stroke
-42 45 4023 1507 2 MP stroke
-37 -11 4023 1631 2 MP stroke
-31 6 4023 1756 2 MP stroke
-44 13 4023 1880 2 MP stroke
-20 10 4023 2004 2 MP stroke
-21 3 4023 2129 2 MP stroke
-17 -6 4023 2253 2 MP stroke
-20 -6 4023 2377 2 MP stroke
-20 -4 4023 2502 2 MP stroke
-9 -44 4023 2626 2 MP stroke
-5 -6 4023 2750 2 MP stroke
-5 -18 4023 2874 2 MP stroke
-48 7 4023 2999 2 MP stroke
-54 0 4023 3123 2 MP stroke
-65 4 4023 3247 2 MP stroke
-66 5 4023 3372 2 MP stroke
-54 8 4023 3496 2 MP stroke
-50 -12 4023 3620 2 MP stroke
-41 11 4023 3744 2 MP stroke
-40 -10 4023 3869 2 MP stroke
-44 -11 4023 3993 2 MP stroke
-48 -20 4023 4117 2 MP stroke
-54 -5 4023 4242 2 MP stroke
-63 6 4023 4366 2 MP stroke
-67 2 4023 4490 2 MP stroke
-83 16 4131 389 2 MP stroke
-80 17 4131 513 2 MP stroke
-86 -28 4131 637 2 MP stroke
-80 0 4131 761 2 MP stroke
-81 13 4131 886 2 MP stroke
-77 19 4131 1010 2 MP stroke
-78 -7 4131 1134 2 MP stroke
-89 8 4131 1259 2 MP stroke
-69 24 4131 1383 2 MP stroke
-81 41 4131 1507 2 MP stroke
-64 -12 4131 1631 2 MP stroke
-72 -2 4131 1756 2 MP stroke
-50 15 4131 1880 2 MP stroke
-48 33 4131 2004 2 MP stroke
-76 38 4131 2129 2 MP stroke
-61 11 4131 2253 2 MP stroke
-61 12 4131 2377 2 MP stroke
-53 -4 4131 2502 2 MP stroke
-64 -56 4131 2626 2 MP stroke
-32 6 4131 2750 2 MP stroke
-38 4 4131 2874 2 MP stroke
-81 12 4131 2999 2 MP stroke
-86 -8 4131 3123 2 MP stroke
-85 6 4131 3247 2 MP stroke
-85 5 4131 3372 2 MP stroke
-94 20 4131 3496 2 MP stroke
-93 2 4131 3620 2 MP stroke
-81 16 4131 3744 2 MP stroke
-48 -8 4131 3869 2 MP stroke
-53 -6 4131 3993 2 MP stroke
-60 -28 4131 4117 2 MP stroke
-76 0 4131 4242 2 MP stroke
-80 -10 4131 4366 2 MP stroke
-85 -5 4131 4490 2 MP stroke
-84 -12 4131 4615 2 MP stroke
-69 21 4238 389 2 MP stroke
-72 18 4238 513 2 MP stroke
-47 -61 4238 637 2 MP stroke
-79 12 4238 761 2 MP stroke
-79 12 4238 886 2 MP stroke
-76 16 4238 1010 2 MP stroke
-77 -11 4238 1134 2 MP stroke
-71 4 4238 1259 2 MP stroke
-67 29 4238 1383 2 MP stroke
-68 52 4238 1507 2 MP stroke
-72 -9 4238 1631 2 MP stroke
-73 -16 4238 1756 2 MP stroke
-88 6 4238 1880 2 MP stroke
-76 19 4238 2004 2 MP stroke
-69 -8 4238 2129 2 MP stroke
-67 15 4238 2253 2 MP stroke
-60 0 4238 2377 2 MP stroke
-49 -1 4238 2502 2 MP stroke
-60 -41 4238 2626 2 MP stroke
-39 -8 4238 2750 2 MP stroke
-49 5 4238 2874 2 MP stroke
-66 27 4238 2999 2 MP stroke
-87 10 4238 3123 2 MP stroke
-46 23 4238 3247 2 MP stroke
-55 7 4238 3372 2 MP stroke
-65 12 4238 3496 2 MP stroke
-75 -25 4238 3620 2 MP stroke
-64 18 4238 3744 2 MP stroke
-57 7 4238 3869 2 MP stroke
-59 7 4238 3993 2 MP stroke
-58 -5 4238 4117 2 MP stroke
-62 1 4238 4242 2 MP stroke
-76 -14 4238 4366 2 MP stroke
-62 10 4238 4490 2 MP stroke
-61 -21 4238 4615 2 MP stroke
-79 8 4346 389 2 MP stroke
-70 18 4346 513 2 MP stroke
-60 -23 4346 637 2 MP stroke
-61 7 4346 761 2 MP stroke
-55 8 4346 886 2 MP stroke
-37 22 4346 1010 2 MP stroke
-46 -2 4346 1134 2 MP stroke
-38 14 4346 1259 2 MP stroke
-29 5 4346 1383 2 MP stroke
-30 37 4346 1507 2 MP stroke
-32 -29 4346 1631 2 MP stroke
-29 -28 4346 1756 2 MP stroke
-44 38 4346 1880 2 MP stroke
-43 25 4346 2004 2 MP stroke
-25 19 4346 2129 2 MP stroke
-26 12 4346 2253 2 MP stroke
-65 -18 4346 2377 2 MP stroke
-46 -13 4346 2502 2 MP stroke
-70 -37 4346 2626 2 MP stroke
-76 -2 4346 2750 2 MP stroke
-74 -14 4346 2874 2 MP stroke
-25 16 4346 2999 2 MP stroke
-6 26 4346 3123 2 MP stroke
-36 23 4346 3247 2 MP stroke
-46 19 4346 3372 2 MP stroke
-47 29 4346 3496 2 MP stroke
-66 -24 4346 3620 2 MP stroke
-63 -12 4346 3744 2 MP stroke
-52 -2 4346 3869 2 MP stroke
-60 25 4346 3993 2 MP stroke
-81 0 4346 4117 2 MP stroke
-82 -7 4346 4242 2 MP stroke
-92 -10 4346 4366 2 MP stroke
-72 -11 4346 4490 2 MP stroke
-64 0 4454 389 2 MP stroke
-59 22 4454 513 2 MP stroke
-48 -16 4454 637 2 MP stroke
-56 26 4454 761 2 MP stroke
-36 21 4454 886 2 MP stroke
-47 19 4454 1010 2 MP stroke
-45 -2 4454 1134 2 MP stroke
-53 -1 4454 1259 2 MP stroke
-56 23 4454 1383 2 MP stroke
-59 30 4454 1507 2 MP stroke
-17 -20 4454 1631 2 MP stroke
-15 -19 4454 1756 2 MP stroke
-54 28 4454 1880 2 MP stroke
-34 43 4454 2004 2 MP stroke
-31 -6 4454 2129 2 MP stroke
-27 17 4454 2253 2 MP stroke
-39 3 4454 2377 2 MP stroke
-21 -23 4454 2502 2 MP stroke
-41 -47 4454 2626 2 MP stroke
-36 -27 4454 2750 2 MP stroke
-51 -10 4454 2874 2 MP stroke
-44 10 4454 2999 2 MP stroke
-47 7 4454 3123 2 MP stroke
-61 7 4454 3247 2 MP stroke
-47 7 4454 3372 2 MP stroke
-60 21 4454 3496 2 MP stroke
-69 -25 4454 3620 2 MP stroke
-70 -19 4454 3744 2 MP stroke
-67 17 4454 3869 2 MP stroke
-66 18 4454 3993 2 MP stroke
-74 -14 4454 4117 2 MP stroke
-66 1 4454 4242 2 MP stroke
-76 -4 4454 4366 2 MP stroke
-70 -15 4454 4490 2 MP stroke
4562 389 PD
-78 13 4562 513 2 MP stroke
-82 -9 4562 637 2 MP stroke
-87 4 4562 761 2 MP stroke
-89 -5 4562 886 2 MP stroke
-84 22 4562 1010 2 MP stroke
-84 -10 4562 1134 2 MP stroke
-85 0 4562 1259 2 MP stroke
-80 19 4562 1383 2 MP stroke
-80 19 4562 1507 2 MP stroke
-79 -3 4562 1631 2 MP stroke
-80 15 4562 1756 2 MP stroke
-87 0 4562 1880 2 MP stroke
-90 33 4562 2004 2 MP stroke
-86 8 4562 2129 2 MP stroke
-80 3 4562 2253 2 MP stroke
-73 28 4562 2377 2 MP stroke
-82 4 4562 2502 2 MP stroke
-80 -45 4562 2626 2 MP stroke
-84 7 4562 2750 2 MP stroke
-79 11 4562 2874 2 MP stroke
-96 16 4562 2999 2 MP stroke
-90 7 4562 3123 2 MP stroke
-92 14 4562 3247 2 MP stroke
-94 16 4562 3372 2 MP stroke
-95 13 4562 3496 2 MP stroke
-100 -9 4562 3620 2 MP stroke
-116 -20 4562 3744 2 MP stroke
-115 16 4562 3869 2 MP stroke
-95 39 4562 3993 2 MP stroke
-93 -16 4562 4117 2 MP stroke
-105 6 4562 4242 2 MP stroke
-116 0 4562 4366 2 MP stroke
-113 4 4562 4490 2 MP stroke
4669 389 PD
-92 9 4669 513 2 MP stroke
-77 -20 4669 637 2 MP stroke
-87 8 4669 761 2 MP stroke
-78 9 4669 886 2 MP stroke
-89 7 4669 1010 2 MP stroke
-85 -6 4669 1134 2 MP stroke
-81 5 4669 1259 2 MP stroke
-73 -5 4669 1383 2 MP stroke
-70 2 4669 1507 2 MP stroke
-72 -37 4669 1631 2 MP stroke
-81 -62 4669 1756 2 MP stroke
-86 6 4669 1880 2 MP stroke
-80 8 4669 2004 2 MP stroke
-77 -14 4669 2129 2 MP stroke
-82 6 4669 2253 2 MP stroke
-72 15 4669 2377 2 MP stroke
-68 22 4669 2502 2 MP stroke
-71 -41 4669 2626 2 MP stroke
-79 3 4669 2750 2 MP stroke
-84 8 4669 2874 2 MP stroke
-97 44 4669 2999 2 MP stroke
-91 9 4669 3123 2 MP stroke
-90 9 4669 3247 2 MP stroke
-91 1 4669 3372 2 MP stroke
-86 7 4669 3496 2 MP stroke
-82 -34 4669 3620 2 MP stroke
-77 -58 4669 3744 2 MP stroke
-90 1 4669 3869 2 MP stroke
-80 1 4669 3993 2 MP stroke
-81 -16 4669 4117 2 MP stroke
-83 -21 4669 4242 2 MP stroke
-85 -24 4669 4366 2 MP stroke
-95 -13 4669 4490 2 MP stroke
-76 6 4777 389 2 MP stroke
-85 15 4777 513 2 MP stroke
-104 -17 4777 637 2 MP stroke
-79 19 4777 761 2 MP stroke
-78 13 4777 886 2 MP stroke
-81 15 4777 1010 2 MP stroke
-78 8 4777 1134 2 MP stroke
-88 2 4777 1259 2 MP stroke
-99 -29 4777 1383 2 MP stroke
-100 -66 4777 1507 2 MP stroke
-95 -74 4777 1631 2 MP stroke
-84 -45 4777 1756 2 MP stroke
-83 33 4777 1880 2 MP stroke
-67 11 4777 2004 2 MP stroke
-77 -5 4777 2129 2 MP stroke
-89 -1 4777 2253 2 MP stroke
-60 -57 4777 2377 2 MP stroke
-84 -14 4777 2502 2 MP stroke
-75 -8 4777 2626 2 MP stroke
-76 19 4777 2750 2 MP stroke
-82 7 4777 2874 2 MP stroke
-75 -6 4777 2999 2 MP stroke
-84 8 4777 3123 2 MP stroke
-79 7 4777 3247 2 MP stroke
-83 5 4777 3372 2 MP stroke
-86 -7 4777 3496 2 MP stroke
-77 -58 4777 3620 2 MP stroke
-61 -71 4777 3744 2 MP stroke
-67 8 4777 3869 2 MP stroke
-69 9 4777 3993 2 MP stroke
-71 -6 4777 4117 2 MP stroke
-61 -12 4777 4242 2 MP stroke
-67 -28 4777 4366 2 MP stroke
-92 -22 4777 4490 2 MP stroke
-65 10 4885 389 2 MP stroke
-76 22 4885 513 2 MP stroke
-71 -28 4885 637 2 MP stroke
-73 14 4885 761 2 MP stroke
-80 -21 4885 886 2 MP stroke
-82 -12 4885 1010 2 MP stroke
-91 -107 4885 1134 2 MP stroke
-89 -139 4885 1259 2 MP stroke
-111 -84 4885 1383 2 MP stroke
-83 -59 4885 1507 2 MP stroke
-81 -56 4885 1631 2 MP stroke
-53 -28 4885 1756 2 MP stroke
-49 -16 4885 1880 2 MP stroke
-39 -38 4885 2004 2 MP stroke
-49 -6 4885 2129 2 MP stroke
-42 3 4885 2253 2 MP stroke
-40 -24 4885 2377 2 MP stroke
-42 -8 4885 2502 2 MP stroke
-45 -30 4885 2626 2 MP stroke
-69 2 4885 2750 2 MP stroke
-54 6 4885 2874 2 MP stroke
-60 15 4885 2999 2 MP stroke
-60 6 4885 3123 2 MP stroke
-61 14 4885 3247 2 MP stroke
-61 49 4885 3372 2 MP stroke
-68 48 4885 3496 2 MP stroke
-60 -31 4885 3620 2 MP stroke
-69 19 4885 3744 2 MP stroke
-52 1 4885 3869 2 MP stroke
-52 12 4885 3993 2 MP stroke
-48 -11 4885 4117 2 MP stroke
-66 -22 4885 4242 2 MP stroke
-59 -26 4885 4366 2 MP stroke
-71 -20 4885 4490 2 MP stroke
-97 20 4992 389 2 MP stroke
-86 11 4992 513 2 MP stroke
-60 -22 4992 637 2 MP stroke
-67 0 4992 761 2 MP stroke
-65 -80 4992 886 2 MP stroke
-70 -88 4992 1010 2 MP stroke
-66 -137 4992 1134 2 MP stroke
-76 -122 4992 1259 2 MP stroke
-90 -96 4992 1383 2 MP stroke
-82 -70 4992 1507 2 MP stroke
-52 -54 4992 1631 2 MP stroke
-41 -42 4992 1756 2 MP stroke
-36 -50 4992 1880 2 MP stroke
-33 -27 4992 2004 2 MP stroke
-43 -20 4992 2129 2 MP stroke
-54 -10 4992 2253 2 MP stroke
-50 1 4992 2377 2 MP stroke
-56 4 4992 2502 2 MP stroke
-31 -28 4992 2626 2 MP stroke
-58 13 4992 2750 2 MP stroke
-51 8 4992 2874 2 MP stroke
-67 11 4992 2999 2 MP stroke
-56 -2 4992 3123 2 MP stroke
-66 20 4992 3247 2 MP stroke
-56 16 4992 3372 2 MP stroke
-50 19 4992 3496 2 MP stroke
-47 -22 4992 3620 2 MP stroke
-34 -12 4992 3744 2 MP stroke
-64 0 4992 3869 2 MP stroke
-61 10 4992 3993 2 MP stroke
-36 -15 4992 4117 2 MP stroke
-47 -19 4992 4242 2 MP stroke
-48 -24 4992 4366 2 MP stroke
-53 -13 4992 4490 2 MP stroke
5100 389 PD
-66 11 5100 513 2 MP stroke
-38 -37 5100 637 2 MP stroke
-31 -27 5100 761 2 MP stroke
-30 -18 5100 886 2 MP stroke
-30 -69 5100 1010 2 MP stroke
-35 -106 5100 1134 2 MP stroke
-32 -94 5100 1259 2 MP stroke
-33 -30 5100 1383 2 MP stroke
-32 -5 5100 1507 2 MP stroke
-32 -19 5100 1631 2 MP stroke
-26 -5 5100 1756 2 MP stroke
-25 -27 5100 1880 2 MP stroke
-26 -21 5100 2004 2 MP stroke
-14 -21 5100 2129 2 MP stroke
-35 -11 5100 2253 2 MP stroke
-25 -2 5100 2377 2 MP stroke
-31 -1 5100 2502 2 MP stroke
1 -31 5100 2626 2 MP stroke
-25 4 5100 2750 2 MP stroke
-32 -11 5100 2874 2 MP stroke
-32 9 5100 2999 2 MP stroke
-54 -14 5100 3123 2 MP stroke
-26 2 5100 3247 2 MP stroke
-30 4 5100 3372 2 MP stroke
-39 5 5100 3496 2 MP stroke
-23 -31 5100 3620 2 MP stroke
-24 -12 5100 3744 2 MP stroke
-26 -4 5100 3869 2 MP stroke
-34 11 5100 3993 2 MP stroke
-28 -15 5100 4117 2 MP stroke
-33 -17 5100 4242 2 MP stroke
-35 -8 5100 4366 2 MP stroke
-41 9 5100 4490 2 MP stroke
5208 389 PD
-23 -27 5208 513 2 MP stroke
-9 -37 5208 637 2 MP stroke
-11 -29 5208 761 2 MP stroke
-15 -11 5208 886 2 MP stroke
-17 -7 5208 1010 2 MP stroke
-19 -3 5208 1134 2 MP stroke
-22 -10 5208 1259 2 MP stroke
-27 -6 5208 1383 2 MP stroke
-30 -9 5208 1507 2 MP stroke
-26 -14 5208 1631 2 MP stroke
-26 -18 5208 1756 2 MP stroke
-34 -25 5208 1880 2 MP stroke
-21 10 5208 2004 2 MP stroke
-21 -11 5208 2129 2 MP stroke
-11 -14 5208 2253 2 MP stroke
-19 -14 5208 2377 2 MP stroke
-29 2 5208 2502 2 MP stroke
-16 -27 5208 2626 2 MP stroke
-14 4 5208 2750 2 MP stroke
-7 -12 5208 2874 2 MP stroke
-33 7 5208 2999 2 MP stroke
-14 -8 5208 3123 2 MP stroke
-20 -6 5208 3247 2 MP stroke
-27 13 5208 3372 2 MP stroke
-31 2 5208 3496 2 MP stroke
-27 -32 5208 3620 2 MP stroke
-28 -10 5208 3744 2 MP stroke
-30 -3 5208 3869 2 MP stroke
-35 7 5208 3993 2 MP stroke
-36 -15 5208 4117 2 MP stroke
-45 -5 5208 4242 2 MP stroke
-42 -7 5208 4366 2 MP stroke
-49 7 5208 4490 2 MP stroke
-3 -16 5316 886 2 MP stroke
-9 -12 5316 1010 2 MP stroke
-5 -9 5316 1259 2 MP stroke
-9 -4 5316 1383 2 MP stroke
-11 2 5316 1507 2 MP stroke
-10 2 5316 1631 2 MP stroke
-16 -2 5316 1756 2 MP stroke
-16 -8 5316 1880 2 MP stroke
-10 -9 5316 2004 2 MP stroke
0 -27 5316 2129 2 MP stroke
1 3 5316 2253 2 MP stroke
-19 -7 5316 2377 2 MP stroke
-9 12 5316 2502 2 MP stroke
-7 -44 5316 2626 2 MP stroke
-9 6 5316 2750 2 MP stroke
3 -11 5316 2874 2 MP stroke
-19 2 5316 2999 2 MP stroke
-17 -16 5316 3123 2 MP stroke
-12 7 5316 3247 2 MP stroke
3 5 5316 3372 2 MP stroke
-13 10 5316 3496 2 MP stroke
-17 -33 5316 3620 2 MP stroke
-8 -2 5316 3744 2 MP stroke
-11 3 5316 3869 2 MP stroke
-8 -5 5316 3993 2 MP stroke
-18 -14 5316 4117 2 MP stroke
-30 0 5316 4242 2 MP stroke
-11 -4 5316 4366 2 MP stroke
-19 5 5316 4490 2 MP stroke
-44 -11 5423 1134 2 MP stroke
-39 -7 5423 1259 2 MP stroke
-39 -5 5423 1383 2 MP stroke
-45 -6 5423 1507 2 MP stroke
-44 -6 5423 1631 2 MP stroke
-44 -7 5423 1756 2 MP stroke
-45 -5 5423 1880 2 MP stroke
-37 -6 5423 2004 2 MP stroke
-36 -2 5423 2129 2 MP stroke
-37 0 5423 2253 2 MP stroke
-34 1 5423 2377 2 MP stroke
-19 8 5423 2502 2 MP stroke
-23 -41 5423 2626 2 MP stroke
-38 8 5423 2750 2 MP stroke
-29 -5 5423 2874 2 MP stroke
-37 8 5423 2999 2 MP stroke
-29 -17 5423 3123 2 MP stroke
-37 5 5423 3247 2 MP stroke
-47 -4 5423 3372 2 MP stroke
-54 11 5423 3496 2 MP stroke
-45 -26 5423 3620 2 MP stroke
-54 11 5423 3744 2 MP stroke
-41 -5 5423 3869 2 MP stroke
-65 9 5423 3993 2 MP stroke
-50 -29 5423 4117 2 MP stroke
-57 1 5423 4242 2 MP stroke
-69 -9 5423 4366 2 MP stroke
-63 5 5423 4490 2 MP stroke
-29 -9 5531 1134 2 MP stroke
-27 -6 5531 1259 2 MP stroke
-24 -2 5531 1383 2 MP stroke
-26 -9 5531 1507 2 MP stroke
-20 8 5531 1631 2 MP stroke
-34 1 5531 1756 2 MP stroke
-42 -7 5531 1880 2 MP stroke
-17 -7 5531 2004 2 MP stroke
-29 -1 5531 2129 2 MP stroke
-31 2 5531 2253 2 MP stroke
-23 -9 5531 2377 2 MP stroke
-25 14 5531 2502 2 MP stroke
-18 -45 5531 2626 2 MP stroke
-24 10 5531 2750 2 MP stroke
-31 -6 5531 2874 2 MP stroke
-23 12 5531 2999 2 MP stroke
-36 -19 5531 3123 2 MP stroke
-40 9 5531 3247 2 MP stroke
-30 -14 5531 3372 2 MP stroke
-41 8 5531 3496 2 MP stroke
-25 -25 5531 3620 2 MP stroke
-30 10 5531 3744 2 MP stroke
-37 -11 5531 3869 2 MP stroke
-38 7 5531 3993 2 MP stroke
-41 -27 5531 4117 2 MP stroke
-46 5 5531 4242 2 MP stroke
-46 -6 5531 4366 2 MP stroke
-44 4 5531 4490 2 MP stroke
-21 -9 5639 1134 2 MP stroke
-23 -3 5639 1259 2 MP stroke
-23 -3 5639 1383 2 MP stroke
-20 -6 5639 1507 2 MP stroke
-16 -1 5639 1631 2 MP stroke
-19 -1 5639 1756 2 MP stroke
-17 1 5639 1880 2 MP stroke
-27 -6 5639 2004 2 MP stroke
-30 -5 5639 2129 2 MP stroke
-30 -5 5639 2253 2 MP stroke
-15 -18 5639 2377 2 MP stroke
-24 2 5639 2502 2 MP stroke
-17 -14 5639 2626 2 MP stroke
-23 5 5639 2750 2 MP stroke
-19 -9 5639 2874 2 MP stroke
-22 3 5639 2999 2 MP stroke
-34 -21 5639 3123 2 MP stroke
-30 4 5639 3247 2 MP stroke
-32 -7 5639 3372 2 MP stroke
-36 3 5639 3496 2 MP stroke
-34 -39 5639 3620 2 MP stroke
-42 4 5639 3744 2 MP stroke
-46 -4 5639 3869 2 MP stroke
-58 7 5639 3993 2 MP stroke
-52 -25 5639 4117 2 MP stroke
-49 6 5639 4242 2 MP stroke
-52 -6 5639 4366 2 MP stroke
-53 5 5639 4490 2 MP stroke
-19 15 5747 513 2 MP stroke
-12 -4 5747 1010 2 MP stroke
-13 -5 5747 1134 2 MP stroke
-15 -4 5747 1259 2 MP stroke
-14 -4 5747 1383 2 MP stroke
-16 -3 5747 1507 2 MP stroke
-11 -3 5747 1631 2 MP stroke
-8 -2 5747 1756 2 MP stroke
-13 -8 5747 1880 2 MP stroke
-24 -14 5747 2004 2 MP stroke
-28 -13 5747 2129 2 MP stroke
-28 -10 5747 2253 2 MP stroke
-8 -19 5747 2377 2 MP stroke
-18 4 5747 2502 2 MP stroke
-14 -21 5747 2626 2 MP stroke
-13 1 5747 2750 2 MP stroke
-14 -15 5747 2874 2 MP stroke
-16 1 5747 2999 2 MP stroke
-35 -23 5747 3123 2 MP stroke
-23 3 5747 3247 2 MP stroke
-26 -1 5747 3372 2 MP stroke
-39 -3 5747 3496 2 MP stroke
-15 -42 5747 3620 2 MP stroke
-30 1 5747 3744 2 MP stroke
-40 -11 5747 3869 2 MP stroke
-42 6 5747 3993 2 MP stroke
-52 -23 5747 4117 2 MP stroke
-52 7 5747 4242 2 MP stroke
-54 -3 5747 4366 2 MP stroke
-55 10 5747 4490 2 MP stroke
5854 389 PD
-50 10 5854 513 2 MP stroke
-41 -2 5854 1010 2 MP stroke
-37 0 5854 1134 2 MP stroke
-25 0 5854 1259 2 MP stroke
-29 -1 5854 1383 2 MP stroke
-25 1 5854 1507 2 MP stroke
-22 -10 5854 1631 2 MP stroke
-23 -2 5854 1756 2 MP stroke
-35 -7 5854 1880 2 MP stroke
-39 -6 5854 2004 2 MP stroke
-44 -4 5854 2129 2 MP stroke
-44 -4 5854 2253 2 MP stroke
-42 -14 5854 2377 2 MP stroke
-41 2 5854 2502 2 MP stroke
-43 -15 5854 2626 2 MP stroke
-46 -2 5854 2750 2 MP stroke
-39 -3 5854 2874 2 MP stroke
-39 -1 5854 2999 2 MP stroke
-44 -27 5854 3123 2 MP stroke
-46 4 5854 3247 2 MP stroke
-52 -10 5854 3372 2 MP stroke
-56 2 5854 3496 2 MP stroke
-17 -31 5854 3620 2 MP stroke
-63 1 5854 3744 2 MP stroke
-41 -7 5854 3869 2 MP stroke
-56 3 5854 3993 2 MP stroke
-66 -28 5854 4117 2 MP stroke
-65 5 5854 4242 2 MP stroke
-77 -6 5854 4366 2 MP stroke
-65 8 5854 4490 2 MP stroke
5962 389 PD
-54 5 5962 513 2 MP stroke
-40 -1 5962 1134 2 MP stroke
-34 -2 5962 1259 2 MP stroke
-30 -8 5962 1383 2 MP stroke
-31 -2 5962 1507 2 MP stroke
-29 -2 5962 1631 2 MP stroke
-25 -2 5962 1756 2 MP stroke
-30 -3 5962 1880 2 MP stroke
-33 1 5962 2004 2 MP stroke
-28 -1 5962 2129 2 MP stroke
-25 -4 5962 2253 2 MP stroke
-34 -5 5962 2377 2 MP stroke
-35 -6 5962 2502 2 MP stroke
-37 1 5962 2626 2 MP stroke
-31 -4 5962 2750 2 MP stroke
-33 -4 5962 2874 2 MP stroke
-35 -4 5962 2999 2 MP stroke
-36 -4 5962 3123 2 MP stroke
-43 -4 5962 3247 2 MP stroke
-28 -16 5962 3372 2 MP stroke
-43 5 5962 3496 2 MP stroke
-11 -20 5962 3620 2 MP stroke
-32 7 5962 3744 2 MP stroke
-58 -5 5962 3869 2 MP stroke
-49 6 5962 3993 2 MP stroke
-55 -17 5962 4117 2 MP stroke
-53 -11 5962 4242 2 MP stroke
-45 -4 5962 4366 2 MP stroke
-54 14 5962 4490 2 MP stroke
6070 389 PD
-39 -16 6070 513 2 MP stroke
-32 -1 6070 1010 2 MP stroke
-27 -5 6070 1134 2 MP stroke
-21 -3 6070 1259 2 MP stroke
-29 -9 6070 1383 2 MP stroke
-33 -9 6070 1507 2 MP stroke
-30 -9 6070 1631 2 MP stroke
-17 -7 6070 1756 2 MP stroke
-20 0 6070 1880 2 MP stroke
-19 7 6070 2004 2 MP stroke
-21 4 6070 2129 2 MP stroke
-23 -6 6070 2253 2 MP stroke
-18 -5 6070 2377 2 MP stroke
-21 -3 6070 2502 2 MP stroke
-25 -4 6070 2626 2 MP stroke
-24 -4 6070 2750 2 MP stroke
-27 -7 6070 2874 2 MP stroke
-23 -9 6070 2999 2 MP stroke
-26 -8 6070 3123 2 MP stroke
-34 -3 6070 3247 2 MP stroke
-30 -19 6070 3372 2 MP stroke
-41 5 6070 3496 2 MP stroke
-12 -23 6070 3620 2 MP stroke
-47 6 6070 3744 2 MP stroke
-32 -1 6070 3869 2 MP stroke
-41 3 6070 3993 2 MP stroke
-42 -2 6070 4117 2 MP stroke
-59 -7 6070 4242 2 MP stroke
-51 -10 6070 4366 2 MP stroke
-61 10 6070 4490 2 MP stroke
4 -18 6178 761 2 MP stroke
11 -10 6178 886 2 MP stroke
-17 -3 6178 1010 2 MP stroke
-11 -2 6178 1134 2 MP stroke
-15 -9 6178 1259 2 MP stroke
-17 -8 6178 1383 2 MP stroke
-5 -10 6178 1507 2 MP stroke
5 3 6178 1631 2 MP stroke
13 -7 6178 1756 2 MP stroke
-6 10 6178 1880 2 MP stroke
2 14 6178 2004 2 MP stroke
10 -9 6178 2129 2 MP stroke
14 -18 6178 2253 2 MP stroke
3 -9 6178 2377 2 MP stroke
32 -1 6178 2502 2 MP stroke
15 -20 6178 2626 2 MP stroke
7 -17 6178 2750 2 MP stroke
2 -15 6178 2874 2 MP stroke
22 -6 6178 2999 2 MP stroke
23 -15 6178 3123 2 MP stroke
-1 2 6178 3247 2 MP stroke
1 -19 6178 3372 2 MP stroke
-10 2 6178 3496 2 MP stroke
3 -37 6178 3620 2 MP stroke
-15 5 6178 3744 2 MP stroke
-24 -12 6178 3869 2 MP stroke
-30 4 6178 3993 2 MP stroke
-43 -9 6178 4117 2 MP stroke
-28 9 6178 4242 2 MP stroke
-33 -7 6178 4366 2 MP stroke
-55 -3 6178 4490 2 MP stroke
gr

c8

end %%Color Dict

eplot
%%EndObject

epage
end

showpage

%%Trailer
%%EOF
