%!PS-Adobe-2.0 EPSF-1.2
%%Creator: MATLAB, The MathWorks, Inc. Version 8.3.0.532 (R2014a). Operating System: Linux 3.19.0-31-generic #36~14.04.1-Ubuntu SMP Thu Oct 8 10:21:08 UTC 2015 x86_64.
%%Title: ../../data/output/p4/win_size10n_level1n_iter30min_eig0.0001.eps
%%CreationDate: 11/22/2015  18:56:00
%%DocumentNeededFonts: Helvetica
%%DocumentProcessColors: Cyan Magenta Yellow Black
%%Extensions: CMYK
%%Pages: 1
%%BoundingBox:    78   215   548   583
%%EndComments

%%BeginProlog
% MathWorks dictionary
/MathWorks 160 dict begin
% definition operators
/bdef {bind def} bind def
/ldef {load def} bind def
/xdef {exch def} bdef
/xstore {exch store} bdef
% operator abbreviations
/c  /clip ldef
/cc /concat ldef
/cp /closepath ldef
/gr /grestore ldef
/gs /gsave ldef
/mt /moveto ldef
/np /newpath ldef
/cm /currentmatrix ldef
/sm /setmatrix ldef
/rm /rmoveto ldef
/rl /rlineto ldef
/s {show newpath} bdef
/sc {setcmykcolor} bdef
/sr /setrgbcolor ldef
/sg /setgray ldef
/w /setlinewidth ldef
/j /setlinejoin ldef
/cap /setlinecap ldef
/rc {rectclip} bdef
/rf {rectfill} bdef
% page state control
/pgsv () def
/bpage {/pgsv save def} bdef
/epage {pgsv restore} bdef
/bplot /gsave ldef
/eplot {stroke grestore} bdef
% orientation switch
/portraitMode 0 def /landscapeMode 1 def /rotateMode 2 def
% coordinate system mappings
/dpi2point 0 def
% font control
/FontSize 0 def
/FMS {/FontSize xstore findfont [FontSize 0 0 FontSize neg 0 0]
  makefont setfont} bdef
/reencode {exch dup where {pop load} {pop StandardEncoding} ifelse
  exch dup 3 1 roll findfont dup length dict begin
  { 1 index /FID ne {def}{pop pop} ifelse } forall
  /Encoding exch def currentdict end definefont pop} bdef
/isroman {findfont /CharStrings get /Agrave known} bdef
/FMSR {3 1 roll 1 index dup isroman {reencode} {pop pop} ifelse
  exch FMS} bdef
/csm {1 dpi2point div -1 dpi2point div scale neg translate
 dup landscapeMode eq {pop -90 rotate}
  {rotateMode eq {90 rotate} if} ifelse} bdef
% line types: solid, dotted, dashed, dotdash
/SO { [] 0 setdash } bdef
/DO { [.5 dpi2point mul 4 dpi2point mul] 0 setdash } bdef
/DA { [6 dpi2point mul] 0 setdash } bdef
/DD { [.5 dpi2point mul 4 dpi2point mul 6 dpi2point mul 4
  dpi2point mul] 0 setdash } bdef
% macros for lines and objects
/L {lineto stroke} bdef
/MP {3 1 roll moveto 1 sub {rlineto} repeat} bdef
/AP {{rlineto} repeat} bdef
/PDlw -1 def
/W {/PDlw currentlinewidth def setlinewidth} def
/PP {closepath eofill} bdef
/DP {closepath stroke} bdef
/MR {4 -2 roll moveto dup  0 exch rlineto exch 0 rlineto
  neg 0 exch rlineto closepath} bdef
/FR {MR stroke} bdef
/PR {MR fill} bdef
/L1i {{currentfile picstr readhexstring pop} image} bdef
/tMatrix matrix def
/MakeOval {newpath tMatrix currentmatrix pop translate scale
0 0 1 0 360 arc tMatrix setmatrix} bdef
/FO {MakeOval stroke} bdef
/PO {MakeOval fill} bdef
/PD {currentlinewidth 2 div 0 360 arc fill
   PDlw -1 eq not {PDlw w /PDlw -1 def} if} def
/FA {newpath tMatrix currentmatrix pop translate scale
  0 0 1 5 -2 roll arc tMatrix setmatrix stroke} bdef
/PA {newpath tMatrix currentmatrix pop	translate 0 0 moveto scale
  0 0 1 5 -2 roll arc closepath tMatrix setmatrix fill} bdef
/FAn {newpath tMatrix currentmatrix pop translate scale
  0 0 1 5 -2 roll arcn tMatrix setmatrix stroke} bdef
/PAn {newpath tMatrix currentmatrix pop translate 0 0 moveto scale
  0 0 1 5 -2 roll arcn closepath tMatrix setmatrix fill} bdef
/vradius 0 def /hradius 0 def /lry 0 def
/lrx 0 def /uly 0 def /ulx 0 def /rad 0 def
/MRR {/vradius xdef /hradius xdef /lry xdef /lrx xdef /uly xdef
  /ulx xdef newpath tMatrix currentmatrix pop ulx hradius add uly
  vradius add translate hradius vradius scale 0 0 1 180 270 arc 
  tMatrix setmatrix lrx hradius sub uly vradius add translate
  hradius vradius scale 0 0 1 270 360 arc tMatrix setmatrix
  lrx hradius sub lry vradius sub translate hradius vradius scale
  0 0 1 0 90 arc tMatrix setmatrix ulx hradius add lry vradius sub
  translate hradius vradius scale 0 0 1 90 180 arc tMatrix setmatrix
  closepath} bdef
/FRR {MRR stroke } bdef
/PRR {MRR fill } bdef
/MlrRR {/lry xdef /lrx xdef /uly xdef /ulx xdef /rad lry uly sub 2 div def
  newpath tMatrix currentmatrix pop ulx rad add uly rad add translate
  rad rad scale 0 0 1 90 270 arc tMatrix setmatrix lrx rad sub lry rad
  sub translate rad rad scale 0 0 1 270 90 arc tMatrix setmatrix
  closepath} bdef
/FlrRR {MlrRR stroke } bdef
/PlrRR {MlrRR fill } bdef
/MtbRR {/lry xdef /lrx xdef /uly xdef /ulx xdef /rad lrx ulx sub 2 div def
  newpath tMatrix currentmatrix pop ulx rad add uly rad add translate
  rad rad scale 0 0 1 180 360 arc tMatrix setmatrix lrx rad sub lry rad
  sub translate rad rad scale 0 0 1 0 180 arc tMatrix setmatrix
  closepath} bdef
/FtbRR {MtbRR stroke } bdef
/PtbRR {MtbRR fill } bdef
/stri 6 array def /dtri 6 array def
/smat 6 array def /dmat 6 array def
/tmat1 6 array def /tmat2 6 array def /dif 3 array def
/asub {/ind2 exch def /ind1 exch def dup dup
  ind1 get exch ind2 get sub exch } bdef
/tri_to_matrix {
  2 0 asub 3 1 asub 4 0 asub 5 1 asub
  dup 0 get exch 1 get 7 -1 roll astore } bdef
/compute_transform {
  dmat dtri tri_to_matrix tmat1 invertmatrix 
  smat stri tri_to_matrix tmat2 concatmatrix } bdef
/ds {stri astore pop} bdef
/dt {dtri astore pop} bdef
/db {2 copy /cols xdef /rows xdef mul dup 3 mul string
  currentfile exch readhexstring pop
  dup 0 3 index getinterval /rbmap xdef
  dup 2 index dup getinterval /gbmap xdef
  1 index dup 2 mul exch getinterval /bbmap xdef pop pop}bdef
/it {gs np dtri aload pop moveto lineto lineto cp c
  cols rows 8 compute_transform 
  rbmap gbmap bbmap true 3 colorimage gr}bdef
/il {newpath moveto lineto stroke}bdef
currentdict end def
%%EndProlog

%%BeginSetup
MathWorks begin

0 cap

end
%%EndSetup

%%Page: 1 1
%%BeginPageSetup
%%PageBoundingBox:    78   215   548   583
MathWorks begin
bpage
%%EndPageSetup

%%BeginObject: obj1
bplot

/dpi2point 12 def
portraitMode 0216 7344 csm

  731   341  5640  4420 MR c np
85 dict begin %Colortable dictionary
/c0 { 0.000000 0.000000 0.000000 sr} bdef
/c1 { 1.000000 1.000000 1.000000 sr} bdef
/c2 { 0.900000 0.000000 0.000000 sr} bdef
/c3 { 0.000000 0.820000 0.000000 sr} bdef
/c4 { 0.000000 0.000000 0.800000 sr} bdef
/c5 { 0.910000 0.820000 0.320000 sr} bdef
/c6 { 1.000000 0.260000 0.820000 sr} bdef
/c7 { 0.000000 0.820000 0.820000 sr} bdef
c0
1 j
1 sg
   0    0 6913 5186 PR
6 w
0 -4226 5356 0 0 4226 899 389 4 MP
PP
-5356 0 0 -4226 5356 0 0 4226 899 389 5 MP stroke
4 w
DO
SO
6 w
0 sg
 899  389 mt 6255  389 L
 899 4615 mt 6255 4615 L
 899  389 mt  899 4615 L
6255  389 mt 6255 4615 L
 899 4615 mt 6255 4615 L
 899  389 mt  899 4615 L
1406 4615 mt 1406 4561 L
1406  389 mt 1406  442 L
%%IncludeResource: font Helvetica
/Helvetica /ISOLatin1Encoding 120 FMSR

1373 4760 mt 
(5) s
1945 4615 mt 1945 4561 L
1945  389 mt 1945  442 L
1879 4760 mt 
(10) s
2484 4615 mt 2484 4561 L
2484  389 mt 2484  442 L
2418 4760 mt 
(15) s
3022 4615 mt 3022 4561 L
3022  389 mt 3022  442 L
2956 4760 mt 
(20) s
3561 4615 mt 3561 4561 L
3561  389 mt 3561  442 L
3495 4760 mt 
(25) s
4100 4615 mt 4100 4561 L
4100  389 mt 4100  442 L
4034 4760 mt 
(30) s
4638 4615 mt 4638 4561 L
4638  389 mt 4638  442 L
4572 4760 mt 
(35) s
5177 4615 mt 5177 4561 L
5177  389 mt 5177  442 L
5111 4760 mt 
(40) s
5716 4615 mt 5716 4561 L
5716  389 mt 5716  442 L
5650 4760 mt 
(45) s
6255 4615 mt 6255 4561 L
6255  389 mt 6255  442 L
6189 4760 mt 
(50) s
 899  974 mt  952  974 L
6255  974 mt 6201  974 L
 798 1018 mt 
(5) s
 899 1596 mt  952 1596 L
6255 1596 mt 6201 1596 L
 731 1640 mt 
(10) s
 899 2217 mt  952 2217 L
6255 2217 mt 6201 2217 L
 731 2261 mt 
(15) s
 899 2839 mt  952 2839 L
6255 2839 mt 6201 2839 L
 731 2883 mt 
(20) s
 899 3460 mt  952 3460 L
6255 3460 mt 6201 3460 L
 731 3504 mt 
(25) s
 899 4082 mt  952 4082 L
6255 4082 mt 6201 4082 L
 731 4126 mt 
(30) s
 899  389 mt 6255  389 L
 899 4615 mt 6255 4615 L
 899  389 mt  899 4615 L
6255  389 mt 6255 4615 L
gs 899 389 5357 4227 MR c np
/c8 { 0.000000 0.000000 1.000000 sr} bdef
c8
0 -2 899 881 2 MP stroke
2 0 -2 1 1003 512 3 MP stroke
2 0 -2 1 1003 636 3 MP stroke
2 1 -2 0 1003 760 3 MP stroke
2 1 -2 0 1003 885 3 MP stroke
1 1 -2 0 1004 1009 3 MP stroke
2 0 -2 1 1003 1133 3 MP stroke
1 0 -1 0 1003 1258 3 MP stroke
2 1 -2 0 1003 1381 3 MP stroke
1 1 -1 0 1003 1506 3 MP stroke
2 2 -2 -1 1003 1629 3 MP stroke
1 0 -1 0 1005 2252 3 MP stroke
0 1 -1 -1 1006 2375 3 MP stroke
1 0 -1 0 1005 2501 3 MP stroke
0 1 1005 2624 2 MP stroke
1 0 -1 0 1006 2749 3 MP stroke
0 1 -1 -1 1005 2872 3 MP stroke
-1 1 1006 2997 2 MP stroke
0 1 -1 -1 1006 3121 3 MP stroke
1 0 -1 0 1005 3246 3 MP stroke
1 1 -1 -1 1005 3370 3 MP stroke
0 1 1005 3495 2 MP stroke
1 2 -1 -1 1005 3618 3 MP stroke
1 0 -1 0 1005 3744 3 MP stroke
1 1 -1 -1 1003 3867 3 MP stroke
1 0 -1 1 1003 3992 3 MP stroke
1 1 -2 0 1004 4116 3 MP stroke
2 1 -2 0 1003 4241 3 MP stroke
1 0 -1 0 1003 4365 3 MP stroke
2 1 -2 0 1004 4490 3 MP stroke
1110 389 PD
2 0 -2 1 1110 513 3 MP stroke
2 1 -2 0 1110 636 3 MP stroke
2 0 -2 1 1110 762 3 MP stroke
2 1 -2 0 1110 885 3 MP stroke
2 2 -2 0 1110 1008 3 MP stroke
2 1 -2 0 1110 1134 3 MP stroke
2 1 -2 0 1110 1258 3 MP stroke
2 1 -3 0 1110 1380 3 MP stroke
2 1 -2 0 1110 1506 3 MP stroke
2 1 -2 0 1110 1629 3 MP stroke
1 0 -1 0 1111 2252 3 MP stroke
1 1 -2 -1 1112 2375 3 MP stroke
2 0 -2 0 1112 2501 3 MP stroke
1 1 -1 0 1112 2624 3 MP stroke
1 0 -1 0 1112 2749 3 MP stroke
1 1 -1 0 1112 2873 3 MP stroke
1 0 -1 1 1112 2998 3 MP stroke
1 1 -2 0 1112 3121 3 MP stroke
1 1 -1 0 1111 3246 3 MP stroke
1 2 -2 -1 1112 3369 3 MP stroke
1 1 -1 0 1111 3494 3 MP stroke
1 1 -2 -1 1112 3618 3 MP stroke
1 1 -1 0 1111 3743 3 MP stroke
2 1 -2 0 1111 3866 3 MP stroke
1 1 -2 0 1111 3992 3 MP stroke
2 2 -3 -1 1111 4115 3 MP stroke
2 1 -2 0 1110 4240 3 MP stroke
2 1 -3 0 1110 4364 3 MP stroke
2 1 -2 0 1110 4489 3 MP stroke
1 0 -1 1 1219 513 3 MP stroke
1 1 -2 0 1219 636 3 MP stroke
2 0 -2 1 1219 761 3 MP stroke
2 0 -2 1 1219 884 3 MP stroke
1 0 -1 1 1218 1010 3 MP stroke
2 0 -2 0 1219 1134 3 MP stroke
1 1 -2 0 1219 1257 3 MP stroke
2 1 -2 -1 1219 1381 3 MP stroke
2 1 -2 0 1219 1506 3 MP stroke
2 1 -2 0 1219 1629 3 MP stroke
0 2 -1 -2 1221 2375 3 MP stroke
1 0 -1 0 1221 2501 3 MP stroke
0 -1 0 0 1221 2623 3 MP stroke
1 0 -1 0 1221 2749 3 MP stroke
1 1 -1 -1 1221 2873 3 MP stroke
1220 2998 PD
1 1 -1 0 1220 3121 3 MP stroke
1 1 -1 -1 1220 3246 3 MP stroke
1220 3370 PD
1 0 -1 0 1221 3495 3 MP stroke
1 1 -1 -1 1220 3619 3 MP stroke
1 0 -1 0 1221 3743 3 MP stroke
1 1 -1 -1 1220 3867 3 MP stroke
2 1 -2 0 1219 3991 3 MP stroke
1 2 -2 -1 1219 4116 3 MP stroke
1 1 -2 0 1219 4240 3 MP stroke
2 2 -2 -1 1219 4364 3 MP stroke
1 0 -1 0 1219 4490 3 MP stroke
1 1 -2 0 1219 4613 3 MP stroke
2 0 -2 1 1325 513 3 MP stroke
2 1 -2 0 1326 635 3 MP stroke
2 1 -1 0 1325 762 3 MP stroke
2 0 -2 1 1325 885 3 MP stroke
2 0 -2 1 1326 1010 3 MP stroke
2 1 -2 0 1325 1133 3 MP stroke
2 0 -2 1 1325 1259 3 MP stroke
2 1 -2 0 1326 1381 3 MP stroke
1 1 -1 0 1328 1506 3 MP stroke
1 1 -1 0 1327 2374 3 MP stroke
1 1 -1 0 1327 2500 3 MP stroke
1 2 -2 -1 1328 2623 3 MP stroke
0 1 -1 -1 1328 2749 3 MP stroke
1 1 -2 0 1328 2873 3 MP stroke
1 0 -1 0 1328 2999 3 MP stroke
1 0 -1 0 1327 3122 3 MP stroke
1 1 -1 0 1328 3246 3 MP stroke
1 1 -1 0 1327 3369 3 MP stroke
1 1 -1 0 1327 3495 3 MP stroke
1 1 -2 0 1327 3618 3 MP stroke
1 0 -1 0 1327 3744 3 MP stroke
1 1 -1 0 1327 3867 3 MP stroke
2 1 -2 0 1325 3992 3 MP stroke
1 1 -2 0 1326 4115 3 MP stroke
2 1 -2 0 1326 4241 3 MP stroke
1 1 -2 0 1326 4364 3 MP stroke
2 1 -2 0 1326 4490 3 MP stroke
2 1 -2 0 1325 4612 3 MP stroke
1 0 -1 1 1434 512 3 MP stroke
2 1 -2 0 1434 636 3 MP stroke
2 0 -2 1 1434 761 3 MP stroke
1 1 -2 0 1435 884 3 MP stroke
2 0 -2 1 1434 1010 3 MP stroke
2 0 -2 1 1434 1133 3 MP stroke
2 1 -2 0 1434 1259 3 MP stroke
1 1 -2 0 1435 1381 3 MP stroke
2 0 -2 0 1435 1507 3 MP stroke
0 1 1436 2375 2 MP stroke
1 0 -1 0 1436 2501 3 MP stroke
0 1 -1 -1 1436 2625 3 MP stroke
1436 2749 PD
-1 0 1437 2873 2 MP stroke
0 -1 0 0 1436 2998 3 MP stroke
0 1 1436 3121 2 MP stroke
1 0 -1 0 1436 3246 3 MP stroke
0 1 -1 -1 1437 3370 3 MP stroke
0 1 1436 3495 2 MP stroke
1436 3619 PD
1 0 -1 0 1436 3744 3 MP stroke
0 2 -1 -1 1436 3866 3 MP stroke
1 0 -2 0 1435 3992 3 MP stroke
1 1 -2 -1 1435 4115 3 MP stroke
1 1 -1 0 1435 4240 3 MP stroke
1 2 -2 -1 1435 4364 3 MP stroke
2 1 -2 0 1435 4489 3 MP stroke
1 1 -2 -1 1435 4613 3 MP stroke
2 0 -2 1 1541 514 3 MP stroke
2 0 -2 1 1540 636 3 MP stroke
2 0 -2 1 1540 762 3 MP stroke
2 1 -2 0 1541 884 3 MP stroke
2 0 -2 1 1541 1011 3 MP stroke
2 1 -3 0 1541 1133 3 MP stroke
2 0 -2 1 1541 1258 3 MP stroke
1 2 -2 -1 1541 1381 3 MP stroke
2 1 -2 0 1541 1505 3 MP stroke
1 1 -2 0 1543 2375 3 MP stroke
1 0 -1 1 1542 2501 3 MP stroke
1 1 -1 0 1543 2625 3 MP stroke
1 1 -2 -1 1543 2749 3 MP stroke
2 0 -2 0 1543 2999 3 MP stroke
1 1 -1 0 1542 3121 3 MP stroke
1 0 -1 1 1542 3246 3 MP stroke
1 2 -1 -1 1543 3369 3 MP stroke
1 0 -1 0 1543 3495 3 MP stroke
1 0 -2 0 1543 3619 3 MP stroke
1 1 -1 0 1542 3743 3 MP stroke
1 1 -2 0 1543 3866 3 MP stroke
2 0 -2 1 1541 3992 3 MP stroke
2 2 -2 -1 1541 4115 3 MP stroke
2 1 -2 0 1541 4240 3 MP stroke
1 1 -2 0 1542 4364 3 MP stroke
2 1 -2 1 1541 4489 3 MP stroke
1 1 -2 0 1542 4612 3 MP stroke
1 0 1648 389 2 MP stroke
1 0 -1 1 1649 513 3 MP stroke
1 0 -1 1 1649 636 3 MP stroke
1 0 -1 0 1650 762 3 MP stroke
2 0 -2 1 1650 885 3 MP stroke
1 0 -1 1 1650 1011 3 MP stroke
1 1 -1 0 1649 1133 3 MP stroke
2 0 -1 1 1649 1259 3 MP stroke
1 1 -1 0 1649 1380 3 MP stroke
1 0 -1 1 1649 1506 3 MP stroke
0 1 -1 -1 1652 1630 3 MP stroke
1 0 -1 0 1652 2502 3 MP stroke
1652 2625 PD
1 0 1651 2751 2 MP stroke
0 1 -1 -1 1652 2873 3 MP stroke
0 1 -1 -1 1652 2998 3 MP stroke
1 1 -1 0 1651 3121 3 MP stroke
1 0 -1 0 1652 3247 3 MP stroke
0 2 -1 -1 1652 3369 3 MP stroke
1 1 -1 0 1651 3494 3 MP stroke
1 2 -1 -1 1651 3618 3 MP stroke
1 1 -1 0 1651 3743 3 MP stroke
2 1 -2 0 1650 3866 3 MP stroke
1 1 -2 0 1650 3992 3 MP stroke
1 1 -2 0 1651 4115 3 MP stroke
1 1 -2 0 1650 4240 3 MP stroke
1 1 -1 0 1650 4363 3 MP stroke
1 1 -1 0 1650 4489 3 MP stroke
2 0 -1 1 1756 513 3 MP stroke
2 1 -2 0 1757 636 3 MP stroke
2 0 -2 1 1756 762 3 MP stroke
2 0 -2 1 1756 885 3 MP stroke
2 0 -2 1 1756 1011 3 MP stroke
2 1 -2 0 1756 1134 3 MP stroke
2 1 -2 1 1756 1258 3 MP stroke
2 1 -2 0 1756 1382 3 MP stroke
2 0 -2 1 1756 1506 3 MP stroke
0 1 -1 -1 1759 1630 3 MP stroke
1 0 -1 1 1759 2502 3 MP stroke
1 0 -1 0 1759 2625 3 MP stroke
1 0 -1 0 1758 2751 3 MP stroke
1 1 -1 -1 1759 2872 3 MP stroke
1 1 -1 -1 1758 2998 3 MP stroke
2 1 -2 0 1758 3121 3 MP stroke
2 1 -2 0 1758 3246 3 MP stroke
1 2 -2 -1 1758 3369 3 MP stroke
1 0 -1 0 1758 3495 3 MP stroke
1 1 -1 0 1758 3618 3 MP stroke
1 1 -2 0 1758 3743 3 MP stroke
2 2 -2 0 1757 3866 3 MP stroke
2 1 -2 0 1757 3991 3 MP stroke
2 2 -3 0 1757 4114 3 MP stroke
2 1 -2 0 1757 4240 3 MP stroke
2 1 -2 0 1757 4363 3 MP stroke
2 1 -2 0 1756 4489 3 MP stroke
1 1 -2 0 1757 4613 3 MP stroke
1 0 -1 0 1866 514 3 MP stroke
1 0 -1 1 1865 636 3 MP stroke
2 0 -2 1 1865 762 3 MP stroke
1 0 -1 0 1865 885 3 MP stroke
2 0 -2 1 1865 1010 3 MP stroke
2 1 -2 0 1865 1134 3 MP stroke
2 0 -2 1 1865 1259 3 MP stroke
2 1 -1 0 1864 1383 3 MP stroke
1 1 -1 0 1865 1506 3 MP stroke
0 1 -1 -1 1868 1630 3 MP stroke
1 1 -1 -1 1867 2501 3 MP stroke
1 0 -1 0 1867 2625 3 MP stroke
1 1 -1 0 1867 2749 3 MP stroke
0 1 -1 -1 1868 2873 3 MP stroke
1 1 -1 -1 1867 2998 3 MP stroke
-1 1 1868 3121 2 MP stroke
1 1 -1 0 1867 3246 3 MP stroke
0 -1 0 0 1867 3369 3 MP stroke
1 0 -1 0 1867 3495 3 MP stroke
1 1 -1 -1 1867 3619 3 MP stroke
1 1 -1 0 1866 3743 3 MP stroke
1 1 -1 -1 1866 3867 3 MP stroke
2 1 -2 0 1866 3992 3 MP stroke
1 1 -2 -1 1866 4116 3 MP stroke
1 1 -2 0 1866 4240 3 MP stroke
1 1 -1 0 1865 4364 3 MP stroke
1 0 -1 0 1866 4490 3 MP stroke
2 1 -2 0 1865 4612 3 MP stroke
2 0 -2 1 1972 513 3 MP stroke
2 1 -2 0 1972 636 3 MP stroke
1 0 -1 1 1972 762 3 MP stroke
2 1 -2 0 1972 885 3 MP stroke
2 0 -2 2 1971 1010 3 MP stroke
2 0 -2 1 1972 1133 3 MP stroke
3 1 -2 1 1971 1258 3 MP stroke
2 1 -3 1 1972 1381 3 MP stroke
2 0 -2 1 1972 1506 3 MP stroke
1 1 -1 -1 1974 1629 3 MP stroke
1 0 -1 0 1974 2253 3 MP stroke
1 1 -1 -1 1973 2375 3 MP stroke
1 0 -1 0 1974 2501 3 MP stroke
1 2 -1 -1 1973 2624 3 MP stroke
1 1 -1 0 1973 2749 3 MP stroke
0 1 -1 -1 1974 2872 3 MP stroke
1 1 -1 0 1973 2997 3 MP stroke
1 1 -1 -1 1974 3121 3 MP stroke
1 0 -1 0 1974 3247 3 MP stroke
1 2 -1 -1 1973 3369 3 MP stroke
1 1 -1 0 1973 3494 3 MP stroke
1 1 -1 0 1974 3618 3 MP stroke
1 1 -1 0 1973 3743 3 MP stroke
1 1 -2 0 1974 3866 3 MP stroke
2 1 -2 0 1972 3992 3 MP stroke
2 2 -2 0 1972 4115 3 MP stroke
2 1 -2 0 1972 4240 3 MP stroke
2 1 -2 0 1972 4364 3 MP stroke
2 1 -2 0 1973 4489 3 MP stroke
1 1 -2 0 1973 4612 3 MP stroke
2 -1 -2 1 2081 514 3 MP stroke
2 1 -2 0 2080 636 3 MP stroke
2 0 -1 1 2080 762 3 MP stroke
1 1 -1 0 2080 885 3 MP stroke
1 0 -1 1 2080 1010 3 MP stroke
1 1 -1 0 2080 1133 3 MP stroke
2 0 -2 1 2081 1259 3 MP stroke
1 1 -1 -1 2082 1382 3 MP stroke
0 1 -1 -1 2083 1507 3 MP stroke
0 1 -1 -1 2083 1630 3 MP stroke
1 0 -1 0 2083 2253 3 MP stroke
1 1 -1 -1 2083 2376 3 MP stroke
1 1 -1 0 2082 2500 3 MP stroke
1 2 -1 -1 2082 2623 3 MP stroke
1 1 -1 0 2082 2749 3 MP stroke
0 -1 0 0 2082 2872 3 MP stroke
0 -1 0 0 2083 2998 3 MP stroke
0 -1 0 0 2083 3121 3 MP stroke
1 1 -1 -1 2083 3246 3 MP stroke
1 1 -1 -1 2082 3370 3 MP stroke
1 1 -1 0 2082 3495 3 MP stroke
0 1 -1 -1 2083 3619 3 MP stroke
1 1 -1 0 2082 3743 3 MP stroke
0 -1 0 0 2082 3867 3 MP stroke
1 1 -1 -1 2081 3992 3 MP stroke
1 1 -2 0 2081 4115 3 MP stroke
1 1 -1 0 2081 4241 3 MP stroke
2 1 -2 0 2081 4364 3 MP stroke
1 1 -1 0 2081 4489 3 MP stroke
3 0 -3 1 2187 513 3 MP stroke
2 1 -2 1 2187 636 3 MP stroke
2 1 -2 1 2187 761 3 MP stroke
2 0 -2 1 2188 885 3 MP stroke
2 0 -2 1 2188 1010 3 MP stroke
2 0 -2 1 2187 1134 3 MP stroke
2 0 -1 1 2187 1259 3 MP stroke
1 1 -1 0 2189 1382 3 MP stroke
1 0 -1 0 2189 1507 3 MP stroke
1 2 -2 -1 2190 1629 3 MP stroke
1 1 -1 0 2189 1755 3 MP stroke
2 -1 -2 1 2189 2254 3 MP stroke
-1 1 2190 2375 2 MP stroke
2 1 -2 0 2189 2501 3 MP stroke
1 1 -1 -1 2189 2624 3 MP stroke
1 1 -1 0 2190 2749 3 MP stroke
1 1 -1 -1 2190 2873 3 MP stroke
1 1 -1 0 2190 2997 3 MP stroke
-1 1 2190 3121 2 MP stroke
-1 1 2190 3246 2 MP stroke
1 1 -1 -1 2189 3370 3 MP stroke
1 1 -2 0 2189 3494 3 MP stroke
1 1 -2 0 2189 3618 3 MP stroke
1 1 -2 0 2189 3743 3 MP stroke
1 2 -2 0 2188 3866 3 MP stroke
2 1 -2 0 2188 3992 3 MP stroke
2 2 -3 -1 2188 4115 3 MP stroke
2 1 -2 0 2188 4241 3 MP stroke
2 2 -2 -1 2187 4364 3 MP stroke
2 1 -2 0 2188 4489 3 MP stroke
2296 389 PD
1 0 -1 1 2296 513 3 MP stroke
2 0 -2 1 2296 637 3 MP stroke
1 0 -1 1 2296 761 3 MP stroke
2 0 -2 1 2296 885 3 MP stroke
1 0 -1 1 2296 1010 3 MP stroke
2 1 -2 0 2296 1134 3 MP stroke
2 0 -1 0 2296 1259 3 MP stroke
1 1 -1 0 2296 1382 3 MP stroke
2298 1508 PD
0 1 2298 1630 2 MP stroke
2298 1756 PD
0 -1 0 0 2298 1878 3 MP stroke
1 0 -1 1 2298 2005 3 MP stroke
2298 2128 PD
-1 0 2299 2252 2 MP stroke
-1 1 2298 2375 2 MP stroke
1 0 -1 0 2298 2501 3 MP stroke
2298 2624 PD
0 -1 0 0 2298 2750 3 MP stroke
0 1 -1 -1 2298 2872 3 MP stroke
1 0 -1 0 2298 2998 3 MP stroke
1 1 -1 -1 2298 3122 3 MP stroke
1 0 -1 0 2298 3247 3 MP stroke
1 1 -1 0 2298 3370 3 MP stroke
1 0 -1 0 2298 3495 3 MP stroke
0 -1 0 0 2298 3619 3 MP stroke
0 1 2298 3743 2 MP stroke
1 1 -1 0 2297 3867 3 MP stroke
1 0 -1 0 2297 3992 3 MP stroke
1 1 -1 0 2296 4116 3 MP stroke
1 0 -2 0 2297 4241 3 MP stroke
1 2 -2 -1 2297 4363 3 MP stroke
2 0 -2 1 2296 4489 3 MP stroke
2 1 -1 0 2401 389 3 MP stroke
2 0 -2 1 2402 514 3 MP stroke
2 1 -2 0 2402 636 3 MP stroke
2 0 -2 1 2403 762 3 MP stroke
1 0 -1 1 2403 885 3 MP stroke
2 1 -2 1 2402 1010 3 MP stroke
2 1 -2 0 2403 1132 3 MP stroke
2 0 -2 1 2403 1259 3 MP stroke
2 1 -2 0 2403 1382 3 MP stroke
2 0 -2 1 2403 1506 3 MP stroke
1 1 -2 -1 2405 1630 3 MP stroke
1 0 -1 1 2405 1756 3 MP stroke
1 1 -2 -1 2405 1878 3 MP stroke
1 1 -1 0 2405 2004 3 MP stroke
1 1 -1 0 2405 2127 3 MP stroke
1 0 -1 1 2405 2253 3 MP stroke
1 1 -2 -1 2405 2375 3 MP stroke
1 0 -1 0 2405 2501 3 MP stroke
0 2 -1 -1 2405 2623 3 MP stroke
1 0 -2 0 2405 2749 3 MP stroke
1 2 -1 -1 2405 2872 3 MP stroke
1 1 -1 0 2404 2997 3 MP stroke
1 1 -2 -1 2405 3121 3 MP stroke
1 1 -1 0 2404 3246 3 MP stroke
1 1 -2 0 2405 3369 3 MP stroke
1 1 -1 0 2405 3494 3 MP stroke
1 1 -1 0 2405 3618 3 MP stroke
1 1 -1 0 2404 3743 3 MP stroke
2 1 -2 0 2403 3867 3 MP stroke
1 1 -1 0 2403 3991 3 MP stroke
2 1 -2 0 2403 4116 3 MP stroke
1 1 -2 0 2404 4241 3 MP stroke
2 2 -2 -1 2403 4363 3 MP stroke
2 1 -2 0 2403 4489 3 MP stroke
1 0 2510 389 2 MP stroke
2 -1 -1 1 2511 514 3 MP stroke
2 1 -2 0 2512 637 3 MP stroke
2 0 -1 1 2511 761 3 MP stroke
2 1 -2 0 2512 885 3 MP stroke
2 1 -2 0 2512 1009 3 MP stroke
1 0 -1 0 2512 1133 3 MP stroke
2 0 -2 1 2511 1258 3 MP stroke
1 0 -1 1 2512 1382 3 MP stroke
2 0 -2 1 2512 1507 3 MP stroke
2 1 -2 0 2512 1630 3 MP stroke
1 0 -1 0 2514 1756 3 MP stroke
-1 0 2514 1879 2 MP stroke
1 1 -1 -1 2514 2004 3 MP stroke
0 1 2514 2128 2 MP stroke
1 0 2513 2254 2 MP stroke
1 1 -1 -1 2514 2375 3 MP stroke
0 1 -1 -1 2514 2501 3 MP stroke
0 1 -1 -1 2514 2624 3 MP stroke
2513 2750 PD
0 2 -1 -1 2514 2872 3 MP stroke
1 0 -1 0 2513 2998 3 MP stroke
1 1 -1 0 2513 3121 3 MP stroke
2513 3247 PD
0 1 -1 -1 2514 3370 3 MP stroke
1 0 -1 0 2513 3495 3 MP stroke
1 1 -1 0 2513 3618 3 MP stroke
0 1 2513 3743 2 MP stroke
1 1 -2 0 2512 3866 3 MP stroke
1 1 -1 0 2512 3992 3 MP stroke
1 1 -2 0 2512 4115 3 MP stroke
1 1 -1 0 2512 4240 3 MP stroke
1 1 -2 0 2512 4364 3 MP stroke
1 1 -2 0 2512 4489 3 MP stroke
1 0 2617 389 2 MP stroke
2 0 -2 1 2618 513 3 MP stroke
2 1 -2 0 2619 636 3 MP stroke
2 0 -2 1 2618 762 3 MP stroke
2 1 -2 0 2618 885 3 MP stroke
2 1 -2 0 2618 1009 3 MP stroke
2 1 -2 0 2618 1132 3 MP stroke
2 0 -2 1 2619 1258 3 MP stroke
1 1 -2 0 2619 1382 3 MP stroke
2 0 -1 1 2618 1507 3 MP stroke
2 1 -2 0 2618 1630 3 MP stroke
1 0 -1 1 2620 1756 3 MP stroke
1 2 -2 -1 2620 1878 3 MP stroke
1 0 -1 0 2620 2004 3 MP stroke
1 0 -1 0 2621 2128 3 MP stroke
2620 2253 PD
1 1 -1 0 2620 2376 3 MP stroke
1 1 -1 0 2620 2500 3 MP stroke
1 1 -1 -1 2620 2624 3 MP stroke
1 0 -1 0 2620 2750 3 MP stroke
1 0 -1 0 2621 2874 3 MP stroke
1 1 -1 -1 2620 2998 3 MP stroke
1 1 -1 0 2620 3121 3 MP stroke
-1 1 2621 3246 2 MP stroke
1 1 -1 0 2620 3369 3 MP stroke
1 1 -1 0 2620 3495 3 MP stroke
1 1 -1 0 2620 3618 3 MP stroke
1 1 -1 0 2619 3743 3 MP stroke
1 1 -2 0 2619 3866 3 MP stroke
2 1 -2 0 2619 3992 3 MP stroke
1 2 -2 -1 2619 4115 3 MP stroke
2 1 -2 0 2618 4240 3 MP stroke
2 2 -2 -1 2619 4364 3 MP stroke
2 1 -2 1 2618 4488 3 MP stroke
2 2 -2 -1 2619 4612 3 MP stroke
1 0 2726 389 2 MP stroke
1 -1 -1 2 2726 513 3 MP stroke
2 0 -2 0 2727 637 3 MP stroke
2 0 -2 1 2727 762 3 MP stroke
2 0 -2 1 2727 885 3 MP stroke
1 1 -2 0 2727 1009 3 MP stroke
1 1 -2 0 2728 1132 3 MP stroke
2 0 -1 1 2727 1259 3 MP stroke
2 0 -2 0 2727 1382 3 MP stroke
2 0 -1 1 2727 1508 3 MP stroke
1 1 -2 0 2727 1630 3 MP stroke
2729 1756 PD
0 1 2729 2253 2 MP stroke
1 0 -1 0 2729 2377 3 MP stroke
2729 2502 PD
0 -1 0 0 2729 2624 3 MP stroke
0 -1 0 0 2729 2749 3 MP stroke
0 1 -1 -1 2730 2873 3 MP stroke
2729 2998 PD
1 1 -1 -1 2729 3121 3 MP stroke
1 0 -1 0 2729 3247 3 MP stroke
1 1 -1 -1 2728 3370 3 MP stroke
1 0 -1 1 2728 3495 3 MP stroke
1 1 -1 0 2728 3618 3 MP stroke
1 1 -1 0 2728 3743 3 MP stroke
-1 1 2728 3866 2 MP stroke
1 0 -1 0 2728 3993 3 MP stroke
1 1 -2 0 2728 4115 3 MP stroke
2 0 -2 0 2728 4241 3 MP stroke
1 1 -1 0 2728 4364 3 MP stroke
2 1 -2 -1 2727 4489 3 MP stroke
1 1 -1 0 2727 4613 3 MP stroke
2 0 2831 389 2 MP stroke
3 0 -2 1 2833 514 3 MP stroke
1 1 -1 0 2834 636 3 MP stroke
2 0 -1 1 2833 763 3 MP stroke
2 0 -2 1 2834 885 3 MP stroke
2 1 -2 1 2834 1009 3 MP stroke
2 2 -3 -1 2834 1132 3 MP stroke
2 1 -2 0 2834 1257 3 MP stroke
2 1 -3 0 2834 1380 3 MP stroke
2 0 -2 1 2834 1508 3 MP stroke
1 1 -1 0 2836 1630 3 MP stroke
1 0 -1 0 2836 1755 3 MP stroke
1 1 -1 -1 2836 2375 3 MP stroke
1 1 -1 0 2835 2500 3 MP stroke
1 2 -1 -1 2835 2624 3 MP stroke
1 1 -1 0 2836 2749 3 MP stroke
1 1 -1 -1 2836 2873 3 MP stroke
1 1 -2 0 2836 2997 3 MP stroke
1 1 -2 0 2836 3121 3 MP stroke
2 0 -2 1 2835 3246 3 MP stroke
0 1 -1 -1 2836 3370 3 MP stroke
1 0 -2 0 2836 3495 3 MP stroke
1 1 -1 -1 2835 3619 3 MP stroke
1 1 -1 0 2835 3743 3 MP stroke
2 1 -2 0 2834 3866 3 MP stroke
1 1 -1 0 2834 3991 3 MP stroke
2 1 -2 0 2834 4115 3 MP stroke
2 1 -2 0 2833 4241 3 MP stroke
2 1 -2 0 2834 4364 3 MP stroke
2 1 -2 1 2833 4489 3 MP stroke
1 1 -2 0 2835 4612 3 MP stroke
3 0 -1 0 2938 389 3 MP stroke
2 0 -2 1 2941 513 3 MP stroke
1 0 -1 1 2942 636 3 MP stroke
2 -1 -2 1 2943 763 3 MP stroke
2 1 -2 0 2943 1009 3 MP stroke
1 1 -1 0 2943 1133 3 MP stroke
2 0 -2 1 2943 1258 3 MP stroke
1 0 -1 1 2942 1382 3 MP stroke
1 0 -1 1 2944 1507 3 MP stroke
1 0 -1 0 2944 1631 3 MP stroke
1 0 -1 0 2945 1755 3 MP stroke
1 1 -1 -1 2944 1878 3 MP stroke
0 1 -1 -1 2945 2375 3 MP stroke
1 0 -1 0 2945 2501 3 MP stroke
1 2 -1 -1 2944 2623 3 MP stroke
2944 2750 PD
0 -1 0 0 2944 2873 3 MP stroke
-1 0 2945 2998 2 MP stroke
1 1 -1 0 2944 3122 3 MP stroke
1 1 -1 -1 2944 3247 3 MP stroke
0 2 -1 -1 2945 3369 3 MP stroke
1 1 -1 0 2944 3495 3 MP stroke
1 0 -2 0 2944 3619 3 MP stroke
1 1 -1 0 2944 3743 3 MP stroke
1 1 -1 0 2943 3866 3 MP stroke
1 1 -1 0 2943 3992 3 MP stroke
1 1 -1 0 2942 4115 3 MP stroke
2 1 -2 0 2943 4240 3 MP stroke
2 1 -2 0 2942 4364 3 MP stroke
2 1 -2 0 2942 4489 3 MP stroke
2 0 -2 1 3047 513 3 MP stroke
2 0 -3 1 3049 636 3 MP stroke
2 1 -2 1 3048 761 3 MP stroke
2 1 -2 1 3049 1133 3 MP stroke
2 1 -2 0 3049 1258 3 MP stroke
1 1 -1 0 3050 1380 3 MP stroke
1 0 -1 0 3051 1508 3 MP stroke
1 1 -1 0 3051 1630 3 MP stroke
1 1 -1 0 3051 1754 3 MP stroke
1 1 -1 -1 3051 1879 3 MP stroke
1 1 -1 -1 3051 2003 3 MP stroke
2 1 -2 -1 3051 2127 3 MP stroke
1 1 -1 0 3051 2252 3 MP stroke
0 2 -1 -1 3052 2374 3 MP stroke
2 1 -2 0 3051 2500 3 MP stroke
1 1 -1 0 3051 2624 3 MP stroke
2 1 -2 -1 3051 2749 3 MP stroke
1 1 -1 -1 3051 2873 3 MP stroke
0 1 3051 2998 2 MP stroke
-1 1 3052 3121 2 MP stroke
1 0 -1 0 3051 3246 3 MP stroke
1 1 -1 0 3051 3369 3 MP stroke
1 1 -1 0 3051 3495 3 MP stroke
1 1 -2 -1 3051 3619 3 MP stroke
1 1 -2 0 3051 3743 3 MP stroke
1 1 -2 -1 3051 3867 3 MP stroke
2 1 -2 0 3050 3992 3 MP stroke
1 2 -2 -1 3050 4116 3 MP stroke
1 0 -1 1 3049 4241 3 MP stroke
2 1 -2 0 3050 4363 3 MP stroke
2 1 -2 0 3049 4489 3 MP stroke
1 0 3155 389 2 MP stroke
3 1 -3 1 3156 513 3 MP stroke
2 1 -2 0 3157 637 3 MP stroke
1 0 -1 0 3158 762 3 MP stroke
1 1 -2 0 3158 885 3 MP stroke
1 1 -1 0 3158 1009 3 MP stroke
1 1 -1 0 3160 1133 3 MP stroke
0 1 3159 1257 2 MP stroke
3160 1382 PD
1 0 -1 0 3160 1508 3 MP stroke
1 0 -1 1 3160 1631 3 MP stroke
3160 1757 PD
3159 1880 PD
3160 2005 PD
-1 1 3160 2126 2 MP stroke
3160 2253 PD
-1 1 3161 2375 2 MP stroke
0 1 3159 2500 2 MP stroke
0 1 -1 -1 3161 2624 3 MP stroke
0 1 -1 -1 3160 2749 3 MP stroke
1 2 -1 -1 3160 2872 3 MP stroke
-1 0 3160 2998 2 MP stroke
0 -1 0 0 3160 3122 3 MP stroke
-1 1 3160 3246 2 MP stroke
0 1 -1 -1 3160 3369 3 MP stroke
1 1 -1 -1 3160 3495 3 MP stroke
0 1 -1 -1 3160 3618 3 MP stroke
3159 3744 PD
1 1 -1 0 3158 3866 3 MP stroke
1 1 -1 0 3159 3991 3 MP stroke
-1 1 3159 4115 2 MP stroke
2 1 -2 0 3159 4241 3 MP stroke
1 1 -2 0 3158 4364 3 MP stroke
1 0 -1 0 3158 4490 3 MP stroke
1 0 3264 389 2 MP stroke
2 0 -2 1 3264 514 3 MP stroke
2 1 -2 1 3264 636 3 MP stroke
2 0 -2 1 3264 762 3 MP stroke
1 1 -2 0 3265 884 3 MP stroke
2 0 -2 1 3265 1010 3 MP stroke
2 2 -2 0 3265 1132 3 MP stroke
1 0 -1 0 3266 1258 3 MP stroke
1 1 -1 0 3267 1382 3 MP stroke
1 -1 -1 1 3267 1508 3 MP stroke
1 0 -1 0 3267 1631 3 MP stroke
1 0 -1 1 3267 1756 3 MP stroke
2 1 -2 0 3267 1879 3 MP stroke
1 0 -1 1 3267 2005 3 MP stroke
1 1 -1 0 3266 2126 3 MP stroke
1 0 -1 0 3267 2252 3 MP stroke
1 2 -2 -1 3267 2375 3 MP stroke
1 1 -1 0 3267 2500 3 MP stroke
1 2 -1 -1 3267 2623 3 MP stroke
1 1 -1 0 3267 2749 3 MP stroke
1 1 -1 0 3266 2873 3 MP stroke
1 1 -1 0 3266 2997 3 MP stroke
-1 1 3267 3121 2 MP stroke
1 0 -1 1 3266 3246 3 MP stroke
1 1 -1 0 3266 3369 3 MP stroke
1 1 -1 0 3266 3495 3 MP stroke
1 1 -1 0 3267 3618 3 MP stroke
2 1 -2 0 3265 3744 3 MP stroke
2 1 -2 0 3265 3866 3 MP stroke
1 1 -1 0 3265 3991 3 MP stroke
2 2 -3 0 3265 4115 3 MP stroke
2 1 -2 0 3265 4241 3 MP stroke
1 2 -2 0 3265 4363 3 MP stroke
2 1 -2 0 3264 4489 3 MP stroke
2 1 -2 0 3265 4611 3 MP stroke
3371 389 PD
2 1 -2 1 3371 513 3 MP stroke
2 0 -2 1 3371 637 3 MP stroke
2 0 -2 1 3373 762 3 MP stroke
2 1 -2 0 3373 884 3 MP stroke
2 0 -1 1 3373 1010 3 MP stroke
1 1 -1 0 3373 1133 3 MP stroke
1 1 -1 0 3373 1257 3 MP stroke
-1 1 3376 1381 2 MP stroke
0 1 3375 1506 2 MP stroke
1 1 -1 0 3376 1631 3 MP stroke
1 1 -1 0 3376 1754 3 MP stroke
0 -1 0 0 3376 1878 3 MP stroke
1 0 -1 1 3375 2004 3 MP stroke
1 1 -1 -1 3375 2127 3 MP stroke
3375 2253 PD
1 1 -1 -1 3375 2376 3 MP stroke
0 -1 0 0 3375 2501 3 MP stroke
0 1 3375 2624 2 MP stroke
0 -1 0 0 3376 2749 3 MP stroke
0 1 -1 -1 3376 2872 3 MP stroke
1 1 -1 0 3375 2997 3 MP stroke
-1 0 3375 3122 2 MP stroke
-1 1 3376 3246 2 MP stroke
-1 1 3376 3369 2 MP stroke
1 0 -1 0 3375 3495 3 MP stroke
1 1 -1 0 3375 3618 3 MP stroke
1 1 -1 0 3374 3744 3 MP stroke
1 2 -2 -1 3374 3866 3 MP stroke
1 0 -1 0 3374 3993 3 MP stroke
1 2 -2 -1 3374 4115 3 MP stroke
1 0 -2 1 3374 4240 3 MP stroke
1 1 -2 0 3374 4363 3 MP stroke
2 1 -2 0 3373 4489 3 MP stroke
2 2 -3 0 3372 4611 3 MP stroke
2 0 3478 389 2 MP stroke
3 0 -2 1 3479 514 3 MP stroke
2 0 -2 1 3479 636 3 MP stroke
3 1 -3 1 3479 761 3 MP stroke
3 0 -3 1 3480 885 3 MP stroke
2 0 -2 1 3480 1010 3 MP stroke
2 1 -3 0 3480 1132 3 MP stroke
2 1 -2 1 3480 1257 3 MP stroke
1 1 -1 0 3482 1506 3 MP stroke
1 0 -1 0 3482 1631 3 MP stroke
1 1 -1 0 3482 1754 3 MP stroke
1 1 -1 0 3482 1879 3 MP stroke
1 -1 -1 1 3482 2005 3 MP stroke
2 0 -2 0 3482 2128 3 MP stroke
-1 1 3483 2252 2 MP stroke
1 2 -2 -1 3482 2375 3 MP stroke
1 1 -1 0 3482 2501 3 MP stroke
0 1 -1 -1 3483 2624 3 MP stroke
1 0 -1 0 3483 2750 3 MP stroke
1 1 -2 -1 3483 2872 3 MP stroke
0 1 -1 -1 3483 2998 3 MP stroke
0 2 -1 -1 3483 3121 3 MP stroke
1 1 -1 0 3482 3246 3 MP stroke
1 1 -1 0 3482 3370 3 MP stroke
1 0 -1 1 3482 3495 3 MP stroke
1 1 -2 0 3482 3617 3 MP stroke
1 1 -1 0 3481 3743 3 MP stroke
1 1 -2 -1 3481 3867 3 MP stroke
2 1 -2 1 3480 3991 3 MP stroke
2 2 -2 -1 3481 4116 3 MP stroke
2 1 -2 0 3480 4241 3 MP stroke
2 2 -2 0 3480 4363 3 MP stroke
2 1 -2 1 3479 4489 3 MP stroke
2 2 -3 0 3479 4611 3 MP stroke
2 1 -1 0 3585 389 3 MP stroke
3 0 -3 1 3587 513 3 MP stroke
2 1 -2 0 3587 636 3 MP stroke
3 0 -2 1 3587 762 3 MP stroke
0 1 -1 -1 3591 1381 3 MP stroke
3591 1506 PD
0 1 -1 -1 3591 1629 3 MP stroke
0 1 3591 1754 2 MP stroke
-1 1 3591 1878 2 MP stroke
1 0 -1 0 3591 2005 3 MP stroke
3591 2128 PD
0 -1 0 0 3591 2253 3 MP stroke
0 2 -1 -1 3591 2375 3 MP stroke
3591 2501 PD
0 -1 0 0 3591 2624 3 MP stroke
3591 2749 PD
0 -1 0 0 3591 2873 3 MP stroke
0 1 3590 2997 2 MP stroke
1 1 -1 -1 3590 3121 3 MP stroke
3591 3246 PD
1 2 -1 -1 3590 3369 3 MP stroke
1 1 -1 0 3591 3494 3 MP stroke
1 1 -1 0 3590 3618 3 MP stroke
1 0 -1 0 3590 3744 3 MP stroke
1 2 -2 -1 3590 3866 3 MP stroke
2 1 -2 0 3589 3992 3 MP stroke
1 1 -2 -1 3589 4115 3 MP stroke
1 1 -1 0 3589 4241 3 MP stroke
1 1 -1 0 3589 4364 3 MP stroke
2 1 -2 1 3587 4489 3 MP stroke
2 1 -3 0 3587 4612 3 MP stroke
1 0 3693 389 2 MP stroke
4 0 -3 2 3693 513 3 MP stroke
3 1 -3 1 3694 636 3 MP stroke
3 0 -2 1 3695 763 3 MP stroke
1 0 -1 0 3697 1258 3 MP stroke
1 0 -1 0 3697 1382 3 MP stroke
1 1 -1 0 3697 1506 3 MP stroke
1 1 -2 0 3698 1629 3 MP stroke
1 0 -1 0 3697 1755 3 MP stroke
1 1 -1 0 3697 1879 3 MP stroke
1 0 -1 0 3698 2005 3 MP stroke
1 1 -1 0 3698 2128 3 MP stroke
1 1 -2 -1 3698 2252 3 MP stroke
1 1 -1 0 3697 2375 3 MP stroke
1 1 -1 0 3697 2501 3 MP stroke
1 1 -2 0 3698 2624 3 MP stroke
1 1 -1 -1 3697 2749 3 MP stroke
1 1 -1 0 3697 2872 3 MP stroke
1 0 -1 1 3697 2998 3 MP stroke
1 1 -1 0 3698 3121 3 MP stroke
-1 1 3698 3246 2 MP stroke
1 1 -2 0 3698 3369 3 MP stroke
1 1 -1 0 3697 3495 3 MP stroke
1 1 -1 -1 3697 3619 3 MP stroke
1 1 -1 0 3697 3744 3 MP stroke
1 1 -2 0 3697 3867 3 MP stroke
2 1 -2 0 3696 3991 3 MP stroke
2 2 -2 -1 3696 4115 3 MP stroke
2 1 -2 0 3696 4241 3 MP stroke
2 1 -3 0 3696 4364 3 MP stroke
3 2 -3 0 3693 4488 3 MP stroke
3 2 -4 -1 3694 4612 3 MP stroke
2 0 3800 389 2 MP stroke
3 0 -3 1 3802 514 3 MP stroke
3 1 -3 1 3802 636 3 MP stroke
-41 -32 49 6 3895 811 3 MP stroke
3806 1134 PD
1 1 -1 -1 3806 1258 3 MP stroke
1 1 -1 -1 3806 1382 3 MP stroke
3806 1506 PD
1 2 -1 -1 3806 1629 3 MP stroke
1 0 -1 1 3806 1756 3 MP stroke
1 1 -1 -1 3807 1880 3 MP stroke
0 1 3806 2004 2 MP stroke
3806 2128 PD
0 1 3807 2252 2 MP stroke
1 1 -1 0 3807 2375 3 MP stroke
3806 2501 PD
1 0 -1 0 3807 2625 3 MP stroke
1 0 -1 0 3807 2749 3 MP stroke
0 1 -1 -1 3807 2872 3 MP stroke
0 -1 0 0 3806 2998 3 MP stroke
0 1 -1 -1 3807 3121 3 MP stroke
-1 1 3806 3246 2 MP stroke
0 1 3806 3370 2 MP stroke
1 0 -1 0 3805 3496 3 MP stroke
-1 1 3806 3618 2 MP stroke
1 1 -1 0 3804 3743 3 MP stroke
2 1 -2 0 3805 3867 3 MP stroke
1 1 -1 0 3805 3992 3 MP stroke
1 2 -2 -1 3805 4115 3 MP stroke
1 1 -1 0 3804 4241 3 MP stroke
2 2 -2 -1 3804 4363 3 MP stroke
2 2 -2 0 3802 4488 3 MP stroke
2 2 -3 -1 3802 4612 3 MP stroke
3 0 -3 1 3909 513 3 MP stroke
3 1 -3 0 3909 636 3 MP stroke
4 0 -3 2 3908 762 3 MP stroke
2 1 -2 1 3909 885 3 MP stroke
0 -7 2 6 3917 1022 3 MP stroke
1 0 -1 0 3913 1134 3 MP stroke
-1 1 3914 1257 2 MP stroke
1 2 -1 -1 3913 1380 3 MP stroke
1 0 -1 0 3913 1508 3 MP stroke
1 0 -1 0 3913 1631 3 MP stroke
1 0 -1 0 3913 1756 3 MP stroke
1 0 -1 0 3913 1880 3 MP stroke
1 0 -1 1 3913 2005 3 MP stroke
1 0 -1 1 3913 2128 3 MP stroke
1 0 3913 2254 2 MP stroke
1 1 -1 0 3913 2376 3 MP stroke
1 1 -1 0 3913 2500 3 MP stroke
1 1 -1 0 3913 2624 3 MP stroke
1 1 -1 0 3913 2749 3 MP stroke
1 2 -1 -1 3913 2872 3 MP stroke
1 1 -1 0 3913 2998 3 MP stroke
1 1 -1 -1 3913 3122 3 MP stroke
1 0 -1 0 3913 3247 3 MP stroke
1 1 -1 0 3912 3370 3 MP stroke
1 1 -2 0 3912 3494 3 MP stroke
2 1 -2 0 3911 3619 3 MP stroke
2 1 -2 0 3912 3745 3 MP stroke
2 1 -2 0 3911 3868 3 MP stroke
2 1 -2 0 3911 3992 3 MP stroke
2 2 -2 0 3911 4115 3 MP stroke
1 0 -2 1 3912 4240 3 MP stroke
2 2 -3 -1 3911 4364 3 MP stroke
4 1 -4 1 3909 4488 3 MP stroke
3 2 -3 0 3909 4611 3 MP stroke
3 0 -3 2 4018 513 3 MP stroke
3 1 -3 1 4018 636 3 MP stroke
3 0 -2 2 4017 762 3 MP stroke
3 1 -3 0 4017 885 3 MP stroke
3 0 -3 2 4017 1010 3 MP stroke
2 0 -2 1 4018 1134 3 MP stroke
2 0 -2 1 4018 1259 3 MP stroke
2 2 -3 -1 4018 1380 3 MP stroke
1 1 -2 0 4019 1504 3 MP stroke
1 2 -1 -1 4020 1629 3 MP stroke
-1 1 4022 1755 2 MP stroke
1 1 -1 0 4022 1878 3 MP stroke
-1 0 4022 2004 2 MP stroke
1 0 -1 1 4021 2128 3 MP stroke
1 0 -1 1 4020 2254 3 MP stroke
2 1 -2 0 4020 2376 3 MP stroke
1 1 -1 -1 4022 2501 3 MP stroke
0 1 -1 -1 4022 2624 3 MP stroke
1 0 -1 0 4022 2749 3 MP stroke
1 1 -2 0 4021 2873 3 MP stroke
2 0 -1 1 4019 2999 3 MP stroke
2 1 -2 0 4019 3122 3 MP stroke
1 0 -1 1 4019 3247 3 MP stroke
2 2 -2 -1 4018 3369 3 MP stroke
1 1 -1 0 4019 3495 3 MP stroke
1 0 -1 1 4020 3619 3 MP stroke
1 0 -1 1 4020 3745 3 MP stroke
2 1 -2 0 4020 3868 3 MP stroke
2 1 -2 0 4020 3992 3 MP stroke
1 2 -2 -1 4020 4115 3 MP stroke
2 1 -2 0 4020 4240 3 MP stroke
2 2 -2 0 4018 4363 3 MP stroke
3 1 -3 0 4018 4489 3 MP stroke
2 2 -2 -1 4018 4612 3 MP stroke
3 1 -1 0 4123 389 3 MP stroke
3 1 -3 1 4124 512 3 MP stroke
3 0 -3 2 4124 636 3 MP stroke
3 0 -3 2 4124 762 3 MP stroke
3 1 -3 1 4125 885 3 MP stroke
3 1 -3 1 4124 1010 3 MP stroke
3 1 -3 1 4125 1133 3 MP stroke
4 0 -3 2 4124 1259 3 MP stroke
3 1 -3 1 4124 1382 3 MP stroke
3 1 -3 1 4125 1505 3 MP stroke
3 1 -3 0 4125 1631 3 MP stroke
2 0 -2 1 4126 1756 3 MP stroke
2 2 -2 -1 4127 1878 3 MP stroke
3 0 -3 2 4125 2007 3 MP stroke
2 0 -2 1 4126 2128 3 MP stroke
3 1 -3 1 4124 2253 3 MP stroke
2 1 -2 0 4127 2377 3 MP stroke
2 1 -2 0 4128 2500 3 MP stroke
0 1 -1 -1 4129 2624 3 MP stroke
1 1 -1 -1 4128 2749 3 MP stroke
2 0 -2 1 4127 2873 3 MP stroke
3 1 -3 1 4124 2998 3 MP stroke
3 1 -3 1 4124 3122 3 MP stroke
3 1 -3 1 4125 3245 3 MP stroke
4 3 -4 -1 4123 3368 3 MP stroke
3 1 -3 1 4125 3496 3 MP stroke
3 1 -3 1 4124 3619 3 MP stroke
2 0 -2 1 4126 3745 3 MP stroke
2 0 -2 1 4126 3868 3 MP stroke
2 1 -2 0 4126 3993 3 MP stroke
3 1 -3 1 4125 4116 3 MP stroke
3 0 -3 1 4125 4242 3 MP stroke
3 2 -3 0 4124 4363 3 MP stroke
4 1 -4 1 4124 4488 3 MP stroke
4 2 -4 0 4123 4612 3 MP stroke
3 1 -2 0 4232 389 3 MP stroke
3 0 -2 1 4233 514 3 MP stroke
3 1 -3 0 4233 637 3 MP stroke
2 0 -2 1 4233 762 3 MP stroke
3 1 -3 1 4234 885 3 MP stroke
3 0 -3 1 4233 1011 3 MP stroke
3 0 -3 1 4233 1134 3 MP stroke
2 1 -2 1 4233 1258 3 MP stroke
3 0 -3 1 4233 1382 3 MP stroke
3 0 -3 2 4233 1507 3 MP stroke
2 2 -3 0 4234 1629 3 MP stroke
3 1 -3 1 4232 1754 3 MP stroke
3 2 -3 -1 4233 1877 3 MP stroke
3 0 -3 2 4233 2005 3 MP stroke
2 1 -2 0 4233 2128 3 MP stroke
3 1 -3 1 4233 2253 3 MP stroke
3 1 -3 1 4231 2376 3 MP stroke
3 1 -3 1 4233 2501 3 MP stroke
3 2 -4 0 4232 2622 3 MP stroke
3 0 -3 2 4232 2750 3 MP stroke
4 1 -4 1 4231 2874 3 MP stroke
3 1 -3 1 4231 2998 3 MP stroke
3 1 -3 0 4232 3122 3 MP stroke
3 1 -3 1 4233 3247 3 MP stroke
3 1 -3 0 4233 3371 3 MP stroke
4 1 -4 1 4232 3496 3 MP stroke
4 1 -4 1 4232 3619 3 MP stroke
4 0 -3 2 4231 3744 3 MP stroke
3 2 -3 0 4231 3868 3 MP stroke
3 1 -3 1 4231 3993 3 MP stroke
3 1 -3 1 4231 4116 3 MP stroke
3 2 -4 0 4232 4240 3 MP stroke
3 2 -4 0 4232 4363 3 MP stroke
3 1 -3 0 4232 4489 3 MP stroke
2 0 4338 389 2 MP stroke
3 0 -3 1 4340 513 3 MP stroke
3 1 -3 1 4340 636 3 MP stroke
3 0 -3 2 4340 762 3 MP stroke
4 1 -3 1 4339 885 3 MP stroke
3 0 -3 2 4340 1010 3 MP stroke
2 1 -2 1 4340 1133 3 MP stroke
3 1 -3 1 4340 1258 3 MP stroke
3 1 -3 1 4340 1381 3 MP stroke
3 0 -3 2 4340 1507 3 MP stroke
3 1 -3 1 4339 1630 3 MP stroke
3 1 -3 1 4339 1755 3 MP stroke
3 1 -3 1 4339 1878 3 MP stroke
3 1 -3 1 4340 2005 3 MP stroke
4 1 -4 1 4340 2127 3 MP stroke
3 0 -3 2 4340 2253 3 MP stroke
3 1 -4 1 4340 2376 3 MP stroke
4 0 -3 2 4339 2502 3 MP stroke
4 1 -4 1 4339 2625 3 MP stroke
3 0 -3 2 4340 2750 3 MP stroke
3 1 -3 0 4340 2873 3 MP stroke
3 1 -3 1 4339 2998 3 MP stroke
-1 -2 2 1 4348 3127 3 MP stroke
3 1 -3 1 4338 3246 3 MP stroke
4 1 -4 1 4339 3371 3 MP stroke
4 0 -3 2 4338 3495 3 MP stroke
4 1 -4 1 4338 3619 3 MP stroke
4 1 -4 1 4338 3744 3 MP stroke
4 1 -4 1 4338 3867 3 MP stroke
4 1 -4 1 4338 3993 3 MP stroke
4 2 -4 0 4339 4116 3 MP stroke
4 1 -4 1 4338 4241 3 MP stroke
4 2 -4 0 4338 4364 3 MP stroke
3 2 -3 0 4339 4489 3 MP stroke
2 0 4446 389 2 MP stroke
2 0 -2 2 4448 513 3 MP stroke
2 1 -2 1 4448 637 3 MP stroke
2 0 -2 2 4448 762 3 MP stroke
3 1 -3 1 4449 884 3 MP stroke
3 0 -3 1 4448 1010 3 MP stroke
3 1 -3 1 4449 1133 3 MP stroke
3 0 -3 2 4448 1259 3 MP stroke
2 0 -2 1 4448 1383 3 MP stroke
3 0 -2 1 4448 1508 3 MP stroke
3 1 -3 1 4449 1631 3 MP stroke
2 1 -2 1 4448 1755 3 MP stroke
3 0 -3 1 4449 1880 3 MP stroke
3 0 -3 1 4449 2005 3 MP stroke
2 1 -2 1 4448 2128 3 MP stroke
3 0 -2 1 4448 2254 3 MP stroke
2 1 -2 1 4448 2376 3 MP stroke
3 1 -3 1 4447 2501 3 MP stroke
3 1 -3 1 4447 2625 3 MP stroke
4 1 -4 1 4447 2749 3 MP stroke
3 1 -3 1 4447 2873 3 MP stroke
3 0 -3 2 4447 2998 3 MP stroke
3 1 -3 0 4447 3122 3 MP stroke
4 0 -4 2 4447 3247 3 MP stroke
3 2 -3 0 4447 3370 3 MP stroke
4 0 -3 2 4446 3496 3 MP stroke
3 2 -3 0 4447 3619 3 MP stroke
-2 4 0 -4 4456 3737 3 MP stroke
3 1 -3 1 4447 3867 3 MP stroke
4 0 -3 2 4447 3993 3 MP stroke
3 1 -4 0 4448 4116 3 MP stroke
4 1 -4 1 4448 4241 3 MP stroke
3 2 -3 0 4447 4363 3 MP stroke
4 1 -4 1 4447 4488 3 MP stroke
3 1 -1 0 4553 389 3 MP stroke
4 0 -3 1 4555 513 3 MP stroke
3 1 -3 1 4556 637 3 MP stroke
3 1 -3 1 4555 762 3 MP stroke
3 0 -3 2 4555 885 3 MP stroke
4 0 -4 2 4555 1011 3 MP stroke
4 1 -4 1 4555 1133 3 MP stroke
4 0 -3 1 4555 1259 3 MP stroke
4 1 -4 1 4555 1381 3 MP stroke
3 1 -3 1 4555 1507 3 MP stroke
3 1 -3 1 4555 1630 3 MP stroke
4 0 -3 2 4554 1755 3 MP stroke
4 1 -4 2 4553 1879 3 MP stroke
3 0 -3 2 4555 2005 3 MP stroke
4 1 -3 1 4554 2128 3 MP stroke
4 0 -4 2 4554 2253 3 MP stroke
4 2 -4 0 4554 2376 3 MP stroke
4 1 -4 1 4554 2501 3 MP stroke
4 1 -4 1 4554 2624 3 MP stroke
4 1 -4 1 4554 2750 3 MP stroke
4 1 -4 1 4554 2873 3 MP stroke
4 1 -4 1 4554 2999 3 MP stroke
4 1 -4 1 4554 3122 3 MP stroke
4 0 -4 2 4554 3247 3 MP stroke
4 2 -4 0 4553 3370 3 MP stroke
4 1 -4 1 4554 3496 3 MP stroke
4 1 -4 1 4554 3618 3 MP stroke
4 1 -4 2 4553 3744 3 MP stroke
3 1 -3 1 4553 3868 3 MP stroke
4 1 -4 1 4554 3992 3 MP stroke
4 1 -4 1 4554 4116 3 MP stroke
4 1 -4 1 4554 4240 3 MP stroke
3 3 -4 0 4554 4362 3 MP stroke
3 1 -4 1 4554 4489 3 MP stroke
1 0 4663 389 2 MP stroke
3 0 -3 1 4664 514 3 MP stroke
3 1 -3 1 4663 636 3 MP stroke
2 0 -2 1 4664 762 3 MP stroke
3 1 -3 0 4664 885 3 MP stroke
3 0 -2 1 4663 1010 3 MP stroke
3 1 -3 1 4663 1134 3 MP stroke
3 0 -3 1 4664 1259 3 MP stroke
2 1 -3 0 4664 1382 3 MP stroke
3 1 -3 1 4664 1507 3 MP stroke
3 1 -3 1 4663 1631 3 MP stroke
4 0 -4 1 4663 1756 3 MP stroke
3 1 -3 0 4663 1879 3 MP stroke
2 0 -2 1 4664 2005 3 MP stroke
3 1 -3 1 4664 2127 3 MP stroke
3 1 -3 1 4664 2253 3 MP stroke
3 1 -3 0 4664 2377 3 MP stroke
2 0 -2 1 4664 2502 3 MP stroke
3 1 -3 0 4664 2625 3 MP stroke
4 0 -3 2 4662 2751 3 MP stroke
3 1 -3 1 4662 2872 3 MP stroke
3 0 -3 2 4662 2999 3 MP stroke
3 1 -3 1 4663 3122 3 MP stroke
3 0 -3 2 4662 3247 3 MP stroke
4 1 -4 1 4663 3370 3 MP stroke
3 1 -3 1 4662 3494 3 MP stroke
3 1 -3 0 4664 3617 3 MP stroke
2 1 -2 0 4664 3743 3 MP stroke
2 1 -3 0 4665 3866 3 MP stroke
3 1 -3 1 4664 3991 3 MP stroke
2 2 -3 -1 4665 4115 3 MP stroke
2 0 -2 1 4666 4240 3 MP stroke
2 1 -2 0 4666 4364 3 MP stroke
2 2 -3 0 4665 4488 3 MP stroke
1 0 4769 389 2 MP stroke
4 1 -3 1 4769 513 3 MP stroke
4 1 -4 1 4770 636 3 MP stroke
4 0 -4 2 4770 762 3 MP stroke
4 1 -4 1 4769 884 3 MP stroke
4 1 -3 2 4769 1009 3 MP stroke
4 1 -4 1 4768 1133 3 MP stroke
4 1 -4 1 4768 1258 3 MP stroke
4 1 -4 1 4770 1382 3 MP stroke
3 2 -4 0 4769 1505 3 MP stroke
3 1 -3 1 4771 1630 3 MP stroke
3 1 -3 1 4771 1756 3 MP stroke
3 1 -3 1 4771 1879 3 MP stroke
3 0 -2 1 4771 2005 3 MP stroke
3 1 -3 0 4771 2128 3 MP stroke
3 1 -3 1 4771 2253 3 MP stroke
3 2 -3 0 4771 2374 3 MP stroke
3 1 -3 1 4771 2501 3 MP stroke
3 1 -3 0 4771 2625 3 MP stroke
4 1 -4 1 4770 2750 3 MP stroke
3 1 -3 1 4771 2873 3 MP stroke
3 0 -3 1 4771 2999 3 MP stroke
2 1 -2 1 4773 3122 3 MP stroke
3 0 -3 2 4771 3247 3 MP stroke
3 1 -3 1 4771 3370 3 MP stroke
3 1 -3 1 4771 3496 3 MP stroke
3 2 -3 0 4771 3618 3 MP stroke
2 1 -2 0 4773 3743 3 MP stroke
2 1 -2 0 4773 3866 3 MP stroke
2 1 -2 0 4773 3992 3 MP stroke
2 2 -3 0 4773 4114 3 MP stroke
2 1 -2 0 4773 4240 3 MP stroke
2 2 -2 -1 4773 4363 3 MP stroke
3 2 -3 0 4771 4489 3 MP stroke
3 2 -4 0 4771 4612 3 MP stroke
4879 389 PD
3 0 -2 1 4879 514 3 MP stroke
3 1 -3 0 4880 637 3 MP stroke
2 0 -2 1 4879 762 3 MP stroke
2 2 -3 -1 4880 882 3 MP stroke
2 6 -4 -5 4881 999 3 MP stroke
1 8 -4 -6 4881 1119 3 MP stroke
4 4 -5 -1 4876 1251 3 MP stroke
5 -4 -3 6 4876 1393 3 MP stroke
4 0 -3 2 4877 1509 3 MP stroke
2 1 -2 0 4882 1630 3 MP stroke
1 0 -2 1 4882 1754 3 MP stroke
0 4 -2 -3 4883 1872 3 MP stroke
2 0 -1 1 4881 2005 3 MP stroke
2 0 -2 1 4882 2128 3 MP stroke
2 1 -2 0 4882 2253 3 MP stroke
1 1 -1 -1 4882 2376 3 MP stroke
1 0 -1 1 4881 2502 3 MP stroke
2 0 -2 1 4882 2625 3 MP stroke
3 0 -3 1 4880 2750 3 MP stroke
2 1 -2 0 4882 2874 3 MP stroke
2 0 -2 1 4882 2999 3 MP stroke
2 1 -2 0 4882 3122 3 MP stroke
1 0 -1 1 4882 3247 3 MP stroke
1 1 -1 0 4882 3370 3 MP stroke
1 0 -1 1 4882 3496 3 MP stroke
1 0 -1 0 4882 3619 3 MP stroke
2 1 -2 0 4882 3743 3 MP stroke
1 1 -1 -1 4882 3867 3 MP stroke
1 1 -1 0 4882 3992 3 MP stroke
1 1 -2 0 4882 4115 3 MP stroke
2 1 -2 0 4882 4241 3 MP stroke
1 1 -2 0 4882 4364 3 MP stroke
2 1 -2 0 4881 4488 3 MP stroke
2 2 -2 0 4880 4612 3 MP stroke
1 0 4985 389 2 MP stroke
3 1 -3 1 4987 513 3 MP stroke
3 1 -3 0 4986 636 3 MP stroke
2 1 -2 0 4987 760 3 MP stroke
1 5 -3 -4 4990 876 3 MP stroke
0 7 -3 -6 4990 997 3 MP stroke
1 7 -4 -5 4988 1121 3 MP stroke
0 10 -5 -9 4989 1238 3 MP stroke
3 1 -3 1 4986 1382 3 MP stroke
2 1 -2 0 4988 1506 3 MP stroke
2 2 -3 0 4989 1628 3 MP stroke
2 1 -2 0 4989 1754 3 MP stroke
1 3 -2 -2 4989 1875 3 MP stroke
2 0 -2 1 4989 2003 3 MP stroke
1 1 -2 0 4991 2126 3 MP stroke
1 0 4990 2254 2 MP stroke
1 1 -1 0 4991 2376 3 MP stroke
1 0 -1 1 4990 2502 3 MP stroke
1 1 -1 0 4990 2624 3 MP stroke
1 1 -1 0 4990 2749 3 MP stroke
1 1 -1 0 4990 2873 3 MP stroke
2 0 -2 1 4990 2999 3 MP stroke
1 1 -1 0 4990 3122 3 MP stroke
1 0 -1 1 4990 3248 3 MP stroke
1 1 -1 0 4989 3371 3 MP stroke
2 1 -2 1 4989 3495 3 MP stroke
2 1 -3 0 4989 3618 3 MP stroke
2 1 -3 0 4989 3743 3 MP stroke
2 2 -2 -1 4989 3867 3 MP stroke
2 1 -2 0 4989 3992 3 MP stroke
2 2 -2 0 4988 4114 3 MP stroke
2 1 -2 0 4988 4241 3 MP stroke
2 1 -2 0 4988 4364 3 MP stroke
2 1 -2 0 4988 4489 3 MP stroke
2 1 -2 0 4988 4613 3 MP stroke
3 0 5093 389 2 MP stroke
2 0 -2 1 5095 513 3 MP stroke
1 1 -2 0 5097 634 3 MP stroke
1 2 -1 -1 5097 760 3 MP stroke
1 2 -2 -1 5098 883 3 MP stroke
1 0 -1 1 5099 1010 3 MP stroke
1 1 -1 0 5099 1133 3 MP stroke
1 0 5098 1259 2 MP stroke
5099 1382 PD
0 1 5099 1508 2 MP stroke
-1 0 5100 1631 2 MP stroke
5099 1757 PD
0 2 -1 -1 5100 1877 3 MP stroke
0 -1 0 0 5099 2004 3 MP stroke
0 1 -1 -1 5100 2127 3 MP stroke
1 1 -1 -1 5099 2252 3 MP stroke
1 0 -1 0 5099 2376 3 MP stroke
0 1 5099 2502 2 MP stroke
1 1 -1 -1 5099 2625 3 MP stroke
5099 2750 PD
0 -1 0 0 5099 2873 3 MP stroke
1 0 -1 0 5099 2999 3 MP stroke
0 1 5099 3122 2 MP stroke
1 -1 -1 1 5099 3248 3 MP stroke
1 1 -1 0 5097 3370 3 MP stroke
1 0 -1 1 5098 3495 3 MP stroke
1 1 -1 0 5097 3619 3 MP stroke
2 1 -2 0 5098 3743 3 MP stroke
1 1 -2 -1 5098 3867 3 MP stroke
1 0 -1 0 5097 3992 3 MP stroke
1 1 -2 -1 5098 4116 3 MP stroke
2 1 -2 0 5097 4240 3 MP stroke
1 2 -1 -1 5097 4364 3 MP stroke
2 1 -2 0 5097 4489 3 MP stroke
1 2 -1 -1 5097 4612 3 MP stroke
1 2 -2 -1 5204 508 3 MP stroke
0 3 -1 -2 5206 632 3 MP stroke
1 1 -2 -1 5206 759 3 MP stroke
1 1 -1 0 5206 885 3 MP stroke
1 1 -1 0 5206 1010 3 MP stroke
1 0 -1 0 5206 1134 3 MP stroke
2 1 -1 0 5205 1259 3 MP stroke
1 0 -1 0 5206 1383 3 MP stroke
1 0 -1 0 5206 1508 3 MP stroke
2 1 -2 0 5206 1631 3 MP stroke
0 1 5206 1756 2 MP stroke
1 1 -1 0 5206 1878 3 MP stroke
1 1 -1 0 5205 2003 3 MP stroke
1 1 -1 0 5206 2127 3 MP stroke
1 0 -1 0 5205 2253 3 MP stroke
1 0 -2 0 5206 2376 3 MP stroke
1 1 -1 0 5205 2501 3 MP stroke
1 1 -1 0 5206 2625 3 MP stroke
1 1 -2 -1 5206 2749 3 MP stroke
1 1 -1 0 5206 2873 3 MP stroke
1 1 -1 0 5206 2997 3 MP stroke
1 0 -1 1 5205 3122 3 MP stroke
2 1 -2 0 5205 3247 3 MP stroke
2 1 -2 0 5204 3370 3 MP stroke
2 0 -2 1 5204 3495 3 MP stroke
1 1 -2 0 5205 3618 3 MP stroke
2 1 -2 0 5205 3743 3 MP stroke
1 1 -2 0 5205 3867 3 MP stroke
2 1 -3 1 5204 3991 3 MP stroke
2 1 -2 0 5204 4115 3 MP stroke
2 1 -2 1 5204 4240 3 MP stroke
2 2 -2 -1 5204 4363 3 MP stroke
2 2 -2 0 5204 4488 3 MP stroke
2 1 -2 0 5203 4612 3 MP stroke
0 3 -1 -3 5315 507 3 MP stroke
0 3 -1 -2 5315 631 3 MP stroke
0 1 5314 762 2 MP stroke
1 0 -1 0 5315 885 3 MP stroke
1 0 -1 1 5315 1010 3 MP stroke
1 1 -1 0 5314 1134 3 MP stroke
1 0 -1 0 5314 1260 3 MP stroke
1 0 -1 1 5314 1382 3 MP stroke
1 0 -1 1 5315 1507 3 MP stroke
1 0 -1 1 5315 1631 3 MP stroke
1 1 -1 0 5315 1754 3 MP stroke
0 -1 0 0 5315 1878 3 MP stroke
5314 2004 PD
1 1 -1 0 5314 2127 3 MP stroke
1 -1 -1 1 5315 2253 3 MP stroke
0 1 5314 2376 2 MP stroke
1 0 -1 1 5314 2502 3 MP stroke
0 -1 0 0 5315 2625 3 MP stroke
0 1 5314 2749 2 MP stroke
1 1 -1 -1 5314 2873 3 MP stroke
1 0 -1 0 5315 2999 3 MP stroke
1 0 -1 0 5314 3122 3 MP stroke
1 0 -1 1 5314 3247 3 MP stroke
1 1 -1 -1 5313 3370 3 MP stroke
1 1 -1 0 5313 3495 3 MP stroke
1 2 -2 -1 5313 3618 3 MP stroke
1 1 -2 0 5313 3744 3 MP stroke
1 1 -1 -1 5313 3867 3 MP stroke
2 1 -2 0 5312 3992 3 MP stroke
1 2 -1 -1 5313 4115 3 MP stroke
2 1 -2 0 5312 4240 3 MP stroke
1 1 -1 -1 5313 4364 3 MP stroke
1 1 -2 0 5313 4489 3 MP stroke
2 2 -2 -1 5312 4613 3 MP stroke
1 1 -1 0 5421 885 3 MP stroke
1 0 -1 1 5421 1011 3 MP stroke
1 1 -1 0 5421 1133 3 MP stroke
1 0 -1 1 5421 1259 3 MP stroke
1 1 -2 -1 5422 1382 3 MP stroke
1 0 -1 1 5421 1508 3 MP stroke
1 0 -1 1 5421 1631 3 MP stroke
1 1 -1 0 5421 1755 3 MP stroke
1 0 -1 1 5421 1879 3 MP stroke
1 0 -1 1 5421 2004 3 MP stroke
1 1 -1 0 5422 2127 3 MP stroke
1 0 -1 0 5422 2254 3 MP stroke
1 1 -1 0 5422 2376 3 MP stroke
1 0 -1 1 5421 2502 3 MP stroke
2 1 -2 0 5421 2625 3 MP stroke
1 0 -1 0 5422 2750 3 MP stroke
1 0 -1 0 5421 2874 3 MP stroke
1 1 -1 0 5421 2998 3 MP stroke
2 1 -2 0 5421 3122 3 MP stroke
2 0 -2 1 5420 3247 3 MP stroke
2 1 -2 0 5419 3370 3 MP stroke
1 1 -1 0 5420 3496 3 MP stroke
2 1 -3 0 5420 3618 3 MP stroke
2 1 -2 0 5420 3743 3 MP stroke
2 1 -2 0 5420 3868 3 MP stroke
2 1 -2 0 5420 3992 3 MP stroke
2 2 -2 0 5419 4115 3 MP stroke
3 1 -3 0 5419 4240 3 MP stroke
3 2 -3 0 5419 4363 3 MP stroke
3 1 -3 0 5419 4489 3 MP stroke
2 1 -2 0 5419 4613 3 MP stroke
1 0 -1 0 5530 1009 3 MP stroke
5530 1133 PD
0 1 5530 1259 2 MP stroke
5530 1383 PD
1 0 -1 1 5530 1508 3 MP stroke
1 0 -1 0 5530 1632 3 MP stroke
1 1 -1 0 5530 1755 3 MP stroke
-1 1 5530 1879 2 MP stroke
-1 0 5530 2006 2 MP stroke
-1 0 5530 2128 2 MP stroke
5530 2253 PD
5530 2377 PD
1 1 -1 -1 5530 2501 3 MP stroke
1 1 -1 -1 5531 2626 3 MP stroke
1 0 -1 0 5530 2750 3 MP stroke
-1 1 5530 2873 2 MP stroke
1 0 -1 1 5530 2998 3 MP stroke
1 0 -1 0 5530 3123 3 MP stroke
1 0 -1 1 5529 3247 3 MP stroke
1 1 -1 0 5528 3371 3 MP stroke
1 1 -1 0 5528 3495 3 MP stroke
1 1 -2 -1 5529 3619 3 MP stroke
1 1 -1 0 5529 3743 3 MP stroke
2 1 -2 0 5528 3867 3 MP stroke
1 1 -1 0 5528 3992 3 MP stroke
1 2 -1 -1 5528 4115 3 MP stroke
2 1 -2 0 5528 4241 3 MP stroke
2 1 -2 0 5528 4364 3 MP stroke
2 1 -2 0 5528 4490 3 MP stroke
2 1 -2 0 5528 4612 3 MP stroke
1 -1 -1 1 5637 1011 3 MP stroke
1 0 -1 0 5637 1134 3 MP stroke
1 0 -1 1 5637 1259 3 MP stroke
1 0 -1 0 5637 1382 3 MP stroke
0 -1 0 1 5639 1509 3 MP stroke
2 1 -2 0 5637 1631 3 MP stroke
2 1 -2 0 5637 1755 3 MP stroke
1 1 -1 0 5637 1879 3 MP stroke
2 0 -1 1 5636 2004 3 MP stroke
1 0 -1 1 5636 2128 3 MP stroke
1 0 -1 1 5636 2253 3 MP stroke
2 1 -2 0 5637 2376 3 MP stroke
1 1 -1 0 5637 2501 3 MP stroke
1 1 -1 0 5636 2624 3 MP stroke
1 0 -1 0 5637 2751 3 MP stroke
1 1 -1 0 5636 2873 3 MP stroke
1 0 -1 0 5637 2999 3 MP stroke
1 0 -1 0 5636 3123 3 MP stroke
2 0 -2 1 5636 3247 3 MP stroke
1 1 -2 0 5636 3370 3 MP stroke
2 1 -2 0 5635 3495 3 MP stroke
1 2 -2 0 5635 3617 3 MP stroke
2 0 -2 1 5635 3743 3 MP stroke
2 1 -2 0 5635 3868 3 MP stroke
2 1 -2 0 5634 3992 3 MP stroke
2 2 -3 -1 5635 4115 3 MP stroke
2 1 -2 0 5635 4240 3 MP stroke
2 2 -2 0 5634 4363 3 MP stroke
2 2 -2 0 5634 4488 3 MP stroke
2 1 -2 0 5634 4612 3 MP stroke
1 0 -1 0 5743 389 3 MP stroke
2 0 -2 1 5744 513 3 MP stroke
1 1 -1 0 5744 637 3 MP stroke
1 0 -1 1 5746 1010 3 MP stroke
0 1 -1 -1 5746 1134 3 MP stroke
1 0 -1 0 5746 1259 3 MP stroke
5745 1382 PD
-2 -2 2 0 5751 1510 3 MP stroke
5746 1631 PD
1 0 -1 0 5746 1757 3 MP stroke
0 -1 0 0 5745 1879 3 MP stroke
1 1 -1 0 5745 2003 3 MP stroke
1 1 -1 -1 5745 2127 3 MP stroke
0 1 5745 2253 2 MP stroke
0 1 5745 2376 2 MP stroke
0 1 5745 2502 2 MP stroke
0 1 -1 -1 5746 2625 3 MP stroke
1 0 -1 1 5746 2750 3 MP stroke
0 -1 0 0 5745 2874 3 MP stroke
1 -1 -1 1 5746 2999 3 MP stroke
1 0 -1 1 5744 3122 3 MP stroke
2 0 -2 1 5744 3247 3 MP stroke
1 1 -1 -1 5744 3370 3 MP stroke
1 1 -1 0 5744 3495 3 MP stroke
1 2 -2 -1 5744 3618 3 MP stroke
1 1 -1 0 5743 3743 3 MP stroke
1 2 -1 -1 5743 3866 3 MP stroke
1 0 -1 1 5743 3992 3 MP stroke
1 1 -1 -1 5744 4116 3 MP stroke
2 1 -2 0 5744 4240 3 MP stroke
2 2 -2 -1 5743 4364 3 MP stroke
2 1 -2 -1 5744 4489 3 MP stroke
2 1 -2 0 5743 4612 3 MP stroke
2 1 -2 0 5850 389 3 MP stroke
2 0 -2 1 5850 513 3 MP stroke
2 1 -3 1 5850 636 3 MP stroke
1 1 -1 0 5852 1010 3 MP stroke
1 1 -1 0 5852 1133 3 MP stroke
2 0 -2 1 5852 1259 3 MP stroke
1 1 -1 -1 5852 1382 3 MP stroke
1 -1 -1 1 5852 1508 3 MP stroke
2 1 -2 0 5852 1630 3 MP stroke
1 1 -1 0 5852 1755 3 MP stroke
1 1 -1 0 5852 1879 3 MP stroke
1 0 -1 0 5852 2005 3 MP stroke
1 1 -1 0 5852 2128 3 MP stroke
1 0 -1 1 5852 2253 3 MP stroke
2 1 -2 0 5852 2376 3 MP stroke
1 0 -1 0 5852 2502 3 MP stroke
0 1 -1 -1 5853 2624 3 MP stroke
1 1 -1 0 5852 2750 3 MP stroke
1 1 -1 0 5852 2874 3 MP stroke
1 0 -1 0 5852 2999 3 MP stroke
2 1 -2 0 5850 3122 3 MP stroke
2 0 -2 1 5851 3247 3 MP stroke
2 2 -3 -1 5851 3370 3 MP stroke
1 1 -1 0 5850 3495 3 MP stroke
2 1 -2 0 5850 3619 3 MP stroke
2 1 -2 1 5850 3743 3 MP stroke
2 2 -2 -1 5851 3867 3 MP stroke
2 0 -2 1 5851 3992 3 MP stroke
1 2 -2 -1 5851 4115 3 MP stroke
2 1 -2 0 5850 4240 3 MP stroke
2 2 -2 -1 5850 4364 3 MP stroke
2 1 -2 0 5850 4490 3 MP stroke
2 2 -2 0 5850 4611 3 MP stroke
1 0 -1 1 5958 513 3 MP stroke
2 0 -2 1 5959 636 3 MP stroke
0 1 5961 1010 2 MP stroke
5961 1133 PD
5960 1259 PD
1 1 -1 -1 5960 1382 3 MP stroke
1 0 -1 0 5961 1507 3 MP stroke
1 1 -1 0 5961 1631 3 MP stroke
1 0 -1 0 5961 1757 3 MP stroke
1 0 -1 0 5961 1879 3 MP stroke
1 -1 -1 1 5961 2005 3 MP stroke
1 0 -1 1 5961 2128 3 MP stroke
1 0 -1 1 5961 2253 3 MP stroke
5961 2377 PD
1 0 -1 1 5960 2502 3 MP stroke
0 1 5961 2624 2 MP stroke
-1 1 5961 2749 2 MP stroke
1 1 -1 -1 5961 2874 3 MP stroke
1 1 -1 0 5961 2998 3 MP stroke
1 1 -1 0 5960 3122 3 MP stroke
1 0 -1 1 5959 3246 3 MP stroke
2 1 -2 0 5960 3370 3 MP stroke
2 1 -2 0 5959 3495 3 MP stroke
1 1 -1 0 5959 3618 3 MP stroke
2 0 -2 0 5959 3744 3 MP stroke
1 1 -2 0 5959 3867 3 MP stroke
1 1 -1 0 5959 3992 3 MP stroke
1 1 -2 -1 5960 4115 3 MP stroke
2 1 -2 0 5958 4241 3 MP stroke
1 1 -2 0 5959 4363 3 MP stroke
2 0 -2 1 5957 4489 3 MP stroke
3 0 -2 1 6065 513 3 MP stroke
2 2 -3 -1 6066 634 3 MP stroke
0 1 -1 -1 6070 884 3 MP stroke
1 0 -1 0 6068 1009 3 MP stroke
1 2 -1 -1 6068 1132 3 MP stroke
1 0 -1 0 6067 1258 3 MP stroke
1 1 -1 0 6067 1382 3 MP stroke
1 1 -1 0 6067 1506 3 MP stroke
1 1 -1 0 6067 1631 3 MP stroke
2 0 -1 0 6067 1757 3 MP stroke
1 0 -1 1 6068 1879 3 MP stroke
1 0 -1 1 6067 2005 3 MP stroke
1 1 -1 0 6067 2128 3 MP stroke
1 -1 -1 1 6068 2254 3 MP stroke
1 1 -1 0 6068 2376 3 MP stroke
1 1 -1 0 6068 2501 3 MP stroke
1 1 -1 0 6068 2624 3 MP stroke
1 1 -1 0 6068 2749 3 MP stroke
1 1 -1 0 6067 2873 3 MP stroke
1 1 -2 0 6068 2997 3 MP stroke
2 0 -2 1 6066 3122 3 MP stroke
2 0 -2 1 6066 3246 3 MP stroke
1 2 -2 0 6066 3369 3 MP stroke
2 1 -2 0 6066 3495 3 MP stroke
2 1 -2 0 6066 3619 3 MP stroke
2 1 -2 0 6066 3743 3 MP stroke
2 1 -2 0 6066 3866 3 MP stroke
2 1 -2 0 6066 3992 3 MP stroke
2 1 -2 0 6065 4115 3 MP stroke
2 1 -2 0 6066 4241 3 MP stroke
2 1 -3 0 6066 4363 3 MP stroke
4 1 -4 1 6062 4488 3 MP stroke
1 0 6178 389 2 MP stroke
0 -1 6178 884 2 MP stroke
6176 1009 PD
0 1 -1 -1 6177 1132 3 MP stroke
1 0 -1 0 6176 1258 3 MP stroke
1 0 -1 0 6176 1382 3 MP stroke
1 1 -1 0 6177 1506 3 MP stroke
1 0 -1 0 6176 1631 3 MP stroke
1 0 -1 0 6177 1757 3 MP stroke
0 1 6176 1879 2 MP stroke
1 0 -1 1 6177 2005 3 MP stroke
1 0 -1 1 6176 2128 3 MP stroke
1 1 -1 0 6176 2252 3 MP stroke
1 1 -1 -1 6177 2377 3 MP stroke
1 0 -1 0 6177 2501 3 MP stroke
0 2 -1 -1 6177 2623 3 MP stroke
1 1 -1 0 6176 2749 3 MP stroke
1 0 -1 0 6176 2874 3 MP stroke
-1 0 6177 2998 2 MP stroke
2 0 -2 0 6175 3123 3 MP stroke
1 1 -1 0 6175 3247 3 MP stroke
1 1 -1 -1 6175 3370 3 MP stroke
1 1 -1 0 6175 3495 3 MP stroke
2 1 -2 0 6175 3618 3 MP stroke
1 1 -2 0 6175 3743 3 MP stroke
1 1 -1 -1 6175 3867 3 MP stroke
2 1 -2 0 6174 3992 3 MP stroke
2 2 -2 -1 6174 4115 3 MP stroke
1 1 -1 0 6174 4241 3 MP stroke
2 1 -2 0 6174 4364 3 MP stroke
3 2 -3 0 6171 4488 3 MP stroke
899 886 PD
1006 389 PD
-5 0 1006 513 2 MP stroke
-5 0 1006 637 2 MP stroke
-5 -1 1006 761 2 MP stroke
-5 -1 1006 886 2 MP stroke
-4 -1 1006 1010 2 MP stroke
-5 0 1006 1134 2 MP stroke
-4 -1 1006 1259 2 MP stroke
-5 -2 1006 1383 2 MP stroke
-4 -1 1006 1507 2 MP stroke
-5 -3 1006 1631 2 MP stroke
-2 -1 1006 2253 2 MP stroke
-1 -3 1006 2377 2 MP stroke
-2 -1 1006 2502 2 MP stroke
-1 -2 1006 2626 2 MP stroke
-1 -1 1006 2750 2 MP stroke
-2 -3 1006 2874 2 MP stroke
-1 -2 1006 2999 2 MP stroke
-1 -3 1006 3123 2 MP stroke
-2 -1 1006 3247 2 MP stroke
-2 -3 1006 3372 2 MP stroke
-1 -1 1006 3496 2 MP stroke
-2 -3 1006 3620 2 MP stroke
-2 0 1006 3744 2 MP stroke
-4 -3 1006 3869 2 MP stroke
-4 0 1006 3993 2 MP stroke
-4 -1 1006 4117 2 MP stroke
-5 -1 1006 4242 2 MP stroke
-4 -1 1006 4366 2 MP stroke
-4 0 1006 4490 2 MP stroke
1114 389 PD
-6 1 1114 513 2 MP stroke
-6 -1 1114 637 2 MP stroke
-6 2 1114 761 2 MP stroke
-6 -1 1114 886 2 MP stroke
-6 -2 1114 1010 2 MP stroke
-6 0 1114 1134 2 MP stroke
-6 -1 1114 1259 2 MP stroke
-7 -3 1114 1383 2 MP stroke
-6 -1 1114 1507 2 MP stroke
-6 -2 1114 1631 2 MP stroke
-4 -1 1114 2253 2 MP stroke
-4 -3 1114 2377 2 MP stroke
-4 -1 1114 2502 2 MP stroke
-3 -2 1114 2626 2 MP stroke
-3 -1 1114 2750 2 MP stroke
-3 -1 1114 2874 2 MP stroke
-3 0 1114 2999 2 MP stroke
-4 -2 1114 3123 2 MP stroke
-4 -1 1114 3247 2 MP stroke
-4 -4 1114 3372 2 MP stroke
-4 -2 1114 3496 2 MP stroke
-4 -3 1114 3620 2 MP stroke
-4 -1 1114 3744 2 MP stroke
-5 -3 1114 3869 2 MP stroke
-5 -1 1114 3993 2 MP stroke
-6 -3 1114 4117 2 MP stroke
-6 -2 1114 4242 2 MP stroke
-7 -2 1114 4366 2 MP stroke
-6 -1 1114 4490 2 MP stroke
1222 389 PD
-4 1 1222 513 2 MP stroke
-5 -1 1222 637 2 MP stroke
-5 1 1222 761 2 MP stroke
-5 -1 1222 886 2 MP stroke
-5 1 1222 1010 2 MP stroke
-5 0 1222 1134 2 MP stroke
-5 -2 1222 1259 2 MP stroke
-5 -3 1222 1383 2 MP stroke
-5 -1 1222 1507 2 MP stroke
-5 -2 1222 1631 2 MP stroke
-2 -4 1222 2377 2 MP stroke
-2 -1 1222 2502 2 MP stroke
-1 -4 1222 2626 2 MP stroke
-2 -1 1222 2750 2 MP stroke
-2 -2 1222 2874 2 MP stroke
-2 -1 1222 2999 2 MP stroke
-3 -2 1222 3123 2 MP stroke
-3 -2 1222 3247 2 MP stroke
-2 -2 1222 3372 2 MP stroke
-2 -1 1222 3496 2 MP stroke
-3 -2 1222 3620 2 MP stroke
-2 -1 1222 3744 2 MP stroke
-3 -3 1222 3869 2 MP stroke
-5 -2 1222 3993 2 MP stroke
-5 -2 1222 4117 2 MP stroke
-5 -2 1222 4242 2 MP stroke
-5 -3 1222 4366 2 MP stroke
-4 0 1222 4490 2 MP stroke
-5 -2 1222 4615 2 MP stroke
1329 389 PD
-6 1 1329 513 2 MP stroke
-5 -2 1329 637 2 MP stroke
-5 1 1329 761 2 MP stroke
-6 0 1329 886 2 MP stroke
-5 1 1329 1010 2 MP stroke
-6 -1 1329 1134 2 MP stroke
-6 1 1329 1259 2 MP stroke
-5 -2 1329 1383 2 MP stroke
-2 -1 1329 1507 2 MP stroke
-3 -3 1329 2377 2 MP stroke
-3 -2 1329 2502 2 MP stroke
-3 -4 1329 2626 2 MP stroke
-2 -2 1329 2750 2 MP stroke
-3 -1 1329 2874 2 MP stroke
-2 0 1329 2999 2 MP stroke
-3 -1 1329 3123 2 MP stroke
-2 -1 1329 3247 2 MP stroke
-3 -3 1329 3372 2 MP stroke
-3 -1 1329 3496 2 MP stroke
-4 -2 1329 3620 2 MP stroke
-3 0 1329 3744 2 MP stroke
-3 -2 1329 3869 2 MP stroke
-6 -1 1329 3993 2 MP stroke
-5 -2 1329 4117 2 MP stroke
-5 -1 1329 4242 2 MP stroke
-5 -2 1329 4366 2 MP stroke
-5 0 1329 4490 2 MP stroke
-6 -3 1329 4615 2 MP stroke
1437 389 PD
-4 0 1437 513 2 MP stroke
-5 -1 1437 637 2 MP stroke
-5 1 1437 761 2 MP stroke
-4 -2 1437 886 2 MP stroke
-5 1 1437 1010 2 MP stroke
-5 0 1437 1134 2 MP stroke
-5 0 1437 1259 2 MP stroke
-4 -2 1437 1383 2 MP stroke
-4 0 1437 1507 2 MP stroke
-1 -2 1437 2377 2 MP stroke
-2 -1 1437 2502 2 MP stroke
-2 -2 1437 2626 2 MP stroke
-1 -1 1437 2750 2 MP stroke
-1 -1 1437 2874 2 MP stroke
-1 -2 1437 2999 2 MP stroke
-1 -2 1437 3123 2 MP stroke
-2 -1 1437 3247 2 MP stroke
-1 -3 1437 3372 2 MP stroke
-1 -1 1437 3496 2 MP stroke
-1 -1 1437 3620 2 MP stroke
-2 0 1437 3744 2 MP stroke
-2 -4 1437 3869 2 MP stroke
-4 -1 1437 3993 2 MP stroke
-4 -3 1437 4117 2 MP stroke
-3 -2 1437 4242 2 MP stroke
-4 -3 1437 4366 2 MP stroke
-4 -1 1437 4490 2 MP stroke
-4 -3 1437 4615 2 MP stroke
1545 389 PD
-6 2 1545 513 2 MP stroke
-7 0 1545 637 2 MP stroke
-7 2 1545 761 2 MP stroke
-6 -2 1545 886 2 MP stroke
-6 2 1545 1010 2 MP stroke
-7 -1 1545 1134 2 MP stroke
-6 0 1545 1259 2 MP stroke
-6 -3 1545 1383 2 MP stroke
-6 -2 1545 1507 2 MP stroke
-4 -2 1545 2377 2 MP stroke
-4 0 1545 2502 2 MP stroke
-3 -1 1545 2626 2 MP stroke
-4 -2 1545 2750 2 MP stroke
-4 0 1545 2999 2 MP stroke
-4 -2 1545 3123 2 MP stroke
-4 0 1545 3247 2 MP stroke
-3 -4 1545 3372 2 MP stroke
-3 -1 1545 3496 2 MP stroke
-4 -1 1545 3620 2 MP stroke
-4 -1 1545 3744 2 MP stroke
-4 -3 1545 3869 2 MP stroke
-6 0 1545 3993 2 MP stroke
-6 -3 1545 4117 2 MP stroke
-6 -2 1545 4242 2 MP stroke
-5 -2 1545 4366 2 MP stroke
-6 0 1545 4490 2 MP stroke
-5 -3 1545 4615 2 MP stroke
-5 0 1653 389 2 MP stroke
-5 1 1653 513 2 MP stroke
-5 0 1653 637 2 MP stroke
-4 1 1653 761 2 MP stroke
-5 0 1653 886 2 MP stroke
-4 2 1653 1010 2 MP stroke
-5 -1 1653 1134 2 MP stroke
-5 1 1653 1259 2 MP stroke
-5 -3 1653 1383 2 MP stroke
-5 0 1653 1507 2 MP stroke
-2 -2 1653 1631 2 MP stroke
-2 0 1653 2502 2 MP stroke
-1 -1 1653 2626 2 MP stroke
-2 1 1653 2750 2 MP stroke
-2 -2 1653 2874 2 MP stroke
-2 -2 1653 2999 2 MP stroke
-3 -2 1653 3123 2 MP stroke
-2 0 1653 3247 2 MP stroke
-2 -4 1653 3372 2 MP stroke
-3 -2 1653 3496 2 MP stroke
-3 -3 1653 3620 2 MP stroke
-3 -1 1653 3744 2 MP stroke
-5 -3 1653 3869 2 MP stroke
-5 -1 1653 3993 2 MP stroke
-4 -2 1653 4117 2 MP stroke
-5 -2 1653 4242 2 MP stroke
-4 -3 1653 4366 2 MP stroke
-4 -1 1653 4490 2 MP stroke
1760 389 PD
-5 1 1760 513 2 MP stroke
-5 -1 1760 637 2 MP stroke
-6 2 1760 761 2 MP stroke
-6 0 1760 886 2 MP stroke
-6 2 1760 1010 2 MP stroke
-6 0 1760 1134 2 MP stroke
-6 0 1760 1259 2 MP stroke
-6 -1 1760 1383 2 MP stroke
-6 0 1760 1507 2 MP stroke
-2 -2 1760 1631 2 MP stroke
-2 1 1760 2502 2 MP stroke
-2 -1 1760 2626 2 MP stroke
-3 1 1760 2750 2 MP stroke
-2 -3 1760 2874 2 MP stroke
-3 -2 1760 2999 2 MP stroke
-4 -2 1760 3123 2 MP stroke
-4 -1 1760 3247 2 MP stroke
-4 -4 1760 3372 2 MP stroke
-3 -1 1760 3496 2 MP stroke
-3 -2 1760 3620 2 MP stroke
-4 -1 1760 3744 2 MP stroke
-5 -3 1760 3869 2 MP stroke
-5 -2 1760 3993 2 MP stroke
-6 -3 1760 4117 2 MP stroke
-5 -2 1760 4242 2 MP stroke
-5 -3 1760 4366 2 MP stroke
-6 -1 1760 4490 2 MP stroke
-5 -2 1760 4615 2 MP stroke
1868 389 PD
-3 1 1868 513 2 MP stroke
-4 0 1868 637 2 MP stroke
-5 2 1868 761 2 MP stroke
-4 -1 1868 886 2 MP stroke
-5 1 1868 1010 2 MP stroke
-5 0 1868 1134 2 MP stroke
-5 1 1868 1259 2 MP stroke
-5 0 1868 1383 2 MP stroke
-4 -1 1868 1507 2 MP stroke
-1 -2 1868 1631 2 MP stroke
-2 -2 1868 2502 2 MP stroke
-2 -1 1868 2626 2 MP stroke
-2 -1 1868 2750 2 MP stroke
-1 -2 1868 2874 2 MP stroke
-2 -2 1868 2999 2 MP stroke
-1 -2 1868 3123 2 MP stroke
-2 -1 1868 3247 2 MP stroke
-1 -4 1868 3372 2 MP stroke
-2 -1 1868 3496 2 MP stroke
-2 -2 1868 3620 2 MP stroke
-3 -1 1868 3744 2 MP stroke
-3 -3 1868 3869 2 MP stroke
-4 -1 1868 3993 2 MP stroke
-4 -2 1868 4117 2 MP stroke
-4 -2 1868 4242 2 MP stroke
-4 -2 1868 4366 2 MP stroke
-3 0 1868 4490 2 MP stroke
-5 -3 1868 4615 2 MP stroke
1976 389 PD
-6 1 1976 513 2 MP stroke
-6 -1 1976 637 2 MP stroke
-5 2 1976 761 2 MP stroke
-6 -1 1976 886 2 MP stroke
-7 2 1976 1010 2 MP stroke
-6 0 1976 1134 2 MP stroke
-7 0 1976 1259 2 MP stroke
-7 -1 1976 1383 2 MP stroke
-6 0 1976 1507 2 MP stroke
-3 -3 1976 1631 2 MP stroke
-3 0 1976 2253 2 MP stroke
-4 -3 1976 2377 2 MP stroke
-3 -1 1976 2502 2 MP stroke
-4 -3 1976 2626 2 MP stroke
-4 -1 1976 2750 2 MP stroke
-3 -3 1976 2874 2 MP stroke
-4 -2 1976 2999 2 MP stroke
-3 -3 1976 3123 2 MP stroke
-3 0 1976 3247 2 MP stroke
-4 -4 1976 3372 2 MP stroke
-4 -2 1976 3496 2 MP stroke
-3 -2 1976 3620 2 MP stroke
-4 -1 1976 3744 2 MP stroke
-4 -3 1976 3869 2 MP stroke
-6 -1 1976 3993 2 MP stroke
-6 -2 1976 4117 2 MP stroke
-6 -2 1976 4242 2 MP stroke
-6 -2 1976 4366 2 MP stroke
-5 -1 1976 4490 2 MP stroke
-5 -3 1976 4615 2 MP stroke
2084 389 PD
-5 2 2084 513 2 MP stroke
-6 -1 2084 637 2 MP stroke
-5 2 2084 761 2 MP stroke
-5 -1 2084 886 2 MP stroke
-5 1 2084 1010 2 MP stroke
-5 -1 2084 1134 2 MP stroke
-5 1 2084 1259 2 MP stroke
-3 -2 2084 1383 2 MP stroke
-2 -1 2084 1507 2 MP stroke
-2 -2 2084 1631 2 MP stroke
-2 0 2084 2253 2 MP stroke
-2 -2 2084 2377 2 MP stroke
-3 -2 2084 2502 2 MP stroke
-3 -4 2084 2626 2 MP stroke
-3 -1 2084 2750 2 MP stroke
-2 -3 2084 2874 2 MP stroke
-1 -2 2084 2999 2 MP stroke
-1 -3 2084 3123 2 MP stroke
-2 -2 2084 3247 2 MP stroke
-3 -3 2084 3372 2 MP stroke
-3 -1 2084 3496 2 MP stroke
-2 -2 2084 3620 2 MP stroke
-3 -1 2084 3744 2 MP stroke
-2 -3 2084 3869 2 MP stroke
-4 -2 2084 3993 2 MP stroke
-5 -2 2084 4117 2 MP stroke
-4 -1 2084 4242 2 MP stroke
-5 -2 2084 4366 2 MP stroke
-4 -1 2084 4490 2 MP stroke
2191 389 PD
-7 1 2191 513 2 MP stroke
-6 0 2191 637 2 MP stroke
-6 1 2191 761 2 MP stroke
-5 0 2191 886 2 MP stroke
-5 1 2191 1010 2 MP stroke
-6 1 2191 1134 2 MP stroke
-5 1 2191 1259 2 MP stroke
-3 -1 2191 1383 2 MP stroke
-3 0 2191 1507 2 MP stroke
-3 -3 2191 1631 2 MP stroke
-3 -1 2191 1756 2 MP stroke
-4 2 2191 2253 2 MP stroke
-2 -2 2191 2377 2 MP stroke
-4 -1 2191 2502 2 MP stroke
-3 -3 2191 2626 2 MP stroke
-2 -1 2191 2750 2 MP stroke
-2 -2 2191 2874 2 MP stroke
-2 -2 2191 2999 2 MP stroke
-2 -2 2191 3123 2 MP stroke
-2 -1 2191 3247 2 MP stroke
-3 -3 2191 3372 2 MP stroke
-4 -2 2191 3496 2 MP stroke
-4 -2 2191 3620 2 MP stroke
-4 -1 2191 3744 2 MP stroke
-5 -3 2191 3869 2 MP stroke
-5 -1 2191 3993 2 MP stroke
-6 -3 2191 4117 2 MP stroke
-5 -1 2191 4242 2 MP stroke
-6 -3 2191 4366 2 MP stroke
-5 -1 2191 4490 2 MP stroke
2299 389 PD
-4 1 2299 513 2 MP stroke
-5 1 2299 637 2 MP stroke
-4 1 2299 761 2 MP stroke
-5 0 2299 886 2 MP stroke
-4 1 2299 1010 2 MP stroke
-5 0 2299 1134 2 MP stroke
-4 0 2299 1259 2 MP stroke
-4 -1 2299 1383 2 MP stroke
-1 1 2299 1507 2 MP stroke
-1 -1 2299 1631 2 MP stroke
-1 0 2299 1756 2 MP stroke
-1 -3 2299 1880 2 MP stroke
-2 2 2299 2004 2 MP stroke
-1 -1 2299 2129 2 MP stroke
-1 -1 2299 2253 2 MP stroke
-2 -2 2299 2377 2 MP stroke
-2 -1 2299 2502 2 MP stroke
-1 -2 2299 2626 2 MP stroke
-1 -1 2299 2750 2 MP stroke
-2 -3 2299 2874 2 MP stroke
-2 -1 2299 2999 2 MP stroke
-2 -2 2299 3123 2 MP stroke
-2 0 2299 3247 2 MP stroke
-2 -2 2299 3372 2 MP stroke
-2 -1 2299 3496 2 MP stroke
-1 -2 2299 3620 2 MP stroke
-1 -1 2299 3744 2 MP stroke
-3 -2 2299 3869 2 MP stroke
-3 -1 2299 3993 2 MP stroke
-4 -1 2299 4117 2 MP stroke
-4 -1 2299 4242 2 MP stroke
-4 -4 2299 4366 2 MP stroke
-5 0 2299 4490 2 MP stroke
-7 0 2407 389 2 MP stroke
-7 2 2407 513 2 MP stroke
-7 -1 2407 637 2 MP stroke
-6 2 2407 761 2 MP stroke
-5 0 2407 886 2 MP stroke
-7 1 2407 1010 2 MP stroke
-6 -2 2407 1134 2 MP stroke
-6 1 2407 1259 2 MP stroke
-6 -1 2407 1383 2 MP stroke
-6 0 2407 1507 2 MP stroke
-4 -2 2407 1631 2 MP stroke
-3 1 2407 1756 2 MP stroke
-4 -3 2407 1880 2 MP stroke
-3 0 2407 2004 2 MP stroke
-3 -2 2407 2129 2 MP stroke
-3 1 2407 2253 2 MP stroke
-4 -3 2407 2377 2 MP stroke
-3 -1 2407 2502 2 MP stroke
-3 -4 2407 2626 2 MP stroke
-4 -1 2407 2750 2 MP stroke
-3 -3 2407 2874 2 MP stroke
-4 -2 2407 2999 2 MP stroke
-4 -3 2407 3123 2 MP stroke
-4 -1 2407 3247 2 MP stroke
-4 -3 2407 3372 2 MP stroke
-3 -2 2407 3496 2 MP stroke
-3 -2 2407 3620 2 MP stroke
-4 -1 2407 3744 2 MP stroke
-6 -2 2407 3869 2 MP stroke
-5 -2 2407 3993 2 MP stroke
-6 -1 2407 4117 2 MP stroke
-5 -1 2407 4242 2 MP stroke
-6 -4 2407 4366 2 MP stroke
-6 -1 2407 4490 2 MP stroke
-5 0 2515 389 2 MP stroke
-5 2 2515 513 2 MP stroke
-5 0 2515 637 2 MP stroke
-5 1 2515 761 2 MP stroke
-5 -1 2515 886 2 MP stroke
-5 -1 2515 1010 2 MP stroke
-4 -1 2515 1134 2 MP stroke
-6 0 2515 1259 2 MP stroke
-4 0 2515 1383 2 MP stroke
-5 1 2515 1507 2 MP stroke
-5 -1 2515 1631 2 MP stroke
-2 0 2515 1756 2 MP stroke
-2 -1 2515 1880 2 MP stroke
-2 -1 2515 2004 2 MP stroke
-1 0 2515 2129 2 MP stroke
-2 1 2515 2253 2 MP stroke
-2 -3 2515 2377 2 MP stroke
-2 -2 2515 2502 2 MP stroke
-2 -3 2515 2626 2 MP stroke
-2 0 2515 2750 2 MP stroke
-2 -3 2515 2874 2 MP stroke
-3 -1 2515 2999 2 MP stroke
-3 -2 2515 3123 2 MP stroke
-2 0 2515 3247 2 MP stroke
-2 -3 2515 3372 2 MP stroke
-3 -1 2515 3496 2 MP stroke
-3 -2 2515 3620 2 MP stroke
-2 -1 2515 3744 2 MP stroke
-5 -3 2515 3869 2 MP stroke
-4 -1 2515 3993 2 MP stroke
-5 -2 2515 4117 2 MP stroke
-4 -2 2515 4242 2 MP stroke
-5 -2 2515 4366 2 MP stroke
-5 -1 2515 4490 2 MP stroke
2622 389 PD
-6 1 2622 513 2 MP stroke
-5 -1 2622 637 2 MP stroke
-6 2 2622 761 2 MP stroke
-6 -1 2622 886 2 MP stroke
-6 -1 2622 1010 2 MP stroke
-6 -2 2622 1134 2 MP stroke
-5 0 2622 1259 2 MP stroke
-5 -1 2622 1383 2 MP stroke
-5 1 2622 1507 2 MP stroke
-6 -1 2622 1631 2 MP stroke
-3 1 2622 1756 2 MP stroke
-4 -3 2622 1880 2 MP stroke
-3 0 2622 2004 2 MP stroke
-2 -1 2622 2129 2 MP stroke
-2 0 2622 2253 2 MP stroke
-3 -1 2622 2377 2 MP stroke
-3 -2 2622 2502 2 MP stroke
-3 -3 2622 2626 2 MP stroke
-3 0 2622 2750 2 MP stroke
-2 0 2622 2874 2 MP stroke
-3 -2 2622 2999 2 MP stroke
-3 -2 2622 3123 2 MP stroke
-2 -1 2622 3247 2 MP stroke
-3 -3 2622 3372 2 MP stroke
-3 -1 2622 3496 2 MP stroke
-3 -2 2622 3620 2 MP stroke
-4 -1 2622 3744 2 MP stroke
-5 -3 2622 3869 2 MP stroke
-5 -1 2622 3993 2 MP stroke
-5 -3 2622 4117 2 MP stroke
-6 -2 2622 4242 2 MP stroke
-5 -3 2622 4366 2 MP stroke
-6 -1 2622 4490 2 MP stroke
-5 -4 2622 4615 2 MP stroke
2730 389 PD
-5 2 2730 513 2 MP stroke
-5 0 2730 637 2 MP stroke
-5 2 2730 761 2 MP stroke
-5 0 2730 886 2 MP stroke
-5 -1 2730 1010 2 MP stroke
-4 -2 2730 1134 2 MP stroke
-4 1 2730 1259 2 MP stroke
-5 -1 2730 1383 2 MP stroke
-4 2 2730 1507 2 MP stroke
-5 -1 2730 1631 2 MP stroke
-1 0 2730 1756 2 MP stroke
-1 1 2730 2253 2 MP stroke
-2 0 2730 2377 2 MP stroke
-1 0 2730 2502 2 MP stroke
-1 -3 2730 2626 2 MP stroke
-1 -2 2730 2750 2 MP stroke
-1 -2 2730 2874 2 MP stroke
-1 -1 2730 2999 2 MP stroke
-2 -3 2730 3123 2 MP stroke
-2 0 2730 3247 2 MP stroke
-3 -3 2730 3372 2 MP stroke
-3 0 2730 3496 2 MP stroke
-3 -2 2730 3620 2 MP stroke
-3 -1 2730 3744 2 MP stroke
-3 -3 2730 3869 2 MP stroke
-3 0 2730 3993 2 MP stroke
-4 -2 2730 4117 2 MP stroke
-4 -1 2730 4242 2 MP stroke
-3 -2 2730 4366 2 MP stroke
-5 -2 2730 4490 2 MP stroke
-4 -2 2730 4615 2 MP stroke
2838 389 PD
-7 2 2838 513 2 MP stroke
-5 -1 2838 637 2 MP stroke
-6 3 2838 761 2 MP stroke
-6 0 2838 886 2 MP stroke
-6 0 2838 1010 2 MP stroke
-7 -3 2838 1134 2 MP stroke
-6 -2 2838 1259 2 MP stroke
-7 -3 2838 1383 2 MP stroke
-6 2 2838 1507 2 MP stroke
-3 -1 2838 1631 2 MP stroke
-3 -1 2838 1756 2 MP stroke
-3 -3 2838 2377 2 MP stroke
-4 -2 2838 2502 2 MP stroke
-4 -3 2838 2626 2 MP stroke
-3 -1 2838 2750 2 MP stroke
-3 -2 2838 2874 2 MP stroke
-4 -2 2838 2999 2 MP stroke
-4 -2 2838 3123 2 MP stroke
-5 0 2838 3247 2 MP stroke
-3 -3 2838 3372 2 MP stroke
-4 -1 2838 3496 2 MP stroke
-4 -2 2838 3620 2 MP stroke
-4 -1 2838 3744 2 MP stroke
-6 -3 2838 3869 2 MP stroke
-5 -2 2838 3993 2 MP stroke
-6 -2 2838 4117 2 MP stroke
-7 -1 2838 4242 2 MP stroke
-6 -2 2838 4366 2 MP stroke
-7 0 2838 4490 2 MP stroke
-5 -3 2838 4615 2 MP stroke
-8 0 2945 389 2 MP stroke
-6 1 2945 513 2 MP stroke
-4 0 2945 637 2 MP stroke
-4 3 2945 761 2 MP stroke
-4 -1 2945 1010 2 MP stroke
-3 -1 2945 1134 2 MP stroke
-4 0 2945 1259 2 MP stroke
-4 0 2945 1383 2 MP stroke
-2 1 2945 1507 2 MP stroke
-2 0 2945 1631 2 MP stroke
-1 -1 2945 1756 2 MP stroke
-2 -3 2945 1880 2 MP stroke
-1 -3 2945 2377 2 MP stroke
-1 -1 2945 2502 2 MP stroke
-2 -4 2945 2626 2 MP stroke
-1 0 2945 2750 2 MP stroke
-1 -2 2945 2874 2 MP stroke
-1 -1 2945 2999 2 MP stroke
-2 -1 2945 3123 2 MP stroke
-2 -1 2945 3247 2 MP stroke
-1 -4 2945 3372 2 MP stroke
-2 -1 2945 3496 2 MP stroke
-3 -1 2945 3620 2 MP stroke
-2 -1 2945 3744 2 MP stroke
-3 -3 2945 3869 2 MP stroke
-3 -1 2945 3993 2 MP stroke
-4 -2 2945 4117 2 MP stroke
-4 -2 2945 4242 2 MP stroke
-5 -2 2945 4366 2 MP stroke
-5 -1 2945 4490 2 MP stroke
3053 389 PD
-8 1 3053 513 2 MP stroke
-7 0 3053 637 2 MP stroke
-7 1 3053 761 2 MP stroke
-6 0 3053 1134 2 MP stroke
-6 -1 3053 1259 2 MP stroke
-4 -3 3053 1383 2 MP stroke
-3 1 3053 1507 2 MP stroke
-3 -1 3053 1631 2 MP stroke
-3 -2 3053 1756 2 MP stroke
-3 -2 3053 1880 2 MP stroke
-3 -2 3053 2004 2 MP stroke
-4 -3 3053 2129 2 MP stroke
-3 -1 3053 2253 2 MP stroke
-2 -4 3053 2377 2 MP stroke
-4 -2 3053 2502 2 MP stroke
-3 -2 3053 2626 2 MP stroke
-4 -2 3053 2750 2 MP stroke
-3 -2 3053 2874 2 MP stroke
-2 -1 3053 2999 2 MP stroke
-2 -2 3053 3123 2 MP stroke
-3 -1 3053 3247 2 MP stroke
-3 -3 3053 3372 2 MP stroke
-3 -1 3053 3496 2 MP stroke
-4 -2 3053 3620 2 MP stroke
-4 -1 3053 3744 2 MP stroke
-4 -3 3053 3869 2 MP stroke
-5 -1 3053 3993 2 MP stroke
-5 -2 3053 4117 2 MP stroke
-5 0 3053 4242 2 MP stroke
-5 -3 3053 4366 2 MP stroke
-6 -1 3053 4490 2 MP stroke
3161 389 PD
-8 1 3161 513 2 MP stroke
-6 0 3161 637 2 MP stroke
-4 1 3161 761 2 MP stroke
-5 -1 3161 886 2 MP stroke
-4 -1 3161 1010 2 MP stroke
-2 -1 3161 1134 2 MP stroke
-2 -2 3161 1259 2 MP stroke
-1 -1 3161 1383 2 MP stroke
-2 1 3161 1507 2 MP stroke
-2 1 3161 1631 2 MP stroke
-1 1 3161 1756 2 MP stroke
-2 0 3161 1880 2 MP stroke
-1 1 3161 2004 2 MP stroke
-2 -3 3161 2129 2 MP stroke
-1 0 3161 2253 2 MP stroke
-1 -2 3161 2377 2 MP stroke
-2 -2 3161 2502 2 MP stroke
-1 -3 3161 2626 2 MP stroke
-2 -2 3161 2750 2 MP stroke
-2 -3 3161 2874 2 MP stroke
-2 -1 3161 2999 2 MP stroke
-1 -2 3161 3123 2 MP stroke
-2 -1 3161 3247 2 MP stroke
-2 -4 3161 3372 2 MP stroke
-2 -2 3161 3496 2 MP stroke
-2 -3 3161 3620 2 MP stroke
-2 0 3161 3744 2 MP stroke
-4 -3 3161 3869 2 MP stroke
-3 -2 3161 3993 2 MP stroke
-3 -2 3161 4117 2 MP stroke
-4 -1 3161 4242 2 MP stroke
-5 -2 3161 4366 2 MP stroke
-4 0 3161 4490 2 MP stroke
3269 389 PD
-7 2 3269 513 2 MP stroke
-7 0 3269 637 2 MP stroke
-7 2 3269 761 2 MP stroke
-6 -2 3269 886 2 MP stroke
-6 1 3269 1010 2 MP stroke
-6 -2 3269 1134 2 MP stroke
-4 -1 3269 1259 2 MP stroke
-3 -1 3269 1383 2 MP stroke
-3 2 3269 1507 2 MP stroke
-3 0 3269 1631 2 MP stroke
-3 1 3269 1756 2 MP stroke
-4 -1 3269 1880 2 MP stroke
-3 2 3269 2004 2 MP stroke
-4 -3 3269 2129 2 MP stroke
-3 -1 3269 2253 2 MP stroke
-4 -3 3269 2377 2 MP stroke
-3 -2 3269 2502 2 MP stroke
-3 -4 3269 2626 2 MP stroke
-3 -1 3269 2750 2 MP stroke
-4 -1 3269 2874 2 MP stroke
-4 -2 3269 2999 2 MP stroke
-3 -2 3269 3123 2 MP stroke
-4 0 3269 3247 2 MP stroke
-4 -3 3269 3372 2 MP stroke
-4 -1 3269 3496 2 MP stroke
-3 -2 3269 3620 2 MP stroke
-6 0 3269 3744 2 MP stroke
-6 -3 3269 3869 2 MP stroke
-5 -2 3269 3993 2 MP stroke
-7 -2 3269 4117 2 MP stroke
-6 -1 3269 4242 2 MP stroke
-6 -3 3269 4366 2 MP stroke
-7 -1 3269 4490 2 MP stroke
-6 -4 3269 4615 2 MP stroke
3376 389 PD
-7 1 3376 513 2 MP stroke
-7 1 3376 637 2 MP stroke
-5 2 3376 761 2 MP stroke
-5 -2 3376 886 2 MP stroke
-4 1 3376 1010 2 MP stroke
-4 -1 3376 1134 2 MP stroke
-4 -2 3376 1259 2 MP stroke
-1 -2 3376 1383 2 MP stroke
-1 -1 3376 1507 2 MP stroke
-1 0 3376 1631 2 MP stroke
-1 -2 3376 1756 2 MP stroke
0 -3 3376 1880 2 MP stroke
-2 1 3376 2004 2 MP stroke
-2 -3 3376 2129 2 MP stroke
-1 0 3376 2253 2 MP stroke
-2 -2 3376 2377 2 MP stroke
-1 -2 3376 2502 2 MP stroke
-1 -2 3376 2626 2 MP stroke
0 -2 3376 2750 2 MP stroke
-1 -3 3376 2874 2 MP stroke
-2 -2 3376 2999 2 MP stroke
-2 -1 3376 3123 2 MP stroke
-1 -1 3376 3247 2 MP stroke
-1 -3 3376 3372 2 MP stroke
-2 -1 3376 3496 2 MP stroke
-2 -2 3376 3620 2 MP stroke
-3 0 3376 3744 2 MP stroke
-4 -4 3376 3869 2 MP stroke
-3 0 3376 3993 2 MP stroke
-4 -3 3376 4117 2 MP stroke
-4 -1 3376 4242 2 MP stroke
-4 -3 3376 4366 2 MP stroke
-5 -1 3376 4490 2 MP stroke
-7 -4 3376 4615 2 MP stroke
3484 389 PD
-7 2 3484 513 2 MP stroke
-7 0 3484 637 2 MP stroke
-8 1 3484 761 2 MP stroke
-7 0 3484 886 2 MP stroke
-6 1 3484 1010 2 MP stroke
-7 -2 3484 1134 2 MP stroke
-6 -1 3484 1259 2 MP stroke
-3 -1 3484 1507 2 MP stroke
-3 0 3484 1631 2 MP stroke
-3 -2 3484 1756 2 MP stroke
-3 -1 3484 1880 2 MP stroke
-3 2 3484 2004 2 MP stroke
-4 -1 3484 2129 2 MP stroke
-2 -1 3484 2253 2 MP stroke
-4 -3 3484 2377 2 MP stroke
-3 -1 3484 2502 2 MP stroke
-2 -3 3484 2626 2 MP stroke
-2 0 3484 2750 2 MP stroke
-3 -3 3484 2874 2 MP stroke
-2 -2 3484 2999 2 MP stroke
-2 -3 3484 3123 2 MP stroke
-3 -1 3484 3247 2 MP stroke
-3 -2 3484 3372 2 MP stroke
-3 0 3484 3496 2 MP stroke
-4 -3 3484 3620 2 MP stroke
-4 -1 3484 3744 2 MP stroke
-5 -3 3484 3869 2 MP stroke
-6 -1 3484 3993 2 MP stroke
-5 -2 3484 4117 2 MP stroke
-6 -1 3484 4242 2 MP stroke
-6 -3 3484 4366 2 MP stroke
-7 0 3484 4490 2 MP stroke
-8 -4 3484 4615 2 MP stroke
-8 0 3592 389 2 MP stroke
-8 1 3592 513 2 MP stroke
-7 -1 3592 637 2 MP stroke
-7 2 3592 761 2 MP stroke
-2 -3 3592 1383 2 MP stroke
-1 -1 3592 1507 2 MP stroke
-2 -3 3592 1631 2 MP stroke
-1 -2 3592 1756 2 MP stroke
-2 -2 3592 1880 2 MP stroke
-2 1 3592 2004 2 MP stroke
-1 -1 3592 2129 2 MP stroke
-1 -1 3592 2253 2 MP stroke
-2 -3 3592 2377 2 MP stroke
-1 -1 3592 2502 2 MP stroke
-1 -3 3592 2626 2 MP stroke
-1 -1 3592 2750 2 MP stroke
-1 -2 3592 2874 2 MP stroke
-2 -2 3592 2999 2 MP stroke
-3 -3 3592 3123 2 MP stroke
-1 -1 3592 3247 2 MP stroke
-3 -4 3592 3372 2 MP stroke
-2 -2 3592 3496 2 MP stroke
-3 -2 3592 3620 2 MP stroke
-3 0 3592 3744 2 MP stroke
-4 -4 3592 3869 2 MP stroke
-5 -1 3592 3993 2 MP stroke
-5 -3 3592 4117 2 MP stroke
-4 -1 3592 4242 2 MP stroke
-4 -2 3592 4366 2 MP stroke
-7 0 3592 4490 2 MP stroke
-8 -3 3592 4615 2 MP stroke
3700 389 PD
-10 2 3700 513 2 MP stroke
-9 0 3700 637 2 MP stroke
-7 3 3700 761 2 MP stroke
-4 -1 3700 1259 2 MP stroke
-4 -1 3700 1383 2 MP stroke
-4 -1 3700 1507 2 MP stroke
-4 -2 3700 1631 2 MP stroke
-4 -1 3700 1756 2 MP stroke
-4 -1 3700 1880 2 MP stroke
-3 1 3700 2004 2 MP stroke
-3 -1 3700 2129 2 MP stroke
-4 -2 3700 2253 2 MP stroke
-4 -2 3700 2377 2 MP stroke
-4 -1 3700 2502 2 MP stroke
-4 -2 3700 2626 2 MP stroke
-4 -2 3700 2750 2 MP stroke
-4 -2 3700 2874 2 MP stroke
-4 0 3700 2999 2 MP stroke
-3 -2 3700 3123 2 MP stroke
-3 -1 3700 3247 2 MP stroke
-4 -3 3700 3372 2 MP stroke
-4 -1 3700 3496 2 MP stroke
-4 -2 3700 3620 2 MP stroke
-4 0 3700 3744 2 MP stroke
-5 -2 3700 3869 2 MP stroke
-6 -2 3700 3993 2 MP stroke
-6 -3 3700 4117 2 MP stroke
-6 -1 3700 4242 2 MP stroke
-7 -2 3700 4366 2 MP stroke
-10 -2 3700 4490 2 MP stroke
-10 -4 3700 4615 2 MP stroke
3807 389 PD
-8 2 3807 513 2 MP stroke
-8 0 3807 637 2 MP stroke
137 56 3807 761 2 MP stroke
-1 0 3807 1134 2 MP stroke
-2 -2 3807 1259 2 MP stroke
-2 -2 3807 1383 2 MP stroke
-1 -1 3807 1507 2 MP stroke
-2 -3 3807 1631 2 MP stroke
-2 1 3807 1756 2 MP stroke
-1 -1 3807 1880 2 MP stroke
-1 1 3807 2004 2 MP stroke
-1 -1 3807 2129 2 MP stroke
0 -1 3807 2253 2 MP stroke
-1 -2 3807 2377 2 MP stroke
-1 -1 3807 2502 2 MP stroke
-1 -1 3807 2626 2 MP stroke
-1 -1 3807 2750 2 MP stroke
-1 -3 3807 2874 2 MP stroke
-1 -2 3807 2999 2 MP stroke
-1 -3 3807 3123 2 MP stroke
-2 -1 3807 3247 2 MP stroke
-1 -2 3807 3372 2 MP stroke
-3 0 3807 3496 2 MP stroke
-2 -2 3807 3620 2 MP stroke
-4 -1 3807 3744 2 MP stroke
-4 -2 3807 3869 2 MP stroke
-3 -1 3807 3993 2 MP stroke
-4 -3 3807 4117 2 MP stroke
-4 -1 3807 4242 2 MP stroke
-5 -4 3807 4366 2 MP stroke
-7 -2 3807 4490 2 MP stroke
-8 -4 3807 4615 2 MP stroke
3915 389 PD
-9 1 3915 513 2 MP stroke
-9 -1 3915 637 2 MP stroke
-10 3 3915 761 2 MP stroke
-8 0 3915 886 2 MP stroke
4 18 3915 1010 2 MP stroke
-3 0 3915 1134 2 MP stroke
-2 -2 3915 1259 2 MP stroke
-3 -4 3915 1383 2 MP stroke
-3 1 3915 1507 2 MP stroke
-3 0 3915 1631 2 MP stroke
-3 0 3915 1756 2 MP stroke
-3 0 3915 1880 2 MP stroke
-3 2 3915 2004 2 MP stroke
-3 0 3915 2129 2 MP stroke
-2 1 3915 2253 2 MP stroke
-3 -1 3915 2377 2 MP stroke
-3 -2 3915 2502 2 MP stroke
-3 -2 3915 2626 2 MP stroke
-3 -1 3915 2750 2 MP stroke
-3 -3 3915 2874 2 MP stroke
-3 -1 3915 2999 2 MP stroke
-3 -2 3915 3123 2 MP stroke
-3 0 3915 3247 2 MP stroke
-4 -2 3915 3372 2 MP stroke
-5 -2 3915 3496 2 MP stroke
-6 -1 3915 3620 2 MP stroke
-5 1 3915 3744 2 MP stroke
-6 -1 3915 3869 2 MP stroke
-6 -1 3915 3993 2 MP stroke
-6 -2 3915 4117 2 MP stroke
-5 -1 3915 4242 2 MP stroke
-7 -3 3915 4366 2 MP stroke
-10 -1 3915 4490 2 MP stroke
-9 -4 3915 4615 2 MP stroke
4023 389 PD
-8 2 4023 513 2 MP stroke
-8 0 4023 637 2 MP stroke
-8 3 4023 761 2 MP stroke
-9 -1 4023 886 2 MP stroke
-9 2 4023 1010 2 MP stroke
-7 1 4023 1134 2 MP stroke
-7 1 4023 1259 2 MP stroke
-8 -4 4023 1383 2 MP stroke
-6 -3 4023 1507 2 MP stroke
-4 -3 4023 1631 2 MP stroke
-2 -1 4023 1756 2 MP stroke
-2 -2 4023 1880 2 MP stroke
-2 0 4023 2004 2 MP stroke
-3 0 4023 2129 2 MP stroke
-4 2 4023 2253 2 MP stroke
-5 -1 4023 2377 2 MP stroke
-2 -2 4023 2502 2 MP stroke
-2 -3 4023 2626 2 MP stroke
-2 -1 4023 2750 2 MP stroke
-4 -1 4023 2874 2 MP stroke
-5 1 4023 2999 2 MP stroke
-6 -1 4023 3123 2 MP stroke
-5 1 4023 3247 2 MP stroke
-7 -4 4023 3372 2 MP stroke
-5 -1 4023 3496 2 MP stroke
-4 0 4023 3620 2 MP stroke
-4 2 4023 3744 2 MP stroke
-5 -1 4023 3869 2 MP stroke
-5 -1 4023 3993 2 MP stroke
-5 -3 4023 4117 2 MP stroke
-5 -2 4023 4242 2 MP stroke
-7 -3 4023 4366 2 MP stroke
-8 -1 4023 4490 2 MP stroke
-7 -4 4023 4615 2 MP stroke
-9 0 4131 389 2 MP stroke
-10 0 4131 513 2 MP stroke
-10 1 4131 637 2 MP stroke
-10 3 4131 761 2 MP stroke
-9 0 4131 886 2 MP stroke
-10 1 4131 1010 2 MP stroke
-9 0 4131 1134 2 MP stroke
-10 2 4131 1259 2 MP stroke
-10 0 4131 1383 2 MP stroke
-9 -1 4131 1507 2 MP stroke
-9 0 4131 1631 2 MP stroke
-7 1 4131 1756 2 MP stroke
-6 -3 4131 1880 2 MP stroke
-9 5 4131 2004 2 MP stroke
-7 0 4131 2129 2 MP stroke
-10 1 4131 2253 2 MP stroke
-6 0 4131 2377 2 MP stroke
-5 -2 4131 2502 2 MP stroke
-3 -3 4131 2626 2 MP stroke
-4 -2 4131 2750 2 MP stroke
-6 0 4131 2874 2 MP stroke
-10 0 4131 2999 2 MP stroke
-10 0 4131 3123 2 MP stroke
-9 -1 4131 3247 2 MP stroke
-12 -5 4131 3372 2 MP stroke
-9 1 4131 3496 2 MP stroke
-10 0 4131 3620 2 MP stroke
-7 2 4131 3744 2 MP stroke
-7 0 4131 3869 2 MP stroke
-7 0 4131 3993 2 MP stroke
-9 0 4131 4117 2 MP stroke
-9 1 4131 4242 2 MP stroke
-10 -3 4131 4366 2 MP stroke
-11 -1 4131 4490 2 MP stroke
-12 -3 4131 4615 2 MP stroke
-8 0 4238 389 2 MP stroke
-7 2 4238 513 2 MP stroke
-8 0 4238 637 2 MP stroke
-7 2 4238 761 2 MP stroke
-7 0 4238 886 2 MP stroke
-8 2 4238 1010 2 MP stroke
-8 1 4238 1134 2 MP stroke
-7 0 4238 1259 2 MP stroke
-8 0 4238 1383 2 MP stroke
-8 2 4238 1507 2 MP stroke
-7 -2 4238 1631 2 MP stroke
-9 -1 4238 1756 2 MP stroke
-8 -4 4238 1880 2 MP stroke
-8 3 4238 2004 2 MP stroke
-7 -1 4238 2129 2 MP stroke
-8 1 4238 2253 2 MP stroke
-10 0 4238 2377 2 MP stroke
-8 0 4238 2502 2 MP stroke
-10 -4 4238 2626 2 MP stroke
-9 2 4238 2750 2 MP stroke
-11 1 4238 2874 2 MP stroke
-10 0 4238 2999 2 MP stroke
-9 -1 4238 3123 2 MP stroke
-8 1 4238 3247 2 MP stroke
-8 -1 4238 3372 2 MP stroke
-10 1 4238 3496 2 MP stroke
-10 0 4238 3620 2 MP stroke
-10 2 4238 3744 2 MP stroke
-10 -1 4238 3869 2 MP stroke
-10 1 4238 3993 2 MP stroke
-10 0 4238 4117 2 MP stroke
-10 -2 4238 4242 2 MP stroke
-10 -3 4238 4366 2 MP stroke
-9 -1 4238 4490 2 MP stroke
4346 389 PD
-9 1 4346 513 2 MP stroke
-9 0 4346 637 2 MP stroke
-9 3 4346 761 2 MP stroke
-10 0 4346 886 2 MP stroke
-9 2 4346 1010 2 MP stroke
-8 0 4346 1134 2 MP stroke
-9 0 4346 1259 2 MP stroke
-9 -1 4346 1383 2 MP stroke
-9 2 4346 1507 2 MP stroke
-10 0 4346 1631 2 MP stroke
-10 0 4346 1756 2 MP stroke
-10 -1 4346 1880 2 MP stroke
-9 2 4346 2004 2 MP stroke
-10 -1 4346 2129 2 MP stroke
-9 2 4346 2253 2 MP stroke
-10 0 4346 2377 2 MP stroke
-10 2 4346 2502 2 MP stroke
-11 0 4346 2626 2 MP stroke
-9 2 4346 2750 2 MP stroke
-9 -1 4346 2874 2 MP stroke
-10 0 4346 2999 2 MP stroke
4 5 4346 3123 2 MP stroke
-11 0 4346 3247 2 MP stroke
-11 0 4346 3372 2 MP stroke
-11 1 4346 3496 2 MP stroke
-12 0 4346 3620 2 MP stroke
-12 1 4346 3744 2 MP stroke
-12 -1 4346 3869 2 MP stroke
-12 1 4346 3993 2 MP stroke
-11 -1 4346 4117 2 MP stroke
-12 0 4346 4242 2 MP stroke
-12 -2 4346 4366 2 MP stroke
-10 -1 4346 4490 2 MP stroke
-8 0 4454 389 2 MP stroke
-8 2 4454 513 2 MP stroke
-8 1 4454 637 2 MP stroke
-8 3 4454 761 2 MP stroke
-8 -1 4454 886 2 MP stroke
-9 1 4454 1010 2 MP stroke
-8 0 4454 1134 2 MP stroke
-9 2 4454 1259 2 MP stroke
-8 1 4454 1383 2 MP stroke
-8 2 4454 1507 2 MP stroke
-8 1 4454 1631 2 MP stroke
-8 0 4454 1756 2 MP stroke
-8 1 4454 1880 2 MP stroke
-8 2 4454 2004 2 MP stroke
-8 0 4454 2129 2 MP stroke
-8 2 4454 2253 2 MP stroke
-8 0 4454 2377 2 MP stroke
-10 0 4454 2502 2 MP stroke
-10 0 4454 2626 2 MP stroke
-11 0 4454 2750 2 MP stroke
-10 0 4454 2874 2 MP stroke
-10 1 4454 2999 2 MP stroke
-10 -1 4454 3123 2 MP stroke
-11 2 4454 3247 2 MP stroke
-10 -2 4454 3372 2 MP stroke
-11 2 4454 3496 2 MP stroke
-10 -1 4454 3620 2 MP stroke
2 -11 4454 3744 2 MP stroke
-10 -1 4454 3869 2 MP stroke
-10 2 4454 3993 2 MP stroke
-10 -1 4454 4117 2 MP stroke
-10 0 4454 4242 2 MP stroke
-10 -3 4454 4366 2 MP stroke
-11 -1 4454 4490 2 MP stroke
-10 0 4562 389 2 MP stroke
-10 1 4562 513 2 MP stroke
-9 1 4562 637 2 MP stroke
-10 2 4562 761 2 MP stroke
-10 1 4562 886 2 MP stroke
-11 3 4562 1010 2 MP stroke
-11 0 4562 1134 2 MP stroke
-10 1 4562 1259 2 MP stroke
-11 -1 4562 1383 2 MP stroke
-10 1 4562 1507 2 MP stroke
-10 0 4562 1631 2 MP stroke
-11 1 4562 1756 2 MP stroke
-13 1 4562 1880 2 MP stroke
-10 3 4562 2004 2 MP stroke
-11 0 4562 2129 2 MP stroke
-12 2 4562 2253 2 MP stroke
-12 -1 4562 2377 2 MP stroke
-12 0 4562 2502 2 MP stroke
-12 -1 4562 2626 2 MP stroke
-12 1 4562 2750 2 MP stroke
-12 0 4562 2874 2 MP stroke
-12 1 4562 2999 2 MP stroke
-12 0 4562 3123 2 MP stroke
-12 2 4562 3247 2 MP stroke
-13 -2 4562 3372 2 MP stroke
-12 1 4562 3496 2 MP stroke
-12 -1 4562 3620 2 MP stroke
-13 2 4562 3744 2 MP stroke
-12 0 4562 3869 2 MP stroke
-12 0 4562 3993 2 MP stroke
-12 0 4562 4117 2 MP stroke
-12 -1 4562 4242 2 MP stroke
-12 -4 4562 4366 2 MP stroke
-12 0 4562 4490 2 MP stroke
4669 389 PD
-8 2 4669 513 2 MP stroke
-9 0 4669 637 2 MP stroke
-7 2 4669 761 2 MP stroke
-8 -1 4669 886 2 MP stroke
-8 1 4669 1010 2 MP stroke
-9 1 4669 1134 2 MP stroke
-8 1 4669 1259 2 MP stroke
-8 -1 4669 1383 2 MP stroke
-8 1 4669 1507 2 MP stroke
-9 1 4669 1631 2 MP stroke
-10 1 4669 1756 2 MP stroke
-9 -1 4669 1880 2 MP stroke
-7 2 4669 2004 2 MP stroke
-8 -1 4669 2129 2 MP stroke
-8 1 4669 2253 2 MP stroke
-8 0 4669 2377 2 MP stroke
-7 1 4669 2502 2 MP stroke
-8 -1 4669 2626 2 MP stroke
-10 3 4669 2750 2 MP stroke
-10 -1 4669 2874 2 MP stroke
-10 2 4669 2999 2 MP stroke
-9 0 4669 3123 2 MP stroke
-10 2 4669 3247 2 MP stroke
-10 -1 4669 3372 2 MP stroke
-10 -1 4669 3496 2 MP stroke
-8 -3 4669 3620 2 MP stroke
-7 -1 4669 3744 2 MP stroke
-7 -3 4669 3869 2 MP stroke
-8 -1 4669 3993 2 MP stroke
-7 -3 4669 4117 2 MP stroke
-5 -1 4669 4242 2 MP stroke
-5 -2 4669 4366 2 MP stroke
-7 -2 4669 4490 2 MP stroke
4777 389 PD
-11 1 4777 513 2 MP stroke
-11 0 4777 637 2 MP stroke
-11 3 4777 761 2 MP stroke
-12 -1 4777 886 2 MP stroke
-11 1 4777 1010 2 MP stroke
-13 0 4777 1134 2 MP stroke
-13 0 4777 1259 2 MP stroke
-11 0 4777 1383 2 MP stroke
-12 -2 4777 1507 2 MP stroke
-9 0 4777 1631 2 MP stroke
-9 1 4777 1756 2 MP stroke
-9 0 4777 1880 2 MP stroke
-8 2 4777 2004 2 MP stroke
-9 -1 4777 2129 2 MP stroke
-9 1 4777 2253 2 MP stroke
-9 -3 4777 2377 2 MP stroke
-9 0 4777 2502 2 MP stroke
-9 -1 4777 2626 2 MP stroke
-11 1 4777 2750 2 MP stroke
-9 0 4777 2874 2 MP stroke
-9 1 4777 2999 2 MP stroke
-6 0 4777 3123 2 MP stroke
-9 2 4777 3247 2 MP stroke
-9 -1 4777 3372 2 MP stroke
-9 1 4777 3496 2 MP stroke
-9 -2 4777 3620 2 MP stroke
-6 -1 4777 3744 2 MP stroke
-6 -3 4777 3869 2 MP stroke
-6 -1 4777 3993 2 MP stroke
-7 -3 4777 4117 2 MP stroke
-6 -2 4777 4242 2 MP stroke
-6 -4 4777 4366 2 MP stroke
-9 -1 4777 4490 2 MP stroke
-10 -3 4777 4615 2 MP stroke
4885 389 PD
-8 2 4885 513 2 MP stroke
-8 0 4885 637 2 MP stroke
-8 2 4885 761 2 MP stroke
-8 -5 4885 886 2 MP stroke
-8 -16 4885 1010 2 MP stroke
-8 -21 4885 1134 2 MP stroke
-14 -9 4885 1259 2 MP stroke
-12 16 4885 1383 2 MP stroke
-11 4 4885 1507 2 MP stroke
-5 -1 4885 1631 2 MP stroke
-5 -1 4885 1756 2 MP stroke
-4 -11 4885 1880 2 MP stroke
-5 2 4885 2004 2 MP stroke
-5 0 4885 2129 2 MP stroke
-5 0 4885 2253 2 MP stroke
-4 -2 4885 2377 2 MP stroke
-5 1 4885 2502 2 MP stroke
-5 0 4885 2626 2 MP stroke
-8 1 4885 2750 2 MP stroke
-5 0 4885 2874 2 MP stroke
-5 1 4885 2999 2 MP stroke
-5 -1 4885 3123 2 MP stroke
-4 1 4885 3247 2 MP stroke
-4 -2 4885 3372 2 MP stroke
-4 1 4885 3496 2 MP stroke
-4 -1 4885 3620 2 MP stroke
-5 -1 4885 3744 2 MP stroke
-4 -3 4885 3869 2 MP stroke
-4 -1 4885 3993 2 MP stroke
-5 -2 4885 4117 2 MP stroke
-5 -1 4885 4242 2 MP stroke
-5 -2 4885 4366 2 MP stroke
-6 -2 4885 4490 2 MP stroke
-7 -3 4885 4615 2 MP stroke
4992 389 PD
-8 1 4992 513 2 MP stroke
-9 -1 4992 637 2 MP stroke
-7 -1 4992 761 2 MP stroke
-5 -14 4992 886 2 MP stroke
-5 -19 4992 1010 2 MP stroke
-8 -18 4992 1134 2 MP stroke
-8 -30 4992 1259 2 MP stroke
-9 0 4992 1383 2 MP stroke
-6 -1 4992 1507 2 MP stroke
-6 -3 4992 1631 2 MP stroke
-5 -2 4992 1756 2 MP stroke
-5 -7 4992 1880 2 MP stroke
-5 0 4992 2004 2 MP stroke
-3 -3 4992 2129 2 MP stroke
-2 1 4992 2253 2 MP stroke
-2 -1 4992 2377 2 MP stroke
-3 1 4992 2502 2 MP stroke
-3 -2 4992 2626 2 MP stroke
-3 -1 4992 2750 2 MP stroke
-3 -1 4992 2874 2 MP stroke
-4 1 4992 2999 2 MP stroke
-3 -1 4992 3123 2 MP stroke
-3 2 4992 3247 2 MP stroke
-4 -1 4992 3372 2 MP stroke
-5 0 4992 3496 2 MP stroke
-6 -2 4992 3620 2 MP stroke
-6 -1 4992 3744 2 MP stroke
-5 -3 4992 3869 2 MP stroke
-5 -1 4992 3993 2 MP stroke
-6 -3 4992 4117 2 MP stroke
-6 -1 4992 4242 2 MP stroke
-6 -2 4992 4366 2 MP stroke
-6 -1 4992 4490 2 MP stroke
-6 -2 4992 4615 2 MP stroke
5100 389 PD
-7 1 5100 513 2 MP stroke
-5 -3 5100 637 2 MP stroke
-4 -2 5100 761 2 MP stroke
-4 -4 5100 886 2 MP stroke
-2 1 5100 1010 2 MP stroke
-2 -1 5100 1134 2 MP stroke
-2 0 5100 1259 2 MP stroke
-1 -1 5100 1383 2 MP stroke
-1 2 5100 1507 2 MP stroke
-1 0 5100 1631 2 MP stroke
-1 1 5100 1756 2 MP stroke
-1 -4 5100 1880 2 MP stroke
-1 -1 5100 2004 2 MP stroke
-1 -3 5100 2129 2 MP stroke
-2 -2 5100 2253 2 MP stroke
-2 -1 5100 2377 2 MP stroke
-1 1 5100 2502 2 MP stroke
-2 -2 5100 2626 2 MP stroke
-1 0 5100 2750 2 MP stroke
-1 -2 5100 2874 2 MP stroke
-2 0 5100 2999 2 MP stroke
-1 -1 5100 3123 2 MP stroke
-2 2 5100 3247 2 MP stroke
-4 -2 5100 3372 2 MP stroke
-3 0 5100 3496 2 MP stroke
-4 -1 5100 3620 2 MP stroke
-4 -1 5100 3744 2 MP stroke
-4 -3 5100 3869 2 MP stroke
-4 -1 5100 3993 2 MP stroke
-4 -2 5100 4117 2 MP stroke
-5 -2 5100 4242 2 MP stroke
-4 -3 5100 4366 2 MP stroke
-5 -1 5100 4490 2 MP stroke
-4 -4 5100 4615 2 MP stroke
-6 -6 5208 513 2 MP stroke
-3 -7 5208 637 2 MP stroke
-4 -3 5208 761 2 MP stroke
-3 -1 5208 886 2 MP stroke
-3 0 5208 1010 2 MP stroke
-3 0 5208 1134 2 MP stroke
-4 0 5208 1259 2 MP stroke
-3 0 5208 1383 2 MP stroke
-3 1 5208 1507 2 MP stroke
-4 0 5208 1631 2 MP stroke
-2 1 5208 1756 2 MP stroke
-3 -2 5208 1880 2 MP stroke
-4 -1 5208 2004 2 MP stroke
-3 -2 5208 2129 2 MP stroke
-4 0 5208 2253 2 MP stroke
-4 -1 5208 2377 2 MP stroke
-4 -1 5208 2502 2 MP stroke
-3 -1 5208 2626 2 MP stroke
-4 -2 5208 2750 2 MP stroke
-3 -1 5208 2874 2 MP stroke
-3 -2 5208 2999 2 MP stroke
-4 0 5208 3123 2 MP stroke
-5 0 5208 3247 2 MP stroke
-6 -2 5208 3372 2 MP stroke
-6 0 5208 3496 2 MP stroke
-5 -2 5208 3620 2 MP stroke
-5 -1 5208 3744 2 MP stroke
-5 -2 5208 3869 2 MP stroke
-7 -1 5208 3993 2 MP stroke
-6 -2 5208 4117 2 MP stroke
-6 -1 5208 4242 2 MP stroke
-6 -4 5208 4366 2 MP stroke
-6 -2 5208 4490 2 MP stroke
-7 -3 5208 4615 2 MP stroke
-2 -9 5316 513 2 MP stroke
-2 -8 5316 637 2 MP stroke
-2 2 5316 761 2 MP stroke
-2 -1 5316 886 2 MP stroke
-2 1 5316 1010 2 MP stroke
-3 0 5316 1134 2 MP stroke
-3 1 5316 1259 2 MP stroke
-3 0 5316 1383 2 MP stroke
-2 1 5316 1507 2 MP stroke
-2 1 5316 1631 2 MP stroke
-2 -2 5316 1756 2 MP stroke
-1 -3 5316 1880 2 MP stroke
-2 0 5316 2004 2 MP stroke
-3 -2 5316 2129 2 MP stroke
-2 1 5316 2253 2 MP stroke
-2 -1 5316 2377 2 MP stroke
-3 1 5316 2502 2 MP stroke
-1 -2 5316 2626 2 MP stroke
-2 -1 5316 2750 2 MP stroke
-3 -2 5316 2874 2 MP stroke
-2 0 5316 2999 2 MP stroke
-3 -1 5316 3123 2 MP stroke
-3 1 5316 3247 2 MP stroke
-4 -3 5316 3372 2 MP stroke
-4 -1 5316 3496 2 MP stroke
-5 -3 5316 3620 2 MP stroke
-5 0 5316 3744 2 MP stroke
-4 -3 5316 3869 2 MP stroke
-6 -1 5316 3993 2 MP stroke
-4 -3 5316 4117 2 MP stroke
-6 -2 5316 4242 2 MP stroke
-4 -3 5316 4366 2 MP stroke
-5 -1 5316 4490 2 MP stroke
-6 -3 5316 4615 2 MP stroke
-3 -1 5423 886 2 MP stroke
-3 2 5423 1010 2 MP stroke
-3 -1 5423 1134 2 MP stroke
-3 1 5423 1259 2 MP stroke
-3 -2 5423 1383 2 MP stroke
-3 2 5423 1507 2 MP stroke
-3 1 5423 1631 2 MP stroke
-3 -1 5423 1756 2 MP stroke
-3 0 5423 1880 2 MP stroke
-3 1 5423 2004 2 MP stroke
-2 -2 5423 2129 2 MP stroke
-2 1 5423 2253 2 MP stroke
-2 -1 5423 2377 2 MP stroke
-3 1 5423 2502 2 MP stroke
-4 -1 5423 2626 2 MP stroke
-2 0 5423 2750 2 MP stroke
-3 0 5423 2874 2 MP stroke
-3 -1 5423 2999 2 MP stroke
-4 -1 5423 3123 2 MP stroke
-5 1 5423 3247 2 MP stroke
-6 -2 5423 3372 2 MP stroke
-4 0 5423 3496 2 MP stroke
-6 -2 5423 3620 2 MP stroke
-5 -1 5423 3744 2 MP stroke
-5 -1 5423 3869 2 MP stroke
-5 -1 5423 3993 2 MP stroke
-6 -2 5423 4117 2 MP stroke
-7 -2 5423 4242 2 MP stroke
-7 -3 5423 4366 2 MP stroke
-7 -1 5423 4490 2 MP stroke
-6 -2 5423 4615 2 MP stroke
-2 -1 5531 1010 2 MP stroke
-1 -1 5531 1134 2 MP stroke
-1 1 5531 1259 2 MP stroke
-1 0 5531 1383 2 MP stroke
-2 2 5531 1507 2 MP stroke
-2 1 5531 1631 2 MP stroke
-2 -1 5531 1756 2 MP stroke
-2 -1 5531 1880 2 MP stroke
-2 2 5531 2004 2 MP stroke
-2 -1 5531 2129 2 MP stroke
-1 0 5531 2253 2 MP stroke
-1 0 5531 2377 2 MP stroke
-2 -2 5531 2502 2 MP stroke
-1 -1 5531 2626 2 MP stroke
-2 0 5531 2750 2 MP stroke
-2 -1 5531 2874 2 MP stroke
-2 0 5531 2999 2 MP stroke
-2 0 5531 3123 2 MP stroke
-3 1 5531 3247 2 MP stroke
-4 -1 5531 3372 2 MP stroke
-4 -1 5531 3496 2 MP stroke
-4 -2 5531 3620 2 MP stroke
-3 -1 5531 3744 2 MP stroke
-5 -2 5531 3869 2 MP stroke
-4 -1 5531 3993 2 MP stroke
-4 -3 5531 4117 2 MP stroke
-5 -1 5531 4242 2 MP stroke
-5 -2 5531 4366 2 MP stroke
-5 0 5531 4490 2 MP stroke
-5 -3 5531 4615 2 MP stroke
-3 2 5639 1010 2 MP stroke
-3 0 5639 1134 2 MP stroke
-3 1 5639 1259 2 MP stroke
-3 -1 5639 1383 2 MP stroke
0 3 5639 1507 2 MP stroke
-4 0 5639 1631 2 MP stroke
-4 -1 5639 1756 2 MP stroke
-3 -1 5639 1880 2 MP stroke
-4 1 5639 2004 2 MP stroke
-4 0 5639 2129 2 MP stroke
-4 1 5639 2253 2 MP stroke
-4 -1 5639 2377 2 MP stroke
-3 -1 5639 2502 2 MP stroke
-4 -2 5639 2626 2 MP stroke
-3 1 5639 2750 2 MP stroke
-4 -1 5639 2874 2 MP stroke
-3 0 5639 2999 2 MP stroke
-4 0 5639 3123 2 MP stroke
-5 1 5639 3247 2 MP stroke
-5 -2 5639 3372 2 MP stroke
-6 -1 5639 3496 2 MP stroke
-6 -3 5639 3620 2 MP stroke
-6 0 5639 3744 2 MP stroke
-6 -1 5639 3869 2 MP stroke
-7 -1 5639 3993 2 MP stroke
-7 -3 5639 4117 2 MP stroke
-6 -2 5639 4242 2 MP stroke
-7 -3 5639 4366 2 MP stroke
-7 -2 5639 4490 2 MP stroke
-7 -3 5639 4615 2 MP stroke
-5 0 5747 389 2 MP stroke
-5 1 5747 513 2 MP stroke
-4 0 5747 637 2 MP stroke
-2 1 5747 1010 2 MP stroke
-2 -1 5747 1134 2 MP stroke
-2 0 5747 1259 2 MP stroke
-2 -1 5747 1383 2 MP stroke
6 3 5747 1507 2 MP stroke
-1 0 5747 1631 2 MP stroke
-2 1 5747 1756 2 MP stroke
-2 -2 5747 1880 2 MP stroke
-3 -1 5747 2004 2 MP stroke
-3 -3 5747 2129 2 MP stroke
-2 1 5747 2253 2 MP stroke
-2 -1 5747 2377 2 MP stroke
-2 1 5747 2502 2 MP stroke
-2 -2 5747 2626 2 MP stroke
-2 1 5747 2750 2 MP stroke
-2 -1 5747 2874 2 MP stroke
-2 1 5747 2999 2 MP stroke
-4 0 5747 3123 2 MP stroke
-5 1 5747 3247 2 MP stroke
-4 -3 5747 3372 2 MP stroke
-4 -1 5747 3496 2 MP stroke
-5 -3 5747 3620 2 MP stroke
-5 -1 5747 3744 2 MP stroke
-5 -4 5747 3869 2 MP stroke
-5 0 5747 3993 2 MP stroke
-4 -2 5747 4117 2 MP stroke
-5 -2 5747 4242 2 MP stroke
-6 -3 5747 4366 2 MP stroke
-5 -2 5747 4490 2 MP stroke
-6 -3 5747 4615 2 MP stroke
-6 0 5854 389 2 MP stroke
-6 1 5854 513 2 MP stroke
-7 0 5854 637 2 MP stroke
-3 0 5854 1010 2 MP stroke
-3 -1 5854 1134 2 MP stroke
-4 1 5854 1259 2 MP stroke
-3 -2 5854 1383 2 MP stroke
-3 2 5854 1507 2 MP stroke
-4 -1 5854 1631 2 MP stroke
-3 -1 5854 1756 2 MP stroke
-3 -1 5854 1880 2 MP stroke
-3 1 5854 2004 2 MP stroke
-3 -1 5854 2129 2 MP stroke
-3 1 5854 2253 2 MP stroke
-4 -1 5854 2377 2 MP stroke
-3 0 5854 2502 2 MP stroke
-2 -3 5854 2626 2 MP stroke
-3 0 5854 2750 2 MP stroke
-3 0 5854 2874 2 MP stroke
-3 0 5854 2999 2 MP stroke
-6 -1 5854 3123 2 MP stroke
-5 1 5854 3247 2 MP stroke
-6 -3 5854 3372 2 MP stroke
-5 -1 5854 3496 2 MP stroke
-6 -1 5854 3620 2 MP stroke
-6 0 5854 3744 2 MP stroke
-5 -3 5854 3869 2 MP stroke
-5 0 5854 3993 2 MP stroke
-5 -3 5854 4117 2 MP stroke
-6 -2 5854 4242 2 MP stroke
-6 -3 5854 4366 2 MP stroke
-6 0 5854 4490 2 MP stroke
-6 -4 5854 4615 2 MP stroke
5962 389 PD
-5 1 5962 513 2 MP stroke
-5 0 5962 637 2 MP stroke
-1 1 5962 1010 2 MP stroke
-1 -1 5962 1134 2 MP stroke
-2 0 5962 1259 2 MP stroke
-3 -2 5962 1383 2 MP stroke
-2 0 5962 1507 2 MP stroke
-2 0 5962 1631 2 MP stroke
-2 1 5962 1756 2 MP stroke
-2 -1 5962 1880 2 MP stroke
-2 2 5962 2004 2 MP stroke
-2 0 5962 2129 2 MP stroke
-2 1 5962 2253 2 MP stroke
-1 0 5962 2377 2 MP stroke
-3 1 5962 2502 2 MP stroke
-1 -2 5962 2626 2 MP stroke
-2 -1 5962 2750 2 MP stroke
-2 -1 5962 2874 2 MP stroke
-2 -1 5962 2999 2 MP stroke
-3 -1 5962 3123 2 MP stroke
-4 0 5962 3247 2 MP stroke
-4 -2 5962 3372 2 MP stroke
-5 -1 5962 3496 2 MP stroke
-4 -2 5962 3620 2 MP stroke
-5 0 5962 3744 2 MP stroke
-5 -2 5962 3869 2 MP stroke
-4 -1 5962 3993 2 MP stroke
-4 -3 5962 4117 2 MP stroke
-6 -1 5962 4242 2 MP stroke
-5 -3 5962 4366 2 MP stroke
-7 0 5962 4490 2 MP stroke
6070 389 PD
-7 1 6070 513 2 MP stroke
-7 -4 6070 637 2 MP stroke
-1 -3 6070 886 2 MP stroke
-3 -1 6070 1010 2 MP stroke
-3 -3 6070 1134 2 MP stroke
-4 -1 6070 1259 2 MP stroke
-4 -1 6070 1383 2 MP stroke
-4 -1 6070 1507 2 MP stroke
-4 0 6070 1631 2 MP stroke
-4 1 6070 1756 2 MP stroke
-3 0 6070 1880 2 MP stroke
-4 2 6070 2004 2 MP stroke
-4 -1 6070 2129 2 MP stroke
-3 2 6070 2253 2 MP stroke
-3 -1 6070 2377 2 MP stroke
-3 -1 6070 2502 2 MP stroke
-3 -2 6070 2626 2 MP stroke
-3 -1 6070 2750 2 MP stroke
-4 -1 6070 2874 2 MP stroke
-4 -2 6070 2999 2 MP stroke
-6 0 6070 3123 2 MP stroke
-6 0 6070 3247 2 MP stroke
-6 -3 6070 3372 2 MP stroke
-6 -1 6070 3496 2 MP stroke
-6 -1 6070 3620 2 MP stroke
-6 -1 6070 3744 2 MP stroke
-6 -3 6070 3869 2 MP stroke
-6 -1 6070 3993 2 MP stroke
-7 -2 6070 4117 2 MP stroke
-6 -1 6070 4242 2 MP stroke
-7 -3 6070 4366 2 MP stroke
-12 -1 6070 4490 2 MP stroke
6178 389 PD
0 -3 6178 886 2 MP stroke
-2 -1 6178 1010 2 MP stroke
-2 -3 6178 1134 2 MP stroke
-3 -1 6178 1259 2 MP stroke
-3 -1 6178 1383 2 MP stroke
-2 -1 6178 1507 2 MP stroke
-3 0 6178 1631 2 MP stroke
-2 1 6178 1756 2 MP stroke
-2 -1 6178 1880 2 MP stroke
-2 2 6178 2004 2 MP stroke
-3 0 6178 2129 2 MP stroke
-3 -1 6178 2253 2 MP stroke
-2 -1 6178 2377 2 MP stroke
-2 -1 6178 2502 2 MP stroke
-2 -4 6178 2626 2 MP stroke
-3 -1 6178 2750 2 MP stroke
-3 0 6178 2874 2 MP stroke
-2 -1 6178 2999 2 MP stroke
-5 0 6178 3123 2 MP stroke
-4 0 6178 3247 2 MP stroke
-4 -3 6178 3372 2 MP stroke
-4 -1 6178 3496 2 MP stroke
-5 -2 6178 3620 2 MP stroke
-5 -1 6178 3744 2 MP stroke
-4 -3 6178 3869 2 MP stroke
-6 -1 6178 3993 2 MP stroke
-6 -3 6178 4117 2 MP stroke
-5 -1 6178 4242 2 MP stroke
-6 -2 6178 4366 2 MP stroke
-10 -2 6178 4490 2 MP stroke
gr

c8

end %%Color Dict

eplot
%%EndObject

epage
end

showpage

%%Trailer
%%EOF
