%!PS-Adobe-2.0 EPSF-1.2
%%Creator: MATLAB, The MathWorks, Inc. Version 8.3.0.532 (R2014a). Operating System: Linux 3.19.0-31-generic #36~14.04.1-Ubuntu SMP Thu Oct 8 10:21:08 UTC 2015 x86_64.
%%Title: ../../data/output/p4/win_size5n_level1n_iter3min_eig0.0001.eps
%%CreationDate: 11/22/2015  18:49:55
%%DocumentNeededFonts: Helvetica
%%DocumentProcessColors: Cyan Magenta Yellow Black
%%Extensions: CMYK
%%Pages: 1
%%BoundingBox:    78   215   548   583
%%EndComments

%%BeginProlog
% MathWorks dictionary
/MathWorks 160 dict begin
% definition operators
/bdef {bind def} bind def
/ldef {load def} bind def
/xdef {exch def} bdef
/xstore {exch store} bdef
% operator abbreviations
/c  /clip ldef
/cc /concat ldef
/cp /closepath ldef
/gr /grestore ldef
/gs /gsave ldef
/mt /moveto ldef
/np /newpath ldef
/cm /currentmatrix ldef
/sm /setmatrix ldef
/rm /rmoveto ldef
/rl /rlineto ldef
/s {show newpath} bdef
/sc {setcmykcolor} bdef
/sr /setrgbcolor ldef
/sg /setgray ldef
/w /setlinewidth ldef
/j /setlinejoin ldef
/cap /setlinecap ldef
/rc {rectclip} bdef
/rf {rectfill} bdef
% page state control
/pgsv () def
/bpage {/pgsv save def} bdef
/epage {pgsv restore} bdef
/bplot /gsave ldef
/eplot {stroke grestore} bdef
% orientation switch
/portraitMode 0 def /landscapeMode 1 def /rotateMode 2 def
% coordinate system mappings
/dpi2point 0 def
% font control
/FontSize 0 def
/FMS {/FontSize xstore findfont [FontSize 0 0 FontSize neg 0 0]
  makefont setfont} bdef
/reencode {exch dup where {pop load} {pop StandardEncoding} ifelse
  exch dup 3 1 roll findfont dup length dict begin
  { 1 index /FID ne {def}{pop pop} ifelse } forall
  /Encoding exch def currentdict end definefont pop} bdef
/isroman {findfont /CharStrings get /Agrave known} bdef
/FMSR {3 1 roll 1 index dup isroman {reencode} {pop pop} ifelse
  exch FMS} bdef
/csm {1 dpi2point div -1 dpi2point div scale neg translate
 dup landscapeMode eq {pop -90 rotate}
  {rotateMode eq {90 rotate} if} ifelse} bdef
% line types: solid, dotted, dashed, dotdash
/SO { [] 0 setdash } bdef
/DO { [.5 dpi2point mul 4 dpi2point mul] 0 setdash } bdef
/DA { [6 dpi2point mul] 0 setdash } bdef
/DD { [.5 dpi2point mul 4 dpi2point mul 6 dpi2point mul 4
  dpi2point mul] 0 setdash } bdef
% macros for lines and objects
/L {lineto stroke} bdef
/MP {3 1 roll moveto 1 sub {rlineto} repeat} bdef
/AP {{rlineto} repeat} bdef
/PDlw -1 def
/W {/PDlw currentlinewidth def setlinewidth} def
/PP {closepath eofill} bdef
/DP {closepath stroke} bdef
/MR {4 -2 roll moveto dup  0 exch rlineto exch 0 rlineto
  neg 0 exch rlineto closepath} bdef
/FR {MR stroke} bdef
/PR {MR fill} bdef
/L1i {{currentfile picstr readhexstring pop} image} bdef
/tMatrix matrix def
/MakeOval {newpath tMatrix currentmatrix pop translate scale
0 0 1 0 360 arc tMatrix setmatrix} bdef
/FO {MakeOval stroke} bdef
/PO {MakeOval fill} bdef
/PD {currentlinewidth 2 div 0 360 arc fill
   PDlw -1 eq not {PDlw w /PDlw -1 def} if} def
/FA {newpath tMatrix currentmatrix pop translate scale
  0 0 1 5 -2 roll arc tMatrix setmatrix stroke} bdef
/PA {newpath tMatrix currentmatrix pop	translate 0 0 moveto scale
  0 0 1 5 -2 roll arc closepath tMatrix setmatrix fill} bdef
/FAn {newpath tMatrix currentmatrix pop translate scale
  0 0 1 5 -2 roll arcn tMatrix setmatrix stroke} bdef
/PAn {newpath tMatrix currentmatrix pop translate 0 0 moveto scale
  0 0 1 5 -2 roll arcn closepath tMatrix setmatrix fill} bdef
/vradius 0 def /hradius 0 def /lry 0 def
/lrx 0 def /uly 0 def /ulx 0 def /rad 0 def
/MRR {/vradius xdef /hradius xdef /lry xdef /lrx xdef /uly xdef
  /ulx xdef newpath tMatrix currentmatrix pop ulx hradius add uly
  vradius add translate hradius vradius scale 0 0 1 180 270 arc 
  tMatrix setmatrix lrx hradius sub uly vradius add translate
  hradius vradius scale 0 0 1 270 360 arc tMatrix setmatrix
  lrx hradius sub lry vradius sub translate hradius vradius scale
  0 0 1 0 90 arc tMatrix setmatrix ulx hradius add lry vradius sub
  translate hradius vradius scale 0 0 1 90 180 arc tMatrix setmatrix
  closepath} bdef
/FRR {MRR stroke } bdef
/PRR {MRR fill } bdef
/MlrRR {/lry xdef /lrx xdef /uly xdef /ulx xdef /rad lry uly sub 2 div def
  newpath tMatrix currentmatrix pop ulx rad add uly rad add translate
  rad rad scale 0 0 1 90 270 arc tMatrix setmatrix lrx rad sub lry rad
  sub translate rad rad scale 0 0 1 270 90 arc tMatrix setmatrix
  closepath} bdef
/FlrRR {MlrRR stroke } bdef
/PlrRR {MlrRR fill } bdef
/MtbRR {/lry xdef /lrx xdef /uly xdef /ulx xdef /rad lrx ulx sub 2 div def
  newpath tMatrix currentmatrix pop ulx rad add uly rad add translate
  rad rad scale 0 0 1 180 360 arc tMatrix setmatrix lrx rad sub lry rad
  sub translate rad rad scale 0 0 1 0 180 arc tMatrix setmatrix
  closepath} bdef
/FtbRR {MtbRR stroke } bdef
/PtbRR {MtbRR fill } bdef
/stri 6 array def /dtri 6 array def
/smat 6 array def /dmat 6 array def
/tmat1 6 array def /tmat2 6 array def /dif 3 array def
/asub {/ind2 exch def /ind1 exch def dup dup
  ind1 get exch ind2 get sub exch } bdef
/tri_to_matrix {
  2 0 asub 3 1 asub 4 0 asub 5 1 asub
  dup 0 get exch 1 get 7 -1 roll astore } bdef
/compute_transform {
  dmat dtri tri_to_matrix tmat1 invertmatrix 
  smat stri tri_to_matrix tmat2 concatmatrix } bdef
/ds {stri astore pop} bdef
/dt {dtri astore pop} bdef
/db {2 copy /cols xdef /rows xdef mul dup 3 mul string
  currentfile exch readhexstring pop
  dup 0 3 index getinterval /rbmap xdef
  dup 2 index dup getinterval /gbmap xdef
  1 index dup 2 mul exch getinterval /bbmap xdef pop pop}bdef
/it {gs np dtri aload pop moveto lineto lineto cp c
  cols rows 8 compute_transform 
  rbmap gbmap bbmap true 3 colorimage gr}bdef
/il {newpath moveto lineto stroke}bdef
currentdict end def
%%EndProlog

%%BeginSetup
MathWorks begin

0 cap

end
%%EndSetup

%%Page: 1 1
%%BeginPageSetup
%%PageBoundingBox:    78   215   548   583
MathWorks begin
bpage
%%EndPageSetup

%%BeginObject: obj1
bplot

/dpi2point 12 def
portraitMode 0216 7344 csm

  731   341  5640  4420 MR c np
85 dict begin %Colortable dictionary
/c0 { 0.000000 0.000000 0.000000 sr} bdef
/c1 { 1.000000 1.000000 1.000000 sr} bdef
/c2 { 0.900000 0.000000 0.000000 sr} bdef
/c3 { 0.000000 0.820000 0.000000 sr} bdef
/c4 { 0.000000 0.000000 0.800000 sr} bdef
/c5 { 0.910000 0.820000 0.320000 sr} bdef
/c6 { 1.000000 0.260000 0.820000 sr} bdef
/c7 { 0.000000 0.820000 0.820000 sr} bdef
c0
1 j
1 sg
   0    0 6913 5186 PR
6 w
0 -4226 5356 0 0 4226 899 389 4 MP
PP
-5356 0 0 -4226 5356 0 0 4226 899 389 5 MP stroke
4 w
DO
SO
6 w
0 sg
 899  389 mt 6255  389 L
 899 4615 mt 6255 4615 L
 899  389 mt  899 4615 L
6255  389 mt 6255 4615 L
 899 4615 mt 6255 4615 L
 899  389 mt  899 4615 L
1406 4615 mt 1406 4561 L
1406  389 mt 1406  442 L
%%IncludeResource: font Helvetica
/Helvetica /ISOLatin1Encoding 120 FMSR

1373 4760 mt 
(5) s
1945 4615 mt 1945 4561 L
1945  389 mt 1945  442 L
1879 4760 mt 
(10) s
2484 4615 mt 2484 4561 L
2484  389 mt 2484  442 L
2418 4760 mt 
(15) s
3022 4615 mt 3022 4561 L
3022  389 mt 3022  442 L
2956 4760 mt 
(20) s
3561 4615 mt 3561 4561 L
3561  389 mt 3561  442 L
3495 4760 mt 
(25) s
4100 4615 mt 4100 4561 L
4100  389 mt 4100  442 L
4034 4760 mt 
(30) s
4638 4615 mt 4638 4561 L
4638  389 mt 4638  442 L
4572 4760 mt 
(35) s
5177 4615 mt 5177 4561 L
5177  389 mt 5177  442 L
5111 4760 mt 
(40) s
5716 4615 mt 5716 4561 L
5716  389 mt 5716  442 L
5650 4760 mt 
(45) s
6255 4615 mt 6255 4561 L
6255  389 mt 6255  442 L
6189 4760 mt 
(50) s
 899  974 mt  952  974 L
6255  974 mt 6201  974 L
 798 1018 mt 
(5) s
 899 1596 mt  952 1596 L
6255 1596 mt 6201 1596 L
 731 1640 mt 
(10) s
 899 2217 mt  952 2217 L
6255 2217 mt 6201 2217 L
 731 2261 mt 
(15) s
 899 2839 mt  952 2839 L
6255 2839 mt 6201 2839 L
 731 2883 mt 
(20) s
 899 3460 mt  952 3460 L
6255 3460 mt 6201 3460 L
 731 3504 mt 
(25) s
 899 4082 mt  952 4082 L
6255 4082 mt 6201 4082 L
 731 4126 mt 
(30) s
 899  389 mt 6255  389 L
 899 4615 mt 6255 4615 L
 899  389 mt  899 4615 L
6255  389 mt 6255 4615 L
gs 899 389 5357 4227 MR c np
/c8 { 0.000000 0.000000 1.000000 sr} bdef
c8
-5 -10 8 6 910 1524 3 MP stroke
3 1 -2 0 999 389 3 MP stroke
3 0 -3 2 1000 513 3 MP stroke
2 1 -2 0 1003 636 3 MP stroke
-5 8 1 -10 1015 869 3 MP stroke
1 3 -2 -2 1003 1005 3 MP stroke
1 2 -2 0 1002 1131 3 MP stroke
3 0 -3 1 1000 1260 3 MP stroke
0 1 1005 1382 2 MP stroke
3 1 -4 0 1000 1505 3 MP stroke
5 5 -6 -2 995 1624 3 MP stroke
0 3 -1 -2 1005 2372 3 MP stroke
2 1 -2 0 1003 2500 3 MP stroke
1 1 -2 0 1003 2625 3 MP stroke
1 1 -1 0 1003 2748 3 MP stroke
1 3 -2 -2 1004 2868 3 MP stroke
2 0 -2 1 1003 2999 3 MP stroke
2 2 -2 -1 1003 3119 3 MP stroke
1 1 -2 0 1004 3245 3 MP stroke
1 1 -1 0 1004 3369 3 MP stroke
1 1 -1 0 1004 3494 3 MP stroke
2 1 -2 0 1003 3618 3 MP stroke
2 1 -3 0 1001 3743 3 MP stroke
3 2 -3 0 1001 3867 3 MP stroke
2 0 -2 1 1002 3993 3 MP stroke
2 1 -2 1 1001 4116 3 MP stroke
2 1 -2 0 1001 4241 3 MP stroke
2 1 -2 0 1001 4365 3 MP stroke
3 1 -3 0 1001 4490 3 MP stroke
0 1 -1 -1 1113 511 3 MP stroke
8 2 -8 3 1097 636 3 MP stroke
4 0 -3 2 1107 888 3 MP stroke
6 -2 -4 5 1102 1015 3 MP stroke
2 3 -3 -1 1109 1128 3 MP stroke
4 0 -3 2 1106 1260 3 MP stroke
2 1 -2 0 1110 1382 3 MP stroke
4 2 -4 0 1106 1504 3 MP stroke
2 3 -3 -1 1109 1627 3 MP stroke
4 1 -4 1 1107 2376 3 MP stroke
4 1 -4 1 1108 2500 3 MP stroke
3 1 -3 1 1109 2624 3 MP stroke
2 2 -3 0 1109 2746 3 MP stroke
2 4 -4 -2 1108 2866 3 MP stroke
2 2 -3 -1 1109 2995 3 MP stroke
2 2 -2 -1 1109 3120 3 MP stroke
2 2 -3 -1 1111 3244 3 MP stroke
2 2 -2 -1 1111 3369 3 MP stroke
2 1 -2 0 1110 3494 3 MP stroke
3 2 -4 0 1108 3618 3 MP stroke
4 1 -4 1 1106 3743 3 MP stroke
3 1 -3 0 1108 3867 3 MP stroke
4 1 -4 1 1107 3991 3 MP stroke
4 1 -4 1 1107 4116 3 MP stroke
3 1 -3 1 1107 4241 3 MP stroke
3 1 -4 1 1107 4364 3 MP stroke
4 1 -4 1 1106 4489 3 MP stroke
3 -1 -3 2 1216 515 3 MP stroke
3 1 -3 0 1216 635 3 MP stroke
4 -1 -3 3 1214 763 3 MP stroke
2 1 -2 1 1217 886 3 MP stroke
4 -1 -3 3 1214 1013 3 MP stroke
1 1 -1 0 1219 1132 3 MP stroke
1 1 -1 0 1221 1382 3 MP stroke
1 0 -1 0 1221 1507 3 MP stroke
1222 1631 PD
1 1 -2 0 1219 2499 3 MP stroke
1 2 -2 -1 1220 2623 3 MP stroke
0 2 -1 -2 1222 2748 3 MP stroke
2 1 -2 0 1218 2873 3 MP stroke
2 0 -2 1 1219 2998 3 MP stroke
2 0 -2 1 1219 3122 3 MP stroke
1 1 -2 0 1219 3245 3 MP stroke
1 1 -1 0 1219 3370 3 MP stroke
2 1 -2 0 1217 3494 3 MP stroke
2 1 -3 0 1218 3618 3 MP stroke
2 2 -2 0 1217 3742 3 MP stroke
2 1 -2 1 1216 3867 3 MP stroke
3 1 -3 1 1216 3992 3 MP stroke
1 1 -2 0 1218 4115 3 MP stroke
2 1 -2 1 1217 4241 3 MP stroke
2 1 -2 0 1217 4365 3 MP stroke
2 1 -2 1 1216 4489 3 MP stroke
5 1 -4 2 1320 513 3 MP stroke
3 2 -3 0 1324 633 3 MP stroke
3 1 -3 1 1323 762 3 MP stroke
1 5 -3 -4 1328 876 3 MP stroke
4 2 -5 1 1321 1007 3 MP stroke
6 5 -7 -1 1315 1128 3 MP stroke
5 1 -5 2 1319 1257 3 MP stroke
1329 1507 PD
3 3 -4 -1 1323 2497 3 MP stroke
4 3 -5 -1 1322 2621 3 MP stroke
0 2 -1 -2 1328 2746 3 MP stroke
2 2 -3 0 1325 2872 3 MP stroke
-1 1 1329 2996 2 MP stroke
0 1 1328 3121 2 MP stroke
2 1 -3 1 1324 3245 3 MP stroke
1 1 -2 0 1327 3369 3 MP stroke
2 1 -3 0 1324 3494 3 MP stroke
3 2 -4 0 1323 3618 3 MP stroke
3 1 -3 0 1323 3742 3 MP stroke
3 2 -4 0 1323 3867 3 MP stroke
4 2 -4 0 1322 3991 3 MP stroke
3 2 -3 0 1322 4116 3 MP stroke
3 2 -4 0 1323 4240 3 MP stroke
4 3 -4 0 1321 4361 3 MP stroke
4 2 -4 0 1322 4488 3 MP stroke
4 0 -4 3 1429 514 3 MP stroke
2 1 -2 0 1433 635 3 MP stroke
4 2 -4 0 1429 758 3 MP stroke
2 2 -3 0 1432 883 3 MP stroke
5 0 -5 2 1428 1011 3 MP stroke
3 2 -3 -1 1432 1131 3 MP stroke
1 1 -1 0 1434 1257 3 MP stroke
-1 0 1 -1 1440 1384 3 MP stroke
1 1 -1 0 1434 2500 3 MP stroke
2 1 -2 0 1433 2624 3 MP stroke
0 -1 0 0 1437 3123 3 MP stroke
2 0 -2 1 1433 3246 3 MP stroke
2 1 -2 0 1434 3370 3 MP stroke
2 0 -2 0 1434 3495 3 MP stroke
1 2 -2 -1 1433 3617 3 MP stroke
2 1 -2 0 1433 3743 3 MP stroke
3 1 -3 0 1433 3867 3 MP stroke
2 1 -2 0 1433 3991 3 MP stroke
2 2 -2 -1 1432 4114 3 MP stroke
3 2 -3 0 1431 4239 3 MP stroke
2 2 -2 -1 1432 4362 3 MP stroke
3 1 -3 0 1432 4489 3 MP stroke
3 1 -3 1 1431 4612 3 MP stroke
2 0 1536 389 2 MP stroke
4 0 -4 2 1537 514 3 MP stroke
1 0 -1 1 1542 639 3 MP stroke
5 1 -5 2 1536 760 3 MP stroke
3 2 -4 0 1537 882 3 MP stroke
4 0 -4 2 1537 1011 3 MP stroke
4 1 -4 1 1536 1134 3 MP stroke
4 1 -4 1 1537 1259 3 MP stroke
4 1 -4 1 1538 1381 3 MP stroke
1545 1507 PD
1545 1631 PD
2 1 -2 0 1540 2499 3 MP stroke
2 0 -2 1 1542 3122 3 MP stroke
2 1 -2 0 1541 3246 3 MP stroke
2 1 -2 0 1541 3371 3 MP stroke
3 1 -3 0 1540 3495 3 MP stroke
3 2 -3 0 1539 3617 3 MP stroke
2 -1 -2 2 1541 3746 3 MP stroke
4 1 -4 1 1537 3867 3 MP stroke
3 0 -3 1 1539 3993 3 MP stroke
3 2 -3 -1 1539 4114 3 MP stroke
3 1 -3 1 1538 4239 3 MP stroke
4 2 -4 1 1537 4364 3 MP stroke
3 2 -3 0 1538 4489 3 MP stroke
4 2 -4 0 1538 4612 3 MP stroke
3 0 -2 2 1646 514 3 MP stroke
3 2 -3 0 1646 635 3 MP stroke
4 0 -3 2 1644 762 3 MP stroke
3 1 -3 0 1646 884 3 MP stroke
4 -1 -3 3 1645 1012 3 MP stroke
2 1 -2 0 1649 1132 3 MP stroke
4 -1 -3 3 1647 1261 3 MP stroke
2 0 -2 1 1648 1382 3 MP stroke
2 0 -2 0 1650 1507 3 MP stroke
3 -1 -2 3 1647 2504 3 MP stroke
2 0 -2 1 1650 2625 3 MP stroke
1 0 -1 1 1649 2750 3 MP stroke
2 0 -2 1 1649 3122 3 MP stroke
3 1 -3 0 1647 3246 3 MP stroke
2 1 -2 1 1647 3370 3 MP stroke
1 1 -2 0 1650 3494 3 MP stroke
2 1 -2 0 1648 3619 3 MP stroke
1 1 -1 0 1649 3744 3 MP stroke
2 1 -2 0 1649 3867 3 MP stroke
2 1 -3 0 1649 3991 3 MP stroke
3 1 -3 0 1647 4116 3 MP stroke
3 2 -3 0 1647 4238 3 MP stroke
2 1 -2 0 1647 4364 3 MP stroke
3 1 -3 1 1648 4489 3 MP stroke
4 1 -4 1 1754 511 3 MP stroke
4 2 -4 0 1752 634 3 MP stroke
3 0 -3 2 1755 763 3 MP stroke
3 1 -3 1 1754 884 3 MP stroke
1 3 -2 -2 1757 1006 3 MP stroke
3 1 -3 1 1754 1132 3 MP stroke
4 -3 -2 5 1753 1265 3 MP stroke
2 0 -2 1 1756 1384 3 MP stroke
1 1 -1 0 1758 1506 3 MP stroke
4 2 -4 0 1752 1629 3 MP stroke
3 -1 -3 2 1755 2504 3 MP stroke
3 2 -4 0 1754 2624 3 MP stroke
3 -1 -2 3 1754 2753 3 MP stroke
2 1 -2 0 1757 2873 3 MP stroke
0 1 -1 -1 1760 2998 3 MP stroke
0 1 -1 -1 1760 3122 3 MP stroke
4 1 -4 1 1754 3245 3 MP stroke
4 1 -4 0 1754 3370 3 MP stroke
3 1 -3 1 1754 3494 3 MP stroke
3 2 -3 0 1753 3617 3 MP stroke
3 2 -4 0 1753 3742 3 MP stroke
4 2 -4 0 1752 3867 3 MP stroke
4 2 -5 0 1753 3989 3 MP stroke
3 2 -4 0 1754 4114 3 MP stroke
5 0 -5 2 1751 4242 3 MP stroke
4 2 -4 1 1752 4363 3 MP stroke
4 2 -4 0 1753 4489 3 MP stroke
1 0 -1 1 1865 514 3 MP stroke
4 1 -4 1 1859 636 3 MP stroke
2 1 -2 1 1863 761 3 MP stroke
5 2 -5 1 1859 884 3 MP stroke
6 0 -5 3 1857 1012 3 MP stroke
0 1 1868 1136 2 MP stroke
3 0 -3 1 1863 1258 3 MP stroke
2 1 -3 1 1863 1381 3 MP stroke
1 0 -1 0 1865 1507 3 MP stroke
0 2 -1 -2 1867 1628 3 MP stroke
2 1 -2 0 1865 2624 3 MP stroke
1 0 -1 1 1866 2750 3 MP stroke
1 1 -1 1 1864 2873 3 MP stroke
1 -1 0 1 1866 3000 3 MP stroke
2 2 -2 -1 1865 3118 3 MP stroke
1 1 -1 0 1865 3246 3 MP stroke
1 1 -2 0 1865 3369 3 MP stroke
2 1 -2 1 1864 3494 3 MP stroke
3 0 -3 1 1864 3619 3 MP stroke
2 1 -2 0 1864 3743 3 MP stroke
1 1 -1 0 1865 3867 3 MP stroke
2 0 -2 1 1863 3993 3 MP stroke
2 3 -3 -1 1862 4114 3 MP stroke
2 1 -2 0 1863 4240 3 MP stroke
2 2 -3 -1 1864 4364 3 MP stroke
3 1 -3 0 1862 4488 3 MP stroke
3 1 -3 0 1863 4613 3 MP stroke
1 -1 0 2 1973 515 3 MP stroke
6 2 -6 1 1963 635 3 MP stroke
4 0 -4 3 1967 763 3 MP stroke
1 0 -1 1 1974 886 3 MP stroke
-3 5 0 -6 1981 999 3 MP stroke
1 0 1975 1135 2 MP stroke
3 1 -3 0 1971 1258 3 MP stroke
3 2 -3 -1 1969 1380 3 MP stroke
3 1 -3 1 1970 1506 3 MP stroke
1976 1631 PD
4 4 -5 -1 1968 2495 3 MP stroke
4 3 -4 0 1968 2621 3 MP stroke
3 0 -3 2 1969 2749 3 MP stroke
3 1 -4 1 1970 2872 3 MP stroke
3 2 -3 0 1970 2997 3 MP stroke
3 1 -3 0 1970 3122 3 MP stroke
2 2 -2 0 1970 3245 3 MP stroke
4 2 -4 0 1968 3370 3 MP stroke
4 2 -5 1 1968 3493 3 MP stroke
4 2 -5 0 1968 3618 3 MP stroke
4 1 -4 1 1968 3743 3 MP stroke
3 1 -3 1 1970 3867 3 MP stroke
3 2 -4 0 1970 3990 3 MP stroke
3 2 -4 0 1969 4115 3 MP stroke
4 2 -4 0 1968 4238 3 MP stroke
4 2 -4 0 1969 4364 3 MP stroke
4 2 -4 0 1968 4488 3 MP stroke
2079 389 PD
5 0 -4 3 2073 515 3 MP stroke
3 3 -4 -1 2078 632 3 MP stroke
3 0 -3 2 2077 761 3 MP stroke
3 1 -3 0 2078 885 3 MP stroke
3 2 -3 -1 2078 1007 3 MP stroke
3 0 -3 1 2079 1134 3 MP stroke
1 0 -1 1 2082 1259 3 MP stroke
2 1 -2 0 2080 1382 3 MP stroke
-1 1 1 -2 2086 1505 3 MP stroke
2 1 -2 0 2080 1629 3 MP stroke
1 1 -1 -1 2081 2374 3 MP stroke
2 1 -2 0 2080 2500 3 MP stroke
2 2 -2 -1 2080 2623 3 MP stroke
2 0 -1 1 2080 2750 3 MP stroke
2 1 -2 0 2080 2871 3 MP stroke
2 -1 -2 2 2080 3001 3 MP stroke
0 1 -1 -1 2082 3121 3 MP stroke
2 1 -2 0 2081 3245 3 MP stroke
2 1 -2 1 2079 3370 3 MP stroke
2 1 -2 1 2079 3494 3 MP stroke
1 1 -2 0 2080 3618 3 MP stroke
3 1 -3 1 2079 3743 3 MP stroke
3 2 -3 0 2079 3866 3 MP stroke
3 1 -3 0 2078 3992 3 MP stroke
3 1 -3 1 2078 4116 3 MP stroke
3 1 -3 0 2079 4240 3 MP stroke
3 2 -3 0 2077 4363 3 MP stroke
2 2 -3 -1 2079 4487 3 MP stroke
2186 389 PD
5 1 -5 2 2182 513 3 MP stroke
4 1 -4 1 2184 636 3 MP stroke
2 3 -3 -2 2187 756 3 MP stroke
6 1 -6 2 2180 885 3 MP stroke
4 1 -4 2 2183 1008 3 MP stroke
3 1 -4 1 2185 1133 3 MP stroke
7 1 -6 2 2177 1258 3 MP stroke
2 1 -2 0 2187 1382 3 MP stroke
2 0 -2 1 2187 1630 3 MP stroke
2 3 -3 -1 2186 2373 3 MP stroke
3 1 -3 1 2185 2501 3 MP stroke
2 0 -2 1 2187 2625 3 MP stroke
3 1 -3 1 2186 2748 3 MP stroke
3 3 -4 -1 2186 2869 3 MP stroke
3 1 -3 1 2185 2998 3 MP stroke
3 1 -3 0 2185 3121 3 MP stroke
3 1 -3 1 2185 3245 3 MP stroke
2 2 -2 0 2187 3369 3 MP stroke
3 1 -3 1 2184 3495 3 MP stroke
3 1 -3 1 2185 3618 3 MP stroke
3 1 -3 1 2185 3743 3 MP stroke
2 1 -3 1 2186 3867 3 MP stroke
4 1 -4 1 2183 3991 3 MP stroke
4 2 -4 0 2184 4115 3 MP stroke
4 1 -4 1 2183 4241 3 MP stroke
4 3 -5 0 2183 4362 3 MP stroke
4 1 -4 1 2183 4489 3 MP stroke
4 -1 -3 3 2292 515 3 MP stroke
4 1 -4 1 2291 636 3 MP stroke
3 1 -3 1 2293 761 3 MP stroke
3 2 -3 0 2293 883 3 MP stroke
4 0 -4 1 2293 1010 3 MP stroke
2 4 -3 -2 2294 1128 3 MP stroke
3 1 -3 1 2292 1258 3 MP stroke
2 0 -2 1 2294 1382 3 MP stroke
0 -1 0 1 2299 1510 3 MP stroke
2 1 -2 0 2296 1631 3 MP stroke
1 1 -1 0 2296 1755 3 MP stroke
1 0 -1 1 2296 1881 3 MP stroke
2 0 -2 1 2295 2253 3 MP stroke
3 1 -3 0 2294 2376 3 MP stroke
1 1 -2 0 2297 2500 3 MP stroke
2 0 -2 1 2296 2625 3 MP stroke
1 1 -1 -1 2298 2748 3 MP stroke
0 3 -1 -2 2298 2870 3 MP stroke
1 2 -1 -1 2298 2996 3 MP stroke
1 1 -2 0 2296 3122 3 MP stroke
1 1 -1 0 2297 3246 3 MP stroke
2 1 -2 1 2295 3370 3 MP stroke
2 1 -2 0 2295 3495 3 MP stroke
2 2 -3 0 2295 3618 3 MP stroke
2 1 -2 0 2294 3742 3 MP stroke
2 1 -3 1 2294 3867 3 MP stroke
3 1 -3 1 2293 3992 3 MP stroke
2 1 -2 0 2295 4116 3 MP stroke
2 1 -2 0 2295 4240 3 MP stroke
2 2 -3 0 2295 4362 3 MP stroke
3 1 -3 1 2293 4489 3 MP stroke
2 1 -3 1 2295 4613 3 MP stroke
4 0 -4 3 2399 514 3 MP stroke
3 1 -3 1 2400 637 3 MP stroke
4 1 -4 1 2399 761 3 MP stroke
4 1 -4 1 2399 885 3 MP stroke
4 0 -4 2 2399 1011 3 MP stroke
0 5 -2 -4 2404 1124 3 MP stroke
2 2 -2 -1 2402 1504 3 MP stroke
2 1 -2 1 2402 1631 3 MP stroke
3 1 -3 1 2400 1754 3 MP stroke
3 1 -3 1 2402 1879 3 MP stroke
4 1 -4 1 2399 2004 3 MP stroke
2 2 -3 0 2401 2126 3 MP stroke
4 0 -4 2 2400 2254 3 MP stroke
3 2 -4 1 2399 2374 3 MP stroke
3 1 -4 0 2401 2500 3 MP stroke
3 1 -3 1 2400 2625 3 MP stroke
2 0 -2 1 2402 2752 3 MP stroke
4 1 -4 1 2400 2872 3 MP stroke
2 1 -2 1 2402 2998 3 MP stroke
3 1 -3 0 2402 3122 3 MP stroke
4 1 -4 1 2399 3246 3 MP stroke
2 1 -2 0 2401 3369 3 MP stroke
3 1 -3 1 2399 3494 3 MP stroke
3 1 -3 1 2399 3618 3 MP stroke
3 2 -3 0 2399 3742 3 MP stroke
3 3 -3 -1 2400 3865 3 MP stroke
3 1 -3 1 2400 3992 3 MP stroke
3 1 -4 0 2401 4116 3 MP stroke
3 1 -4 1 2399 4239 3 MP stroke
4 2 -4 0 2399 4362 3 MP stroke
4 1 -4 1 2399 4488 3 MP stroke
3 1 -3 0 2509 512 3 MP stroke
3 0 -3 1 2508 637 3 MP stroke
2 0 -2 1 2511 886 3 MP stroke
3 -1 -3 2 2510 1011 3 MP stroke
5 2 -5 1 2505 1130 3 MP stroke
5 -1 -4 3 2506 1261 3 MP stroke
3 2 -3 0 2507 1382 3 MP stroke
4 -1 -3 3 2507 1509 3 MP stroke
1 0 -1 0 2512 1632 3 MP stroke
2 -1 -1 1 2511 1758 3 MP stroke
3 -3 -1 4 2509 1888 3 MP stroke
1 2 -2 -1 2512 2001 3 MP stroke
1 1 -2 -1 2512 2127 3 MP stroke
2 0 -1 1 2512 2255 3 MP stroke
2 2 -2 -1 2512 2375 3 MP stroke
1 1 -1 0 2512 2500 3 MP stroke
1 1 -2 0 2512 2624 3 MP stroke
2 0 -2 1 2512 2749 3 MP stroke
1 1 -1 0 2512 2873 3 MP stroke
1 1 -1 -1 2512 2997 3 MP stroke
1 1 -2 0 2513 3121 3 MP stroke
1 1 -1 -1 2511 3246 3 MP stroke
2 0 -2 1 2511 3370 3 MP stroke
1 1 -2 0 2512 3494 3 MP stroke
1 0 -1 1 2512 3619 3 MP stroke
1 1 -2 0 2512 3743 3 MP stroke
2 1 -3 0 2510 3866 3 MP stroke
2 1 -2 1 2510 3992 3 MP stroke
2 1 -2 0 2511 4116 3 MP stroke
2 1 -3 0 2510 4240 3 MP stroke
2 2 -3 0 2510 4363 3 MP stroke
3 1 -3 1 2509 4489 3 MP stroke
2 1 -1 0 2616 389 3 MP stroke
5 0 -4 3 2613 514 3 MP stroke
5 1 -4 2 2613 637 3 MP stroke
4 2 -5 1 2613 757 3 MP stroke
5 1 -5 2 2614 886 3 MP stroke
4 2 -5 0 2615 1005 3 MP stroke
4 2 -4 0 2614 1132 3 MP stroke
4 -2 -3 4 2614 1262 3 MP stroke
4 3 -5 -1 2614 1378 3 MP stroke
4 0 -4 2 2615 1507 3 MP stroke
4 1 -4 1 2615 1630 3 MP stroke
-2 0 2 -1 2625 1756 3 MP stroke
2 1 -2 0 2619 1878 3 MP stroke
1 0 -1 0 2620 2004 3 MP stroke
1 1 -1 0 2619 2128 3 MP stroke
3 -1 -2 2 2618 2257 3 MP stroke
3 0 -2 2 2617 2377 3 MP stroke
3 2 -3 0 2617 2499 3 MP stroke
3 0 -3 1 2617 2625 3 MP stroke
2 1 -2 1 2616 2749 3 MP stroke
2 2 -3 -1 2618 2872 3 MP stroke
2 2 -3 0 2618 2996 3 MP stroke
2 2 -3 -1 2618 3121 3 MP stroke
3 1 -3 0 2618 3246 3 MP stroke
3 1 -3 0 2616 3371 3 MP stroke
4 1 -4 1 2615 3495 3 MP stroke
4 2 -4 1 2614 3618 3 MP stroke
3 1 -3 1 2615 3744 3 MP stroke
4 1 -4 1 2614 3867 3 MP stroke
3 1 -3 0 2616 3992 3 MP stroke
4 1 -4 1 2615 4116 3 MP stroke
4 2 -4 1 2614 4239 3 MP stroke
3 3 -4 -1 2616 4362 3 MP stroke
5 2 -5 1 2612 4488 3 MP stroke
2 0 2722 389 2 MP stroke
4 -1 -3 3 2722 516 3 MP stroke
3 1 -3 1 2724 636 3 MP stroke
3 0 -3 2 2723 762 3 MP stroke
3 1 -3 1 2723 885 3 MP stroke
1 1 -1 0 2726 1010 3 MP stroke
1 1 -1 0 2727 1133 3 MP stroke
1 0 -1 1 2727 1258 3 MP stroke
2 2 -2 -2 2727 1379 3 MP stroke
2 0 -2 1 2726 1507 3 MP stroke
2 2 -2 -1 2727 1628 3 MP stroke
1 2 -1 -1 2728 1752 3 MP stroke
0 3 -1 -3 2730 1875 3 MP stroke
1 1 -2 0 2728 2376 3 MP stroke
0 1 -1 -1 2730 2499 3 MP stroke
1 0 -1 1 2727 2625 3 MP stroke
-1 1 2728 2748 2 MP stroke
1 0 -1 0 2728 2874 3 MP stroke
1 1 -1 0 2728 2998 3 MP stroke
1 2 -1 -1 2728 3121 3 MP stroke
1 0 -1 0 2727 3247 3 MP stroke
1 2 -1 -1 2727 3369 3 MP stroke
2 1 -2 0 2725 3494 3 MP stroke
2 2 -2 0 2725 3618 3 MP stroke
2 1 -2 1 2724 3743 3 MP stroke
2 1 -2 0 2726 3868 3 MP stroke
2 1 -2 0 2726 3992 3 MP stroke
3 1 -3 0 2725 4116 3 MP stroke
3 1 -3 0 2723 4240 3 MP stroke
2 2 -3 0 2725 4363 3 MP stroke
3 2 -3 0 2723 4488 3 MP stroke
2 0 2828 389 2 MP stroke
2 -1 -1 2 2833 514 3 MP stroke
3 0 -3 2 2832 638 3 MP stroke
4 2 -4 0 2829 758 3 MP stroke
2 1 -3 0 2834 1256 3 MP stroke
-2 -1 2 -1 2843 1384 3 MP stroke
1 -1 -1 1 2837 1510 3 MP stroke
2838 1631 PD
2838 2377 PD
2 1 -2 1 2832 2501 3 MP stroke
2 1 -2 1 2832 2624 3 MP stroke
3 1 -3 0 2832 2749 3 MP stroke
3 2 -3 -1 2832 2871 3 MP stroke
3 1 -3 1 2832 2998 3 MP stroke
3 1 -3 0 2832 3122 3 MP stroke
3 1 -3 1 2833 3246 3 MP stroke
3 3 -3 -1 2832 3368 3 MP stroke
4 2 -4 1 2830 3494 3 MP stroke
3 2 -4 1 2831 3618 3 MP stroke
3 1 -3 0 2831 3744 3 MP stroke
3 1 -3 1 2832 3867 3 MP stroke
3 1 -3 1 2831 3992 3 MP stroke
4 1 -4 1 2831 4116 3 MP stroke
3 2 -3 0 2831 4239 3 MP stroke
4 1 -4 1 2831 4365 3 MP stroke
4 2 -4 0 2831 4488 3 MP stroke
3 1 -3 1 2831 4612 3 MP stroke
5 -1 -4 4 2937 516 3 MP stroke
1 -1 -1 1 2944 639 3 MP stroke
3 -1 -2 2 2941 888 3 MP stroke
3 0 -3 2 2939 1011 3 MP stroke
4 1 -4 1 2937 1132 3 MP stroke
4 0 -4 2 2939 1259 3 MP stroke
3 1 -3 0 2940 1381 3 MP stroke
2 0 -2 1 2942 1508 3 MP stroke
0 -1 0 0 2945 1629 3 MP stroke
1 0 -1 0 2943 2502 3 MP stroke
1 1 -1 0 2942 2624 3 MP stroke
1 1 -2 -1 2943 2749 3 MP stroke
1 1 -1 0 2943 2873 3 MP stroke
1 1 -1 0 2944 2997 3 MP stroke
2 2 -2 -1 2941 3119 3 MP stroke
1 1 -1 0 2942 3246 3 MP stroke
2 1 -2 0 2941 3370 3 MP stroke
2 1 -2 0 2941 3495 3 MP stroke
3 1 -3 0 2940 3619 3 MP stroke
3 1 -3 0 2941 3743 3 MP stroke
2 1 -2 0 2940 3867 3 MP stroke
2 1 -2 0 2940 3991 3 MP stroke
3 2 -3 0 2939 4115 3 MP stroke
2 1 -2 1 2940 4240 3 MP stroke
2 2 -2 -1 2941 4364 3 MP stroke
3 1 -3 1 2939 4489 3 MP stroke
2 2 -3 -1 2940 4612 3 MP stroke
6 0 -5 4 3040 515 3 MP stroke
-1 -1 1 1 3055 639 3 MP stroke
1 1 -2 0 3050 1132 3 MP stroke
3 0 -3 2 3048 1258 3 MP stroke
3 1 -3 1 3047 1381 3 MP stroke
3 0 -3 1 3047 1507 3 MP stroke
3 2 -3 0 3047 1628 3 MP stroke
2 3 -3 -1 3050 1750 3 MP stroke
4 1 -4 1 3045 1879 3 MP stroke
1 2 -1 -2 3052 2499 3 MP stroke
4 1 -4 1 3047 2624 3 MP stroke
3 1 -3 1 3047 2748 3 MP stroke
3 1 -4 1 3047 2872 3 MP stroke
4 1 -4 1 3047 2997 3 MP stroke
2 3 -3 -1 3048 3118 3 MP stroke
3 2 -4 0 3047 3246 3 MP stroke
4 1 -4 1 3046 3370 3 MP stroke
3 1 -3 1 3045 3495 3 MP stroke
4 1 -4 1 3045 3619 3 MP stroke
3 1 -3 0 3047 3743 3 MP stroke
3 2 -4 -1 3047 3866 3 MP stroke
4 2 -4 0 3045 3990 3 MP stroke
3 1 -3 1 3046 4116 3 MP stroke
3 1 -3 0 3046 4241 3 MP stroke
3 1 -3 1 3047 4365 3 MP stroke
5 1 -5 1 3045 4489 3 MP stroke
4 2 -4 0 3045 4612 3 MP stroke
3 1 -2 0 3156 389 3 MP stroke
3 -2 -2 3 3155 517 3 MP stroke
1 -1 -1 1 3160 638 3 MP stroke
1 2 -2 -1 3158 1132 3 MP stroke
1 0 -1 1 3158 1259 3 MP stroke
2 2 -2 -1 3158 1380 3 MP stroke
2 -1 -1 2 3156 1511 3 MP stroke
2 -2 -1 3 3158 1636 3 MP stroke
2 0 -2 1 3158 1757 3 MP stroke
2 0 -1 1 3158 1881 3 MP stroke
1 -1 0 2 3158 2006 3 MP stroke
0 -1 0 0 3159 2127 3 MP stroke
2 0 -2 0 3159 2254 3 MP stroke
1 1 -1 0 3158 2375 3 MP stroke
2 1 -2 0 3158 2501 3 MP stroke
1 2 -2 0 3157 2623 3 MP stroke
2 1 -2 0 3157 2747 3 MP stroke
2 2 -2 -1 3157 2869 3 MP stroke
2 1 -2 0 3157 2997 3 MP stroke
1 0 -1 1 3158 3122 3 MP stroke
2 0 -2 1 3158 3246 3 MP stroke
3 1 -3 0 3156 3370 3 MP stroke
2 1 -3 0 3157 3495 3 MP stroke
2 1 -2 0 3156 3618 3 MP stroke
1 1 -1 0 3158 3743 3 MP stroke
1 2 -2 -1 3158 3866 3 MP stroke
2 1 -2 0 3156 3991 3 MP stroke
3 1 -3 1 3155 4116 3 MP stroke
3 1 -3 1 3154 4239 3 MP stroke
3 1 -3 0 3155 4364 3 MP stroke
3 2 -3 0 3155 4488 3 MP stroke
4 1 -3 2 3260 513 3 MP stroke
4 0 -4 2 3261 638 3 MP stroke
3 2 -4 0 3262 882 3 MP stroke
4 3 -5 -1 3259 1006 3 MP stroke
2 0 -1 1 3265 1260 3 MP stroke
3 1 -3 0 3263 1381 3 MP stroke
3 -1 -2 3 3264 1509 3 MP stroke
2 1 -2 1 3264 1630 3 MP stroke
2 2 -3 -1 3264 1752 3 MP stroke
3 1 -3 0 3264 1878 3 MP stroke
2 1 -2 1 3263 2004 3 MP stroke
3 0 -2 1 3263 2129 3 MP stroke
3 3 -4 -1 3263 2247 3 MP stroke
3 3 -3 -1 3262 2372 3 MP stroke
3 1 -3 1 3262 2501 3 MP stroke
3 2 -3 -1 3263 2623 3 MP stroke
3 0 -2 1 3264 2751 3 MP stroke
3 2 -3 0 3261 2873 3 MP stroke
3 1 -3 1 3261 2998 3 MP stroke
2 3 -3 -1 3264 3119 3 MP stroke
4 1 -4 1 3261 3246 3 MP stroke
2 2 -3 -1 3264 3368 3 MP stroke
3 1 -3 1 3261 3495 3 MP stroke
3 2 -4 0 3262 3618 3 MP stroke
3 1 -3 0 3262 3743 3 MP stroke
3 2 -4 0 3263 3866 3 MP stroke
4 2 -4 0 3262 3991 3 MP stroke
4 2 -4 1 3260 4116 3 MP stroke
3 4 -4 -1 3262 4236 3 MP stroke
3 2 -4 0 3262 4364 3 MP stroke
4 0 -4 2 3260 4491 3 MP stroke
2 0 3369 389 2 MP stroke
5 -1 -4 3 3367 516 3 MP stroke
6 2 -6 2 3365 636 3 MP stroke
2 2 -3 0 3371 758 3 MP stroke
3 1 -3 1 3371 885 3 MP stroke
3 1 -3 1 3370 1008 3 MP stroke
4 1 -4 1 3370 1134 3 MP stroke
1 0 -1 1 3375 1508 3 MP stroke
-1 1 3375 1629 2 MP stroke
-1 0 1 0 3377 1755 3 MP stroke
2 0 -2 1 3372 1880 3 MP stroke
2 -1 -1 1 3374 2006 3 MP stroke
1 1 -1 0 3374 2126 3 MP stroke
2 0 -1 1 3373 2254 3 MP stroke
-1 1 3375 2375 2 MP stroke
1 1 -1 0 3374 2500 3 MP stroke
1 1 -1 0 3374 2624 3 MP stroke
1 1 -2 0 3374 2747 3 MP stroke
-1 1 3375 2873 2 MP stroke
1 0 -1 1 3374 2998 3 MP stroke
1 0 -1 0 3373 3123 3 MP stroke
2 1 -2 0 3374 3246 3 MP stroke
2 2 -2 -1 3373 3369 3 MP stroke
2 0 -2 1 3372 3496 3 MP stroke
2 1 -2 0 3372 3619 3 MP stroke
2 1 -2 0 3372 3743 3 MP stroke
3 1 -3 1 3371 3867 3 MP stroke
3 0 -3 1 3372 3993 3 MP stroke
1 2 -2 -1 3372 4113 3 MP stroke
3 1 -3 1 3371 4241 3 MP stroke
3 1 -3 0 3371 4365 3 MP stroke
3 1 -3 0 3370 4488 3 MP stroke
2 2 -2 -1 3373 4612 3 MP stroke
5 -1 -4 3 3475 515 3 MP stroke
6 2 -6 2 3471 635 3 MP stroke
5 1 -5 2 3473 761 3 MP stroke
2 4 -4 -2 3480 879 3 MP stroke
4 0 -4 2 3476 1010 3 MP stroke
0 4 -2 -3 3484 1126 3 MP stroke
3482 1507 PD
0 -1 0 0 3484 1630 3 MP stroke
1 1 -2 0 3482 1877 3 MP stroke
4 2 -4 0 3478 2002 3 MP stroke
3 1 -3 1 3479 2127 3 MP stroke
1 1 -1 0 3482 2252 3 MP stroke
-1 2 0 -2 3484 2371 3 MP stroke
2 1 -3 0 3481 2499 3 MP stroke
2 1 -2 0 3478 2625 3 MP stroke
3 2 -3 0 3479 2748 3 MP stroke
3 1 -3 1 3479 2872 3 MP stroke
3 1 -3 1 3477 2997 3 MP stroke
4 1 -4 1 3476 3122 3 MP stroke
4 1 -4 1 3476 3246 3 MP stroke
4 1 -4 1 3477 3370 3 MP stroke
3 0 -2 1 3479 3496 3 MP stroke
3 1 -3 1 3478 3618 3 MP stroke
4 1 -4 1 3476 3743 3 MP stroke
3 2 -3 0 3477 3866 3 MP stroke
4 0 -4 2 3477 3994 3 MP stroke
4 2 -4 1 3476 4115 3 MP stroke
4 2 -5 1 3476 4238 3 MP stroke
3 2 -4 0 3477 4363 3 MP stroke
3 2 -3 0 3479 4487 3 MP stroke
2 -1 -2 2 3588 515 3 MP stroke
2 0 -2 1 3588 637 3 MP stroke
3 2 -3 0 3585 1380 3 MP stroke
1 2 -2 -1 3589 1627 3 MP stroke
3593 1756 PD
2 1 -2 0 3588 2127 3 MP stroke
2 0 -2 1 3588 2254 3 MP stroke
1 0 -1 0 3589 2377 3 MP stroke
1 1 -1 0 3590 2500 3 MP stroke
2 1 -2 1 3588 2624 3 MP stroke
1 0 -1 0 3590 2751 3 MP stroke
2 1 -2 0 3589 2873 3 MP stroke
1 1 -2 0 3589 2997 3 MP stroke
1 1 -2 0 3589 3122 3 MP stroke
1 1 -2 0 3589 3246 3 MP stroke
2 1 -2 0 3588 3370 3 MP stroke
1 0 -1 1 3589 3495 3 MP stroke
2 1 -3 1 3587 3618 3 MP stroke
2 0 -2 1 3588 3744 3 MP stroke
2 2 -2 -1 3588 3865 3 MP stroke
2 2 -3 -1 3588 3991 3 MP stroke
3 1 -3 0 3587 4116 3 MP stroke
3 1 -3 1 3587 4240 3 MP stroke
2 1 -3 0 3587 4364 3 MP stroke
5 3 -5 0 3581 4485 3 MP stroke
3 2 -3 0 3586 4611 3 MP stroke
5 1 3679 389 2 MP stroke
4 0 -3 2 3691 513 3 MP stroke
2 1 -2 0 3696 637 3 MP stroke
3 2 -4 0 3694 1255 3 MP stroke
1 2 -2 -1 3697 1381 3 MP stroke
3 2 -4 0 3693 1506 3 MP stroke
1 1 -2 0 3697 1629 3 MP stroke
-1 1 3699 1753 2 MP stroke
1 2 -1 -1 3698 1877 3 MP stroke
4 1 -4 1 3693 2003 3 MP stroke
2 2 -3 0 3694 2125 3 MP stroke
3 1 -3 1 3692 2252 3 MP stroke
3 2 -3 0 3694 2375 3 MP stroke
3 1 -3 1 3694 2500 3 MP stroke
2 1 -2 0 3694 2624 3 MP stroke
3 1 -3 1 3694 2750 3 MP stroke
4 1 -4 1 3692 2872 3 MP stroke
3 1 -4 1 3693 2997 3 MP stroke
3 1 -3 0 3693 3122 3 MP stroke
4 2 -4 0 3693 3245 3 MP stroke
2 2 -3 0 3694 3370 3 MP stroke
3 2 -3 0 3692 3495 3 MP stroke
4 1 -5 1 3692 3618 3 MP stroke
3 1 -4 1 3692 3742 3 MP stroke
4 2 -4 0 3692 3866 3 MP stroke
4 1 -4 1 3692 3991 3 MP stroke
3 1 -4 1 3693 4115 3 MP stroke
3 1 -4 1 3693 4240 3 MP stroke
3 2 -3 0 3692 4362 3 MP stroke
7 3 -7 1 3685 4486 3 MP stroke
4 7 -7 -3 3690 4602 3 MP stroke
5 0 -4 3 3797 513 3 MP stroke
1 -1 -1 1 3805 639 3 MP stroke
1 1 -1 0 3804 1259 3 MP stroke
2 2 -2 0 3803 1379 3 MP stroke
1 1 -1 0 3804 1630 3 MP stroke
0 2 -1 -2 3807 1877 3 MP stroke
2 0 -2 1 3804 2006 3 MP stroke
1 1 -1 0 3805 2127 3 MP stroke
1 2 -2 -1 3804 2249 3 MP stroke
1 1 -1 0 3805 2376 3 MP stroke
1 0 -1 1 3805 2501 3 MP stroke
1 0 -1 0 3806 2626 3 MP stroke
1 0 -1 1 3804 2750 3 MP stroke
1 2 -2 -2 3805 2871 3 MP stroke
1 1 -2 1 3804 2997 3 MP stroke
2 0 -2 1 3803 3122 3 MP stroke
1 1 -2 0 3804 3244 3 MP stroke
2 1 -2 0 3804 3370 3 MP stroke
3 0 -3 1 3802 3496 3 MP stroke
2 3 -3 -1 3803 3615 3 MP stroke
3 1 -3 1 3802 3743 3 MP stroke
2 2 -3 0 3802 3866 3 MP stroke
2 1 -3 0 3803 3991 3 MP stroke
2 2 -3 0 3803 4115 3 MP stroke
3 1 -3 1 3801 4242 3 MP stroke
3 3 -3 -1 3801 4362 3 MP stroke
4 3 -5 -1 3799 4485 3 MP stroke
6 3 -6 1 3903 509 3 MP stroke
4 2 -4 1 3907 635 3 MP stroke
3 1 -4 1 3909 1009 3 MP stroke
2 1 -2 1 3909 1133 3 MP stroke
3 1 -3 1 3908 1259 3 MP stroke
1 1 -2 0 3913 1381 3 MP stroke
2 -1 -1 2 3913 1510 3 MP stroke
2 1 -2 0 3911 1629 3 MP stroke
3 0 -3 2 3908 1755 3 MP stroke
6 0 -5 3 3904 1882 3 MP stroke
3 1 -3 1 3910 2004 3 MP stroke
3 1 -3 1 3908 2128 3 MP stroke
1 2 -2 -1 3912 2251 3 MP stroke
2 0 -3 1 3911 2376 3 MP stroke
3 0 -3 2 3909 2501 3 MP stroke
4 2 -5 0 3907 2623 3 MP stroke
3 2 -3 0 3909 2747 3 MP stroke
3 2 -3 0 3909 2872 3 MP stroke
3 1 -3 1 3909 2997 3 MP stroke
3 1 -3 1 3909 3121 3 MP stroke
3 2 -3 0 3909 3243 3 MP stroke
3 2 -3 0 3909 3370 3 MP stroke
4 1 -4 2 3907 3494 3 MP stroke
4 2 -4 1 3908 3618 3 MP stroke
3 1 -3 1 3907 3743 3 MP stroke
4 2 -4 0 3907 3865 3 MP stroke
4 1 -4 1 3907 3992 3 MP stroke
4 2 -4 1 3907 4115 3 MP stroke
4 1 -4 2 3907 4241 3 MP stroke
4 1 -4 1 3907 4365 3 MP stroke
7 1 -7 3 3902 4490 3 MP stroke
5 1 -2 0 4010 389 3 MP stroke
5 3 -6 0 4012 509 3 MP stroke
4 1 -4 2 4014 637 3 MP stroke
6 -2 -5 5 4011 766 3 MP stroke
-7 -57 30 46 4050 998 3 MP stroke
4 0 -4 2 4015 1135 3 MP stroke
2 1 -2 0 4019 1257 3 MP stroke
0 3 -1 -2 4021 1376 3 MP stroke
1 -1 -1 1 4021 1508 3 MP stroke
2 2 -2 0 4019 1629 3 MP stroke
1 0 -1 1 4020 1755 3 MP stroke
4 0 -4 2 4016 1882 3 MP stroke
1 1 -1 0 4021 2004 3 MP stroke
2 -1 -1 2 4018 2132 3 MP stroke
2 -1 -1 1 4020 2255 3 MP stroke
1 1 -1 0 4021 2375 3 MP stroke
1 0 -1 0 4021 2501 3 MP stroke
1 2 -2 -1 4021 2622 3 MP stroke
2 0 -2 1 4019 2750 3 MP stroke
-1 1 4021 2872 2 MP stroke
2 0 -2 1 4018 2999 3 MP stroke
5 2 -5 1 4012 3119 3 MP stroke
3 1 -3 1 4016 3248 3 MP stroke
5 4 -6 -1 4013 3365 3 MP stroke
3 3 -4 -1 4016 3490 3 MP stroke
2 1 -2 0 4018 3619 3 MP stroke
2 -1 -2 2 4018 3746 3 MP stroke
1 0 -1 1 4019 3869 3 MP stroke
3 0 -2 2 4017 3993 3 MP stroke
2 1 -3 1 4018 4115 3 MP stroke
1 0 -1 1 4020 4244 3 MP stroke
6 -3 -4 6 4011 4373 3 MP stroke
6 2 -6 2 4010 4488 3 MP stroke
6 -1 -5 5 4117 391 3 MP stroke
6 0 -6 3 4118 514 3 MP stroke
4 3 -5 -1 4123 632 3 MP stroke
5 2 -6 2 4120 759 3 MP stroke
5 2 -6 1 4119 882 3 MP stroke
7 9 -10 -4 4115 995 3 MP stroke
11 -15 -4 19 4112 1167 3 MP stroke
5 13 -10 -9 4118 1234 3 MP stroke
7 11 -11 -5 4114 1363 3 MP stroke
8 8 -10 -3 4115 1494 3 MP stroke
7 8 -9 -4 4115 1618 3 MP stroke
8 4 -9 0 4115 1750 3 MP stroke
-2 0 1 -1 4134 1879 3 MP stroke
4 2 -4 1 4122 2002 3 MP stroke
3 3 -4 -1 4124 2123 3 MP stroke
4 -3 -3 4 4124 2260 3 MP stroke
5 1 -5 2 4119 2377 3 MP stroke
4 1 -4 2 4121 2500 3 MP stroke
1 4 -3 -3 4128 2618 3 MP stroke
1 -1 -1 1 4129 2751 3 MP stroke
4130 2874 PD
5 1 -5 1 4122 2997 3 MP stroke
4 3 -5 -1 4122 3119 3 MP stroke
4 -7 -1 9 4124 3263 3 MP stroke
6 5 -7 -1 4119 3362 3 MP stroke
6 3 -7 0 4119 3491 3 MP stroke
3 0 -3 1 4124 3620 3 MP stroke
6 -1 -5 4 4120 3748 3 MP stroke
4 2 -4 1 4121 3868 3 MP stroke
4 -2 -3 3 4124 3997 3 MP stroke
2 5 -4 -3 4125 4109 3 MP stroke
7 -4 -4 7 4119 4252 3 MP stroke
6 2 -6 1 4120 4363 3 MP stroke
5 2 -5 1 4121 4489 3 MP stroke
6 -1 -4 4 4227 394 3 MP stroke
6 2 -6 2 4226 511 3 MP stroke
2 4 -3 -2 4233 631 3 MP stroke
5 0 -5 3 4227 762 3 MP stroke
0 -1 4239 884 2 MP stroke
2 -1 -1 2 4234 1013 3 MP stroke
4 -1 -3 3 4230 1137 3 MP stroke
4 -1 -4 3 4231 1260 3 MP stroke
4 3 -5 0 4229 1380 3 MP stroke
6 3 -6 0 4227 1503 3 MP stroke
7 1 -6 3 4226 1631 3 MP stroke
4 3 -5 0 4229 1750 3 MP stroke
0 2 -1 -2 4237 1876 3 MP stroke
3 4 -4 -2 4232 1998 3 MP stroke
4 2 -5 1 4230 2126 3 MP stroke
2 -1 -2 2 4235 2256 3 MP stroke
3 2 -3 0 4232 2374 3 MP stroke
-2 2 0 -3 4241 2497 3 MP stroke
-2 -1 1 0 4241 2626 3 MP stroke
0 2 -1 -1 4237 2747 3 MP stroke
2 1 -2 1 4233 2873 3 MP stroke
1 -2 0 2 4237 3002 3 MP stroke
-1 -1 1 0 4242 3125 3 MP stroke
1 -5 1 5 4237 3258 3 MP stroke
3 -5 -1 6 4233 3383 3 MP stroke
5 2 -5 1 4226 3494 3 MP stroke
5 1 -5 2 4227 3620 3 MP stroke
1 -1 0 2 4237 3747 3 MP stroke
-2 -1 2 0 4242 3871 3 MP stroke
2 -2 -1 3 4234 3997 3 MP stroke
2 -1 -1 2 4234 4121 3 MP stroke
6 0 -5 3 4226 4242 3 MP stroke
5 -3 -4 5 4229 4373 3 MP stroke
3 0 -3 2 4233 4490 3 MP stroke
6 1 -4 1 4330 389 3 MP stroke
7 0 -7 4 4331 514 3 MP stroke
3 2 -3 0 4339 635 3 MP stroke
5 3 -6 0 4335 757 3 MP stroke
6 0 -5 3 4335 887 3 MP stroke
5 1 -5 2 4335 1010 3 MP stroke
-2 -4 4 2 4352 1142 3 MP stroke
1 -1 -1 2 4343 1260 3 MP stroke
-2 2 2 -3 4351 1380 3 MP stroke
1 -2 -1 2 4344 1511 3 MP stroke
1 -2 0 2 4346 1634 3 MP stroke
0 2 -1 -1 4345 1752 3 MP stroke
4 0 -4 2 4338 1880 3 MP stroke
4 -1 -3 3 4340 2007 3 MP stroke
3 1 -3 0 4342 2128 3 MP stroke
3 -1 -2 3 4341 2256 3 MP stroke
6 -1 -5 4 4334 2379 3 MP stroke
0 2 -1 -1 4345 2498 3 MP stroke
2 1 -2 0 4343 2625 3 MP stroke
3 -1 -3 3 4339 2752 3 MP stroke
4 2 -4 0 4339 2872 3 MP stroke
2 -3 -1 4 4343 3005 3 MP stroke
-1 3 0 -3 4346 3119 3 MP stroke
1 -5 1 5 4345 3257 3 MP stroke
2 -1 -1 2 4341 3376 3 MP stroke
3 0 -3 1 4340 3496 3 MP stroke
-1 -2 2 2 4347 3624 3 MP stroke
1 0 -1 1 4343 3744 3 MP stroke
0 -2 0 0 4346 3866 3 MP stroke
0 1 4346 3994 2 MP stroke
-1 -1 1 0 4348 4119 3 MP stroke
4 -2 -3 3 4339 4246 3 MP stroke
5 3 -5 0 4335 4361 3 MP stroke
-1 0 1 0 4347 4490 3 MP stroke
1 1 -1 0 4344 4614 3 MP stroke
2 0 4444 389 2 MP stroke
4 -1 -3 3 4446 516 3 MP stroke
5 1 -5 2 4444 638 3 MP stroke
6 0 -6 3 4443 762 3 MP stroke
2 1 -3 1 4449 884 3 MP stroke
1 1 -1 0 4451 1010 3 MP stroke
0 -1 4454 1133 2 MP stroke
5 0 -5 3 4443 1261 3 MP stroke
4 0 -4 2 4445 1385 3 MP stroke
1 1 -1 -1 4452 1505 3 MP stroke
4453 1632 PD
0 -2 0 1 4453 1753 3 MP stroke
-2 0 2 -1 4458 1880 3 MP stroke
3 -3 -1 4 4449 2010 3 MP stroke
3 1 -3 1 4447 2128 3 MP stroke
1 2 -2 -1 4450 2251 3 MP stroke
2 -2 -1 2 4452 2381 3 MP stroke
-2 1 1 -2 4456 2498 3 MP stroke
0 -2 0 0 4453 2623 3 MP stroke
1 1 -2 0 4451 2749 3 MP stroke
1 0 -1 0 4450 2874 3 MP stroke
3 -1 -2 2 4448 3002 3 MP stroke
3 0 -3 2 4448 3125 3 MP stroke
7 0 -6 4 4440 3250 3 MP stroke
4 2 -4 0 4447 3370 3 MP stroke
3 0 -2 2 4448 3496 3 MP stroke
3 1 -3 1 4447 3620 3 MP stroke
5 2 -6 2 4443 3742 3 MP stroke
0 4 -1 -4 4452 3861 3 MP stroke
4 0 -3 2 4447 3994 3 MP stroke
0 1 -1 -1 4452 4115 3 MP stroke
2 8 -5 -6 4447 4227 3 MP stroke
3 3 -3 -1 4447 4361 3 MP stroke
3 2 -3 -1 4448 4486 3 MP stroke
0 1 -1 -1 4452 4613 3 MP stroke
4 1 4549 389 2 MP stroke
4 1 -4 2 4553 513 3 MP stroke
5 1 -4 2 4551 637 3 MP stroke
4 -1 -3 4 4553 765 3 MP stroke
4 -1 -3 2 4556 889 3 MP stroke
5 0 -4 3 4552 1012 3 MP stroke
5 4 -6 -1 4550 1128 3 MP stroke
5 1 -5 1 4553 1258 3 MP stroke
4 -1 -4 3 4554 1385 3 MP stroke
6 0 -5 3 4549 1509 3 MP stroke
5 -1 -4 4 4551 1635 3 MP stroke
3 -1 -3 3 4556 1759 3 MP stroke
2 0 -2 1 4558 1880 3 MP stroke
7 -1 -6 4 4548 2007 3 MP stroke
6 2 -6 1 4549 2127 3 MP stroke
4562 2254 PD
2 1 -2 0 4559 2376 3 MP stroke
3 3 -4 -1 4553 2497 3 MP stroke
6 3 -6 1 4550 2623 3 MP stroke
2 1 -2 0 4557 2749 3 MP stroke
3 3 -4 -1 4555 2870 3 MP stroke
5 -2 -3 4 4553 3004 3 MP stroke
8 -4 -5 7 4548 3134 3 MP stroke
6 1 -5 2 4550 3248 3 MP stroke
5 2 -5 1 4551 3370 3 MP stroke
8 2 -8 2 4547 3494 3 MP stroke
5 5 -7 -2 4551 3612 3 MP stroke
3 3 -4 -1 4554 3739 3 MP stroke
-6 7 2 -9 4572 3853 3 MP stroke
8 0 -6 4 4547 3997 3 MP stroke
8 4 -8 1 4546 4111 3 MP stroke
9 -2 -7 7 4543 4248 3 MP stroke
9 -6 -5 10 4545 4380 3 MP stroke
10 3 -10 2 4542 4487 3 MP stroke
6 -2 -5 5 4657 517 3 MP stroke
6 2 -6 2 4657 635 3 MP stroke
6 0 -5 3 4657 763 3 MP stroke
6 0 -5 3 4659 888 3 MP stroke
5 3 -5 0 4659 1006 3 MP stroke
6 2 -6 2 4656 1131 3 MP stroke
6 1 -6 3 4658 1258 3 MP stroke
6 -1 -5 4 4658 1386 3 MP stroke
7 1 -7 3 4655 1507 3 MP stroke
7 2 -6 2 4656 1630 3 MP stroke
8 3 -8 2 4652 1754 3 MP stroke
6 2 -6 2 4657 1878 3 MP stroke
6 3 -6 1 4658 2000 3 MP stroke
7 0 -6 4 4656 2130 3 MP stroke
7 3 -8 1 4655 2249 3 MP stroke
5 4 -6 0 4657 2371 3 MP stroke
3 5 -5 -3 4663 2491 3 MP stroke
4 2 -5 1 4660 2622 3 MP stroke
6 1 -6 2 4657 2750 3 MP stroke
6 2 -6 2 4657 2873 3 MP stroke
4 3 -5 -1 4661 2993 3 MP stroke
6 -1 -5 4 4657 3125 3 MP stroke
9 4 -10 2 4651 3243 3 MP stroke
8 3 -8 2 4653 3367 3 MP stroke
9 1 -9 4 4651 3497 3 MP stroke
7 4 -7 0 4655 3616 3 MP stroke
8 -1 -7 5 4654 3747 3 MP stroke
6 5 -7 -1 4656 3862 3 MP stroke
7 3 -8 1 4655 3989 3 MP stroke
7 5 -8 -1 4655 4109 3 MP stroke
8 3 -8 1 4654 4237 3 MP stroke
5 5 -7 -2 4658 4357 3 MP stroke
4 0 -4 3 4660 4491 3 MP stroke
7 -2 -5 5 4764 518 3 MP stroke
8 2 -7 3 4761 635 3 MP stroke
7 1 -7 3 4762 761 3 MP stroke
8 0 -7 4 4761 887 3 MP stroke
7 0 -7 4 4763 1012 3 MP stroke
4 2 -4 0 4769 1132 3 MP stroke
2 1 -3 0 4773 1257 3 MP stroke
5 2 -5 1 4768 1381 3 MP stroke
5 1 -5 2 4767 1507 3 MP stroke
5 -9 -1 11 4769 1650 3 MP stroke
7 1 -7 3 4762 1755 3 MP stroke
7 2 -7 2 4761 1879 3 MP stroke
7 1 -7 3 4762 2004 3 MP stroke
6 1 -6 2 4764 2129 3 MP stroke
4 -4 -2 6 4769 2261 3 MP stroke
-1 2 -1 -2 4777 2372 3 MP stroke
8 2 -8 3 4762 2501 3 MP stroke
6 2 -6 2 4765 2625 3 MP stroke
8 1 -7 3 4762 2751 3 MP stroke
8 -1 -7 5 4761 2877 3 MP stroke
7 1 -6 3 4763 3000 3 MP stroke
4 2 -5 1 4769 3120 3 MP stroke
6 1 -5 2 4766 3247 3 MP stroke
5 3 -5 0 4767 3369 3 MP stroke
7 2 -7 2 4763 3492 3 MP stroke
3 -1 -2 2 4772 3623 3 MP stroke
3 3 -3 -1 4770 3740 3 MP stroke
3 2 -4 0 4770 3864 3 MP stroke
6 0 -6 3 4766 3994 3 MP stroke
3 2 -4 0 4769 4114 3 MP stroke
4 2 -4 1 4769 4239 3 MP stroke
1 0 -1 0 4777 4366 3 MP stroke
2 -1 -1 2 4772 4494 3 MP stroke
5 6 -7 -3 4765 4605 3 MP stroke
6 2 -6 1 4873 510 3 MP stroke
7 4 -7 0 4870 632 3 MP stroke
8 2 -8 2 4869 760 3 MP stroke
7 2 -7 2 4872 883 3 MP stroke
-1 15 -5 -14 4884 980 3 MP stroke
-4 13 -2 -13 4889 1109 3 MP stroke
4 0 -3 2 4876 1260 3 MP stroke
0 14 -6 -12 4881 1355 3 MP stroke
6 3 -6 0 4874 1504 3 MP stroke
5 2 -5 1 4876 1630 3 MP stroke
2 4 -3 -2 4879 1750 3 MP stroke
4 2 -4 0 4877 1876 3 MP stroke
3 6 -5 -4 4879 1993 3 MP stroke
4 2 -4 0 4876 2125 3 MP stroke
1 0 -1 1 4882 2254 3 MP stroke
2 2 -3 -1 4881 2372 3 MP stroke
3 0 -2 2 4878 2501 3 MP stroke
3 1 -3 1 4879 2625 3 MP stroke
5 1 -4 2 4874 2750 3 MP stroke
2 2 -3 0 4879 2870 3 MP stroke
2 1 -2 0 4879 2998 3 MP stroke
2 2 -2 -1 4880 3121 3 MP stroke
3 1 -3 1 4880 3246 3 MP stroke
3 2 -3 0 4879 3370 3 MP stroke
2 0 -2 2 4881 3497 3 MP stroke
3 1 -3 0 4879 3618 3 MP stroke
3 1 -3 1 4879 3743 3 MP stroke
2 1 -3 0 4880 3867 3 MP stroke
2 1 -2 1 4879 3992 3 MP stroke
3 1 -3 0 4880 4115 3 MP stroke
4 2 -4 0 4877 4240 3 MP stroke
4 3 -5 0 4877 4362 3 MP stroke
3 3 -3 -1 4879 4486 3 MP stroke
7 1 -6 3 4978 514 3 MP stroke
2 5 -4 -4 4988 627 3 MP stroke
5 -2 -4 4 4983 766 3 MP stroke
3 3 -4 -1 4985 880 3 MP stroke
3 3 -4 -1 4985 1004 3 MP stroke
3 2 -4 0 4985 1131 3 MP stroke
4 2 -4 0 4984 1255 3 MP stroke
4 2 -4 0 4984 1381 3 MP stroke
3 1 -3 0 4988 1506 3 MP stroke
1 1 -2 0 4989 1630 3 MP stroke
3 1 -3 1 4988 1755 3 MP stroke
3 0 -3 1 4987 1880 3 MP stroke
2 0 -2 1 4988 2005 3 MP stroke
4 1 -4 1 4986 2127 3 MP stroke
3 1 -3 0 4986 2252 3 MP stroke
3 2 -3 0 4986 2375 3 MP stroke
3 1 -3 0 4987 2500 3 MP stroke
2 2 -3 -1 4988 2622 3 MP stroke
3 1 -3 1 4986 2748 3 MP stroke
3 2 -3 1 4985 2871 3 MP stroke
4 1 -4 1 4985 2997 3 MP stroke
3 1 -4 1 4986 3121 3 MP stroke
4 1 -4 1 4985 3246 3 MP stroke
4 1 -4 1 4986 3369 3 MP stroke
3 -1 -3 3 4986 3498 3 MP stroke
3 1 -4 1 4986 3619 3 MP stroke
4 1 -4 2 4985 3744 3 MP stroke
4 2 -4 0 4985 3867 3 MP stroke
5 1 -5 1 4984 3992 3 MP stroke
5 2 -5 1 4984 4115 3 MP stroke
5 1 -5 1 4984 4240 3 MP stroke
4 2 -4 1 4984 4363 3 MP stroke
4 2 -5 0 4984 4488 3 MP stroke
5 2 -5 1 4981 4612 3 MP stroke
8 1 -7 4 5083 390 3 MP stroke
8 0 -7 4 5086 515 3 MP stroke
0 6 -2 -6 5100 625 3 MP stroke
1 0 -1 1 5098 763 3 MP stroke
1 0 -1 1 5097 885 3 MP stroke
2 0 -2 1 5097 1010 3 MP stroke
1 1 -1 0 5097 1133 3 MP stroke
2 1 -2 0 5096 1258 3 MP stroke
2 2 -3 -1 5096 1381 3 MP stroke
2 -1 -2 2 5097 1508 3 MP stroke
1 1 -1 0 5097 1631 3 MP stroke
1 1 -1 -1 5098 1754 3 MP stroke
1 -1 -1 2 5098 1881 3 MP stroke
2 2 -2 -1 5097 2003 3 MP stroke
2 0 -2 0 5097 2128 3 MP stroke
1 1 -1 0 5097 2252 3 MP stroke
1 1 -1 -1 5098 2375 3 MP stroke
1 0 -1 1 5097 2502 3 MP stroke
1 1 -2 0 5098 2624 3 MP stroke
2 1 -2 0 5096 2750 3 MP stroke
2 1 -2 0 5096 2874 3 MP stroke
3 1 -3 1 5096 2997 3 MP stroke
2 1 -2 0 5096 3122 3 MP stroke
3 0 -3 1 5096 3247 3 MP stroke
2 0 -2 1 5096 3371 3 MP stroke
2 1 -2 1 5096 3495 3 MP stroke
2 1 -2 1 5095 3619 3 MP stroke
2 1 -2 0 5094 3744 3 MP stroke
2 2 -3 -1 5096 3865 3 MP stroke
3 1 -3 1 5094 3992 3 MP stroke
2 3 -3 -2 5094 4112 3 MP stroke
3 2 -3 0 5094 4239 3 MP stroke
2 2 -3 0 5096 4362 3 MP stroke
3 1 -3 1 5093 4489 3 MP stroke
3 2 -4 0 5094 4613 3 MP stroke
8 0 -7 4 5192 391 3 MP stroke
2 4 -3 -2 5203 505 3 MP stroke
1 2 -2 -2 5206 633 3 MP stroke
3 1 -3 0 5202 759 3 MP stroke
3 1 -3 0 5202 884 3 MP stroke
2 2 -3 -1 5203 1007 3 MP stroke
3 2 -3 -1 5202 1132 3 MP stroke
3 1 -3 1 5201 1258 3 MP stroke
4 2 -4 0 5201 1379 3 MP stroke
4 0 -4 2 5201 1508 3 MP stroke
1 1 -2 0 5204 1629 3 MP stroke
2 1 -2 0 5203 1753 3 MP stroke
3 1 -3 1 5201 1877 3 MP stroke
2 1 -2 0 5203 2003 3 MP stroke
3 1 -3 1 5203 2127 3 MP stroke
3 1 -3 1 5202 2251 3 MP stroke
3 2 -4 0 5202 2376 3 MP stroke
4 0 -3 2 5201 2501 3 MP stroke
2 3 -3 -1 5204 2621 3 MP stroke
4 1 -4 1 5200 2750 3 MP stroke
2 3 -2 -1 5203 2870 3 MP stroke
4 1 -4 1 5200 2997 3 MP stroke
2 1 -2 0 5202 3122 3 MP stroke
3 0 -3 2 5201 3246 3 MP stroke
1 1 -1 0 5204 3371 3 MP stroke
3 1 -3 0 5201 3495 3 MP stroke
3 3 -4 -1 5202 3617 3 MP stroke
3 1 -4 1 5201 3742 3 MP stroke
3 2 -3 0 5201 3867 3 MP stroke
3 1 -4 1 5201 3990 3 MP stroke
4 2 -4 0 5200 4115 3 MP stroke
5 2 -5 1 5198 4241 3 MP stroke
4 2 -4 0 5200 4364 3 MP stroke
4 3 -5 -1 5199 4486 3 MP stroke
1 4 -3 -3 5205 4607 3 MP stroke
2 3 -3 -1 5311 882 3 MP stroke
3 0 -2 1 5311 1012 3 MP stroke
1 1 -1 0 5314 1257 3 MP stroke
0 2 -1 -1 5314 1380 3 MP stroke
2 -1 -2 2 5313 1509 3 MP stroke
2 0 -2 1 5312 1631 3 MP stroke
1 3 -1 -2 5313 1752 3 MP stroke
2 2 -2 -1 5313 1877 3 MP stroke
2 1 -2 0 5313 2003 3 MP stroke
2 1 -2 0 5312 2126 3 MP stroke
1 0 -1 1 5313 2253 3 MP stroke
2 1 -2 0 5312 2376 3 MP stroke
3 -1 -2 3 5311 2504 3 MP stroke
1 2 -1 -1 5313 2622 3 MP stroke
1 1 -1 0 5313 2750 3 MP stroke
1 1 -2 0 5313 2874 3 MP stroke
2 1 -2 0 5311 2997 3 MP stroke
1 1 -1 0 5313 3122 3 MP stroke
3 1 -3 0 5310 3246 3 MP stroke
1 1 -1 0 5312 3371 3 MP stroke
3 1 -3 1 5309 3495 3 MP stroke
3 2 -3 0 5310 3619 3 MP stroke
3 1 -3 1 5309 3744 3 MP stroke
3 1 -3 1 5309 3867 3 MP stroke
3 2 -3 0 5308 3990 3 MP stroke
3 1 -4 1 5309 4115 3 MP stroke
4 2 -4 0 5306 4239 3 MP stroke
6 2 -6 2 5304 4363 3 MP stroke
4 2 -4 0 5308 4488 3 MP stroke
-1 1 5314 4612 2 MP stroke
4 1 -4 1 5415 1132 3 MP stroke
3 1 -3 1 5417 1259 3 MP stroke
2 1 -3 0 5420 1381 3 MP stroke
1 -1 -1 2 5421 1510 3 MP stroke
2 1 -3 1 5419 1630 3 MP stroke
3 0 -3 2 5418 1756 3 MP stroke
2 1 -3 1 5418 1878 3 MP stroke
2 1 -2 1 5419 2003 3 MP stroke
2 1 -2 0 5418 2127 3 MP stroke
2 1 -2 1 5418 2253 3 MP stroke
3 1 -3 0 5417 2376 3 MP stroke
4 1 -4 1 5416 2499 3 MP stroke
4 2 -4 1 5415 2624 3 MP stroke
3 1 -3 0 5419 2750 3 MP stroke
4 1 -4 1 5416 2872 3 MP stroke
3 0 -3 1 5418 2999 3 MP stroke
2 1 -3 0 5418 3121 3 MP stroke
3 1 -3 1 5416 3246 3 MP stroke
1 2 -2 -1 5421 3367 3 MP stroke
4 1 -4 1 5415 3495 3 MP stroke
2 2 -3 -1 5419 3617 3 MP stroke
2 2 -3 0 5419 3742 3 MP stroke
4 3 -4 -1 5415 3865 3 MP stroke
4 1 -4 2 5415 3993 3 MP stroke
4 2 -4 1 5414 4115 3 MP stroke
5 2 -5 1 5414 4239 3 MP stroke
3 1 -3 1 5418 4365 3 MP stroke
3 3 -3 -1 5416 4487 3 MP stroke
4 3 -5 -1 5416 4611 3 MP stroke
-1 1 5529 1131 2 MP stroke
2 0 -1 1 5528 1259 3 MP stroke
-3 -2 4 0 5538 1386 3 MP stroke
1 2 -2 -1 5528 1504 3 MP stroke
1 0 -1 1 5528 1632 3 MP stroke
1 -1 0 2 5529 1758 3 MP stroke
2 3 -3 -1 5526 1874 3 MP stroke
1 0 -1 1 5528 2004 3 MP stroke
2 1 -3 0 5527 2126 3 MP stroke
2 1 -2 0 5528 2253 3 MP stroke
1 2 -1 -1 5529 2373 3 MP stroke
2 0 -2 1 5527 2501 3 MP stroke
1 2 -1 -1 5528 2624 3 MP stroke
2 0 -1 1 5527 2750 3 MP stroke
0 1 -1 -1 5529 2872 3 MP stroke
2 0 -2 1 5527 3000 3 MP stroke
2 1 -2 0 5528 3122 3 MP stroke
3 1 -3 1 5526 3247 3 MP stroke
2 3 -3 -2 5528 3367 3 MP stroke
3 0 -3 1 5527 3496 3 MP stroke
1 1 -1 0 5528 3618 3 MP stroke
3 0 -3 1 5525 3744 3 MP stroke
3 2 -3 0 5526 3865 3 MP stroke
3 1 -3 0 5525 3992 3 MP stroke
2 2 -3 -1 5526 4114 3 MP stroke
3 1 -3 1 5523 4240 3 MP stroke
4 2 -4 1 5523 4364 3 MP stroke
3 2 -3 0 5525 4487 3 MP stroke
3 2 -3 0 5525 4611 3 MP stroke
2 1 -2 -1 5636 1133 3 MP stroke
3 1 -3 1 5633 1258 3 MP stroke
1 0 -1 1 5637 1382 3 MP stroke
2 3 -3 -1 5634 1503 3 MP stroke
1 0 -1 1 5636 1631 3 MP stroke
1 -1 -1 2 5637 1757 3 MP stroke
2 1 -2 1 5634 1879 3 MP stroke
3 1 -3 1 5631 2004 3 MP stroke
3 2 -4 0 5633 2126 3 MP stroke
4 0 -3 1 5632 2254 3 MP stroke
1 2 -2 -1 5635 2373 3 MP stroke
4 0 -4 2 5632 2502 3 MP stroke
3 1 -3 0 5633 2625 3 MP stroke
3 1 -3 1 5633 2749 3 MP stroke
3 1 -4 1 5632 2872 3 MP stroke
4 2 -4 0 5631 2997 3 MP stroke
3 1 -3 0 5633 3121 3 MP stroke
4 1 -4 1 5631 3246 3 MP stroke
3 1 -3 1 5632 3369 3 MP stroke
4 2 -4 0 5631 3494 3 MP stroke
4 1 -4 1 5632 3618 3 MP stroke
4 1 -4 1 5633 3744 3 MP stroke
5 1 -5 1 5630 3867 3 MP stroke
4 1 -4 2 5631 3992 3 MP stroke
3 1 -3 1 5633 4116 3 MP stroke
4 2 -4 0 5631 4240 3 MP stroke
5 2 -5 1 5630 4363 3 MP stroke
2 0 -2 1 5634 4490 3 MP stroke
3 -1 -2 2 5742 515 3 MP stroke
1 -1 -1 2 5745 1011 3 MP stroke
2 1 -2 1 5742 1132 3 MP stroke
3 1 -3 0 5741 1258 3 MP stroke
1 1 -1 0 5745 1381 3 MP stroke
3 0 -3 1 5741 1508 3 MP stroke
3 2 -3 0 5742 1630 3 MP stroke
1 0 -1 1 5744 1756 3 MP stroke
1 2 -1 -1 5744 1878 3 MP stroke
2 1 -2 0 5743 2004 3 MP stroke
2 2 -2 -1 5743 2126 3 MP stroke
1 1 -1 0 5744 2251 3 MP stroke
2 2 -2 -1 5743 2376 3 MP stroke
2 1 -2 0 5743 2501 3 MP stroke
2 1 -2 0 5742 2625 3 MP stroke
3 0 -3 1 5742 2749 3 MP stroke
3 1 -3 1 5741 2873 3 MP stroke
3 1 -3 0 5742 2998 3 MP stroke
2 0 -2 1 5744 3122 3 MP stroke
2 1 -2 0 5742 3247 3 MP stroke
2 0 -2 1 5743 3371 3 MP stroke
2 2 -2 0 5741 3494 3 MP stroke
3 1 -3 0 5741 3619 3 MP stroke
3 1 -3 1 5740 3743 3 MP stroke
3 2 -3 0 5740 3866 3 MP stroke
3 1 -3 1 5740 3991 3 MP stroke
4 2 -4 1 5739 4115 3 MP stroke
4 2 -4 0 5740 4240 3 MP stroke
1 1 -2 -1 5745 4364 3 MP stroke
4 3 -4 0 5739 4486 3 MP stroke
4 3 -4 0 5738 4611 3 MP stroke
5842 389 PD
3 -2 -2 3 5848 516 3 MP stroke
3 0 -2 1 5849 1011 3 MP stroke
4 2 -4 0 5847 1132 3 MP stroke
2 1 -2 0 5851 1258 3 MP stroke
1 1 -1 0 5851 1380 3 MP stroke
3 0 -2 2 5848 1507 3 MP stroke
3 2 -4 0 5849 1628 3 MP stroke
2 1 -2 0 5852 1755 3 MP stroke
-2 2 1 -3 5860 1876 3 MP stroke
3 1 -3 1 5847 2004 3 MP stroke
4 1 -4 1 5846 2127 3 MP stroke
4 1 -4 1 5846 2252 3 MP stroke
3 2 -3 0 5848 2374 3 MP stroke
3 0 -3 2 5847 2501 3 MP stroke
2 1 -3 0 5849 2625 3 MP stroke
4 1 -4 1 5846 2749 3 MP stroke
3 1 -3 1 5848 2873 3 MP stroke
3 1 -3 0 5848 2998 3 MP stroke
4 2 -4 0 5848 3120 3 MP stroke
3 1 -3 1 5848 3246 3 MP stroke
3 2 -3 0 5847 3369 3 MP stroke
4 1 -4 1 5846 3496 3 MP stroke
4 1 -4 1 5847 3619 3 MP stroke
4 2 -4 0 5847 3741 3 MP stroke
4 2 -4 1 5846 3866 3 MP stroke
4 2 -4 1 5846 3990 3 MP stroke
3 0 -3 1 5849 4117 3 MP stroke
4 0 -4 2 5845 4242 3 MP stroke
3 1 -4 1 5847 4364 3 MP stroke
3 1 -3 1 5847 4488 3 MP stroke
0 3 -1 -2 5854 4609 3 MP stroke
4 1 -4 1 5954 389 3 MP stroke
4 0 -4 2 5954 513 3 MP stroke
2 1 -2 1 5958 1133 3 MP stroke
1 0 -1 1 5959 1259 3 MP stroke
3 1 -3 0 5958 1382 3 MP stroke
2 0 -2 1 5958 1509 3 MP stroke
1 1 -1 0 5960 1631 3 MP stroke
1 0 -1 1 5960 1755 3 MP stroke
0 2 -1 -2 5962 1876 3 MP stroke
1 1 -1 1 5958 2004 3 MP stroke
2 1 -2 0 5959 2127 3 MP stroke
1 0 -1 1 5960 2252 3 MP stroke
1 1 -1 -1 5959 2375 3 MP stroke
1 1 -2 -1 5960 2500 3 MP stroke
1 2 -2 -1 5959 2623 3 MP stroke
2 1 -2 0 5958 2750 3 MP stroke
2 1 -2 0 5958 2872 3 MP stroke
2 0 -2 1 5959 2998 3 MP stroke
1 0 -1 1 5959 3122 3 MP stroke
3 1 -3 1 5956 3246 3 MP stroke
3 1 -3 1 5956 3370 3 MP stroke
3 1 -3 0 5957 3495 3 MP stroke
2 2 -2 0 5958 3617 3 MP stroke
4 0 -4 1 5956 3744 3 MP stroke
4 2 -4 0 5954 3866 3 MP stroke
4 2 -4 1 5954 3991 3 MP stroke
3 2 -3 0 5956 4114 3 MP stroke
4 1 -4 1 5955 4240 3 MP stroke
3 3 -4 0 5954 4362 3 MP stroke
5 -1 -4 3 5952 4493 3 MP stroke
2 -3 -1 3 6067 394 3 MP stroke
1 0 -1 0 6067 514 3 MP stroke
4 1 -4 2 6062 1009 3 MP stroke
2 1 -2 0 6066 1132 3 MP stroke
3 0 -2 1 6064 1260 3 MP stroke
2 2 -2 0 6064 1381 3 MP stroke
4 2 -4 0 6062 1506 3 MP stroke
3 1 -3 0 6063 1630 3 MP stroke
2 0 -2 1 6066 1755 3 MP stroke
1 2 -2 -1 6068 1876 3 MP stroke
3 0 -2 2 6063 2005 3 MP stroke
3 -1 -2 2 6064 2130 3 MP stroke
4 1 -4 1 6064 2252 3 MP stroke
3 3 -3 -1 6064 2374 3 MP stroke
4 0 -4 2 6063 2501 3 MP stroke
3 2 -4 0 6062 2622 3 MP stroke
3 1 -3 1 6062 2751 3 MP stroke
4 1 -4 1 6062 2873 3 MP stroke
3 2 -3 0 6063 2997 3 MP stroke
4 2 -4 1 6062 3120 3 MP stroke
3 1 -3 1 6063 3246 3 MP stroke
4 2 -4 1 6061 3370 3 MP stroke
3 1 -3 1 6063 3495 3 MP stroke
4 2 -4 1 6062 3618 3 MP stroke
4 1 -4 1 6062 3742 3 MP stroke
5 1 -4 2 6061 3868 3 MP stroke
4 2 -4 1 6061 3991 3 MP stroke
5 2 -5 1 6059 4114 3 MP stroke
5 3 -5 0 6059 4237 3 MP stroke
3 4 -4 -2 6064 4359 3 MP stroke
7 1 -6 3 6056 4492 3 MP stroke
5 2 -7 2 6055 4612 3 MP stroke
-1 2 0 -2 6180 758 3 MP stroke
-2 2 1 -2 6180 882 3 MP stroke
1 1 -1 0 6176 1010 3 MP stroke
1 1 -2 0 6174 1132 3 MP stroke
1 1 -1 0 6176 1256 3 MP stroke
1 1 -2 0 6175 1381 3 MP stroke
2 0 -2 1 6174 1506 3 MP stroke
3 1 -3 0 6173 1631 3 MP stroke
2 0 -2 1 6174 1754 3 MP stroke
8 2 -8 3 6161 1879 3 MP stroke
2 0 -2 1 6173 2004 3 MP stroke
1 1 -2 0 6174 2127 3 MP stroke
2 1 -2 0 6175 2250 3 MP stroke
2 1 -2 0 6172 2376 3 MP stroke
2 1 -2 0 6175 2500 3 MP stroke
1 1 -1 0 6174 2625 3 MP stroke
2 1 -3 1 6173 2748 3 MP stroke
2 2 -2 -1 6174 2870 3 MP stroke
2 1 -2 0 6174 2997 3 MP stroke
2 1 -2 0 6173 3123 3 MP stroke
3 1 -3 1 6172 3247 3 MP stroke
2 1 -2 1 6173 3370 3 MP stroke
2 1 -3 1 6172 3494 3 MP stroke
2 2 -2 0 6173 3617 3 MP stroke
4 1 -4 1 6171 3743 3 MP stroke
3 2 -4 -1 6172 3865 3 MP stroke
4 3 -5 -1 6170 3988 3 MP stroke
2 2 -3 0 6172 4116 3 MP stroke
3 -1 -3 3 6171 4243 3 MP stroke
5 3 -6 0 6168 4362 3 MP stroke
4 3 -5 -1 6170 4486 3 MP stroke
899 389 PD
899 1383 PD
19 23 899 1507 2 MP stroke
899 2874 PD
899 3247 PD
899 3372 PD
899 3496 PD
-9 0 1006 389 2 MP stroke
-9 2 1006 513 2 MP stroke
-5 -1 1006 637 2 MP stroke
10 -27 1006 886 2 MP stroke
-5 -7 1006 1010 2 MP stroke
-6 -3 1006 1134 2 MP stroke
-9 2 1006 1259 2 MP stroke
-1 -1 1006 1383 2 MP stroke
-10 -2 1006 1507 2 MP stroke
-17 -9 1006 1631 2 MP stroke
-2 -7 1006 2377 2 MP stroke
-5 -2 1006 2502 2 MP stroke
-5 -1 1006 2626 2 MP stroke
-4 -2 1006 2750 2 MP stroke
-4 -8 1006 2874 2 MP stroke
-5 1 1006 2999 2 MP stroke
-5 -5 1006 3123 2 MP stroke
-4 -2 1006 3247 2 MP stroke
-3 -3 1006 3372 2 MP stroke
-3 -2 1006 3496 2 MP stroke
-5 -2 1006 3620 2 MP stroke
-8 -1 1006 3744 2 MP stroke
-8 -2 1006 3869 2 MP stroke
-6 1 1006 3993 2 MP stroke
-7 0 1006 4117 2 MP stroke
-7 -1 1006 4242 2 MP stroke
-7 -1 1006 4366 2 MP stroke
-8 0 1006 4490 2 MP stroke
1114 389 PD
-2 -3 1114 513 2 MP stroke
-25 2 1114 637 2 MP stroke
-10 4 1114 886 2 MP stroke
-16 10 1114 1010 2 MP stroke
-8 -7 1114 1134 2 MP stroke
-11 3 1114 1259 2 MP stroke
-6 -1 1114 1383 2 MP stroke
-12 -3 1114 1507 2 MP stroke
-8 -5 1114 1631 2 MP stroke
-11 0 1114 2377 2 MP stroke
-10 -1 1114 2502 2 MP stroke
-8 -1 1114 2626 2 MP stroke
-8 -4 1114 2750 2 MP stroke
-10 -10 1114 2874 2 MP stroke
-8 -5 1114 2999 2 MP stroke
-7 -4 1114 3123 2 MP stroke
-6 -4 1114 3247 2 MP stroke
-5 -4 1114 3372 2 MP stroke
-6 -2 1114 3496 2 MP stroke
-10 -2 1114 3620 2 MP stroke
-12 0 1114 3744 2 MP stroke
-9 -2 1114 3869 2 MP stroke
-11 -1 1114 3993 2 MP stroke
-11 0 1114 4117 2 MP stroke
-10 0 1114 4242 2 MP stroke
-11 -1 1114 4366 2 MP stroke
-12 0 1114 4490 2 MP stroke
1222 389 PD
-9 4 1222 513 2 MP stroke
-9 -2 1222 637 2 MP stroke
-11 5 1222 761 2 MP stroke
-7 1 1222 886 2 MP stroke
-11 6 1222 1010 2 MP stroke
-4 -2 1222 1134 2 MP stroke
-2 -1 1222 1383 2 MP stroke
-2 0 1222 1507 2 MP stroke
1222 1631 PD
-5 -3 1222 2502 2 MP stroke
-4 -4 1222 2626 2 MP stroke
-1 -4 1222 2750 2 MP stroke
-6 -1 1222 2874 2 MP stroke
-5 0 1222 2999 2 MP stroke
-5 0 1222 3123 2 MP stroke
-5 -2 1222 3247 2 MP stroke
-4 -2 1222 3372 2 MP stroke
-7 -2 1222 3496 2 MP stroke
-7 -2 1222 3620 2 MP stroke
-7 -2 1222 3744 2 MP stroke
-8 -1 1222 3869 2 MP stroke
-9 0 1222 3993 2 MP stroke
-6 -2 1222 4117 2 MP stroke
-7 0 1222 4242 2 MP stroke
-7 -1 1222 4366 2 MP stroke
-8 0 1222 4490 2 MP stroke
-13 2 1329 513 2 MP stroke
-8 -4 1329 637 2 MP stroke
-9 2 1329 761 2 MP stroke
-4 -14 1329 886 2 MP stroke
-13 -2 1329 1010 2 MP stroke
-21 -7 1329 1134 2 MP stroke
-15 0 1329 1259 2 MP stroke
1329 1507 PD
-10 -6 1329 2502 2 MP stroke
-12 -6 1329 2626 2 MP stroke
-2 -6 1329 2750 2 MP stroke
-7 -2 1329 2874 2 MP stroke
-1 -3 1329 2999 2 MP stroke
-1 -2 1329 3123 2 MP stroke
-8 -1 1329 3247 2 MP stroke
-4 -3 1329 3372 2 MP stroke
-8 -2 1329 3496 2 MP stroke
-10 -2 1329 3620 2 MP stroke
-9 -2 1329 3744 2 MP stroke
-10 -2 1329 3869 2 MP stroke
-11 -2 1329 3993 2 MP stroke
-10 -1 1329 4117 2 MP stroke
-10 -2 1329 4242 2 MP stroke
-12 -5 1329 4366 2 MP stroke
-11 -2 1329 4490 2 MP stroke
1437 389 PD
-12 4 1437 513 2 MP stroke
-6 -2 1437 637 2 MP stroke
-12 -3 1437 761 2 MP stroke
-8 -3 1437 886 2 MP stroke
-14 3 1437 1010 2 MP stroke
-8 -4 1437 1134 2 MP stroke
-4 -2 1437 1259 2 MP stroke
4 0 1437 1383 2 MP stroke
-4 -2 1437 2502 2 MP stroke
-6 -2 1437 2626 2 MP stroke
0 -1 1437 3123 2 MP stroke
-6 0 1437 3247 2 MP stroke
-5 -2 1437 3372 2 MP stroke
-5 -1 1437 3496 2 MP stroke
-6 -4 1437 3620 2 MP stroke
-6 -1 1437 3744 2 MP stroke
-7 -2 1437 3869 2 MP stroke
-6 -2 1437 3993 2 MP stroke
-7 -4 1437 4117 2 MP stroke
-9 -3 1437 4242 2 MP stroke
-7 -5 1437 4366 2 MP stroke
-8 -1 1437 4490 2 MP stroke
-9 -2 1437 4615 2 MP stroke
1545 389 PD
-12 3 1545 513 2 MP stroke
-4 3 1545 637 2 MP stroke
-14 1 1545 761 2 MP stroke
-12 -4 1545 886 2 MP stroke
-12 3 1545 1010 2 MP stroke
-13 1 1545 1134 2 MP stroke
-12 1 1545 1259 2 MP stroke
-11 -1 1545 1383 2 MP stroke
1545 1507 PD
1545 1631 PD
-7 -3 1545 2502 2 MP stroke
-5 0 1545 3123 2 MP stroke
-6 -1 1545 3247 2 MP stroke
-6 -1 1545 3372 2 MP stroke
-8 -1 1545 3496 2 MP stroke
-9 -3 1545 3620 2 MP stroke
-6 4 1545 3744 2 MP stroke
-12 -1 1545 3869 2 MP stroke
-9 1 1545 3993 2 MP stroke
-9 -4 1545 4117 2 MP stroke
-10 -2 1545 4242 2 MP stroke
-12 -1 1545 4366 2 MP stroke
-10 -1 1545 4490 2 MP stroke
-11 -3 1545 4615 2 MP stroke
1653 389 PD
-9 3 1653 513 2 MP stroke
-10 -2 1653 637 2 MP stroke
-12 3 1653 761 2 MP stroke
-10 -2 1653 886 2 MP stroke
-11 5 1653 1010 2 MP stroke
-6 -2 1653 1134 2 MP stroke
-9 5 1653 1259 2 MP stroke
-7 0 1653 1383 2 MP stroke
-5 0 1653 1507 2 MP stroke
-8 5 1653 2502 2 MP stroke
-5 0 1653 2626 2 MP stroke
-5 1 1653 2750 2 MP stroke
-6 0 1653 3123 2 MP stroke
-9 -1 1653 3247 2 MP stroke
-8 -1 1653 3372 2 MP stroke
-5 -2 1653 3496 2 MP stroke
-7 -1 1653 3620 2 MP stroke
-5 0 1653 3744 2 MP stroke
-6 -2 1653 3869 2 MP stroke
-7 -2 1653 3993 2 MP stroke
-9 -1 1653 4117 2 MP stroke
-9 -4 1653 4242 2 MP stroke
-8 -2 1653 4366 2 MP stroke
-8 0 1653 4490 2 MP stroke
1760 389 PD
-10 -1 1760 513 2 MP stroke
-12 -3 1760 637 2 MP stroke
-8 4 1760 761 2 MP stroke
-9 -1 1760 886 2 MP stroke
-5 -6 1760 1010 2 MP stroke
-9 -1 1760 1134 2 MP stroke
-9 11 1760 1259 2 MP stroke
-6 2 1760 1383 2 MP stroke
-3 -1 1760 1507 2 MP stroke
-12 -2 1760 1631 2 MP stroke
-8 4 1760 2502 2 MP stroke
-10 -2 1760 2626 2 MP stroke
-8 6 1760 2750 2 MP stroke
-5 -1 1760 2874 2 MP stroke
-1 -2 1760 2999 2 MP stroke
-1 -2 1760 3123 2 MP stroke
-10 -1 1760 3247 2 MP stroke
-10 -2 1760 3372 2 MP stroke
-9 -1 1760 3496 2 MP stroke
-10 -3 1760 3620 2 MP stroke
-11 -2 1760 3744 2 MP stroke
-12 -2 1760 3869 2 MP stroke
-12 -4 1760 3993 2 MP stroke
-10 -3 1760 4117 2 MP stroke
-14 2 1760 4242 2 MP stroke
-12 -2 1760 4366 2 MP stroke
-11 -1 1760 4490 2 MP stroke
1868 389 PD
-4 2 1868 513 2 MP stroke
-13 0 1868 637 2 MP stroke
-7 1 1868 761 2 MP stroke
-14 -1 1868 886 2 MP stroke
-16 5 1868 1010 2 MP stroke
0 3 1868 1134 2 MP stroke
-8 0 1868 1259 2 MP stroke
-8 -1 1868 1383 2 MP stroke
-4 0 1868 1507 2 MP stroke
-2 -5 1868 1631 2 MP stroke
-5 -2 1868 2626 2 MP stroke
-3 1 1868 2750 2 MP stroke
-5 0 1868 2874 2 MP stroke
-2 2 1868 2999 2 MP stroke
-5 -6 1868 3123 2 MP stroke
-4 -1 1868 3247 2 MP stroke
-5 -3 1868 3372 2 MP stroke
-6 -1 1868 3496 2 MP stroke
-7 0 1868 3620 2 MP stroke
-6 -1 1868 3744 2 MP stroke
-4 -2 1868 3869 2 MP stroke
-7 1 1868 3993 2 MP stroke
-9 -4 1868 4117 2 MP stroke
-7 -2 1868 4242 2 MP stroke
-7 -3 1868 4366 2 MP stroke
-9 -2 1868 4490 2 MP stroke
-8 -2 1868 4615 2 MP stroke
1976 389 PD
-3 4 1976 513 2 MP stroke
-19 -1 1976 637 2 MP stroke
-13 5 1976 761 2 MP stroke
-3 1 1976 886 2 MP stroke
5 -17 1976 1010 2 MP stroke
-1 1 1976 1134 2 MP stroke
-8 -1 1976 1259 2 MP stroke
-10 -4 1976 1383 2 MP stroke
-9 0 1976 1507 2 MP stroke
1976 1631 PD
-13 -8 1976 2502 2 MP stroke
-12 -5 1976 2626 2 MP stroke
-10 1 1976 2750 2 MP stroke
-10 -1 1976 2874 2 MP stroke
-9 -2 1976 2999 2 MP stroke
-9 -1 1976 3123 2 MP stroke
-8 -2 1976 3247 2 MP stroke
-12 -2 1976 3372 2 MP stroke
-13 -2 1976 3496 2 MP stroke
-13 -2 1976 3620 2 MP stroke
-12 0 1976 3744 2 MP stroke
-9 -1 1976 3869 2 MP stroke
-10 -3 1976 3993 2 MP stroke
-11 -2 1976 4117 2 MP stroke
-12 -4 1976 4242 2 MP stroke
-11 -2 1976 4366 2 MP stroke
-12 -2 1976 4490 2 MP stroke
2084 389 PD
-15 5 2084 513 2 MP stroke
-10 -6 2084 637 2 MP stroke
-10 2 2084 761 2 MP stroke
-9 -1 2084 886 2 MP stroke
-9 -4 2084 1010 2 MP stroke
-8 1 2084 1134 2 MP stroke
-3 1 2084 1259 2 MP stroke
-6 -1 2084 1383 2 MP stroke
3 -4 2084 1507 2 MP stroke
-6 -2 2084 1631 2 MP stroke
-4 -4 2084 2377 2 MP stroke
-6 -2 2084 2502 2 MP stroke
-6 -4 2084 2626 2 MP stroke
-5 1 2084 2750 2 MP stroke
-6 -3 2084 2874 2 MP stroke
-6 4 2084 2999 2 MP stroke
-3 -3 2084 3123 2 MP stroke
-5 -2 2084 3247 2 MP stroke
-7 -1 2084 3372 2 MP stroke
-7 -1 2084 3496 2 MP stroke
-6 -2 2084 3620 2 MP stroke
-8 0 2084 3744 2 MP stroke
-8 -3 2084 3869 2 MP stroke
-9 -1 2084 3993 2 MP stroke
-9 0 2084 4117 2 MP stroke
-8 -2 2084 4242 2 MP stroke
-10 -3 2084 4366 2 MP stroke
-8 -4 2084 4490 2 MP stroke
2191 389 PD
-14 2 2191 513 2 MP stroke
-11 0 2191 637 2 MP stroke
-7 -7 2191 761 2 MP stroke
-17 1 2191 886 2 MP stroke
-12 0 2191 1010 2 MP stroke
-10 0 2191 1134 2 MP stroke
-20 1 2191 1259 2 MP stroke
-6 -1 2191 1383 2 MP stroke
-6 0 2191 1631 2 MP stroke
-8 -5 2191 2377 2 MP stroke
-9 0 2191 2502 2 MP stroke
-6 0 2191 2626 2 MP stroke
-8 -1 2191 2750 2 MP stroke
-9 -6 2191 2874 2 MP stroke
-9 0 2191 2999 2 MP stroke
-9 -2 2191 3123 2 MP stroke
-9 -1 2191 3247 2 MP stroke
-6 -3 2191 3372 2 MP stroke
-10 0 2191 3496 2 MP stroke
-9 -1 2191 3620 2 MP stroke
-9 0 2191 3744 2 MP stroke
-8 -1 2191 3869 2 MP stroke
-12 -1 2191 3993 2 MP stroke
-11 -2 2191 4117 2 MP stroke
-12 0 2191 4242 2 MP stroke
-13 -4 2191 4366 2 MP stroke
-12 0 2191 4490 2 MP stroke
2299 389 PD
-10 5 2299 513 2 MP stroke
-12 0 2299 637 2 MP stroke
-9 1 2299 761 2 MP stroke
-9 -3 2299 886 2 MP stroke
-10 1 2299 1010 2 MP stroke
-8 -8 2299 1134 2 MP stroke
-10 0 2299 1259 2 MP stroke
-7 0 2299 1383 2 MP stroke
0 4 2299 1507 2 MP stroke
-5 0 2299 1631 2 MP stroke
-4 -1 2299 1756 2 MP stroke
-4 2 2299 1880 2 MP stroke
-6 1 2299 2253 2 MP stroke
-8 -1 2299 2377 2 MP stroke
-4 -2 2299 2502 2 MP stroke
-5 0 2299 2626 2 MP stroke
-2 -3 2299 2750 2 MP stroke
-2 -6 2299 2874 2 MP stroke
-2 -4 2299 2999 2 MP stroke
-5 -1 2299 3123 2 MP stroke
-3 -1 2299 3247 2 MP stroke
-6 -1 2299 3372 2 MP stroke
-6 -1 2299 3496 2 MP stroke
-7 -2 2299 3620 2 MP stroke
-7 -2 2299 3744 2 MP stroke
-8 -1 2299 3869 2 MP stroke
-9 0 2299 3993 2 MP stroke
-6 -1 2299 4117 2 MP stroke
-6 -2 2299 4242 2 MP stroke
-7 -4 2299 4366 2 MP stroke
-9 0 2299 4490 2 MP stroke
-7 -1 2299 4615 2 MP stroke
2407 389 PD
-12 4 2407 513 2 MP stroke
-10 1 2407 637 2 MP stroke
-12 1 2407 761 2 MP stroke
-12 0 2407 886 2 MP stroke
-12 3 2407 1010 2 MP stroke
-5 -14 2407 1134 2 MP stroke
-7 -4 2407 1507 2 MP stroke
-7 1 2407 1631 2 MP stroke
-10 -1 2407 1756 2 MP stroke
-8 0 2407 1880 2 MP stroke
-12 1 2407 2004 2 MP stroke
-9 -3 2407 2129 2 MP stroke
-11 3 2407 2253 2 MP stroke
-12 -2 2407 2377 2 MP stroke
-10 -2 2407 2502 2 MP stroke
-10 0 2407 2626 2 MP stroke
-7 3 2407 2750 2 MP stroke
-11 -1 2407 2874 2 MP stroke
-7 0 2407 2999 2 MP stroke
-8 -1 2407 3123 2 MP stroke
-12 0 2407 3247 2 MP stroke
-8 -3 2407 3372 2 MP stroke
-11 -1 2407 3496 2 MP stroke
-11 -1 2407 3620 2 MP stroke
-11 -2 2407 3744 2 MP stroke
-10 -5 2407 3869 2 MP stroke
-10 0 2407 3993 2 MP stroke
-10 -1 2407 4117 2 MP stroke
-12 -2 2407 4242 2 MP stroke
-12 -4 2407 4366 2 MP stroke
-12 -1 2407 4490 2 MP stroke
2515 389 PD
-9 -1 2515 513 2 MP stroke
-10 1 2515 637 2 MP stroke
-6 1 2515 886 2 MP stroke
-8 3 2515 1010 2 MP stroke
-15 -3 2515 1134 2 MP stroke
-13 5 2515 1259 2 MP stroke
-11 -1 2515 1383 2 MP stroke
-11 5 2515 1507 2 MP stroke
-4 1 2515 1631 2 MP stroke
-5 3 2515 1756 2 MP stroke
-7 12 2515 1880 2 MP stroke
-5 -4 2515 2004 2 MP stroke
-5 -3 2515 2129 2 MP stroke
-4 3 2515 2253 2 MP stroke
-5 -3 2515 2377 2 MP stroke
-4 -2 2515 2502 2 MP stroke
-5 -2 2515 2626 2 MP stroke
-5 0 2515 2750 2 MP stroke
-4 -1 2515 2874 2 MP stroke
-4 -3 2515 2999 2 MP stroke
-4 -2 2515 3123 2 MP stroke
-5 -2 2515 3247 2 MP stroke
-6 -1 2515 3372 2 MP stroke
-5 -2 2515 3496 2 MP stroke
-4 0 2515 3620 2 MP stroke
-5 -1 2515 3744 2 MP stroke
-8 -3 2515 3869 2 MP stroke
-7 0 2515 3993 2 MP stroke
-6 -1 2515 4117 2 MP stroke
-8 -2 2515 4242 2 MP stroke
-8 -3 2515 4366 2 MP stroke
-9 0 2515 4490 2 MP stroke
-7 0 2622 389 2 MP stroke
-13 4 2622 513 2 MP stroke
-13 2 2622 637 2 MP stroke
-14 -3 2622 761 2 MP stroke
-13 2 2622 886 2 MP stroke
-12 -5 2622 1010 2 MP stroke
-12 -2 2622 1134 2 MP stroke
-11 7 2622 1259 2 MP stroke
-13 -6 2622 1383 2 MP stroke
-11 2 2622 1507 2 MP stroke
-11 0 2622 1631 2 MP stroke
5 -1 2622 1756 2 MP stroke
-5 -2 2622 1880 2 MP stroke
-3 0 2622 2004 2 MP stroke
-4 -1 2622 2129 2 MP stroke
-6 6 2622 2253 2 MP stroke
-7 2 2622 2377 2 MP stroke
-8 -3 2622 2502 2 MP stroke
-8 0 2622 2626 2 MP stroke
-8 0 2622 2750 2 MP stroke
-7 -3 2622 2874 2 MP stroke
-7 -3 2622 2999 2 MP stroke
-7 -3 2622 3123 2 MP stroke
-7 -1 2622 3247 2 MP stroke
-9 -1 2622 3372 2 MP stroke
-11 0 2622 3496 2 MP stroke
-12 -1 2622 3620 2 MP stroke
-10 1 2622 3744 2 MP stroke
-12 -1 2622 3869 2 MP stroke
-9 -1 2622 3993 2 MP stroke
-11 0 2622 4117 2 MP stroke
-12 -2 2622 4242 2 MP stroke
-10 -5 2622 4366 2 MP stroke
-15 -1 2622 4490 2 MP stroke
2730 389 PD
-11 6 2730 513 2 MP stroke
-9 0 2730 637 2 MP stroke
-10 3 2730 761 2 MP stroke
-10 0 2730 886 2 MP stroke
-5 0 2730 1010 2 MP stroke
-4 -1 2730 1134 2 MP stroke
-4 0 2730 1259 2 MP stroke
-5 -6 2730 1383 2 MP stroke
-6 1 2730 1507 2 MP stroke
-5 -4 2730 1631 2 MP stroke
-3 -5 2730 1756 2 MP stroke
-1 -8 2730 1880 2 MP stroke
-4 -1 2730 2377 2 MP stroke
-1 -4 2730 2502 2 MP stroke
-4 0 2730 2626 2 MP stroke
-3 -2 2730 2750 2 MP stroke
-3 0 2730 2874 2 MP stroke
-3 -1 2730 2999 2 MP stroke
-3 -3 2730 3123 2 MP stroke
-4 0 2730 3247 2 MP stroke
-4 -4 2730 3372 2 MP stroke
-7 -2 2730 3496 2 MP stroke
-7 -2 2730 3620 2 MP stroke
-8 0 2730 3744 2 MP stroke
-6 -1 2730 3869 2 MP stroke
-6 -1 2730 3993 2 MP stroke
-8 -1 2730 4117 2 MP stroke
-10 -2 2730 4242 2 MP stroke
-8 -3 2730 4366 2 MP stroke
-10 -2 2730 4490 2 MP stroke
2838 389 PD
-6 3 2838 513 2 MP stroke
-9 3 2838 637 2 MP stroke
-13 -3 2838 761 2 MP stroke
-7 -3 2838 1259 2 MP stroke
7 0 2838 1383 2 MP stroke
-2 4 2838 1507 2 MP stroke
2838 1631 PD
2838 2377 PD
-8 0 2838 2502 2 MP stroke
-8 -1 2838 2626 2 MP stroke
-9 -1 2838 2750 2 MP stroke
-9 -4 2838 2874 2 MP stroke
-9 0 2838 2999 2 MP stroke
-9 -1 2838 3123 2 MP stroke
-8 0 2838 3247 2 MP stroke
-9 -5 2838 3372 2 MP stroke
-12 -1 2838 3496 2 MP stroke
-11 -1 2838 3620 2 MP stroke
-10 0 2838 3744 2 MP stroke
-9 -1 2838 3869 2 MP stroke
-10 0 2838 3993 2 MP stroke
-11 0 2838 4117 2 MP stroke
-10 -3 2838 4242 2 MP stroke
-11 0 2838 4366 2 MP stroke
-11 -2 2838 4490 2 MP stroke
-10 -2 2838 4615 2 MP stroke
2945 389 PD
-12 7 2945 513 2 MP stroke
-2 3 2945 637 2 MP stroke
-6 4 2945 886 2 MP stroke
-9 3 2945 1010 2 MP stroke
-12 -1 2945 1134 2 MP stroke
-10 2 2945 1259 2 MP stroke
-8 -2 2945 1383 2 MP stroke
-5 2 2945 1507 2 MP stroke
0 -3 2945 1631 2 MP stroke
-3 0 2945 2502 2 MP stroke
-4 -2 2945 2626 2 MP stroke
-4 -2 2945 2750 2 MP stroke
-3 -1 2945 2874 2 MP stroke
-2 -2 2945 2999 2 MP stroke
-6 -5 2945 3123 2 MP stroke
-4 -1 2945 3247 2 MP stroke
-6 -2 2945 3372 2 MP stroke
-6 -1 2945 3496 2 MP stroke
-8 -1 2945 3620 2 MP stroke
-7 -1 2945 3744 2 MP stroke
-7 -2 2945 3869 2 MP stroke
-7 -2 2945 3993 2 MP stroke
-9 -2 2945 4117 2 MP stroke
-7 -1 2945 4242 2 MP stroke
-6 -3 2945 4366 2 MP stroke
-9 0 2945 4490 2 MP stroke
-8 -4 2945 4615 2 MP stroke
-18 6 3053 513 2 MP stroke
3 3 3053 637 2 MP stroke
-5 -2 3053 1134 2 MP stroke
-8 1 3053 1259 2 MP stroke
-9 -1 3053 1383 2 MP stroke
-9 1 3053 1507 2 MP stroke
-9 -3 3053 1631 2 MP stroke
-6 -7 3053 1756 2 MP stroke
-12 0 3053 1880 2 MP stroke
-2 -5 3053 2502 2 MP stroke
-10 -1 3053 2626 2 MP stroke
-9 -1 3053 2750 2 MP stroke
-10 -1 3053 2874 2 MP stroke
-10 -1 3053 2999 2 MP stroke
-8 -6 3053 3123 2 MP stroke
-10 -1 3053 3247 2 MP stroke
-11 -1 3053 3372 2 MP stroke
-11 0 3053 3496 2 MP stroke
-12 0 3053 3620 2 MP stroke
-9 -1 3053 3744 2 MP stroke
-10 -4 3053 3869 2 MP stroke
-12 -3 3053 3993 2 MP stroke
-10 0 3053 4117 2 MP stroke
-10 -1 3053 4242 2 MP stroke
-9 0 3053 4366 2 MP stroke
-13 0 3053 4490 2 MP stroke
-12 -3 3053 4615 2 MP stroke
-7 0 3161 389 2 MP stroke
-8 7 3161 513 2 MP stroke
-2 2 3161 637 2 MP stroke
-5 -3 3161 1134 2 MP stroke
-4 1 3161 1259 2 MP stroke
-5 -4 3161 1383 2 MP stroke
-6 6 3161 1507 2 MP stroke
-4 8 3161 1631 2 MP stroke
-5 2 3161 1756 2 MP stroke
-4 2 3161 1880 2 MP stroke
-3 4 3161 2004 2 MP stroke
-2 -3 3161 2129 2 MP stroke
-4 1 3161 2253 2 MP stroke
-4 -2 3161 2377 2 MP stroke
-5 -1 3161 2502 2 MP stroke
-6 -3 3161 2626 2 MP stroke
-6 -3 3161 2750 2 MP stroke
-6 -6 3161 2874 2 MP stroke
-6 -2 3161 2999 2 MP stroke
-4 0 3161 3123 2 MP stroke
-5 0 3161 3247 2 MP stroke
-8 -2 3161 3372 2 MP stroke
-7 -1 3161 3496 2 MP stroke
-7 -2 3161 3620 2 MP stroke
-4 -1 3161 3744 2 MP stroke
-5 -4 3161 3869 2 MP stroke
-7 -2 3161 3993 2 MP stroke
-9 0 3161 4117 2 MP stroke
-10 -2 3161 4242 2 MP stroke
-9 -2 3161 4366 2 MP stroke
-9 -2 3161 4490 2 MP stroke
3269 389 PD
-12 2 3269 513 2 MP stroke
-12 3 3269 637 2 MP stroke
-11 -4 3269 886 2 MP stroke
-15 -5 3269 1010 2 MP stroke
-5 2 3269 1259 2 MP stroke
-9 -2 3269 1383 2 MP stroke
-7 5 3269 1507 2 MP stroke
-7 0 3269 1631 2 MP stroke
-8 -5 3269 1756 2 MP stroke
-8 -2 3269 1880 2 MP stroke
-8 1 3269 2004 2 MP stroke
-8 1 3269 2129 2 MP stroke
-10 -7 3269 2253 2 MP stroke
-10 -6 3269 2377 2 MP stroke
-10 0 3269 2502 2 MP stroke
-9 -4 3269 2626 2 MP stroke
-7 2 3269 2750 2 MP stroke
-11 -1 3269 2874 2 MP stroke
-11 0 3269 2999 2 MP stroke
-8 -5 3269 3123 2 MP stroke
-12 0 3269 3247 2 MP stroke
-8 -5 3269 3372 2 MP stroke
-11 0 3269 3496 2 MP stroke
-11 -2 3269 3620 2 MP stroke
-10 -1 3269 3744 2 MP stroke
-10 -3 3269 3869 2 MP stroke
-11 -2 3269 3993 2 MP stroke
-13 0 3269 4117 2 MP stroke
-11 -7 3269 4242 2 MP stroke
-11 -2 3269 4366 2 MP stroke
-13 3 3269 4490 2 MP stroke
3376 389 PD
-13 6 3376 513 2 MP stroke
-17 1 3376 637 2 MP stroke
-8 -3 3376 761 2 MP stroke
-8 0 3376 886 2 MP stroke
-9 -1 3376 1010 2 MP stroke
-10 1 3376 1134 2 MP stroke
-2 2 3376 1507 2 MP stroke
-2 -2 3376 1631 2 MP stroke
2 -1 3376 1756 2 MP stroke
-6 1 3376 1880 2 MP stroke
-3 3 3376 2004 2 MP stroke
-3 -3 3376 2129 2 MP stroke
-4 2 3376 2253 2 MP stroke
-2 -2 3376 2377 2 MP stroke
-3 -2 3376 2502 2 MP stroke
-3 -2 3376 2626 2 MP stroke
-4 -3 3376 2750 2 MP stroke
-2 -1 3376 2874 2 MP stroke
-3 0 3376 2999 2 MP stroke
-4 0 3376 3123 2 MP stroke
-4 -1 3376 3247 2 MP stroke
-5 -4 3376 3372 2 MP stroke
-6 1 3376 3496 2 MP stroke
-6 -1 3376 3620 2 MP stroke
-6 -1 3376 3744 2 MP stroke
-8 -1 3376 3869 2 MP stroke
-7 1 3376 3993 2 MP stroke
-6 -5 3376 4117 2 MP stroke
-8 0 3376 4242 2 MP stroke
-8 -1 3376 4366 2 MP stroke
-9 -2 3376 4490 2 MP stroke
-5 -4 3376 4615 2 MP stroke
3484 389 PD
-13 5 3484 513 2 MP stroke
-19 0 3484 637 2 MP stroke
-16 2 3484 761 2 MP stroke
-8 -9 3484 886 2 MP stroke
-12 2 3484 1010 2 MP stroke
-2 -11 3484 1134 2 MP stroke
-2 0 3484 1507 2 MP stroke
0 -2 3484 1631 2 MP stroke
-4 -3 3484 1880 2 MP stroke
-10 -2 3484 2004 2 MP stroke
-8 -1 3484 2129 2 MP stroke
-3 -1 3484 2253 2 MP stroke
0 -8 3484 2377 2 MP stroke
-6 -3 3484 2502 2 MP stroke
-8 -1 3484 2626 2 MP stroke
-8 -2 3484 2750 2 MP stroke
-8 -1 3484 2874 2 MP stroke
-10 -1 3484 2999 2 MP stroke
-12 0 3484 3123 2 MP stroke
-12 0 3484 3247 2 MP stroke
-11 -1 3484 3372 2 MP stroke
-7 1 3484 3496 2 MP stroke
-9 -1 3484 3620 2 MP stroke
-12 0 3484 3744 2 MP stroke
-10 -3 3484 3869 2 MP stroke
-11 3 3484 3993 2 MP stroke
-12 -1 3484 4117 2 MP stroke
-13 -3 3484 4242 2 MP stroke
-11 -3 3484 4366 2 MP stroke
-8 -3 3484 4490 2 MP stroke
3592 389 PD
-6 4 3592 513 2 MP stroke
-6 1 3592 637 2 MP stroke
-10 -3 3592 1383 2 MP stroke
-5 -5 3592 1631 2 MP stroke
1 0 3592 1756 2 MP stroke
-6 -2 3592 2129 2 MP stroke
-6 2 3592 2253 2 MP stroke
-4 0 3592 2377 2 MP stroke
-3 -2 3592 2502 2 MP stroke
-6 -1 3592 2626 2 MP stroke
-3 1 3592 2750 2 MP stroke
-5 -1 3592 2874 2 MP stroke
-5 -2 3592 2999 2 MP stroke
-5 -1 3592 3123 2 MP stroke
-5 -1 3592 3247 2 MP stroke
-6 -2 3592 3372 2 MP stroke
-4 0 3592 3496 2 MP stroke
-8 -1 3592 3620 2 MP stroke
-6 1 3592 3744 2 MP stroke
-6 -5 3592 3869 2 MP stroke
-7 -3 3592 3993 2 MP stroke
-8 -1 3592 4117 2 MP stroke
-8 -1 3592 4242 2 MP stroke
-8 -2 3592 4366 2 MP stroke
-16 -5 3592 4490 2 MP stroke
-9 -4 3592 4615 2 MP stroke
3700 389 PD
-12 2 3700 513 2 MP stroke
-6 0 3700 637 2 MP stroke
-10 -4 3700 1259 2 MP stroke
-5 -3 3700 1383 2 MP stroke
-11 -1 3700 1507 2 MP stroke
-5 -2 3700 1631 2 MP stroke
-2 -3 3700 1756 2 MP stroke
-3 -4 3700 1880 2 MP stroke
-11 0 3700 2004 2 MP stroke
-9 -4 3700 2129 2 MP stroke
-11 0 3700 2253 2 MP stroke
-9 -2 3700 2377 2 MP stroke
-9 -1 3700 2502 2 MP stroke
-8 -2 3700 2626 2 MP stroke
-9 1 3700 2750 2 MP stroke
-12 -1 3700 2874 2 MP stroke
-11 -1 3700 2999 2 MP stroke
-10 -1 3700 3123 2 MP stroke
-11 -2 3700 3247 2 MP stroke
-9 -2 3700 3372 2 MP stroke
-11 -1 3700 3496 2 MP stroke
-13 -1 3700 3620 2 MP stroke
-12 -1 3700 3744 2 MP stroke
-12 -3 3700 3869 2 MP stroke
-12 -1 3700 3993 2 MP stroke
-11 -1 3700 4117 2 MP stroke
-11 -1 3700 4242 2 MP stroke
-11 -4 3700 4366 2 MP stroke
-22 -3 3700 4490 2 MP stroke
-17 -16 3700 4615 2 MP stroke
-14 3 3807 513 2 MP stroke
-3 3 3807 637 2 MP stroke
-4 0 3807 1259 2 MP stroke
-6 -4 3807 1383 2 MP stroke
-4 -1 3807 1631 2 MP stroke
-1 -5 3807 1880 2 MP stroke
-5 3 3807 2004 2 MP stroke
-3 -2 3807 2129 2 MP stroke
-5 -5 3807 2253 2 MP stroke
-3 -1 3807 2377 2 MP stroke
-3 0 3807 2502 2 MP stroke
-2 0 3807 2626 2 MP stroke
-4 1 3807 2750 2 MP stroke
-4 -5 3807 2874 2 MP stroke
-5 -1 3807 2999 2 MP stroke
-6 0 3807 3123 2 MP stroke
-5 -3 3807 3247 2 MP stroke
-5 -2 3807 3372 2 MP stroke
-8 1 3807 3496 2 MP stroke
-7 -6 3807 3620 2 MP stroke
-8 0 3807 3744 2 MP stroke
-8 -3 3807 3869 2 MP stroke
-7 -2 3807 3993 2 MP stroke
-7 -2 3807 4117 2 MP stroke
-9 1 3807 4242 2 MP stroke
-9 -5 3807 4366 2 MP stroke
-13 -6 3807 4490 2 MP stroke
-18 -3 3915 513 2 MP stroke
-12 -1 3915 637 2 MP stroke
-10 0 3915 1010 2 MP stroke
-8 0 3915 1134 2 MP stroke
-10 1 3915 1259 2 MP stroke
-4 -2 3915 1383 2 MP stroke
-3 5 3915 1507 2 MP stroke
-6 -2 3915 1631 2 MP stroke
-10 1 3915 1756 2 MP stroke
-16 5 3915 1880 2 MP stroke
-8 1 3915 2004 2 MP stroke
-10 0 3915 2129 2 MP stroke
-5 -3 3915 2253 2 MP stroke
-7 0 3915 2377 2 MP stroke
-9 1 3915 2502 2 MP stroke
-13 -3 3915 2626 2 MP stroke
-9 -3 3915 2750 2 MP stroke
-9 -2 3915 2874 2 MP stroke
-9 -1 3915 2999 2 MP stroke
-9 -1 3915 3123 2 MP stroke
-9 -4 3915 3247 2 MP stroke
-9 -2 3915 3372 2 MP stroke
-12 0 3915 3496 2 MP stroke
-11 -1 3915 3620 2 MP stroke
-11 0 3915 3744 2 MP stroke
-12 -4 3915 3869 2 MP stroke
-12 0 3915 3993 2 MP stroke
-12 -1 3915 4117 2 MP stroke
-12 1 3915 4242 2 MP stroke
-12 0 3915 4366 2 MP stroke
-20 3 3915 4490 2 MP stroke
-15 0 4023 389 2 MP stroke
-17 -4 4023 513 2 MP stroke
-13 2 4023 637 2 MP stroke
-17 10 4023 761 2 MP stroke
57 158 4023 886 2 MP stroke
-12 3 4023 1134 2 MP stroke
-6 -2 4023 1259 2 MP stroke
-3 -9 4023 1383 2 MP stroke
-3 2 4023 1507 2 MP stroke
-6 -2 4023 1631 2 MP stroke
-4 0 4023 1756 2 MP stroke
-11 4 4023 1880 2 MP stroke
-3 0 4023 2004 2 MP stroke
-6 5 4023 2129 2 MP stroke
-4 3 4023 2253 2 MP stroke
-3 -2 4023 2377 2 MP stroke
-3 -1 4023 2502 2 MP stroke
-4 -5 4023 2626 2 MP stroke
-6 1 4023 2750 2 MP stroke
-3 -2 4023 2874 2 MP stroke
-7 1 4023 2999 2 MP stroke
-16 -3 4023 3123 2 MP stroke
-10 2 4023 3247 2 MP stroke
-16 -8 4023 3372 2 MP stroke
-11 -7 4023 3496 2 MP stroke
-7 -1 4023 3620 2 MP stroke
-7 4 4023 3744 2 MP stroke
-5 1 4023 3869 2 MP stroke
-8 2 4023 3993 2 MP stroke
-8 -1 4023 4117 2 MP stroke
-4 3 4023 4242 2 MP stroke
-16 13 4023 4366 2 MP stroke
-19 0 4023 4490 2 MP stroke
-19 7 4131 389 2 MP stroke
-19 4 4131 513 2 MP stroke
-13 -6 4131 637 2 MP stroke
-17 0 4131 761 2 MP stroke
-18 -3 4131 886 2 MP stroke
-26 -19 4131 1010 2 MP stroke
-23 52 4131 1134 2 MP stroke
-23 -34 4131 1259 2 MP stroke
-28 -25 4131 1383 2 MP stroke
-26 -16 4131 1507 2 MP stroke
-25 -17 4131 1631 2 MP stroke
-25 -6 4131 1756 2 MP stroke
4 -2 4131 1880 2 MP stroke
-13 -1 4131 2004 2 MP stroke
-11 -7 4131 2129 2 MP stroke
-10 11 4131 2253 2 MP stroke
-17 2 4131 2377 2 MP stroke
-14 0 4131 2502 2 MP stroke
-6 -11 4131 2626 2 MP stroke
-3 2 4131 2750 2 MP stroke
-1 0 4131 2874 2 MP stroke
-14 -1 4131 2999 2 MP stroke
-14 -5 4131 3123 2 MP stroke
-8 25 4131 3247 2 MP stroke
-19 -11 4131 3372 2 MP stroke
-19 -5 4131 3496 2 MP stroke
-10 1 4131 3620 2 MP stroke
-16 8 4131 3744 2 MP stroke
-14 0 4131 3869 2 MP stroke
-10 7 4131 3993 2 MP stroke
-10 -11 4131 4117 2 MP stroke
-16 17 4131 4242 2 MP stroke
-17 -2 4131 4366 2 MP stroke
-15 0 4131 4490 2 MP stroke
-15 9 4238 389 2 MP stroke
-18 0 4238 513 2 MP stroke
-8 -8 4238 637 2 MP stroke
-16 4 4238 761 2 MP stroke
1 -3 4238 886 2 MP stroke
-5 5 4238 1010 2 MP stroke
-11 6 4238 1134 2 MP stroke
-11 4 4238 1259 2 MP stroke
-14 -3 4238 1383 2 MP stroke
-17 -4 4238 1507 2 MP stroke
-18 3 4238 1631 2 MP stroke
-14 -6 4238 1756 2 MP stroke
-2 -6 4238 1880 2 MP stroke
-10 -8 4238 2004 2 MP stroke
-13 -2 4238 2129 2 MP stroke
-5 5 4238 2253 2 MP stroke
-9 -3 4238 2377 2 MP stroke
3 -8 4238 2502 2 MP stroke
4 0 4238 2626 2 MP stroke
-2 -4 4238 2750 2 MP stroke
-7 0 4238 2874 2 MP stroke
-1 5 4238 2999 2 MP stroke
5 2 4238 3123 2 MP stroke
0 16 4238 3247 2 MP stroke
-6 17 4238 3372 2 MP stroke
-17 -1 4238 3496 2 MP stroke
-16 2 4238 3620 2 MP stroke
-1 5 4238 3744 2 MP stroke
6 2 4238 3869 2 MP stroke
-5 7 4238 3993 2 MP stroke
-5 6 4238 4117 2 MP stroke
-17 3 4238 4242 2 MP stroke
-13 12 4238 4366 2 MP stroke
-8 2 4238 4490 2 MP stroke
-20 1 4346 389 2 MP stroke
-22 5 4346 513 2 MP stroke
-10 -2 4346 637 2 MP stroke
-17 -4 4346 761 2 MP stroke
-16 4 4346 886 2 MP stroke
-16 2 4346 1010 2 MP stroke
10 10 4346 1134 2 MP stroke
-4 3 4346 1259 2 MP stroke
7 -6 4346 1383 2 MP stroke
-3 6 4346 1507 2 MP stroke
0 5 4346 1631 2 MP stroke
-2 -5 4346 1756 2 MP stroke
-12 2 4346 1880 2 MP stroke
-9 6 4346 2004 2 MP stroke
-7 -1 4346 2129 2 MP stroke
-7 6 4346 2253 2 MP stroke
-17 6 4346 2377 2 MP stroke
-2 -5 4346 2502 2 MP stroke
-5 -1 4346 2626 2 MP stroke
-10 5 4346 2750 2 MP stroke
-11 -2 4346 2874 2 MP stroke
-4 10 4346 2999 2 MP stroke
0 -7 4346 3123 2 MP stroke
0 15 4346 3247 2 MP stroke
-6 6 4346 3372 2 MP stroke
-9 1 4346 3496 2 MP stroke
3 6 4346 3620 2 MP stroke
-4 1 4346 3744 2 MP stroke
0 -5 4346 3869 2 MP stroke
0 2 4346 3993 2 MP stroke
3 2 4346 4117 2 MP stroke
-10 7 4346 4242 2 MP stroke
-16 -5 4346 4366 2 MP stroke
2 0 4346 4490 2 MP stroke
-3 -1 4346 4615 2 MP stroke
4454 389 PD
-11 6 4454 513 2 MP stroke
-15 3 4454 637 2 MP stroke
-17 4 4454 761 2 MP stroke
-8 -1 4454 886 2 MP stroke
-4 0 4454 1010 2 MP stroke
0 -2 4454 1134 2 MP stroke
-16 5 4454 1259 2 MP stroke
-13 4 4454 1383 2 MP stroke
-3 -3 4454 1507 2 MP stroke
-1 1 4454 1631 2 MP stroke
-1 -4 4454 1756 2 MP stroke
6 -1 4454 1880 2 MP stroke
-6 10 4454 2004 2 MP stroke
-10 0 4454 2129 2 MP stroke
-6 -3 4454 2253 2 MP stroke
-3 6 4454 2377 2 MP stroke
3 -6 4454 2502 2 MP stroke
-1 -5 4454 2626 2 MP stroke
-5 -1 4454 2750 2 MP stroke
-5 0 4454 2874 2 MP stroke
-8 5 4454 2999 2 MP stroke
-9 4 4454 3123 2 MP stroke
-20 7 4454 3247 2 MP stroke
-11 -2 4454 3372 2 MP stroke
-8 2 4454 3496 2 MP stroke
-10 1 4454 3620 2 MP stroke
-17 0 4454 3744 2 MP stroke
-3 -12 4454 3869 2 MP stroke
-10 3 4454 3993 2 MP stroke
-3 -3 4454 4117 2 MP stroke
-12 -21 4454 4242 2 MP stroke
-10 -6 4454 4366 2 MP stroke
-9 -5 4454 4490 2 MP stroke
-3 -3 4454 4615 2 MP stroke
-13 0 4562 389 2 MP stroke
-13 2 4562 513 2 MP stroke
-15 2 4562 637 2 MP stroke
-12 8 4562 761 2 MP stroke
-9 5 4562 886 2 MP stroke
-14 5 4562 1010 2 MP stroke
-18 -7 4562 1134 2 MP stroke
-14 0 4562 1259 2 MP stroke
-12 5 4562 1383 2 MP stroke
-18 5 4562 1507 2 MP stroke
-15 8 4562 1631 2 MP stroke
-9 6 4562 1756 2 MP stroke
-6 1 4562 1880 2 MP stroke
-20 7 4562 2004 2 MP stroke
-19 -1 4562 2129 2 MP stroke
0 1 4562 2253 2 MP stroke
-5 -1 4562 2377 2 MP stroke
-13 -6 4562 2502 2 MP stroke
-18 -2 4562 2626 2 MP stroke
-7 -1 4562 2750 2 MP stroke
-11 -5 4562 2874 2 MP stroke
-12 9 4562 2999 2 MP stroke
-19 18 4562 3123 2 MP stroke
-17 3 4562 3247 2 MP stroke
-16 -1 4562 3372 2 MP stroke
-23 0 4562 3496 2 MP stroke
-18 -10 4562 3620 2 MP stroke
-12 -6 4562 3744 2 MP stroke
12 -25 4562 3869 2 MP stroke
-21 8 4562 3993 2 MP stroke
-24 -5 4562 4117 2 MP stroke
-26 13 4562 4242 2 MP stroke
-22 24 4562 4366 2 MP stroke
-30 -1 4562 4490 2 MP stroke
4669 389 PD
-17 9 4669 513 2 MP stroke
-18 0 4669 637 2 MP stroke
-17 5 4669 761 2 MP stroke
-15 5 4669 886 2 MP stroke
-15 -4 4669 1010 2 MP stroke
-19 -1 4669 1134 2 MP stroke
-17 2 4669 1259 2 MP stroke
-16 7 4669 1383 2 MP stroke
-21 3 4669 1507 2 MP stroke
-19 1 4669 1631 2 MP stroke
-25 0 4669 1756 2 MP stroke
-18 0 4669 1880 2 MP stroke
-17 -3 4669 2004 2 MP stroke
-19 5 4669 2129 2 MP stroke
-22 -3 4669 2253 2 MP stroke
-18 -6 4669 2377 2 MP stroke
-11 -14 4669 2502 2 MP stroke
-14 -3 4669 2626 2 MP stroke
-18 2 4669 2750 2 MP stroke
-18 1 4669 2874 2 MP stroke
-13 -7 4669 2999 2 MP stroke
-17 6 4669 3123 2 MP stroke
-28 -2 4669 3247 2 MP stroke
-24 -3 4669 3372 2 MP stroke
-27 5 4669 3496 2 MP stroke
-21 -4 4669 3620 2 MP stroke
-22 8 4669 3744 2 MP stroke
-20 -8 4669 3869 2 MP stroke
-22 -3 4669 3993 2 MP stroke
-22 -9 4669 4117 2 MP stroke
-23 -4 4669 4242 2 MP stroke
-18 -11 4669 4366 2 MP stroke
-13 4 4669 4490 2 MP stroke
4777 389 PD
-18 10 4777 513 2 MP stroke
-23 1 4777 637 2 MP stroke
-22 3 4777 761 2 MP stroke
-23 5 4777 886 2 MP stroke
-21 6 4777 1010 2 MP stroke
-12 -2 4777 1134 2 MP stroke
-7 -2 4777 1259 2 MP stroke
-14 -1 4777 1383 2 MP stroke
-15 2 4777 1507 2 MP stroke
-9 30 4777 1631 2 MP stroke
-22 2 4777 1756 2 MP stroke
-23 1 4777 1880 2 MP stroke
-22 3 4777 2004 2 MP stroke
-19 2 4777 2129 2 MP stroke
-10 14 4777 2253 2 MP stroke
-1 -7 4777 2377 2 MP stroke
-23 2 4777 2502 2 MP stroke
-18 1 4777 2626 2 MP stroke
-22 4 4777 2750 2 MP stroke
-23 8 4777 2874 2 MP stroke
-20 4 4777 2999 2 MP stroke
-13 -2 4777 3123 2 MP stroke
-16 2 4777 3247 2 MP stroke
-15 -3 4777 3372 2 MP stroke
-21 -2 4777 3496 2 MP stroke
-7 5 4777 3620 2 MP stroke
-10 -5 4777 3744 2 MP stroke
-11 -5 4777 3869 2 MP stroke
-17 4 4777 3993 2 MP stroke
-12 -3 4777 4117 2 MP stroke
-12 -2 4777 4242 2 MP stroke
-1 0 4777 4366 2 MP stroke
-6 6 4777 4490 2 MP stroke
-19 -13 4777 4615 2 MP stroke
4885 389 PD
-18 -2 4885 513 2 MP stroke
-22 -5 4885 637 2 MP stroke
-24 1 4885 761 2 MP stroke
-20 -1 4885 886 2 MP stroke
-6 -44 4885 1010 2 MP stroke
2 -38 4885 1134 2 MP stroke
-12 3 4885 1259 2 MP stroke
-10 -40 4885 1383 2 MP stroke
-17 -3 4885 1507 2 MP stroke
-14 0 4885 1631 2 MP stroke
-9 -8 4885 1756 2 MP stroke
-12 -4 4885 1880 2 MP stroke
-11 -15 4885 2004 2 MP stroke
-13 -4 4885 2129 2 MP stroke
-4 2 4885 2253 2 MP stroke
-7 -6 4885 2377 2 MP stroke
-9 1 4885 2502 2 MP stroke
-9 0 4885 2626 2 MP stroke
-15 2 4885 2750 2 MP stroke
-9 -4 4885 2874 2 MP stroke
-8 -1 4885 2999 2 MP stroke
-7 -3 4885 3123 2 MP stroke
-8 0 4885 3247 2 MP stroke
-9 -2 4885 3372 2 MP stroke
-6 3 4885 3496 2 MP stroke
-9 -2 4885 3620 2 MP stroke
-9 0 4885 3744 2 MP stroke
-8 -2 4885 3869 2 MP stroke
-8 0 4885 3993 2 MP stroke
-8 -2 4885 4117 2 MP stroke
-12 -2 4885 4242 2 MP stroke
-13 -4 4885 4366 2 MP stroke
-9 -5 4885 4490 2 MP stroke
4992 389 PD
-20 4 4992 513 2 MP stroke
-8 -14 4992 637 2 MP stroke
-13 9 4992 761 2 MP stroke
-11 -7 4992 886 2 MP stroke
-11 -7 4992 1010 2 MP stroke
-11 -3 4992 1134 2 MP stroke
-12 -4 4992 1259 2 MP stroke
-12 -2 4992 1383 2 MP stroke
-7 -1 4992 1507 2 MP stroke
-5 -1 4992 1631 2 MP stroke
-7 0 4992 1756 2 MP stroke
-8 1 4992 1880 2 MP stroke
-6 2 4992 2004 2 MP stroke
-10 -1 4992 2129 2 MP stroke
-9 -1 4992 2253 2 MP stroke
-9 -2 4992 2377 2 MP stroke
-8 -2 4992 2502 2 MP stroke
-7 -5 4992 2626 2 MP stroke
-9 -1 4992 2750 2 MP stroke
-10 -2 4992 2874 2 MP stroke
-11 -1 4992 2999 2 MP stroke
-10 -1 4992 3123 2 MP stroke
-11 0 4992 3247 2 MP stroke
-10 -2 4992 3372 2 MP stroke
-9 5 4992 3496 2 MP stroke
-10 0 4992 3620 2 MP stroke
-11 2 4992 3744 2 MP stroke
-11 -2 4992 3869 2 MP stroke
-13 0 4992 3993 2 MP stroke
-13 -1 4992 4117 2 MP stroke
-13 -1 4992 4242 2 MP stroke
-12 -2 4992 4366 2 MP stroke
-13 -2 4992 4490 2 MP stroke
-16 -2 4992 4615 2 MP stroke
-24 5 5100 389 2 MP stroke
-21 6 5100 513 2 MP stroke
-2 -18 5100 637 2 MP stroke
-3 3 5100 761 2 MP stroke
-4 0 5100 886 2 MP stroke
-5 1 5100 1010 2 MP stroke
-4 -1 5100 1134 2 MP stroke
-6 -1 5100 1259 2 MP stroke
-7 -3 5100 1383 2 MP stroke
-5 3 5100 1507 2 MP stroke
-4 0 5100 1631 2 MP stroke
-3 -3 5100 1756 2 MP stroke
-3 3 5100 1880 2 MP stroke
-5 -2 5100 2004 2 MP stroke
-5 -1 5100 2129 2 MP stroke
-4 -1 5100 2253 2 MP stroke
-3 -3 5100 2377 2 MP stroke
-4 1 5100 2502 2 MP stroke
-4 -2 5100 2626 2 MP stroke
-6 0 5100 2750 2 MP stroke
-6 0 5100 2874 2 MP stroke
-7 -1 5100 2999 2 MP stroke
-6 -1 5100 3123 2 MP stroke
-7 1 5100 3247 2 MP stroke
-6 0 5100 3372 2 MP stroke
-6 0 5100 3496 2 MP stroke
-7 0 5100 3620 2 MP stroke
-8 0 5100 3744 2 MP stroke
-7 -5 5100 3869 2 MP stroke
-9 0 5100 3993 2 MP stroke
-9 -7 5100 4117 2 MP stroke
-9 -3 5100 4242 2 MP stroke
-7 -4 5100 4366 2 MP stroke
-10 0 5100 4490 2 MP stroke
-10 -2 5100 4615 2 MP stroke
-23 6 5208 389 2 MP stroke
-8 -10 5208 513 2 MP stroke
-4 -6 5208 637 2 MP stroke
-9 -2 5208 761 2 MP stroke
-9 -2 5208 886 2 MP stroke
-8 -4 5208 1010 2 MP stroke
-9 -3 5208 1134 2 MP stroke
-10 0 5208 1259 2 MP stroke
-11 -4 5208 1383 2 MP stroke
-11 3 5208 1507 2 MP stroke
-6 -2 5208 1631 2 MP stroke
-7 -3 5208 1756 2 MP stroke
-10 -2 5208 1880 2 MP stroke
-7 -1 5208 2004 2 MP stroke
-8 -1 5208 2129 2 MP stroke
-9 -1 5208 2253 2 MP stroke
-10 -1 5208 2377 2 MP stroke
-10 1 5208 2502 2 MP stroke
-7 -6 5208 2626 2 MP stroke
-12 1 5208 2750 2 MP stroke
-7 -5 5208 2874 2 MP stroke
-12 -1 5208 2999 2 MP stroke
-8 -1 5208 3123 2 MP stroke
-10 1 5208 3247 2 MP stroke
-5 -1 5208 3372 2 MP stroke
-10 -1 5208 3496 2 MP stroke
-10 -4 5208 3620 2 MP stroke
-11 -1 5208 3744 2 MP stroke
-10 -2 5208 3869 2 MP stroke
-11 -2 5208 3993 2 MP stroke
-12 -2 5208 4117 2 MP stroke
-15 0 5208 4242 2 MP stroke
-12 -2 5208 4366 2 MP stroke
-14 -5 5208 4490 2 MP stroke
-6 -11 5208 4615 2 MP stroke
5316 389 PD
-8 -5 5316 886 2 MP stroke
-7 3 5316 1010 2 MP stroke
-3 -2 5316 1259 2 MP stroke
-3 -4 5316 1383 2 MP stroke
-5 4 5316 1507 2 MP stroke
-6 1 5316 1631 2 MP stroke
-4 -6 5316 1756 2 MP stroke
-5 -4 5316 1880 2 MP stroke
-5 -1 5316 2004 2 MP stroke
-6 -3 5316 2129 2 MP stroke
-4 1 5316 2253 2 MP stroke
-6 -1 5316 2377 2 MP stroke
-7 5 5316 2502 2 MP stroke
-4 -5 5316 2626 2 MP stroke
-4 0 5316 2750 2 MP stroke
-5 0 5316 2874 2 MP stroke
-7 -2 5316 2999 2 MP stroke
-4 -1 5316 3123 2 MP stroke
-9 -1 5316 3247 2 MP stroke
-5 -1 5316 3372 2 MP stroke
-10 0 5316 3496 2 MP stroke
-9 -1 5316 3620 2 MP stroke
-10 1 5316 3744 2 MP stroke
-10 -1 5316 3869 2 MP stroke
-11 -3 5316 3993 2 MP stroke
-11 -1 5316 4117 2 MP stroke
-14 -3 5316 4242 2 MP stroke
-18 -1 5316 4366 2 MP stroke
-12 -2 5316 4490 2 MP stroke
-3 -3 5316 4615 2 MP stroke
-12 -1 5423 1134 2 MP stroke
-9 1 5423 1259 2 MP stroke
-6 -2 5423 1383 2 MP stroke
-3 5 5423 1507 2 MP stroke
-7 0 5423 1631 2 MP stroke
-8 2 5423 1756 2 MP stroke
-8 -1 5423 1880 2 MP stroke
-6 0 5423 2004 2 MP stroke
-7 -2 5423 2129 2 MP stroke
-7 1 5423 2253 2 MP stroke
-9 -1 5423 2377 2 MP stroke
-11 -2 5423 2502 2 MP stroke
-12 -1 5423 2626 2 MP stroke
-7 0 5423 2750 2 MP stroke
-11 -1 5423 2874 2 MP stroke
-8 1 5423 2999 2 MP stroke
-8 -2 5423 3123 2 MP stroke
-10 0 5423 3247 2 MP stroke
-4 -6 5423 3372 2 MP stroke
-12 0 5423 3496 2 MP stroke
-7 -4 5423 3620 2 MP stroke
-7 -2 5423 3744 2 MP stroke
-12 -5 5423 3869 2 MP stroke
-12 2 5423 3993 2 MP stroke
-13 -1 5423 4117 2 MP stroke
-14 -2 5423 4242 2 MP stroke
-8 0 5423 4366 2 MP stroke
-10 -4 5423 4490 2 MP stroke
-12 -5 5423 4615 2 MP stroke
-3 -3 5531 1134 2 MP stroke
-4 1 5531 1259 2 MP stroke
11 3 5531 1383 2 MP stroke
-5 -4 5531 1507 2 MP stroke
-4 2 5531 1631 2 MP stroke
-2 4 5531 1756 2 MP stroke
-8 -7 5531 1880 2 MP stroke
-4 1 5531 2004 2 MP stroke
-7 -3 5531 2129 2 MP stroke
-5 0 5531 2253 2 MP stroke
-3 -5 5531 2377 2 MP stroke
-6 0 5531 2502 2 MP stroke
-4 -3 5531 2626 2 MP stroke
-5 1 5531 2750 2 MP stroke
-3 -3 5531 2874 2 MP stroke
-6 2 5531 2999 2 MP stroke
-5 -1 5531 3123 2 MP stroke
-8 1 5531 3247 2 MP stroke
-6 -7 5531 3372 2 MP stroke
-7 1 5531 3496 2 MP stroke
-4 -2 5531 3620 2 MP stroke
-9 1 5531 3744 2 MP stroke
-8 -4 5531 3869 2 MP stroke
-9 -1 5531 3993 2 MP stroke
-8 -4 5531 4117 2 MP stroke
-11 -1 5531 4242 2 MP stroke
-12 -1 5531 4366 2 MP stroke
-9 -3 5531 4490 2 MP stroke
-9 -4 5531 4615 2 MP stroke
-5 -2 5639 1134 2 MP stroke
-9 0 5639 1259 2 MP stroke
-3 0 5639 1383 2 MP stroke
-8 -5 5639 1507 2 MP stroke
-4 1 5639 1631 2 MP stroke
-3 3 5639 1756 2 MP stroke
-7 0 5639 1880 2 MP stroke
-11 1 5639 2004 2 MP stroke
-10 -3 5639 2129 2 MP stroke
-10 2 5639 2253 2 MP stroke
-6 -5 5639 2377 2 MP stroke
-11 2 5639 2502 2 MP stroke
-9 -1 5639 2626 2 MP stroke
-9 0 5639 2750 2 MP stroke
-11 -1 5639 2874 2 MP stroke
-12 -2 5639 2999 2 MP stroke
-9 -2 5639 3123 2 MP stroke
-12 0 5639 3247 2 MP stroke
-10 -2 5639 3372 2 MP stroke
-12 -2 5639 3496 2 MP stroke
-11 -1 5639 3620 2 MP stroke
-10 1 5639 3744 2 MP stroke
-14 -1 5639 3869 2 MP stroke
-12 1 5639 3993 2 MP stroke
-9 0 5639 4117 2 MP stroke
-12 -2 5639 4242 2 MP stroke
-14 -2 5639 4366 2 MP stroke
-7 1 5639 4490 2 MP stroke
-7 4 5747 513 2 MP stroke
-3 3 5747 1010 2 MP stroke
-7 -1 5747 1134 2 MP stroke
-9 -1 5747 1259 2 MP stroke
-3 -2 5747 1383 2 MP stroke
-9 2 5747 1507 2 MP stroke
-8 -1 5747 1631 2 MP stroke
-4 1 5747 1756 2 MP stroke
-4 -3 5747 1880 2 MP stroke
-6 0 5747 2004 2 MP stroke
-6 -4 5747 2129 2 MP stroke
-4 -2 5747 2253 2 MP stroke
-6 -2 5747 2377 2 MP stroke
-6 -1 5747 2502 2 MP stroke
-7 -1 5747 2626 2 MP stroke
-8 0 5747 2750 2 MP stroke
-9 0 5747 2874 2 MP stroke
-8 -1 5747 2999 2 MP stroke
-5 0 5747 3123 2 MP stroke
-7 0 5747 3247 2 MP stroke
-6 0 5747 3372 2 MP stroke
-8 -2 5747 3496 2 MP stroke
-9 -1 5747 3620 2 MP stroke
-10 0 5747 3744 2 MP stroke
-10 -3 5747 3869 2 MP stroke
-10 -1 5747 3993 2 MP stroke
-12 -1 5747 4117 2 MP stroke
-11 -2 5747 4242 2 MP stroke
-4 -3 5747 4366 2 MP stroke
-12 -4 5747 4490 2 MP stroke
-13 -4 5747 4615 2 MP stroke
5854 389 PD
-8 6 5854 513 2 MP stroke
-7 2 5854 1010 2 MP stroke
-11 -2 5854 1134 2 MP stroke
-5 -1 5854 1259 2 MP stroke
-4 -3 5854 1383 2 MP stroke
-8 2 5854 1507 2 MP stroke
-9 -3 5854 1631 2 MP stroke
-4 -1 5854 1756 2 MP stroke
7 -7 5854 1880 2 MP stroke
-10 1 5854 2004 2 MP stroke
-12 -1 5854 2129 2 MP stroke
-12 0 5854 2253 2 MP stroke
-9 -3 5854 2377 2 MP stroke
-10 1 5854 2502 2 MP stroke
-8 -1 5854 2626 2 MP stroke
-12 0 5854 2750 2 MP stroke
-9 0 5854 2874 2 MP stroke
-9 -1 5854 2999 2 MP stroke
-10 -3 5854 3123 2 MP stroke
-9 0 5854 3247 2 MP stroke
-10 -3 5854 3372 2 MP stroke
-12 1 5854 3496 2 MP stroke
-11 0 5854 3620 2 MP stroke
-11 -3 5854 3744 2 MP stroke
-12 -2 5854 3869 2 MP stroke
-12 -2 5854 3993 2 MP stroke
-8 1 5854 4117 2 MP stroke
-13 2 5854 4242 2 MP stroke
-11 -1 5854 4366 2 MP stroke
-10 -1 5854 4490 2 MP stroke
-1 -8 5854 4615 2 MP stroke
-12 1 5962 389 2 MP stroke
-12 2 5962 513 2 MP stroke
-6 0 5962 1134 2 MP stroke
-4 1 5962 1259 2 MP stroke
-7 -1 5962 1383 2 MP stroke
-6 3 5962 1507 2 MP stroke
-3 0 5962 1631 2 MP stroke
-3 0 5962 1756 2 MP stroke
-1 -6 5962 1880 2 MP stroke
-5 1 5962 2004 2 MP stroke
-5 -2 5962 2129 2 MP stroke
-3 0 5962 2253 2 MP stroke
-4 -3 5962 2377 2 MP stroke
-4 -3 5962 2502 2 MP stroke
-5 -4 5962 2626 2 MP stroke
-6 0 5962 2750 2 MP stroke
-6 -2 5962 2874 2 MP stroke
-5 0 5962 2999 2 MP stroke
-4 0 5962 3123 2 MP stroke
-9 0 5962 3247 2 MP stroke
-9 -1 5962 3372 2 MP stroke
-8 -1 5962 3496 2 MP stroke
-6 -3 5962 3620 2 MP stroke
-10 1 5962 3744 2 MP stroke
-12 -3 5962 3869 2 MP stroke
-12 -1 5962 3993 2 MP stroke
-9 -3 5962 4117 2 MP stroke
-11 -1 5962 4242 2 MP stroke
-12 -4 5962 4366 2 MP stroke
-14 6 5962 4490 2 MP stroke
-4 8 6070 389 2 MP stroke
-4 1 6070 513 2 MP stroke
-12 1 6070 1010 2 MP stroke
-6 -2 6070 1134 2 MP stroke
-8 2 6070 1259 2 MP stroke
-8 -2 6070 1383 2 MP stroke
-12 -1 6070 1507 2 MP stroke
-10 -1 6070 1631 2 MP stroke
-6 0 6070 1756 2 MP stroke
-4 -5 6070 1880 2 MP stroke
-9 3 6070 2004 2 MP stroke
-8 3 6070 2129 2 MP stroke
-10 0 6070 2253 2 MP stroke
-9 -4 6070 2377 2 MP stroke
-11 1 6070 2502 2 MP stroke
-12 -4 6070 2626 2 MP stroke
-11 2 6070 2750 2 MP stroke
-12 0 6070 2874 2 MP stroke
-10 -2 6070 2999 2 MP stroke
-12 -2 6070 3123 2 MP stroke
-10 0 6070 3247 2 MP stroke
-13 -1 6070 3372 2 MP stroke
-10 0 6070 3496 2 MP stroke
-12 -1 6070 3620 2 MP stroke
-12 -1 6070 3744 2 MP stroke
-13 1 6070 3869 2 MP stroke
-13 -1 6070 3993 2 MP stroke
-16 -2 6070 4117 2 MP stroke
-16 -5 6070 4242 2 MP stroke
-10 -9 6070 4366 2 MP stroke
-20 5 6070 4490 2 MP stroke
-22 -1 6070 4615 2 MP stroke
2 -5 6178 761 2 MP stroke
3 -6 6178 886 2 MP stroke
-3 0 6178 1010 2 MP stroke
-6 -2 6178 1134 2 MP stroke
-3 -3 6178 1259 2 MP stroke
-5 -2 6178 1383 2 MP stroke
-6 0 6178 1507 2 MP stroke
-8 0 6178 1631 2 MP stroke
-6 -1 6178 1756 2 MP stroke
-25 2 6178 1880 2 MP stroke
-7 1 6178 2004 2 MP stroke
-6 -2 6178 2129 2 MP stroke
-5 -3 6178 2253 2 MP stroke
-8 -1 6178 2377 2 MP stroke
-5 -2 6178 2502 2 MP stroke
-5 -1 6178 2626 2 MP stroke
-8 -1 6178 2750 2 MP stroke
-6 -5 6178 2874 2 MP stroke
-6 -2 6178 2999 2 MP stroke
-7 0 6178 3123 2 MP stroke
-9 1 6178 3247 2 MP stroke
-7 -1 6178 3372 2 MP stroke
-9 -1 6178 3496 2 MP stroke
-7 -3 6178 3620 2 MP stroke
-11 0 6178 3744 2 MP stroke
-10 -5 6178 3869 2 MP stroke
-13 -6 6178 3993 2 MP stroke
-9 -1 6178 4117 2 MP stroke
-10 4 6178 4242 2 MP stroke
-16 -4 6178 4366 2 MP stroke
-13 -5 6178 4490 2 MP stroke
gr

c8

end %%Color Dict

eplot
%%EndObject

epage
end

showpage

%%Trailer
%%EOF
