%!PS-Adobe-2.0 EPSF-1.2
%%Creator: MATLAB, The MathWorks, Inc. Version 8.3.0.532 (R2014a). Operating System: Linux 3.19.0-31-generic #36~14.04.1-Ubuntu SMP Thu Oct 8 10:21:08 UTC 2015 x86_64.
%%Title: ../../data/output/p4/win_size5n_level3n_iter3min_eig0.0001.eps
%%CreationDate: 11/22/2015  18:49:59
%%DocumentNeededFonts: Helvetica
%%DocumentProcessColors: Cyan Magenta Yellow Black
%%Extensions: CMYK
%%Pages: 1
%%BoundingBox:    78   215   548   583
%%EndComments

%%BeginProlog
% MathWorks dictionary
/MathWorks 160 dict begin
% definition operators
/bdef {bind def} bind def
/ldef {load def} bind def
/xdef {exch def} bdef
/xstore {exch store} bdef
% operator abbreviations
/c  /clip ldef
/cc /concat ldef
/cp /closepath ldef
/gr /grestore ldef
/gs /gsave ldef
/mt /moveto ldef
/np /newpath ldef
/cm /currentmatrix ldef
/sm /setmatrix ldef
/rm /rmoveto ldef
/rl /rlineto ldef
/s {show newpath} bdef
/sc {setcmykcolor} bdef
/sr /setrgbcolor ldef
/sg /setgray ldef
/w /setlinewidth ldef
/j /setlinejoin ldef
/cap /setlinecap ldef
/rc {rectclip} bdef
/rf {rectfill} bdef
% page state control
/pgsv () def
/bpage {/pgsv save def} bdef
/epage {pgsv restore} bdef
/bplot /gsave ldef
/eplot {stroke grestore} bdef
% orientation switch
/portraitMode 0 def /landscapeMode 1 def /rotateMode 2 def
% coordinate system mappings
/dpi2point 0 def
% font control
/FontSize 0 def
/FMS {/FontSize xstore findfont [FontSize 0 0 FontSize neg 0 0]
  makefont setfont} bdef
/reencode {exch dup where {pop load} {pop StandardEncoding} ifelse
  exch dup 3 1 roll findfont dup length dict begin
  { 1 index /FID ne {def}{pop pop} ifelse } forall
  /Encoding exch def currentdict end definefont pop} bdef
/isroman {findfont /CharStrings get /Agrave known} bdef
/FMSR {3 1 roll 1 index dup isroman {reencode} {pop pop} ifelse
  exch FMS} bdef
/csm {1 dpi2point div -1 dpi2point div scale neg translate
 dup landscapeMode eq {pop -90 rotate}
  {rotateMode eq {90 rotate} if} ifelse} bdef
% line types: solid, dotted, dashed, dotdash
/SO { [] 0 setdash } bdef
/DO { [.5 dpi2point mul 4 dpi2point mul] 0 setdash } bdef
/DA { [6 dpi2point mul] 0 setdash } bdef
/DD { [.5 dpi2point mul 4 dpi2point mul 6 dpi2point mul 4
  dpi2point mul] 0 setdash } bdef
% macros for lines and objects
/L {lineto stroke} bdef
/MP {3 1 roll moveto 1 sub {rlineto} repeat} bdef
/AP {{rlineto} repeat} bdef
/PDlw -1 def
/W {/PDlw currentlinewidth def setlinewidth} def
/PP {closepath eofill} bdef
/DP {closepath stroke} bdef
/MR {4 -2 roll moveto dup  0 exch rlineto exch 0 rlineto
  neg 0 exch rlineto closepath} bdef
/FR {MR stroke} bdef
/PR {MR fill} bdef
/L1i {{currentfile picstr readhexstring pop} image} bdef
/tMatrix matrix def
/MakeOval {newpath tMatrix currentmatrix pop translate scale
0 0 1 0 360 arc tMatrix setmatrix} bdef
/FO {MakeOval stroke} bdef
/PO {MakeOval fill} bdef
/PD {currentlinewidth 2 div 0 360 arc fill
   PDlw -1 eq not {PDlw w /PDlw -1 def} if} def
/FA {newpath tMatrix currentmatrix pop translate scale
  0 0 1 5 -2 roll arc tMatrix setmatrix stroke} bdef
/PA {newpath tMatrix currentmatrix pop	translate 0 0 moveto scale
  0 0 1 5 -2 roll arc closepath tMatrix setmatrix fill} bdef
/FAn {newpath tMatrix currentmatrix pop translate scale
  0 0 1 5 -2 roll arcn tMatrix setmatrix stroke} bdef
/PAn {newpath tMatrix currentmatrix pop translate 0 0 moveto scale
  0 0 1 5 -2 roll arcn closepath tMatrix setmatrix fill} bdef
/vradius 0 def /hradius 0 def /lry 0 def
/lrx 0 def /uly 0 def /ulx 0 def /rad 0 def
/MRR {/vradius xdef /hradius xdef /lry xdef /lrx xdef /uly xdef
  /ulx xdef newpath tMatrix currentmatrix pop ulx hradius add uly
  vradius add translate hradius vradius scale 0 0 1 180 270 arc 
  tMatrix setmatrix lrx hradius sub uly vradius add translate
  hradius vradius scale 0 0 1 270 360 arc tMatrix setmatrix
  lrx hradius sub lry vradius sub translate hradius vradius scale
  0 0 1 0 90 arc tMatrix setmatrix ulx hradius add lry vradius sub
  translate hradius vradius scale 0 0 1 90 180 arc tMatrix setmatrix
  closepath} bdef
/FRR {MRR stroke } bdef
/PRR {MRR fill } bdef
/MlrRR {/lry xdef /lrx xdef /uly xdef /ulx xdef /rad lry uly sub 2 div def
  newpath tMatrix currentmatrix pop ulx rad add uly rad add translate
  rad rad scale 0 0 1 90 270 arc tMatrix setmatrix lrx rad sub lry rad
  sub translate rad rad scale 0 0 1 270 90 arc tMatrix setmatrix
  closepath} bdef
/FlrRR {MlrRR stroke } bdef
/PlrRR {MlrRR fill } bdef
/MtbRR {/lry xdef /lrx xdef /uly xdef /ulx xdef /rad lrx ulx sub 2 div def
  newpath tMatrix currentmatrix pop ulx rad add uly rad add translate
  rad rad scale 0 0 1 180 360 arc tMatrix setmatrix lrx rad sub lry rad
  sub translate rad rad scale 0 0 1 0 180 arc tMatrix setmatrix
  closepath} bdef
/FtbRR {MtbRR stroke } bdef
/PtbRR {MtbRR fill } bdef
/stri 6 array def /dtri 6 array def
/smat 6 array def /dmat 6 array def
/tmat1 6 array def /tmat2 6 array def /dif 3 array def
/asub {/ind2 exch def /ind1 exch def dup dup
  ind1 get exch ind2 get sub exch } bdef
/tri_to_matrix {
  2 0 asub 3 1 asub 4 0 asub 5 1 asub
  dup 0 get exch 1 get 7 -1 roll astore } bdef
/compute_transform {
  dmat dtri tri_to_matrix tmat1 invertmatrix 
  smat stri tri_to_matrix tmat2 concatmatrix } bdef
/ds {stri astore pop} bdef
/dt {dtri astore pop} bdef
/db {2 copy /cols xdef /rows xdef mul dup 3 mul string
  currentfile exch readhexstring pop
  dup 0 3 index getinterval /rbmap xdef
  dup 2 index dup getinterval /gbmap xdef
  1 index dup 2 mul exch getinterval /bbmap xdef pop pop}bdef
/it {gs np dtri aload pop moveto lineto lineto cp c
  cols rows 8 compute_transform 
  rbmap gbmap bbmap true 3 colorimage gr}bdef
/il {newpath moveto lineto stroke}bdef
currentdict end def
%%EndProlog

%%BeginSetup
MathWorks begin

0 cap

end
%%EndSetup

%%Page: 1 1
%%BeginPageSetup
%%PageBoundingBox:    78   215   548   583
MathWorks begin
bpage
%%EndPageSetup

%%BeginObject: obj1
bplot

/dpi2point 12 def
portraitMode 0216 7344 csm

  731   341  5640  4420 MR c np
85 dict begin %Colortable dictionary
/c0 { 0.000000 0.000000 0.000000 sr} bdef
/c1 { 1.000000 1.000000 1.000000 sr} bdef
/c2 { 0.900000 0.000000 0.000000 sr} bdef
/c3 { 0.000000 0.820000 0.000000 sr} bdef
/c4 { 0.000000 0.000000 0.800000 sr} bdef
/c5 { 0.910000 0.820000 0.320000 sr} bdef
/c6 { 1.000000 0.260000 0.820000 sr} bdef
/c7 { 0.000000 0.820000 0.820000 sr} bdef
c0
1 j
1 sg
   0    0 6913 5186 PR
6 w
0 -4226 5356 0 0 4226 899 389 4 MP
PP
-5356 0 0 -4226 5356 0 0 4226 899 389 5 MP stroke
4 w
DO
SO
6 w
0 sg
 899  389 mt 6255  389 L
 899 4615 mt 6255 4615 L
 899  389 mt  899 4615 L
6255  389 mt 6255 4615 L
 899 4615 mt 6255 4615 L
 899  389 mt  899 4615 L
1406 4615 mt 1406 4561 L
1406  389 mt 1406  442 L
%%IncludeResource: font Helvetica
/Helvetica /ISOLatin1Encoding 120 FMSR

1373 4760 mt 
(5) s
1945 4615 mt 1945 4561 L
1945  389 mt 1945  442 L
1879 4760 mt 
(10) s
2484 4615 mt 2484 4561 L
2484  389 mt 2484  442 L
2418 4760 mt 
(15) s
3022 4615 mt 3022 4561 L
3022  389 mt 3022  442 L
2956 4760 mt 
(20) s
3561 4615 mt 3561 4561 L
3561  389 mt 3561  442 L
3495 4760 mt 
(25) s
4100 4615 mt 4100 4561 L
4100  389 mt 4100  442 L
4034 4760 mt 
(30) s
4638 4615 mt 4638 4561 L
4638  389 mt 4638  442 L
4572 4760 mt 
(35) s
5177 4615 mt 5177 4561 L
5177  389 mt 5177  442 L
5111 4760 mt 
(40) s
5716 4615 mt 5716 4561 L
5716  389 mt 5716  442 L
5650 4760 mt 
(45) s
6255 4615 mt 6255 4561 L
6255  389 mt 6255  442 L
6189 4760 mt 
(50) s
 899  974 mt  952  974 L
6255  974 mt 6201  974 L
 798 1018 mt 
(5) s
 899 1596 mt  952 1596 L
6255 1596 mt 6201 1596 L
 731 1640 mt 
(10) s
 899 2217 mt  952 2217 L
6255 2217 mt 6201 2217 L
 731 2261 mt 
(15) s
 899 2839 mt  952 2839 L
6255 2839 mt 6201 2839 L
 731 2883 mt 
(20) s
 899 3460 mt  952 3460 L
6255 3460 mt 6201 3460 L
 731 3504 mt 
(25) s
 899 4082 mt  952 4082 L
6255 4082 mt 6201 4082 L
 731 4126 mt 
(30) s
 899  389 mt 6255  389 L
 899 4615 mt 6255 4615 L
 899  389 mt  899 4615 L
6255  389 mt 6255 4615 L
gs 899 389 5357 4227 MR c np
/c8 { 0.000000 0.000000 1.000000 sr} bdef
c8
6 -1 -5 4 995 518 3 MP stroke
5 6 -6 -2 995 628 3 MP stroke
2 8 -5 -6 1001 870 3 MP stroke
6 4 -7 0 994 1003 3 MP stroke
7 7 -9 -2 991 1121 3 MP stroke
9 6 -10 0 987 1249 3 MP stroke
2 7 -5 -5 1002 1369 3 MP stroke
10 4 -11 2 986 1502 3 MP stroke
12 11 -15 -2 979 1613 3 MP stroke
7 5 -8 -1 992 2368 3 MP stroke
2 0 -1 1 1002 2503 3 MP stroke
1 7 -4 -6 1003 2611 3 MP stroke
3 7 -6 -4 999 2737 3 MP stroke
1 8 -4 -6 1002 2858 3 MP stroke
5 -3 -3 5 998 3005 3 MP stroke
3 7 -5 -5 1000 3110 3 MP stroke
4 4 -6 -1 998 3240 3 MP stroke
1 5 -3 -4 1003 3362 3 MP stroke
2 5 -4 -3 1000 3488 3 MP stroke
3 5 -5 -2 999 3612 3 MP stroke
5 4 -6 -2 997 3738 3 MP stroke
3 3 -4 -2 1001 3863 3 MP stroke
6 1 -6 2 994 3992 3 MP stroke
6 4 -7 0 993 4112 3 MP stroke
6 2 -6 2 994 4240 3 MP stroke
7 3 -8 1 992 4360 3 MP stroke
8 0 -7 4 990 4492 3 MP stroke
11 1 -10 5 1092 514 3 MP stroke
15 8 -17 2 1082 626 3 MP stroke
11 5 -12 1 1092 878 3 MP stroke
13 1 -12 7 1087 1011 3 MP stroke
12 6 -12 1 1089 1127 3 MP stroke
11 5 -12 2 1092 1252 3 MP stroke
11 9 -13 -2 1091 1368 3 MP stroke
13 4 -13 4 1088 1503 3 MP stroke
10 10 -13 -3 1091 1615 3 MP stroke
5 3 -6 0 1103 2373 3 MP stroke
7 6 -8 -2 1099 2492 3 MP stroke
6 6 -8 -2 1102 2616 3 MP stroke
5 3 -6 0 1103 2746 3 MP stroke
5 6 -7 -3 1103 2865 3 MP stroke
8 1 -7 4 1098 3000 3 MP stroke
6 5 -7 -2 1102 3113 3 MP stroke
6 4 -6 0 1102 3242 3 MP stroke
5 6 -7 -2 1103 3362 3 MP stroke
6 3 -7 1 1101 3491 3 MP stroke
7 6 -9 -2 1100 3610 3 MP stroke
7 5 -8 0 1099 3738 3 MP stroke
9 5 -10 0 1097 3862 3 MP stroke
12 5 -12 2 1090 3986 3 MP stroke
8 7 -10 -1 1095 4106 3 MP stroke
12 7 -13 1 1089 4232 3 MP stroke
11 5 -12 1 1091 4359 3 MP stroke
12 5 -13 2 1089 4484 3 MP stroke
21 2 -20 10 1181 514 3 MP stroke
15 4 -15 5 1190 635 3 MP stroke
9 -2 -8 7 1204 767 3 MP stroke
8 1 -8 3 1206 885 3 MP stroke
10 -1 -9 6 1202 1014 3 MP stroke
6 5 -8 -1 1208 1126 3 MP stroke
4 7 -6 -3 1211 1371 3 MP stroke
7 3 -7 1 1207 1505 3 MP stroke
5 7 -8 -3 1211 1618 3 MP stroke
4 3 -5 -1 1214 2496 3 MP stroke
6 7 -8 -3 1210 2612 3 MP stroke
10 6 -11 0 1201 2740 3 MP stroke
4 8 -7 -5 1213 2860 3 MP stroke
6 3 -7 0 1210 2994 3 MP stroke
3 6 -5 -4 1216 3114 3 MP stroke
4 3 -5 -1 1213 3242 3 MP stroke
3 5 -4 -3 1215 3362 3 MP stroke
5 5 -6 -2 1211 3488 3 MP stroke
4 6 -6 -3 1213 3611 3 MP stroke
8 5 -9 0 1205 3738 3 MP stroke
9 5 -10 0 1205 3861 3 MP stroke
9 5 -10 0 1205 3986 3 MP stroke
6 6 -8 -2 1209 4106 3 MP stroke
7 5 -8 0 1207 4235 3 MP stroke
9 5 -10 0 1205 4360 3 MP stroke
10 3 -10 2 1202 4488 3 MP stroke
12 -1 -10 8 1304 518 3 MP stroke
9 10 -12 -4 1309 620 3 MP stroke
10 7 -12 -1 1310 750 3 MP stroke
12 7 -13 1 1305 876 3 MP stroke
12 0 -11 6 1306 1014 3 MP stroke
15 12 -18 -3 1298 1114 3 MP stroke
13 4 -13 4 1303 1254 3 MP stroke
4 -1 -3 3 1321 1511 3 MP stroke
7 3 -7 1 1315 2496 3 MP stroke
6 7 -8 -4 1317 2613 3 MP stroke
5 4 -7 -1 1319 2744 3 MP stroke
6 6 -7 -2 1318 2865 3 MP stroke
6 4 -7 -1 1318 2992 3 MP stroke
5 3 -5 0 1320 3119 3 MP stroke
5 4 -6 -1 1320 3242 3 MP stroke
5 5 -7 -2 1317 3362 3 MP stroke
6 5 -7 -2 1317 3488 3 MP stroke
7 5 -8 -1 1316 3612 3 MP stroke
8 5 -9 0 1313 3737 3 MP stroke
10 7 -11 0 1308 3859 3 MP stroke
8 5 -10 0 1313 3985 3 MP stroke
8 8 -10 -3 1313 4104 3 MP stroke
11 3 -11 3 1308 4240 3 MP stroke
10 6 -11 0 1310 4358 3 MP stroke
12 2 -12 5 1305 4490 3 MP stroke
5 1 1411 389 2 MP stroke
12 0 -10 6 1414 515 3 MP stroke
8 7 -9 -2 1421 626 3 MP stroke
9 1 -8 4 1419 762 3 MP stroke
10 2 -10 3 1419 883 3 MP stroke
12 1 -11 6 1415 1012 3 MP stroke
7 6 -8 -1 1422 1126 3 MP stroke
9 3 -9 3 1418 1255 3 MP stroke
0 3 -1 -3 1437 1377 3 MP stroke
4 2 -5 0 1428 2498 3 MP stroke
4 4 -6 -2 1429 2618 3 MP stroke
1 2 -2 -1 1434 3119 3 MP stroke
4 2 -5 0 1428 3243 3 MP stroke
3 4 -5 -2 1430 3364 3 MP stroke
2 4 -3 -2 1431 3489 3 MP stroke
5 4 -6 -1 1427 3614 3 MP stroke
4 5 -6 -2 1427 3736 3 MP stroke
3 5 -4 -3 1429 3861 3 MP stroke
7 2 -7 2 1423 3990 3 MP stroke
5 7 -8 -3 1425 4104 3 MP stroke
7 2 -7 2 1424 4239 3 MP stroke
8 3 -8 1 1420 4361 3 MP stroke
10 4 -10 2 1418 4486 3 MP stroke
11 3 -10 4 1522 511 3 MP stroke
10 6 -11 0 1525 629 3 MP stroke
12 3 -12 4 1520 758 3 MP stroke
10 4 -11 2 1523 881 3 MP stroke
13 2 -12 5 1518 1011 3 MP stroke
13 8 -15 0 1518 1122 3 MP stroke
14 3 -14 5 1517 1256 3 MP stroke
12 5 -13 2 1520 1377 3 MP stroke
13 6 -14 1 1518 1498 3 MP stroke
5 3 -5 0 1534 3120 3 MP stroke
7 3 -8 1 1530 3243 3 MP stroke
8 5 -9 0 1527 3365 3 MP stroke
6 5 -7 -1 1531 3489 3 MP stroke
7 4 -8 1 1529 3615 3 MP stroke
7 6 -9 -1 1529 3734 3 MP stroke
11 6 -12 1 1522 3860 3 MP stroke
12 1 -11 6 1522 3994 3 MP stroke
9 7 -11 -1 1525 4105 3 MP stroke
11 4 -12 3 1522 4237 3 MP stroke
11 5 -12 2 1522 4359 3 MP stroke
13 5 -13 2 1519 4485 3 MP stroke
9 4 -10 1 1525 4609 3 MP stroke
2 0 1635 389 2 MP stroke
9 1 -8 4 1636 514 3 MP stroke
9 6 -10 0 1634 628 3 MP stroke
12 0 -11 6 1630 765 3 MP stroke
10 5 -11 1 1632 879 3 MP stroke
9 -1 -7 5 1635 1014 3 MP stroke
7 8 -9 -3 1638 1121 3 MP stroke
11 2 -10 4 1631 1257 3 MP stroke
7 4 -8 0 1638 1377 3 MP stroke
14 6 -15 2 1623 1499 3 MP stroke
9 -3 -6 7 1636 2510 3 MP stroke
4 3 -5 -1 1644 2620 3 MP stroke
5 1 -5 2 1642 2749 3 MP stroke
5 3 -5 0 1643 3119 3 MP stroke
6 4 -7 0 1639 3241 3 MP stroke
7 4 -8 0 1639 3366 3 MP stroke
7 3 -8 1 1639 3492 3 MP stroke
6 3 -7 1 1640 3616 3 MP stroke
8 4 -9 1 1635 3738 3 MP stroke
6 5 -7 -1 1640 3862 3 MP stroke
7 4 -7 0 1639 3987 3 MP stroke
7 4 -8 0 1638 4112 3 MP stroke
8 3 -8 2 1636 4238 3 MP stroke
8 5 -9 0 1636 4358 3 MP stroke
9 3 -10 2 1634 4486 3 MP stroke
9 2 -9 3 1742 510 3 MP stroke
11 5 -12 1 1738 630 3 MP stroke
13 3 -13 5 1735 759 3 MP stroke
14 4 -14 4 1731 881 3 MP stroke
9 2 -9 3 1742 1009 3 MP stroke
12 5 -12 2 1736 1128 3 MP stroke
13 0 -12 8 1734 1262 3 MP stroke
12 2 -12 4 1736 1381 3 MP stroke
6 6 -7 -2 1748 1498 3 MP stroke
5 6 -7 -3 1749 1622 3 MP stroke
8 2 -8 3 1744 2500 3 MP stroke
6 3 -7 0 1749 2620 3 MP stroke
9 -2 -7 6 1744 2757 3 MP stroke
7 1 -6 3 1747 2876 3 MP stroke
5 4 -6 -1 1750 2993 3 MP stroke
4 5 -5 -2 1750 3116 3 MP stroke
6 3 -6 0 1749 3242 3 MP stroke
7 4 -8 0 1745 3365 3 MP stroke
7 4 -7 0 1747 3490 3 MP stroke
4 7 -7 -4 1751 3608 3 MP stroke
7 4 -8 0 1746 3738 3 MP stroke
8 4 -9 1 1743 3862 3 MP stroke
8 3 -8 2 1745 3989 3 MP stroke
8 8 -10 -3 1744 4103 3 MP stroke
12 4 -12 3 1736 4237 3 MP stroke
11 6 -12 0 1738 4356 3 MP stroke
11 7 -12 0 1738 4480 3 MP stroke
2 1 -3 0 1864 511 3 MP stroke
10 7 -12 0 1847 626 3 MP stroke
6 2 -7 1 1855 759 3 MP stroke
10 5 -11 1 1847 879 3 MP stroke
9 -2 -7 7 1849 1018 3 MP stroke
8 4 -8 1 1851 1130 3 MP stroke
10 -1 -9 6 1848 1262 3 MP stroke
10 3 -10 3 1848 1380 3 MP stroke
1 4 -2 -2 1864 1500 3 MP stroke
2 4 -3 -2 1863 1624 3 MP stroke
1 7 -4 -5 1864 2612 3 MP stroke
2 0 -2 1 1865 2752 3 MP stroke
1 1 -2 0 1865 2872 3 MP stroke
3 -1 -2 2 1864 3001 3 MP stroke
3 2 -3 0 1863 3121 3 MP stroke
3 4 -4 -2 1862 3241 3 MP stroke
5 5 -6 -2 1858 3363 3 MP stroke
4 3 -5 0 1859 3491 3 MP stroke
5 3 -6 0 1858 3616 3 MP stroke
5 4 -6 -1 1858 3738 3 MP stroke
3 4 -5 -2 1861 3861 3 MP stroke
4 5 -6 -2 1859 3985 3 MP stroke
8 9 -11 -3 1851 4103 3 MP stroke
8 5 -9 0 1852 4235 3 MP stroke
9 4 -10 1 1849 4360 3 MP stroke
6 3 -6 1 1855 4486 3 MP stroke
11 1 -10 5 1953 513 3 MP stroke
17 7 -18 3 1941 627 3 MP stroke
13 3 -13 4 1950 759 3 MP stroke
11 4 -11 3 1954 881 3 MP stroke
14 5 -14 3 1948 1005 3 MP stroke
10 8 -12 -3 1956 1121 3 MP stroke
12 1 -11 6 1952 1261 3 MP stroke
12 5 -12 3 1951 1377 3 MP stroke
11 5 -12 2 1953 1499 3 MP stroke
4 6 -6 -3 1965 1622 3 MP stroke
10 8 -12 -2 1954 2487 3 MP stroke
7 7 -9 -2 1961 2613 3 MP stroke
8 4 -8 1 1960 2746 3 MP stroke
7 4 -8 0 1962 2869 3 MP stroke
5 1 -5 2 1965 2999 3 MP stroke
6 3 -6 1 1963 3119 3 MP stroke
5 6 -7 -2 1964 3237 3 MP stroke
6 6 -7 -2 1964 3363 3 MP stroke
9 4 -10 1 1957 3490 3 MP stroke
9 5 -10 1 1957 3613 3 MP stroke
9 5 -10 1 1957 3739 3 MP stroke
10 4 -10 1 1956 3863 3 MP stroke
12 4 -12 2 1952 3987 3 MP stroke
9 8 -12 -2 1956 4104 3 MP stroke
9 5 -10 1 1956 4236 3 MP stroke
10 4 -10 2 1956 4360 3 MP stroke
10 4 -11 2 1955 4484 3 MP stroke
1 0 2065 389 2 MP stroke
11 -1 -9 6 2063 517 3 MP stroke
7 7 -9 -2 2067 625 3 MP stroke
9 2 -9 3 2066 759 3 MP stroke
7 3 -8 2 2069 882 3 MP stroke
9 2 -9 3 2065 1007 3 MP stroke
11 2 -10 4 2063 1134 3 MP stroke
5 -1 -4 4 2073 1262 3 MP stroke
7 2 -7 2 2068 1380 3 MP stroke
8 6 -9 -1 2067 1498 3 MP stroke
7 6 -9 -2 2068 1622 3 MP stroke
3 2 -3 0 2078 2376 3 MP stroke
4 2 -4 1 2074 2499 3 MP stroke
3 7 -5 -5 2076 2613 3 MP stroke
4 4 -6 -1 2074 2743 3 MP stroke
0 5 -2 -4 2082 2866 3 MP stroke
2 1 -2 0 2079 2998 3 MP stroke
2 4 -4 -3 2078 3115 3 MP stroke
4 5 -5 -2 2074 3238 3 MP stroke
5 4 -6 -1 2073 3366 3 MP stroke
3 2 -3 0 2077 3491 3 MP stroke
4 3 -4 0 2076 3615 3 MP stroke
5 4 -6 -1 2072 3739 3 MP stroke
7 5 -8 -1 2068 3861 3 MP stroke
6 5 -7 -1 2072 3985 3 MP stroke
7 8 -10 -3 2068 4103 3 MP stroke
7 4 -8 0 2069 4235 3 MP stroke
8 3 -9 2 2067 4362 3 MP stroke
9 3 -9 2 2065 4486 3 MP stroke
12 2 -12 4 2169 511 3 MP stroke
12 7 -13 1 2165 628 3 MP stroke
13 3 -13 4 2164 759 3 MP stroke
14 4 -14 4 2163 883 3 MP stroke
13 2 -12 6 2164 1009 3 MP stroke
15 5 -16 3 2161 1128 3 MP stroke
13 1 -11 6 2166 1260 3 MP stroke
7 2 -7 2 2178 1381 3 MP stroke
8 6 -9 0 2173 1623 3 MP stroke
7 2 -7 2 2178 2374 3 MP stroke
7 2 -7 2 2177 2499 3 MP stroke
8 2 -8 2 2176 2623 3 MP stroke
6 5 -8 -1 2177 2741 3 MP stroke
5 6 -7 -2 2180 2864 3 MP stroke
5 4 -6 -1 2180 2992 3 MP stroke
5 5 -7 -2 2181 3114 3 MP stroke
6 3 -7 1 2178 3243 3 MP stroke
7 4 -8 0 2176 3366 3 MP stroke
7 3 -8 1 2175 3491 3 MP stroke
6 6 -8 -2 2178 3610 3 MP stroke
8 4 -9 1 2174 3738 3 MP stroke
9 3 -9 1 2174 3864 3 MP stroke
7 5 -8 0 2176 3986 3 MP stroke
6 5 -8 -2 2179 4108 3 MP stroke
8 3 -8 2 2174 4238 3 MP stroke
12 5 -12 2 2168 4360 3 MP stroke
9 -1 -8 6 2172 4494 3 MP stroke
9 -1 -8 6 2281 517 3 MP stroke
9 5 -10 1 2282 630 3 MP stroke
8 2 -8 3 2283 761 3 MP stroke
7 3 -8 1 2284 882 3 MP stroke
10 -1 -8 6 2280 1016 3 MP stroke
8 7 -11 -2 2282 1122 3 MP stroke
8 1 -8 3 2283 1258 3 MP stroke
5 5 -6 -2 2288 1376 3 MP stroke
3 -1 -2 2 2293 1510 3 MP stroke
2 2 -3 -1 2295 1628 3 MP stroke
2 4 -4 -3 2294 1748 3 MP stroke
2 2 -3 0 2295 1877 3 MP stroke
2 1 -3 0 2295 2252 3 MP stroke
5 3 -5 0 2290 2373 3 MP stroke
3 1 -3 1 2293 2500 3 MP stroke
2 7 -5 -5 2295 2612 3 MP stroke
4 3 -5 -1 2291 2744 3 MP stroke
1 6 -3 -5 2296 2864 3 MP stroke
4 4 -5 -1 2291 2993 3 MP stroke
3 3 -4 -1 2293 3117 3 MP stroke
2 3 -3 -1 2295 3242 3 MP stroke
5 3 -6 0 2289 3368 3 MP stroke
5 1 -5 2 2289 3495 3 MP stroke
4 7 -7 -4 2290 3608 3 MP stroke
5 2 -5 1 2288 3741 3 MP stroke
4 2 -5 1 2291 3865 3 MP stroke
5 3 -6 0 2289 3987 3 MP stroke
8 10 -11 -4 2282 4100 3 MP stroke
6 5 -7 -1 2286 4233 3 MP stroke
6 4 -6 0 2287 4361 3 MP stroke
6 0 -5 3 2287 4492 3 MP stroke
4 1 2371 389 2 MP stroke
17 1 -15 8 2373 514 3 MP stroke
13 4 -13 4 2380 633 3 MP stroke
14 2 -13 6 2378 762 3 MP stroke
10 7 -12 0 2384 875 3 MP stroke
13 2 -12 5 2383 1010 3 MP stroke
9 9 -12 -3 2387 1117 3 MP stroke
7 1 -7 3 2393 1509 3 MP stroke
3 7 -6 -5 2398 1619 3 MP stroke
6 6 -8 -2 2393 1747 3 MP stroke
8 10 -11 -4 2389 1863 3 MP stroke
8 0 -7 4 2391 2006 3 MP stroke
7 3 -7 1 2393 2125 3 MP stroke
6 1 -5 3 2395 2253 3 MP stroke
5 3 -5 0 2396 2372 3 MP stroke
6 -1 -5 4 2395 2505 3 MP stroke
9 8 -11 -2 2387 2614 3 MP stroke
6 4 -6 0 2394 2744 3 MP stroke
9 7 -11 -2 2389 2864 3 MP stroke
8 -1 -7 6 2391 3003 3 MP stroke
6 2 -6 1 2395 3120 3 MP stroke
8 4 -8 1 2391 3242 3 MP stroke
5 3 -5 0 2396 3366 3 MP stroke
6 3 -7 1 2393 3492 3 MP stroke
8 4 -8 1 2391 3615 3 MP stroke
8 3 -8 2 2390 3740 3 MP stroke
10 7 -12 -1 2386 3858 3 MP stroke
11 4 -11 3 2386 3989 3 MP stroke
9 9 -11 -3 2387 4103 3 MP stroke
12 4 -12 3 2383 4238 3 MP stroke
10 6 -11 0 2386 4356 3 MP stroke
9 4 -9 1 2388 4486 3 MP stroke
14 0 -13 7 2488 517 3 MP stroke
10 4 -11 2 2493 632 3 MP stroke
9 6 -10 0 2495 878 3 MP stroke
8 2 -7 3 2498 1009 3 MP stroke
9 9 -11 -3 2494 1119 3 MP stroke
11 0 -9 6 2493 1261 3 MP stroke
8 4 -8 0 2499 1378 3 MP stroke
8 0 -7 5 2498 1510 3 MP stroke
4 4 -5 -1 2506 1625 3 MP stroke
3 1 -3 1 2508 1755 3 MP stroke
5 1 -5 2 2504 1879 3 MP stroke
4 5 -5 -2 2506 1996 3 MP stroke
3 9 -6 -7 2509 2113 3 MP stroke
4 -3 -2 5 2507 2259 3 MP stroke
4 5 -6 -2 2506 2369 3 MP stroke
3 0 -3 2 2509 2503 3 MP stroke
4 6 -6 -3 2504 2614 3 MP stroke
6 -1 -5 4 2504 2753 3 MP stroke
4 2 -5 1 2506 2871 3 MP stroke
3 1 -3 0 2509 2997 3 MP stroke
2 8 -6 -6 2509 3107 3 MP stroke
3 3 -4 -1 2508 3242 3 MP stroke
5 3 -6 0 2504 3367 3 MP stroke
7 2 -7 2 2501 3494 3 MP stroke
5 7 -8 -3 2503 3608 3 MP stroke
8 3 -8 2 2499 3741 3 MP stroke
7 6 -8 -1 2499 3860 3 MP stroke
7 4 -8 1 2501 3988 3 MP stroke
6 8 -8 -4 2502 4103 3 MP stroke
8 4 -9 2 2497 4236 3 MP stroke
9 6 -10 -1 2496 4356 3 MP stroke
7 4 -8 0 2500 4485 3 MP stroke
13 3 -10 3 2593 389 3 MP stroke
16 1 -15 8 2590 515 3 MP stroke
14 3 -13 4 2595 634 3 MP stroke
13 0 -12 7 2595 765 3 MP stroke
14 4 -14 4 2594 881 3 MP stroke
11 5 -12 2 2598 1004 3 MP stroke
11 3 -11 3 2601 1131 3 MP stroke
11 -1 -10 7 2601 1263 3 MP stroke
12 7 -13 0 2597 1373 3 MP stroke
14 2 -13 6 2595 1508 3 MP stroke
10 8 -12 -2 2602 1618 3 MP stroke
2 0 -2 1 2618 1757 3 MP stroke
7 0 -6 4 2610 1883 3 MP stroke
6 5 -7 -1 2610 1997 3 MP stroke
5 2 -5 0 2612 2126 3 MP stroke
4 3 -5 0 2613 2249 3 MP stroke
5 2 -5 1 2612 2376 3 MP stroke
6 0 -6 3 2611 2501 3 MP stroke
5 4 -6 -1 2611 2621 3 MP stroke
7 2 -7 2 2608 2748 3 MP stroke
6 1 -6 2 2610 2873 3 MP stroke
5 4 -6 -1 2612 2991 3 MP stroke
5 6 -7 -3 2612 3112 3 MP stroke
5 3 -5 0 2612 3244 3 MP stroke
6 4 -8 0 2609 3364 3 MP stroke
9 2 -9 3 2606 3494 3 MP stroke
5 9 -8 -5 2611 3605 3 MP stroke
8 1 -7 3 2607 3746 3 MP stroke
8 5 -9 -1 2607 3861 3 MP stroke
8 3 -8 1 2606 3989 3 MP stroke
8 9 -10 -4 2606 4104 3 MP stroke
9 3 -9 2 2605 4239 3 MP stroke
9 7 -11 -1 2604 4356 3 MP stroke
11 6 -12 1 2600 4482 3 MP stroke
6 2 2697 389 2 MP stroke
10 -1 -9 6 2711 518 3 MP stroke
6 5 -8 -1 2716 628 3 MP stroke
9 1 -8 4 2712 763 3 MP stroke
10 3 -10 3 2709 881 3 MP stroke
5 1 -5 2 2718 1008 3 MP stroke
0 5 -3 -4 2729 1124 3 MP stroke
3 2 -3 0 2724 1380 3 MP stroke
6 1 -6 3 2717 1507 3 MP stroke
5 6 -7 -3 2720 1620 3 MP stroke
-3 3 1 -4 2735 1872 3 MP stroke
1 1 -2 -1 2728 2375 3 MP stroke
0 2 -1 -1 2730 2497 3 MP stroke
0 5 -2 -4 2729 2615 3 MP stroke
2 2 -3 -1 2725 2745 3 MP stroke
2 2 -3 -1 2726 2872 3 MP stroke
4 3 -5 0 2721 2994 3 MP stroke
2 4 -4 -2 2724 3116 3 MP stroke
2 2 -3 -1 2725 3244 3 MP stroke
3 3 -4 -1 2722 3366 3 MP stroke
5 1 -5 2 2719 3494 3 MP stroke
3 5 -5 -3 2724 3610 3 MP stroke
4 0 -3 2 2722 3745 3 MP stroke
3 2 -4 0 2723 3865 3 MP stroke
5 1 -5 2 2720 3994 3 MP stroke
7 8 -9 -3 2714 4104 3 MP stroke
7 2 -7 2 2716 4239 3 MP stroke
6 3 -6 1 2717 4361 3 MP stroke
7 6 -9 -1 2715 4482 3 MP stroke
17 2 -16 8 2805 515 3 MP stroke
9 2 -9 4 2819 636 3 MP stroke
14 5 -15 3 2809 755 3 MP stroke
9 6 -10 0 2818 1248 3 MP stroke
4 5 -5 -2 2830 1373 3 MP stroke
6 0 -6 3 2825 1509 3 MP stroke
5 3 -6 0 2828 1626 3 MP stroke
7 9 -10 -5 2824 2361 3 MP stroke
6 3 -6 1 2826 2496 3 MP stroke
6 13 -11 -8 2823 2600 3 MP stroke
5 3 -6 0 2827 2746 3 MP stroke
8 5 -9 0 2821 2866 3 MP stroke
4 3 -5 0 2828 2995 3 MP stroke
4 7 -7 -4 2829 3112 3 MP stroke
6 0 -6 3 2827 3249 3 MP stroke
6 3 -7 0 2826 3366 3 MP stroke
8 2 -7 3 2822 3495 3 MP stroke
8 8 -10 -3 2821 3606 3 MP stroke
11 1 -10 5 2815 3745 3 MP stroke
11 6 -12 1 2815 3860 3 MP stroke
11 3 -11 3 2815 3990 3 MP stroke
11 11 -14 -3 2814 4099 3 MP stroke
11 4 -11 2 2816 4236 3 MP stroke
11 5 -11 1 2815 4360 3 MP stroke
11 6 -12 1 2815 4483 3 MP stroke
16 4 -5 1 2903 389 3 MP stroke
17 2 -16 7 2913 513 3 MP stroke
4 1 -4 1 2938 636 3 MP stroke
8 0 -8 4 2930 887 3 MP stroke
7 5 -8 -1 2930 1251 3 MP stroke
10 3 -10 2 2926 1379 3 MP stroke
9 2 -9 3 2927 1505 3 MP stroke
4 4 -5 -1 2936 2496 3 MP stroke
4 8 -6 -5 2937 2612 3 MP stroke
1 2 -2 -1 2942 2747 3 MP stroke
4 2 -5 0 2937 2871 3 MP stroke
3 3 -4 -1 2939 2995 3 MP stroke
1 4 -3 -3 2942 3114 3 MP stroke
4 0 -4 2 2938 3246 3 MP stroke
5 6 -7 -3 2934 3361 3 MP stroke
7 2 -7 2 2930 3494 3 MP stroke
7 6 -8 -2 2931 3611 3 MP stroke
7 3 -7 1 2930 3741 3 MP stroke
6 4 -7 0 2932 3863 3 MP stroke
8 4 -9 0 2929 3987 3 MP stroke
7 5 -8 0 2930 4110 3 MP stroke
7 2 -7 2 2930 4239 3 MP stroke
9 4 -9 1 2927 4361 3 MP stroke
9 2 -9 3 2928 4490 3 MP stroke
18 1 -16 9 3017 517 3 MP stroke
16 6 -17 3 3019 629 3 MP stroke
10 6 -11 1 3032 1249 3 MP stroke
8 5 -9 0 3037 1375 3 MP stroke
6 3 -7 1 3040 1503 3 MP stroke
8 4 -9 1 3038 1626 3 MP stroke
5 7 -7 -4 3042 1743 3 MP stroke
6 5 -7 -1 3039 1874 3 MP stroke
3 6 -5 -3 3046 2491 3 MP stroke
5 4 -6 0 3043 2619 3 MP stroke
4 4 -5 -1 3043 2742 3 MP stroke
4 4 -5 -2 3044 2868 3 MP stroke
6 3 -6 0 3040 2994 3 MP stroke
7 7 -9 -3 3039 3111 3 MP stroke
7 2 -7 2 3038 3247 3 MP stroke
8 5 -9 0 3037 3364 3 MP stroke
6 3 -6 0 3042 3493 3 MP stroke
8 7 -10 -2 3037 3610 3 MP stroke
7 2 -7 2 3038 3741 3 MP stroke
8 6 -9 -1 3037 3860 3 MP stroke
8 3 -9 2 3036 3989 3 MP stroke
9 8 -11 -2 3034 4105 3 MP stroke
8 5 -9 0 3035 4235 3 MP stroke
10 5 -11 1 3033 4357 3 MP stroke
11 6 -12 1 3032 4482 3 MP stroke
11 11 -14 -3 3028 4597 3 MP stroke
11 1 -10 5 3139 512 3 MP stroke
7 2 -7 2 3147 635 3 MP stroke
4 6 -7 -3 3152 1123 3 MP stroke
4 3 -5 0 3153 1255 3 MP stroke
2 4 -3 -2 3156 1377 3 MP stroke
5 -5 -3 7 3153 1517 3 MP stroke
2 -1 -2 3 3157 1634 3 MP stroke
3 -1 -2 3 3155 1759 3 MP stroke
4 -7 0 8 3154 1895 3 MP stroke
5 -13 1 14 3154 2031 3 MP stroke
2 3 -3 -2 3156 2124 3 MP stroke
4 3 -5 -1 3153 2249 3 MP stroke
3 4 -4 -2 3155 2371 3 MP stroke
5 0 -5 2 3152 2502 3 MP stroke
1 6 -3 -5 3157 2614 3 MP stroke
4 4 -5 -1 3154 2743 3 MP stroke
2 7 -5 -6 3157 2861 3 MP stroke
2 2 -3 0 3155 2995 3 MP stroke
3 5 -5 -3 3155 3114 3 MP stroke
3 1 -3 1 3153 3247 3 MP stroke
4 1 -4 2 3151 3370 3 MP stroke
4 2 -5 1 3152 3494 3 MP stroke
3 6 -5 -3 3155 3610 3 MP stroke
4 4 -6 -1 3151 3737 3 MP stroke
2 4 -4 -2 3156 3863 3 MP stroke
7 3 -8 1 3146 3988 3 MP stroke
8 3 -9 2 3145 4113 3 MP stroke
7 4 -8 0 3145 4235 3 MP stroke
7 6 -8 -1 3145 4357 3 MP stroke
9 2 -9 3 3143 4489 3 MP stroke
16 4 -1 0 3222 389 3 MP stroke
20 2 -19 9 3229 513 3 MP stroke
21 9 -23 4 3225 624 3 MP stroke
12 8 -14 0 3243 875 3 MP stroke
13 2 -12 5 3242 1009 3 MP stroke
7 -1 -6 5 3255 1263 3 MP stroke
6 4 -7 0 3257 1378 3 MP stroke
6 -2 -4 5 3257 1513 3 MP stroke
4 4 -5 -1 3259 1624 3 MP stroke
6 3 -6 1 3256 1752 3 MP stroke
6 1 -6 3 3256 1880 3 MP stroke
7 -4 -5 7 3255 2015 3 MP stroke
7 6 -8 -2 3255 2119 3 MP stroke
8 2 -7 3 3253 2252 3 MP stroke
8 2 -8 2 3254 2376 3 MP stroke
7 2 -7 2 3255 2499 3 MP stroke
3 8 -6 -5 3260 2612 3 MP stroke
7 1 -6 2 3256 2750 3 MP stroke
4 3 -5 0 3260 2869 3 MP stroke
5 1 -5 2 3258 2998 3 MP stroke
6 9 -8 -4 3255 3108 3 MP stroke
9 3 -9 2 3251 3245 3 MP stroke
8 6 -10 -1 3252 3363 3 MP stroke
9 4 -10 2 3250 3491 3 MP stroke
10 4 -10 2 3248 3615 3 MP stroke
8 5 -9 0 3250 3738 3 MP stroke
10 4 -11 1 3249 3863 3 MP stroke
9 5 -10 0 3250 3987 3 MP stroke
12 10 -14 -2 3243 4101 3 MP stroke
12 4 -12 3 3245 4236 3 MP stroke
13 5 -13 3 3242 4360 3 MP stroke
13 1 -12 6 3244 4491 3 MP stroke
17 5 3320 389 2 MP stroke
15 -1 -13 9 3348 518 3 MP stroke
18 7 -19 4 3340 628 3 MP stroke
8 1 -7 4 3360 762 3 MP stroke
6 7 -8 -3 3364 875 3 MP stroke
6 1 -6 3 3363 1010 3 MP stroke
7 7 -9 -3 3361 1123 3 MP stroke
2 -1 -2 2 3372 1509 3 MP stroke
2 1 -2 1 3372 1631 3 MP stroke
2 0 -2 1 3373 1757 3 MP stroke
2 -1 -1 2 3372 1882 3 MP stroke
4 -10 0 11 3370 2024 3 MP stroke
2 5 -3 -4 3372 2120 3 MP stroke
2 1 -2 0 3372 2250 3 MP stroke
4 3 -5 0 3368 2371 3 MP stroke
2 2 -3 -1 3373 2500 3 MP stroke
2 7 -5 -5 3371 2614 3 MP stroke
4 2 -5 0 3368 2747 3 MP stroke
3 3 -4 -1 3369 2869 3 MP stroke
1 1 -1 0 3375 2996 3 MP stroke
2 7 -4 -5 3370 3109 3 MP stroke
5 2 -5 1 3367 3244 3 MP stroke
3 3 -4 -2 3371 3366 3 MP stroke
5 2 -5 0 3368 3494 3 MP stroke
4 2 -5 1 3368 3617 3 MP stroke
8 5 -10 0 3359 3736 3 MP stroke
6 5 -7 -1 3362 3861 3 MP stroke
6 4 -7 -1 3363 3986 3 MP stroke
7 3 -7 1 3362 4114 3 MP stroke
9 3 -9 3 3357 4239 3 MP stroke
10 4 -10 2 3357 4361 3 MP stroke
12 2 -11 4 3354 4489 3 MP stroke
7 1 -6 2 3469 389 3 MP stroke
18 1 -16 9 3448 517 3 MP stroke
14 7 -15 2 3456 628 3 MP stroke
15 2 -14 6 3456 762 3 MP stroke
10 5 -11 1 3465 879 3 MP stroke
14 -1 -12 8 3457 1015 3 MP stroke
10 11 -14 -4 3461 1115 3 MP stroke
4 4 -5 -1 3474 1501 3 MP stroke
5 3 -6 0 3474 1626 3 MP stroke
7 4 -8 0 3471 1874 3 MP stroke
6 2 -6 1 3472 2002 3 MP stroke
5 8 -8 -4 3473 2116 3 MP stroke
6 1 -6 2 3474 2251 3 MP stroke
4 8 -7 -5 3474 2362 3 MP stroke
5 2 -5 1 3474 2499 3 MP stroke
4 6 -6 -3 3475 2614 3 MP stroke
6 3 -7 1 3472 2745 3 MP stroke
5 4 -6 -1 3473 2867 3 MP stroke
6 4 -6 0 3471 2994 3 MP stroke
5 3 -6 0 3474 3119 3 MP stroke
6 4 -7 0 3470 3241 3 MP stroke
7 4 -8 0 3469 3366 3 MP stroke
6 3 -7 1 3471 3492 3 MP stroke
5 4 -6 0 3472 3615 3 MP stroke
7 5 -8 -1 3470 3738 3 MP stroke
10 5 -11 2 3462 3861 3 MP stroke
9 3 -9 3 3466 3990 3 MP stroke
9 9 -12 -3 3464 4102 3 MP stroke
12 5 -13 2 3460 4237 3 MP stroke
12 7 -13 0 3459 4357 3 MP stroke
14 4 -14 4 3455 4486 3 MP stroke
6 1 -4 1 3578 389 3 MP stroke
12 1 -11 6 3569 514 3 MP stroke
11 4 -11 3 3570 633 3 MP stroke
-3 0 3 -1 3598 1755 3 MP stroke
3 4 -4 -2 3587 2123 3 MP stroke
2 -2 -1 3 3586 2257 3 MP stroke
1 3 -3 -2 3589 2371 3 MP stroke
3 1 -3 1 3586 2500 3 MP stroke
2 5 -4 -3 3586 2615 3 MP stroke
3 1 -2 1 3587 2750 3 MP stroke
3 3 -4 -1 3586 2869 3 MP stroke
1 1 -1 0 3590 2996 3 MP stroke
4 6 -6 -3 3583 3113 3 MP stroke
2 5 -3 -3 3586 3239 3 MP stroke
4 5 -6 -3 3583 3362 3 MP stroke
3 3 -4 -1 3586 3490 3 MP stroke
4 4 -5 -1 3582 3614 3 MP stroke
5 4 -6 -1 3583 3738 3 MP stroke
5 5 -6 -2 3582 3861 3 MP stroke
7 2 -7 2 3577 3991 3 MP stroke
7 5 -9 -1 3578 4109 3 MP stroke
7 5 -8 -1 3578 4233 3 MP stroke
9 6 -10 -1 3574 4356 3 MP stroke
16 4 -16 6 3559 4488 3 MP stroke
8 2 3645 389 2 MP stroke
19 3 -19 8 3661 511 3 MP stroke
16 5 -17 4 3667 631 3 MP stroke
10 6 -11 0 3678 1374 3 MP stroke
9 5 -10 0 3681 1499 3 MP stroke
10 9 -12 -3 3680 1618 3 MP stroke
5 1 -5 3 3688 1755 3 MP stroke
7 4 -7 0 3686 1875 3 MP stroke
7 4 -7 0 3685 2000 3 MP stroke
6 9 -9 -5 3685 2113 3 MP stroke
7 2 -7 2 3686 2251 3 MP stroke
6 5 -8 -1 3687 2368 3 MP stroke
7 2 -7 2 3685 2501 3 MP stroke
4 5 -6 -2 3689 2617 3 MP stroke
7 2 -7 2 3687 2748 3 MP stroke
5 5 -6 -2 3688 2865 3 MP stroke
7 3 -7 1 3684 2994 3 MP stroke
8 4 -9 1 3683 3117 3 MP stroke
8 5 -10 0 3683 3239 3 MP stroke
8 6 -9 -1 3682 3362 3 MP stroke
7 4 -8 0 3685 3490 3 MP stroke
10 5 -11 1 3679 3613 3 MP stroke
8 5 -9 0 3682 3736 3 MP stroke
11 7 -12 0 3677 3858 3 MP stroke
11 4 -11 2 3678 3988 3 MP stroke
11 7 -13 0 3677 4106 3 MP stroke
9 6 -11 0 3681 4233 3 MP stroke
10 8 -12 -1 3677 4353 3 MP stroke
23 5 -22 7 3655 4487 3 MP stroke
18 4 -18 6 3772 510 3 MP stroke
24 7 -24 7 3757 630 3 MP stroke
7 4 -8 0 3793 1377 3 MP stroke
8 3 -9 2 3790 1626 3 MP stroke
0 7 -2 -6 3806 1867 3 MP stroke
5 -1 -4 3 3799 2007 3 MP stroke
2 5 -4 -3 3802 2118 3 MP stroke
0 5 -2 -4 3805 2243 3 MP stroke
3 3 -4 -1 3801 2372 3 MP stroke
3 2 -3 0 3801 2498 3 MP stroke
4 3 -4 -1 3800 2621 3 MP stroke
4 0 -3 2 3801 2751 3 MP stroke
2 4 -3 -3 3804 2868 3 MP stroke
6 3 -6 1 3796 2994 3 MP stroke
5 5 -7 -2 3797 3115 3 MP stroke
5 3 -6 1 3796 3242 3 MP stroke
4 4 -5 -1 3799 3365 3 MP stroke
5 4 -6 -1 3796 3489 3 MP stroke
5 4 -6 0 3795 3613 3 MP stroke
8 6 -9 -1 3791 3736 3 MP stroke
7 8 -10 -4 3792 3854 3 MP stroke
6 4 -7 -1 3796 3985 3 MP stroke
9 8 -11 -2 3789 4105 3 MP stroke
10 4 -10 2 3787 4237 3 MP stroke
20 0 -17 10 3769 4372 3 MP stroke
16 4 -16 5 3775 4487 3 MP stroke
17 3 -12 4 3877 389 3 MP stroke
18 0 -16 10 3880 518 3 MP stroke
17 6 -18 4 3881 630 3 MP stroke
17 0 -15 10 3880 1014 3 MP stroke
7 -1 -6 5 3902 1263 3 MP stroke
6 3 -7 1 3903 1380 3 MP stroke
3 -6 0 7 3910 1521 3 MP stroke
6 4 -7 0 3903 1626 3 MP stroke
9 -1 -8 6 3898 1759 3 MP stroke
11 1 -10 5 3894 1881 3 MP stroke
7 2 -7 2 3901 2003 3 MP stroke
8 4 -9 1 3899 2123 3 MP stroke
5 4 -6 -1 3905 2248 3 MP stroke
5 3 -5 0 3905 2372 3 MP stroke
7 4 -7 0 3901 2496 3 MP stroke
7 5 -9 0 3899 2617 3 MP stroke
6 3 -7 0 3903 2745 3 MP stroke
4 7 -7 -4 3905 2861 3 MP stroke
6 1 -6 2 3903 2998 3 MP stroke
6 4 -7 0 3902 3116 3 MP stroke
7 1 -7 3 3900 3246 3 MP stroke
6 4 -7 0 3901 3365 3 MP stroke
10 1 -9 4 3896 3497 3 MP stroke
10 7 -11 -1 3895 3609 3 MP stroke
5 3 -5 0 3904 3740 3 MP stroke
9 8 -12 -2 3895 3855 3 MP stroke
11 4 -12 2 3893 3988 3 MP stroke
11 10 -14 -3 3892 4100 3 MP stroke
11 6 -12 1 3891 4233 3 MP stroke
10 10 -13 -4 3895 4349 3 MP stroke
19 4 -18 7 3877 4489 3 MP stroke
9 2 3984 389 2 MP stroke
17 -1 -15 9 3991 518 3 MP stroke
15 6 -15 3 3992 629 3 MP stroke
16 -1 -14 9 3992 767 3 MP stroke
17 0 -15 9 3989 889 3 MP stroke
18 1 -16 9 3988 1136 3 MP stroke
10 -8 -5 12 4005 1278 3 MP stroke
4 -6 -2 8 4015 1396 3 MP stroke
6 0 -5 3 4010 1509 3 MP stroke
5 2 -5 1 4013 1629 3 MP stroke
3 2 -4 0 4016 1753 3 MP stroke
13 -5 -9 11 4000 1893 3 MP stroke
2 -2 -1 3 4018 2008 3 MP stroke
3 -1 -2 3 4018 2132 3 MP stroke
2 0 -1 1 4019 2255 3 MP stroke
4 2 -4 1 4013 2376 3 MP stroke
2 2 -3 0 4017 2498 3 MP stroke
2 6 -4 -4 4018 2613 3 MP stroke
4 3 -5 -1 4016 2744 3 MP stroke
3 4 -4 -2 4016 2867 3 MP stroke
11 1 -10 4 4002 3000 3 MP stroke
12 3 -12 4 4000 3120 3 MP stroke
15 1 -14 7 3992 3249 3 MP stroke
12 10 -15 -2 3996 3357 3 MP stroke
23 -6 -18 17 3979 3514 3 MP stroke
12 5 -13 2 3996 3613 3 MP stroke
8 1 -8 4 4007 3745 3 MP stroke
9 5 -9 0 4005 3862 3 MP stroke
11 7 -12 0 3999 3984 3 MP stroke
10 9 -13 -2 4001 4103 3 MP stroke
10 1 -10 5 4003 4242 3 MP stroke
20 7 -21 5 3981 4359 3 MP stroke
22 5 -21 7 3980 4488 3 MP stroke
19 5 -6 1 4079 389 3 MP stroke
18 2 -17 8 4094 514 3 MP stroke
17 7 -18 3 4095 628 3 MP stroke
18 2 -17 8 4094 763 3 MP stroke
17 4 -16 6 4096 882 3 MP stroke
20 3 -19 8 4090 1008 3 MP stroke
20 7 -21 5 4090 1127 3 MP stroke
19 2 -18 8 4093 1260 3 MP stroke
18 6 -19 4 4095 1375 3 MP stroke
17 4 -17 5 4097 1504 3 MP stroke
20 2 -18 9 4091 1634 3 MP stroke
19 4 -18 6 4093 1754 3 MP stroke
5 6 -7 -3 4119 1869 3 MP stroke
18 -3 -14 13 4096 2015 3 MP stroke
30 -5 -25 21 4072 2148 3 MP stroke
19 3 -18 8 4094 2253 3 MP stroke
20 7 -20 4 4090 2370 3 MP stroke
19 5 -19 5 4094 2497 3 MP stroke
9 11 -13 -4 4110 2606 3 MP stroke
5 4 -6 -1 4120 2743 3 MP stroke
8 2 -8 2 4116 2872 3 MP stroke
20 3 -19 8 4091 2999 3 MP stroke
17 8 -19 2 4095 3111 3 MP stroke
23 -5 -19 17 4087 3262 3 MP stroke
19 14 -23 -2 4090 3348 3 MP stroke
27 -4 -22 18 4080 3511 3 MP stroke
20 3 -19 7 4092 3620 3 MP stroke
20 2 -18 9 4090 3747 3 MP stroke
22 7 -22 5 4086 3861 3 MP stroke
20 2 -18 9 4091 3996 3 MP stroke
19 7 -20 4 4093 4107 3 MP stroke
25 4 -24 9 4081 4240 3 MP stroke
22 10 -24 4 4084 4353 3 MP stroke
22 5 -22 8 4085 4485 3 MP stroke
16 5 4181 389 2 MP stroke
20 -1 -18 12 4199 521 3 MP stroke
16 4 -16 5 4205 633 3 MP stroke
19 0 -17 10 4201 766 3 MP stroke
15 6 -16 3 4208 877 3 MP stroke
16 2 -15 7 4207 1010 3 MP stroke
15 4 -15 5 4207 1132 3 MP stroke
17 3 -17 7 4204 1257 3 MP stroke
15 -1 -13 9 4209 1387 3 MP stroke
17 2 -16 8 4204 1508 3 MP stroke
14 9 -16 -1 4210 1617 3 MP stroke
16 7 -17 3 4205 1746 3 MP stroke
20 6 -20 6 4197 1874 3 MP stroke
21 1 -19 10 4198 2007 3 MP stroke
16 9 -17 1 4205 2117 3 MP stroke
16 3 -15 6 4206 2252 3 MP stroke
19 9 -20 2 4201 2365 3 MP stroke
18 5 -18 5 4203 2497 3 MP stroke
6 20 -13 -14 4223 2589 3 MP stroke
2 4 -3 -2 4234 2742 3 MP stroke
13 3 -13 5 4212 2872 3 MP stroke
15 3 -15 6 4207 2999 3 MP stroke
19 -3 -15 13 4202 3135 3 MP stroke
19 4 -19 7 4199 3243 3 MP stroke
20 5 -20 6 4198 3366 3 MP stroke
20 2 -19 10 4198 3498 3 MP stroke
19 8 -20 3 4199 3611 3 MP stroke
21 3 -20 9 4196 3743 3 MP stroke
19 6 -19 5 4199 3864 3 MP stroke
19 3 -18 8 4200 3993 3 MP stroke
20 7 -20 4 4197 4109 3 MP stroke
19 5 -19 5 4200 4236 3 MP stroke
19 12 -21 0 4199 4348 3 MP stroke
19 7 -20 4 4199 4483 3 MP stroke
20 2 -19 9 4306 514 3 MP stroke
18 5 -18 6 4309 632 3 MP stroke
20 2 -19 9 4306 764 3 MP stroke
19 8 -20 4 4307 875 3 MP stroke
20 3 -19 8 4308 1010 3 MP stroke
19 6 -20 5 4307 1127 3 MP stroke
21 2 -20 10 4305 1260 3 MP stroke
18 3 -17 8 4308 1383 3 MP stroke
18 3 -17 7 4311 1506 3 MP stroke
20 17 -24 -4 4304 1604 3 MP stroke
18 8 -19 3 4309 1746 3 MP stroke
19 6 -19 5 4309 1874 3 MP stroke
18 5 -18 6 4309 2000 3 MP stroke
15 1 -14 7 4317 2130 3 MP stroke
19 5 -19 6 4307 2249 3 MP stroke
12 10 -15 -3 4321 2360 3 MP stroke
11 0 -10 6 4326 2504 3 MP stroke
3 9 -6 -6 4337 2609 3 MP stroke
23 5 -22 8 4299 2745 3 MP stroke
12 25 -21 -15 4316 2830 3 MP stroke
17 3 -16 7 4311 2998 3 MP stroke
17 10 -19 1 4310 3109 3 MP stroke
20 6 -20 6 4305 3241 3 MP stroke
21 8 -23 4 4303 3360 3 MP stroke
19 4 -19 7 4307 3493 3 MP stroke
17 11 -20 0 4310 3603 3 MP stroke
23 3 -22 10 4300 3746 3 MP stroke
22 9 -23 4 4301 3858 3 MP stroke
21 4 -20 7 4305 3992 3 MP stroke
22 7 -22 6 4302 4109 3 MP stroke
21 7 -22 5 4304 4232 3 MP stroke
23 10 -24 4 4298 4353 3 MP stroke
17 7 -18 3 4312 4483 3 MP stroke
16 1 -14 8 4422 516 3 MP stroke
16 5 -16 4 4422 632 3 MP stroke
16 2 -15 7 4422 762 3 MP stroke
13 2 -12 6 4427 885 3 MP stroke
17 1 -15 8 4420 1013 3 MP stroke
18 5 -18 5 4418 1129 3 MP stroke
19 0 -17 10 4417 1263 3 MP stroke
16 4 -16 5 4420 1379 3 MP stroke
16 0 -14 9 4423 1512 3 MP stroke
15 5 -15 4 4423 1626 3 MP stroke
18 0 -16 9 4420 1761 3 MP stroke
14 6 -15 3 4424 1873 3 MP stroke
17 -3 -14 12 4420 2014 3 MP stroke
15 6 -16 3 4424 2121 3 MP stroke
15 3 -14 5 4425 2252 3 MP stroke
16 4 -15 5 4422 2375 3 MP stroke
17 2 -16 7 4420 2503 3 MP stroke
14 16 -19 -6 4424 2599 3 MP stroke
15 7 -16 2 4422 2740 3 MP stroke
16 4 -16 5 4422 2870 3 MP stroke
20 1 -19 10 4413 3001 3 MP stroke
18 6 -19 4 4417 3115 3 MP stroke
20 1 -18 10 4416 3251 3 MP stroke
16 4 -16 6 4421 3368 3 MP stroke
18 5 -18 6 4417 3492 3 MP stroke
17 9 -18 2 4418 3608 3 MP stroke
18 4 -18 6 4417 3740 3 MP stroke
20 9 -21 3 4412 3858 3 MP stroke
19 4 -18 7 4415 3991 3 MP stroke
17 6 -18 4 4418 4110 3 MP stroke
19 5 -19 5 4417 4237 3 MP stroke
18 8 -19 3 4417 4356 3 MP stroke
17 6 -17 3 4420 4482 3 MP stroke
22 5 -22 7 4517 509 3 MP stroke
19 6 -19 5 4523 631 3 MP stroke
20 2 -18 9 4521 762 3 MP stroke
23 7 -23 6 4515 878 3 MP stroke
22 1 -20 11 4517 1014 3 MP stroke
23 5 -22 8 4516 1129 3 MP stroke
22 3 -21 9 4517 1260 3 MP stroke
20 4 -19 7 4523 1382 3 MP stroke
25 2 -23 12 4513 1511 3 MP stroke
22 7 -23 6 4516 1622 3 MP stroke
22 1 -20 11 4520 1759 3 MP stroke
25 2 -22 12 4513 1883 3 MP stroke
23 3 -21 10 4515 2006 3 MP stroke
22 8 -23 5 4515 2119 3 MP stroke
21 2 -19 10 4520 2255 3 MP stroke
25 0 -22 13 4512 2384 3 MP stroke
24 6 -23 8 4513 2496 3 MP stroke
24 7 -24 6 4514 2618 3 MP stroke
25 5 -24 9 4512 2747 3 MP stroke
23 7 -23 7 4514 2867 3 MP stroke
23 5 -23 8 4516 2996 3 MP stroke
23 6 -23 7 4514 3117 3 MP stroke
22 6 -22 7 4517 3242 3 MP stroke
23 7 -23 7 4513 3366 3 MP stroke
24 4 -22 9 4515 3496 3 MP stroke
22 10 -23 3 4517 3608 3 MP stroke
23 8 -23 6 4514 3736 3 MP stroke
22 9 -23 4 4517 3859 3 MP stroke
22 3 -20 10 4517 3993 3 MP stroke
23 7 -23 6 4516 4110 3 MP stroke
22 8 -23 5 4517 4231 3 MP stroke
24 7 -24 7 4514 4359 3 MP stroke
20 10 -22 3 4519 4477 3 MP stroke
9 3 4619 389 2 MP stroke
19 2 -18 9 4631 514 3 MP stroke
18 6 -18 4 4634 632 3 MP stroke
17 0 -15 10 4634 767 3 MP stroke
20 4 -20 7 4628 883 3 MP stroke
20 2 -18 9 4631 1011 3 MP stroke
17 8 -18 3 4634 1123 3 MP stroke
19 3 -18 7 4631 1259 3 MP stroke
20 7 -20 5 4627 1375 3 MP stroke
27 38 -39 -19 4609 1439 3 MP stroke
17 55 -37 -40 4624 1528 3 MP stroke
16 43 -32 -30 4630 1674 3 MP stroke
17 6 -18 4 4635 1872 3 MP stroke
19 3 -18 8 4631 2005 3 MP stroke
17 7 -18 3 4634 2120 3 MP stroke
21 1 -19 10 4628 2256 3 MP stroke
20 7 -20 5 4628 2369 3 MP stroke
23 -1 -20 14 4624 2511 3 MP stroke
20 9 -21 2 4629 2613 3 MP stroke
20 6 -20 6 4628 2744 3 MP stroke
17 8 -19 2 4634 2864 3 MP stroke
18 5 -18 6 4632 2995 3 MP stroke
20 9 -21 3 4626 3112 3 MP stroke
19 6 -19 5 4631 3243 3 MP stroke
21 7 -22 5 4628 3362 3 MP stroke
21 5 -21 7 4627 3491 3 MP stroke
18 10 -20 1 4631 3605 3 MP stroke
21 7 -21 5 4627 3737 3 MP stroke
18 7 -19 4 4631 3860 3 MP stroke
20 6 -20 6 4629 3988 3 MP stroke
18 10 -20 1 4633 4102 3 MP stroke
18 8 -19 2 4631 4230 3 MP stroke
19 9 -21 2 4629 4352 3 MP stroke
19 7 -19 4 4630 4483 3 MP stroke
20 12 -23 0 4627 4596 3 MP stroke
19 5 -2 0 4722 389 3 MP stroke
22 2 -20 10 4733 515 3 MP stroke
21 5 -20 7 4735 634 3 MP stroke
18 2 -17 8 4740 764 3 MP stroke
19 3 -18 7 4740 884 3 MP stroke
21 4 -20 8 4735 1006 3 MP stroke
19 8 -20 3 4738 1124 3 MP stroke
19 5 -19 6 4738 1254 3 MP stroke
23 8 -24 6 4730 1374 3 MP stroke
21 4 -20 8 4736 1505 3 MP stroke
22 12 -25 2 4732 1614 3 MP stroke
20 4 -19 8 4736 1755 3 MP stroke
24 -3 -20 15 4731 1892 3 MP stroke
18 4 -18 7 4740 2001 3 MP stroke
18 1 -16 9 4741 2133 3 MP stroke
18 4 -18 6 4740 2250 3 MP stroke
10 30 -21 -21 4750 2320 3 MP stroke
18 11 -20 1 4739 2485 3 MP stroke
18 5 -18 5 4740 2620 3 MP stroke
20 1 -18 10 4737 2754 3 MP stroke
19 8 -20 4 4738 2864 3 MP stroke
21 6 -20 6 4736 2994 3 MP stroke
20 6 -20 6 4738 3116 3 MP stroke
19 3 -18 8 4738 3246 3 MP stroke
21 6 -21 7 4733 3366 3 MP stroke
22 9 -23 4 4732 3482 3 MP stroke
17 20 -23 -8 4738 3585 3 MP stroke
15 10 -18 -1 4746 3729 3 MP stroke
11 12 -14 -5 4754 3850 3 MP stroke
17 7 -18 3 4742 3983 3 MP stroke
15 12 -18 -2 4745 4099 3 MP stroke
11 6 -12 1 4754 4233 3 MP stroke
10 6 -11 0 4755 4357 3 MP stroke
17 12 -19 -1 4741 4473 3 MP stroke
24 22 -30 -7 4725 4577 3 MP stroke
20 4 -11 4 4836 389 3 MP stroke
17 0 -15 9 4852 518 3 MP stroke
18 5 -18 5 4848 633 3 MP stroke
20 3 -19 8 4845 762 3 MP stroke
18 7 -19 3 4849 875 3 MP stroke
25 2 -22 12 4835 1013 3 MP stroke
15 38 -28 -25 4848 1064 3 MP stroke
16 30 -26 -18 4847 1204 3 MP stroke
24 7 -24 7 4836 1374 3 MP stroke
19 7 -19 4 4846 1498 3 MP stroke
17 19 -23 -8 4848 1599 3 MP stroke
9 7 -11 -1 4865 1744 3 MP stroke
4 25 -13 -20 4872 1833 3 MP stroke
7 16 -12 -10 4867 1974 3 MP stroke
10 2 -9 3 4865 2127 3 MP stroke
1 -5 1 5 4883 2264 3 MP stroke
11 14 -16 -6 4860 2353 3 MP stroke
10 2 -10 4 4865 2500 3 MP stroke
8 3 -8 1 4868 2622 3 MP stroke
15 1 -14 7 4854 2752 3 MP stroke
15 2 -14 7 4855 2874 3 MP stroke
18 -1 -16 11 4850 3007 3 MP stroke
8 3 -8 1 4870 3120 3 MP stroke
8 1 -7 4 4868 3249 3 MP stroke
19 -12 -12 21 4849 3400 3 MP stroke
9 1 -8 4 4867 3498 3 MP stroke
8 4 -9 0 4869 3615 3 MP stroke
5 5 -6 -1 4873 3735 3 MP stroke
7 4 -8 0 4870 3862 3 MP stroke
9 1 -8 3 4867 3994 3 MP stroke
8 7 -10 -1 4868 4106 3 MP stroke
11 6 -12 1 4863 4232 3 MP stroke
8 9 -11 -3 4868 4350 3 MP stroke
9 5 -10 1 4865 4483 3 MP stroke
17 10 -19 1 4849 4599 3 MP stroke
14 4 4936 389 2 MP stroke
21 3 -20 8 4951 513 3 MP stroke
19 3 -18 7 4956 636 3 MP stroke
16 7 -18 2 4960 751 3 MP stroke
10 27 -20 -18 4968 834 3 MP stroke
11 25 -21 -16 4965 963 3 MP stroke
10 44 -27 -33 4964 1051 3 MP stroke
12 53 -33 -40 4957 1158 3 MP stroke
21 40 -35 -24 4943 1311 3 MP stroke
22 15 -26 -1 4945 1484 3 MP stroke
11 34 -24 -24 4964 1568 3 MP stroke
6 33 -19 -26 4973 1693 3 MP stroke
3 26 -13 -21 4980 1830 3 MP stroke
4 15 -10 -11 4981 1976 3 MP stroke
9 7 -11 -1 4971 2117 3 MP stroke
9 1 -8 4 4974 2253 3 MP stroke
6 7 -8 -3 4980 2365 3 MP stroke
7 5 -8 0 4977 2494 3 MP stroke
8 13 -12 -7 4975 2602 3 MP stroke
10 1 -9 4 4974 2751 3 MP stroke
16 1 -15 8 4960 2876 3 MP stroke
10 0 -9 5 4971 3001 3 MP stroke
9 8 -11 -2 4975 3110 3 MP stroke
10 0 -9 5 4974 3249 3 MP stroke
10 3 -10 3 4974 3369 3 MP stroke
11 2 -10 4 4971 3496 3 MP stroke
9 7 -11 -1 4972 3608 3 MP stroke
9 3 -9 2 4973 3741 3 MP stroke
10 3 -11 3 4972 3864 3 MP stroke
11 3 -11 3 4970 3989 3 MP stroke
11 7 -13 0 4968 4106 3 MP stroke
12 7 -13 1 4968 4231 3 MP stroke
9 8 -12 -2 4973 4353 3 MP stroke
14 3 -14 5 4963 4489 3 MP stroke
17 10 -19 1 4956 4600 3 MP stroke
8 2 5053 389 2 MP stroke
15 5 -15 3 5072 509 3 MP stroke
-2 21 -7 -19 5100 596 3 MP stroke
5 5 -6 -2 5090 755 3 MP stroke
4 12 -9 -9 5090 863 3 MP stroke
0 36 -14 -32 5093 940 3 MP stroke
-2 46 -17 -42 5096 1044 3 MP stroke
1 13 -6 -11 5096 1234 3 MP stroke
5 9 -8 -5 5088 1366 3 MP stroke
3 2 -4 0 5093 1505 3 MP stroke
4 6 -6 -3 5090 1621 3 MP stroke
3 4 -4 -2 5094 1748 3 MP stroke
3 1 -3 1 5094 1879 3 MP stroke
4 2 -4 0 5092 2002 3 MP stroke
1 6 -4 -5 5097 2117 3 MP stroke
5 4 -6 -1 5091 2246 3 MP stroke
4 4 -5 -1 5092 2370 3 MP stroke
2 2 -3 -1 5096 2497 3 MP stroke
1 5 -3 -4 5096 2617 3 MP stroke
6 3 -7 1 5088 2745 3 MP stroke
4 5 -5 -2 5091 2865 3 MP stroke
5 1 -5 2 5090 3000 3 MP stroke
6 5 -7 -1 5089 3116 3 MP stroke
7 1 -7 3 5085 3247 3 MP stroke
6 2 -6 2 5088 3370 3 MP stroke
8 2 -8 3 5083 3494 3 MP stroke
5 8 -8 -4 5088 3605 3 MP stroke
7 -1 -6 5 5085 3748 3 MP stroke
9 5 -10 0 5081 3861 3 MP stroke
9 3 -9 3 5081 3991 3 MP stroke
6 8 -9 -3 5086 4103 3 MP stroke
8 7 -10 -1 5082 4231 3 MP stroke
8 4 -9 1 5084 4360 3 MP stroke
10 3 -10 3 5081 4487 3 MP stroke
7 6 -9 -1 5084 4603 3 MP stroke
5 12 -9 -7 5195 492 3 MP stroke
3 19 -11 -15 5198 599 3 MP stroke
5 10 -9 -7 5197 743 3 MP stroke
6 7 -8 -3 5194 875 3 MP stroke
5 0 -5 3 5197 1011 3 MP stroke
5 5 -7 -2 5197 1126 3 MP stroke
7 3 -7 2 5193 1256 3 MP stroke
6 2 -7 1 5196 1381 3 MP stroke
7 0 -6 4 5195 1508 3 MP stroke
6 4 -7 0 5196 1626 3 MP stroke
7 6 -8 -1 5194 1746 3 MP stroke
7 6 -9 -2 5192 1870 3 MP stroke
6 5 -7 -1 5195 1995 3 MP stroke
5 4 -6 0 5197 2123 3 MP stroke
8 4 -9 0 5193 2247 3 MP stroke
8 4 -9 1 5192 2372 3 MP stroke
6 1 -6 2 5194 2501 3 MP stroke
6 2 -7 1 5195 2624 3 MP stroke
7 3 -7 2 5192 2746 3 MP stroke
8 3 -8 2 5192 2870 3 MP stroke
6 3 -7 1 5196 2993 3 MP stroke
6 8 -8 -4 5194 3109 3 MP stroke
8 2 -8 2 5192 3246 3 MP stroke
6 1 -6 2 5196 3371 3 MP stroke
8 -1 -7 5 5192 3499 3 MP stroke
8 9 -11 -3 5190 3604 3 MP stroke
11 1 -10 5 5187 3746 3 MP stroke
10 5 -11 1 5187 3863 3 MP stroke
13 4 -13 4 5183 3989 3 MP stroke
10 4 -11 2 5186 4112 3 MP stroke
12 4 -13 4 5183 4237 3 MP stroke
12 7 -13 1 5182 4357 3 MP stroke
12 5 -13 2 5183 4485 3 MP stroke
11 9 -14 -2 5185 4600 3 MP stroke
5 3 -5 0 5305 883 3 MP stroke
4 -1 -3 3 5307 1014 3 MP stroke
4 3 -4 0 5307 1255 3 MP stroke
3 3 -4 -1 5310 1378 3 MP stroke
4 -1 -3 3 5308 1511 3 MP stroke
4 9 -7 -6 5307 1616 3 MP stroke
3 4 -4 -2 5307 1749 3 MP stroke
3 7 -6 -4 5307 1866 3 MP stroke
2 1 -2 0 5312 2002 3 MP stroke
1 7 -3 -6 5312 2115 3 MP stroke
3 0 -3 2 5311 2253 3 MP stroke
2 4 -3 -2 5310 2370 3 MP stroke
5 -3 -3 5 5308 2509 3 MP stroke
2 7 -4 -5 5309 2614 3 MP stroke
2 0 -1 1 5312 2752 3 MP stroke
3 4 -4 -2 5309 2869 3 MP stroke
4 1 -4 2 5306 2997 3 MP stroke
6 7 -8 -3 5304 3112 3 MP stroke
4 1 -4 1 5306 3246 3 MP stroke
5 3 -5 0 5305 3368 3 MP stroke
8 2 -8 3 5299 3494 3 MP stroke
6 8 -8 -3 5301 3606 3 MP stroke
7 2 -7 2 5302 3743 3 MP stroke
10 3 -10 2 5295 3866 3 MP stroke
6 3 -7 1 5303 3988 3 MP stroke
7 6 -9 -2 5302 4106 3 MP stroke
7 5 -9 -1 5301 4234 3 MP stroke
10 5 -11 1 5295 4358 3 MP stroke
11 6 -12 1 5294 4482 3 MP stroke
6 2 -6 2 5411 1131 3 MP stroke
9 1 -8 4 5406 1259 3 MP stroke
6 3 -7 0 5411 1379 3 MP stroke
6 1 -6 3 5410 1506 3 MP stroke
9 14 -14 -7 5402 1606 3 MP stroke
9 7 -11 -1 5403 1745 3 MP stroke
10 5 -11 1 5402 1873 3 MP stroke
7 1 -7 3 5409 2002 3 MP stroke
5 8 -8 -5 5411 2114 3 MP stroke
6 0 -5 3 5413 2255 3 MP stroke
7 2 -7 2 5409 2375 3 MP stroke
7 2 -7 2 5409 2500 3 MP stroke
6 8 -9 -3 5410 2611 3 MP stroke
5 1 -5 2 5413 2749 3 MP stroke
9 5 -10 0 5404 2868 3 MP stroke
10 2 -9 4 5403 2998 3 MP stroke
8 7 -10 -2 5407 3111 3 MP stroke
9 3 -10 3 5405 3243 3 MP stroke
9 6 -10 -1 5406 3363 3 MP stroke
10 2 -10 4 5404 3496 3 MP stroke
11 6 -12 1 5399 3611 3 MP stroke
11 5 -12 1 5401 3737 3 MP stroke
12 6 -13 1 5399 3860 3 MP stroke
12 0 -11 6 5400 3995 3 MP stroke
12 5 -13 2 5398 4111 3 MP stroke
11 6 -12 1 5399 4232 3 MP stroke
12 6 -13 1 5399 4358 3 MP stroke
12 7 -14 1 5398 4480 3 MP stroke
12 6 -13 1 5399 4606 3 MP stroke
5 8 -7 -4 5520 1121 3 MP stroke
3 -1 -2 3 5524 1260 3 MP stroke
-8 -7 10 2 5549 1394 3 MP stroke
4 -2 -3 4 5525 1511 3 MP stroke
5 12 -9 -8 5518 1610 3 MP stroke
4 -2 -3 4 5523 1760 3 MP stroke
6 5 -8 -1 5517 1871 3 MP stroke
5 0 -5 3 5522 2006 3 MP stroke
0 5 -3 -4 5529 2118 3 MP stroke
5 0 -4 3 5522 2254 3 MP stroke
6 3 -7 1 5519 2372 3 MP stroke
9 -2 -7 7 5515 2508 3 MP stroke
4 8 -6 -6 5523 2612 3 MP stroke
7 -1 -6 5 5517 2753 3 MP stroke
7 3 -7 1 5517 2871 3 MP stroke
8 -1 -7 6 5516 3003 3 MP stroke
4 5 -6 -2 5521 3114 3 MP stroke
7 1 -7 2 5518 3247 3 MP stroke
7 2 -7 2 5518 3369 3 MP stroke
9 2 -9 4 5512 3495 3 MP stroke
7 8 -9 -3 5515 3605 3 MP stroke
9 2 -9 3 5513 3744 3 MP stroke
7 6 -9 -1 5516 3859 3 MP stroke
9 1 -9 4 5512 3993 3 MP stroke
7 7 -9 -2 5515 4105 3 MP stroke
10 3 -10 3 5509 4239 3 MP stroke
10 6 -11 0 5510 4357 3 MP stroke
11 6 -12 1 5509 4482 3 MP stroke
0 6 -3 -6 5638 1123 3 MP stroke
6 0 -6 4 5626 1260 3 MP stroke
1 0 -1 1 5637 1383 3 MP stroke
5 0 -5 3 5629 1508 3 MP stroke
6 6 -8 -2 5626 1621 3 MP stroke
5 -1 -4 3 5631 1759 3 MP stroke
7 7 -9 -2 5624 1869 3 MP stroke
8 2 -8 3 5622 2001 3 MP stroke
5 1 -5 2 5628 2127 3 MP stroke
6 2 -6 2 5627 2251 3 MP stroke
6 3 -7 1 5627 2372 3 MP stroke
7 -2 -5 6 5625 2507 3 MP stroke
4 6 -6 -4 5630 2614 3 MP stroke
5 2 -6 1 5628 2748 3 MP stroke
10 3 -10 2 5619 2870 3 MP stroke
8 -1 -6 5 5623 3002 3 MP stroke
9 6 -10 0 5621 3113 3 MP stroke
8 0 -7 4 5624 3248 3 MP stroke
7 5 -8 -1 5626 3364 3 MP stroke
9 2 -9 3 5621 3494 3 MP stroke
9 9 -12 -3 5618 3605 3 MP stroke
14 3 -13 5 5612 3742 3 MP stroke
10 4 -11 2 5617 3863 3 MP stroke
12 2 -11 5 5616 3991 3 MP stroke
12 9 -14 -1 5615 4104 3 MP stroke
13 5 -13 3 5611 4237 3 MP stroke
12 7 -13 1 5612 4356 3 MP stroke
12 4 -12 3 5615 4486 3 MP stroke
7 0 -6 3 5733 514 3 MP stroke
3 -2 -1 4 5741 1016 3 MP stroke
3 6 -5 -3 5740 1123 3 MP stroke
3 0 -3 2 5740 1260 3 MP stroke
3 1 -3 1 5740 1381 3 MP stroke
5 0 -4 3 5736 1509 3 MP stroke
-2 -8 5 6 5754 1647 3 MP stroke
4 -1 -3 4 5738 1759 3 MP stroke
3 3 -4 -1 5738 1874 3 MP stroke
4 2 -5 0 5738 2001 3 MP stroke
4 6 -5 -3 5737 2119 3 MP stroke
3 5 -5 -3 5740 2245 3 MP stroke
2 3 -3 -2 5744 2372 3 MP stroke
3 -2 -2 4 5740 2507 3 MP stroke
3 7 -5 -4 5739 2614 3 MP stroke
6 0 -5 3 5736 2751 3 MP stroke
4 4 -5 -1 5739 2868 3 MP stroke
4 0 -3 2 5739 2999 3 MP stroke
5 6 -7 -3 5736 3112 3 MP stroke
7 2 -7 2 5732 3246 3 MP stroke
5 3 -5 0 5736 3368 3 MP stroke
6 6 -8 -1 5733 3486 3 MP stroke
8 5 -9 0 5728 3613 3 MP stroke
7 3 -7 2 5732 3741 3 MP stroke
9 4 -10 1 5727 3864 3 MP stroke
10 3 -10 2 5727 3990 3 MP stroke
9 5 -10 1 5726 4110 3 MP stroke
8 2 -8 3 5730 4240 3 MP stroke
10 4 -11 2 5725 4361 3 MP stroke
11 1 -10 5 5724 4491 3 MP stroke
10 -1 -9 6 5834 1014 3 MP stroke
7 6 -9 -2 5839 1124 3 MP stroke
6 0 -6 3 5842 1260 3 MP stroke
8 5 -10 0 5838 1374 3 MP stroke
9 0 -8 5 5835 1508 3 MP stroke
5 4 -5 -1 5845 1626 3 MP stroke
6 3 -7 1 5843 1752 3 MP stroke
7 5 -8 -1 5839 1872 3 MP stroke
8 5 -9 -1 5839 1997 3 MP stroke
8 5 -9 0 5837 2122 3 MP stroke
10 6 -11 0 5834 2243 3 MP stroke
10 5 -11 1 5834 2371 3 MP stroke
9 -1 -8 6 5836 2506 3 MP stroke
6 6 -8 -2 5842 2615 3 MP stroke
7 1 -7 4 5840 2750 3 MP stroke
10 6 -11 0 5833 2865 3 MP stroke
12 3 -11 4 5831 2997 3 MP stroke
7 7 -9 -2 5838 3110 3 MP stroke
11 2 -10 4 5832 3247 3 MP stroke
10 6 -11 0 5833 3363 3 MP stroke
13 4 -13 3 5830 3493 3 MP stroke
10 7 -11 -1 5833 3610 3 MP stroke
12 4 -12 3 5830 3741 3 MP stroke
10 6 -12 0 5834 3859 3 MP stroke
12 5 -13 2 5829 3986 3 MP stroke
10 5 -11 2 5833 4110 3 MP stroke
12 3 -11 4 5830 4239 3 MP stroke
12 6 -14 1 5829 4357 3 MP stroke
13 3 -13 5 5827 4487 3 MP stroke
16 -1 -13 9 5931 518 3 MP stroke
3 2 -3 0 5956 1133 3 MP stroke
6 3 -6 0 5951 1255 3 MP stroke
6 4 -7 0 5951 1376 3 MP stroke
3 1 -3 1 5957 1506 3 MP stroke
7 2 -7 2 5949 1629 3 MP stroke
4 3 -5 0 5954 1752 3 MP stroke
4 3 -5 -1 5955 1875 3 MP stroke
4 1 -4 1 5953 2004 3 MP stroke
3 6 -5 -4 5954 2117 3 MP stroke
3 1 -2 1 5956 2252 3 MP stroke
6 5 -7 -1 5949 2370 3 MP stroke
8 2 -8 2 5947 2499 3 MP stroke
8 7 -10 -2 5945 2614 3 MP stroke
4 1 -4 2 5954 2749 3 MP stroke
7 3 -8 1 5948 2870 3 MP stroke
7 5 -8 0 5948 2991 3 MP stroke
7 4 -8 0 5948 3117 3 MP stroke
9 6 -10 -1 5944 3239 3 MP stroke
7 5 -9 -1 5946 3364 3 MP stroke
9 1 -8 4 5944 3496 3 MP stroke
6 6 -8 -1 5948 3610 3 MP stroke
8 2 -7 3 5947 3743 3 MP stroke
10 6 -11 0 5943 3860 3 MP stroke
9 4 -10 1 5942 3987 3 MP stroke
10 9 -12 -2 5941 4103 3 MP stroke
9 4 -9 2 5943 4237 3 MP stroke
11 7 -12 0 5938 4355 3 MP stroke
23 2 -21 10 5917 4492 3 MP stroke
7 2 -5 1 6054 389 3 MP stroke
6 5 -7 -1 6057 506 3 MP stroke
8 2 -8 3 6052 1007 3 MP stroke
4 5 -6 -2 6060 1126 3 MP stroke
5 3 -5 0 6059 1256 3 MP stroke
7 5 -9 0 6055 1374 3 MP stroke
6 4 -7 0 6056 1500 3 MP stroke
6 4 -7 0 6057 1626 3 MP stroke
6 4 -6 0 6057 1750 3 MP stroke
4 3 -5 -1 6062 1875 3 MP stroke
5 1 -5 2 6060 2004 3 MP stroke
5 4 -6 0 6059 2123 3 MP stroke
5 1 -5 2 6060 2253 3 MP stroke
5 4 -6 -1 6060 2371 3 MP stroke
6 2 -6 2 6057 2500 3 MP stroke
7 6 -9 -1 6055 2615 3 MP stroke
6 3 -7 0 6058 2745 3 MP stroke
5 6 -7 -3 6059 2865 3 MP stroke
7 3 -7 1 6055 2995 3 MP stroke
5 4 -6 0 6058 3117 3 MP stroke
8 4 -8 1 6054 3241 3 MP stroke
9 7 -10 -1 6051 3361 3 MP stroke
12 2 -11 5 6046 3495 3 MP stroke
7 8 -9 -4 6055 3605 3 MP stroke
12 2 -12 5 6045 3744 3 MP stroke
11 5 -12 1 6048 3861 3 MP stroke
13 4 -13 3 6045 3990 3 MP stroke
13 10 -16 -2 6043 4100 3 MP stroke
12 5 -13 3 6045 4236 3 MP stroke
10 8 -12 -1 6047 4354 3 MP stroke
21 8 -22 5 6025 4480 3 MP stroke
-5 6 2 -8 6187 872 3 MP stroke
3 3 -4 -1 6172 1006 3 MP stroke
3 3 -4 -1 6170 1130 3 MP stroke
3 4 -4 -2 6170 1252 3 MP stroke
3 4 -4 -2 6172 1375 3 MP stroke
2 4 -3 -3 6173 1500 3 MP stroke
5 4 -6 -1 6167 1623 3 MP stroke
1 2 -2 -1 6174 1751 3 MP stroke
22 2 -20 11 6133 1882 3 MP stroke
5 1 -5 2 6167 2004 3 MP stroke
2 4 -3 -3 6173 2122 3 MP stroke
3 3 -4 -1 6171 2249 3 MP stroke
3 2 -4 0 6171 2373 3 MP stroke
3 1 -3 1 6171 2502 3 MP stroke
0 6 -2 -5 6177 2615 3 MP stroke
5 4 -6 0 6166 2743 3 MP stroke
5 5 -7 -2 6168 2864 3 MP stroke
3 2 -3 0 6171 2997 3 MP stroke
3 5 -5 -3 6170 3114 3 MP stroke
6 2 -6 1 6166 3246 3 MP stroke
7 7 -9 -3 6163 3360 3 MP stroke
8 -1 -7 5 6160 3499 3 MP stroke
6 7 -8 -3 6164 3606 3 MP stroke
7 1 -6 3 6163 3743 3 MP stroke
7 6 -9 -1 6163 3858 3 MP stroke
10 4 -11 2 6157 3987 3 MP stroke
9 3 -10 2 6158 4113 3 MP stroke
10 1 -9 5 6157 4242 3 MP stroke
10 5 -11 1 6157 4358 3 MP stroke
16 6 -16 4 6144 4482 3 MP stroke
1006 389 PD
-16 9 1006 513 2 MP stroke
-17 -11 1006 637 2 MP stroke
-10 -22 1006 886 2 MP stroke
-19 -7 1006 1010 2 MP stroke
-24 -15 1006 1134 2 MP stroke
-29 -10 1006 1259 2 MP stroke
-9 -19 1006 1383 2 MP stroke
-31 -3 1006 1507 2 MP stroke
-42 -20 1006 1631 2 MP stroke
-22 -10 1006 2377 2 MP stroke
-5 2 1006 2502 2 MP stroke
-7 -21 1006 2626 2 MP stroke
-13 -17 1006 2750 2 MP stroke
-8 -22 1006 2874 2 MP stroke
-11 11 1006 2999 2 MP stroke
-11 -18 1006 3123 2 MP stroke
-14 -8 1006 3247 2 MP stroke
-6 -14 1006 3372 2 MP stroke
-10 -11 1006 3496 2 MP stroke
-12 -10 1006 3620 2 MP stroke
-15 -8 1006 3744 2 MP stroke
-9 -8 1006 3869 2 MP stroke
-18 1 1006 3993 2 MP stroke
-20 -5 1006 4117 2 MP stroke
-18 0 1006 4242 2 MP stroke
-22 -5 1006 4366 2 MP stroke
-23 6 1006 4490 2 MP stroke
-32 6 1114 513 2 MP stroke
-49 -9 1114 637 2 MP stroke
-34 -7 1114 886 2 MP stroke
-39 8 1114 1010 2 MP stroke
-37 -6 1114 1134 2 MP stroke
-34 -5 1114 1259 2 MP stroke
-36 -17 1114 1383 2 MP stroke
-39 0 1114 1507 2 MP stroke
-36 -19 1114 1631 2 MP stroke
-17 -4 1114 2377 2 MP stroke
-23 -12 1114 2502 2 MP stroke
-20 -12 1114 2626 2 MP stroke
-17 -4 1114 2750 2 MP stroke
-18 -12 1114 2874 2 MP stroke
-23 5 1114 2999 2 MP stroke
-19 -12 1114 3123 2 MP stroke
-18 -5 1114 3247 2 MP stroke
-18 -12 1114 3372 2 MP stroke
-20 -4 1114 3496 2 MP stroke
-23 -12 1114 3620 2 MP stroke
-23 -6 1114 3744 2 MP stroke
-27 -7 1114 3869 2 MP stroke
-36 -5 1114 3993 2 MP stroke
-29 -12 1114 4117 2 MP stroke
-38 -9 1114 4242 2 MP stroke
-35 -6 1114 4366 2 MP stroke
-38 -4 1114 4490 2 MP stroke
1222 389 PD
-61 11 1222 513 2 MP stroke
-47 3 1222 637 2 MP stroke
-26 13 1222 761 2 MP stroke
-24 2 1222 886 2 MP stroke
-29 10 1222 1010 2 MP stroke
-22 -9 1222 1134 2 MP stroke
-17 -15 1222 1383 2 MP stroke
-22 -1 1222 1507 2 MP stroke
-19 -16 1222 1631 2 MP stroke
-13 -7 1222 2502 2 MP stroke
-20 -17 1222 2626 2 MP stroke
-32 -10 1222 2750 2 MP stroke
-16 -19 1222 2874 2 MP stroke
-19 -5 1222 2999 2 MP stroke
-11 -13 1222 3123 2 MP stroke
-14 -6 1222 3247 2 MP stroke
-11 -13 1222 3372 2 MP stroke
-17 -10 1222 3496 2 MP stroke
-15 -12 1222 3620 2 MP stroke
-26 -6 1222 3744 2 MP stroke
-27 -8 1222 3869 2 MP stroke
-27 -7 1222 3993 2 MP stroke
-21 -13 1222 4117 2 MP stroke
-23 -7 1222 4242 2 MP stroke
-27 -6 1222 4366 2 MP stroke
-30 0 1222 4490 2 MP stroke
1329 389 PD
-35 13 1329 513 2 MP stroke
-32 -21 1329 637 2 MP stroke
-31 -12 1329 761 2 MP stroke
-37 -9 1329 886 2 MP stroke
-34 10 1329 1010 2 MP stroke
-49 -23 1329 1134 2 MP stroke
-39 -1 1329 1259 2 MP stroke
-11 7 1329 1507 2 MP stroke
-21 -5 1329 2502 2 MP stroke
-20 -17 1329 2626 2 MP stroke
-17 -7 1329 2750 2 MP stroke
-18 -11 1329 2874 2 MP stroke
-18 -8 1329 2999 2 MP stroke
-14 -4 1329 3123 2 MP stroke
-15 -6 1329 3247 2 MP stroke
-19 -12 1329 3372 2 MP stroke
-19 -10 1329 3496 2 MP stroke
-21 -9 1329 3620 2 MP stroke
-25 -7 1329 3744 2 MP stroke
-32 -10 1329 3869 2 MP stroke
-26 -8 1329 3993 2 MP stroke
-26 -16 1329 4117 2 MP stroke
-32 1 1329 4242 2 MP stroke
-30 -8 1329 4366 2 MP stroke
-36 5 1329 4490 2 MP stroke
1437 389 PD
-33 8 1437 513 2 MP stroke
-25 -13 1437 637 2 MP stroke
-26 5 1437 761 2 MP stroke
-28 0 1437 886 2 MP stroke
-33 8 1437 1010 2 MP stroke
-23 -9 1437 1134 2 MP stroke
-28 -1 1437 1259 2 MP stroke
-1 -9 1437 1383 2 MP stroke
-14 -4 1437 2502 2 MP stroke
-14 -10 1437 2626 2 MP stroke
-5 -5 1437 3123 2 MP stroke
-14 -4 1437 3247 2 MP stroke
-12 -10 1437 3372 2 MP stroke
-9 -9 1437 3496 2 MP stroke
-16 -7 1437 3620 2 MP stroke
-16 -10 1437 3744 2 MP stroke
-12 -11 1437 3869 2 MP stroke
-21 -1 1437 3993 2 MP stroke
-20 -16 1437 4117 2 MP stroke
-20 -1 1437 4242 2 MP stroke
-25 -4 1437 4366 2 MP stroke
-29 -2 1437 4490 2 MP stroke
1545 389 PD
-33 2 1545 513 2 MP stroke
-31 -8 1545 637 2 MP stroke
-37 1 1545 761 2 MP stroke
-33 -3 1545 886 2 MP stroke
-39 6 1545 1010 2 MP stroke
-42 -12 1545 1134 2 MP stroke
-42 2 1545 1259 2 MP stroke
-38 -4 1545 1383 2 MP stroke
-41 -8 1545 1507 2 MP stroke
-16 -3 1545 3123 2 MP stroke
-23 -3 1545 3247 2 MP stroke
-27 -7 1545 3372 2 MP stroke
-21 -8 1545 3496 2 MP stroke
-24 -4 1545 3620 2 MP stroke
-25 -11 1545 3744 2 MP stroke
-35 -8 1545 3869 2 MP stroke
-34 7 1545 3993 2 MP stroke
-31 -13 1545 4117 2 MP stroke
-35 -2 1545 4242 2 MP stroke
-35 -5 1545 4366 2 MP stroke
-39 -3 1545 4490 2 MP stroke
-30 -5 1545 4615 2 MP stroke
1653 389 PD
-25 5 1653 513 2 MP stroke
-29 -9 1653 637 2 MP stroke
-34 10 1653 761 2 MP stroke
-32 -6 1653 886 2 MP stroke
-25 9 1653 1010 2 MP stroke
-24 -16 1653 1134 2 MP stroke
-32 2 1653 1259 2 MP stroke
-23 -6 1653 1383 2 MP stroke
-45 -6 1653 1507 2 MP stroke
-23 15 1653 2502 2 MP stroke
-14 -7 1653 2626 2 MP stroke
-16 1 1653 2750 2 MP stroke
-15 -4 1653 3123 2 MP stroke
-21 -6 1653 3247 2 MP stroke
-22 -6 1653 3372 2 MP stroke
-22 -3 1653 3496 2 MP stroke
-20 -3 1653 3620 2 MP stroke
-27 -5 1653 3744 2 MP stroke
-20 -8 1653 3869 2 MP stroke
-21 -6 1653 3993 2 MP stroke
-23 -5 1653 4117 2 MP stroke
-25 -2 1653 4242 2 MP stroke
-26 -8 1653 4366 2 MP stroke
-29 -2 1653 4490 2 MP stroke
1760 389 PD
-27 0 1760 513 2 MP stroke
-34 -6 1760 637 2 MP stroke
-38 3 1760 761 2 MP stroke
-43 -1 1760 886 2 MP stroke
-27 2 1760 1010 2 MP stroke
-36 -4 1760 1134 2 MP stroke
-38 11 1760 1259 2 MP stroke
-36 2 1760 1383 2 MP stroke
-19 -11 1760 1507 2 MP stroke
-18 -12 1760 1631 2 MP stroke
-24 1 1760 2502 2 MP stroke
-18 -6 1760 2626 2 MP stroke
-23 13 1760 2750 2 MP stroke
-19 5 1760 2874 2 MP stroke
-16 -7 1760 2999 2 MP stroke
-15 -9 1760 3123 2 MP stroke
-17 -5 1760 3247 2 MP stroke
-23 -7 1760 3372 2 MP stroke
-20 -6 1760 3496 2 MP stroke
-16 -16 1760 3620 2 MP stroke
-22 -6 1760 3744 2 MP stroke
-26 -6 1760 3869 2 MP stroke
-23 -2 1760 3993 2 MP stroke
-26 -17 1760 4117 2 MP stroke
-36 -2 1760 4242 2 MP stroke
-34 -10 1760 4366 2 MP stroke
-34 -10 1760 4490 2 MP stroke
1868 389 PD
-7 -2 1868 513 2 MP stroke
-33 -11 1868 637 2 MP stroke
-20 -1 1868 761 2 MP stroke
-32 -6 1868 886 2 MP stroke
-26 15 1868 1010 2 MP stroke
-25 -3 1868 1134 2 MP stroke
-29 9 1868 1259 2 MP stroke
-30 0 1868 1383 2 MP stroke
-6 -9 1868 1507 2 MP stroke
-8 -9 1868 1631 2 MP stroke
-8 -19 1868 2626 2 MP stroke
-5 3 1868 2750 2 MP stroke
-5 -2 1868 2874 2 MP stroke
-6 4 1868 2999 2 MP stroke
-8 -2 1868 3123 2 MP stroke
-10 -8 1868 3247 2 MP stroke
-16 -11 1868 3372 2 MP stroke
-14 -5 1868 3496 2 MP stroke
-16 -4 1868 3620 2 MP stroke
-16 -7 1868 3744 2 MP stroke
-12 -10 1868 3869 2 MP stroke
-15 -10 1868 3993 2 MP stroke
-28 -17 1868 4117 2 MP stroke
-25 -7 1868 4242 2 MP stroke
-29 -5 1868 4366 2 MP stroke
-19 -3 1868 4490 2 MP stroke
1976 389 PD
-33 5 1976 513 2 MP stroke
-53 -7 1976 637 2 MP stroke
-39 2 1976 761 2 MP stroke
-33 -2 1976 886 2 MP stroke
-42 -2 1976 1010 2 MP stroke
-32 -16 1976 1134 2 MP stroke
-35 8 1976 1259 2 MP stroke
-37 -3 1976 1383 2 MP stroke
-35 -6 1976 1507 2 MP stroke
-17 -12 1976 1631 2 MP stroke
-34 -17 1976 2502 2 MP stroke
-24 -15 1976 2626 2 MP stroke
-24 -3 1976 2750 2 MP stroke
-22 -5 1976 2874 2 MP stroke
-16 2 1976 2999 2 MP stroke
-19 -3 1976 3123 2 MP stroke
-19 -12 1976 3247 2 MP stroke
-19 -11 1976 3372 2 MP stroke
-29 -5 1976 3496 2 MP stroke
-29 -6 1976 3620 2 MP stroke
-29 -4 1976 3744 2 MP stroke
-30 -5 1976 3869 2 MP stroke
-36 -4 1976 3993 2 MP stroke
-32 -15 1976 4117 2 MP stroke
-30 -5 1976 4242 2 MP stroke
-30 -4 1976 4366 2 MP stroke
-32 -4 1976 4490 2 MP stroke
2084 389 PD
-30 10 2084 513 2 MP stroke
-26 -14 2084 637 2 MP stroke
-27 1 2084 761 2 MP stroke
-23 -2 2084 886 2 MP stroke
-28 0 2084 1010 2 MP stroke
-31 4 2084 1134 2 MP stroke
-15 7 2084 1259 2 MP stroke
-23 -1 2084 1383 2 MP stroke
-26 -10 2084 1507 2 MP stroke
-25 -11 2084 1631 2 MP stroke
-9 -1 2084 2377 2 MP stroke
-14 -2 2084 2502 2 MP stroke
-13 -18 2084 2626 2 MP stroke
-16 -8 2084 2750 2 MP stroke
-4 -12 2084 2874 2 MP stroke
-7 -1 2084 2999 2 MP stroke
-10 -11 2084 3123 2 MP stroke
-15 -11 2084 3247 2 MP stroke
-17 -7 2084 3372 2 MP stroke
-10 -5 2084 3496 2 MP stroke
-12 -5 2084 3620 2 MP stroke
-18 -6 2084 3744 2 MP stroke
-24 -9 2084 3869 2 MP stroke
-19 -9 2084 3993 2 MP stroke
-26 -17 2084 4117 2 MP stroke
-23 -7 2084 4242 2 MP stroke
-26 -2 2084 4366 2 MP stroke
-28 -2 2084 4490 2 MP stroke
2191 389 PD
-34 2 2191 513 2 MP stroke
-39 -8 2191 637 2 MP stroke
-40 2 2191 761 2 MP stroke
-42 1 2191 886 2 MP stroke
-39 5 2191 1010 2 MP stroke
-46 -3 2191 1134 2 MP stroke
-36 7 2191 1259 2 MP stroke
-20 0 2191 1383 2 MP stroke
-27 -8 2191 1631 2 MP stroke
-20 -1 2191 2377 2 MP stroke
-21 -1 2191 2502 2 MP stroke
-23 -1 2191 2626 2 MP stroke
-22 -10 2191 2750 2 MP stroke
-18 -12 2191 2874 2 MP stroke
-17 -8 2191 2999 2 MP stroke
-17 -11 2191 3123 2 MP stroke
-20 -3 2191 3247 2 MP stroke
-23 -6 2191 3372 2 MP stroke
-24 -4 2191 3496 2 MP stroke
-21 -12 2191 3620 2 MP stroke
-26 -5 2191 3744 2 MP stroke
-26 -4 2191 3869 2 MP stroke
-23 -7 2191 3993 2 MP stroke
-20 -11 2191 4117 2 MP stroke
-25 -2 2191 4242 2 MP stroke
-35 -4 2191 4366 2 MP stroke
-27 10 2191 4490 2 MP stroke
-26 10 2299 513 2 MP stroke
-27 -6 2299 637 2 MP stroke
-24 3 2299 761 2 MP stroke
-23 -3 2299 886 2 MP stroke
-27 12 2299 1010 2 MP stroke
-28 -14 2299 1134 2 MP stroke
-24 2 2299 1259 2 MP stroke
-17 -9 2299 1383 2 MP stroke
-8 5 2299 1507 2 MP stroke
-7 -4 2299 1631 2 MP stroke
-9 -11 2299 1756 2 MP stroke
-7 -3 2299 1880 2 MP stroke
-7 -1 2299 2253 2 MP stroke
-14 -4 2299 2377 2 MP stroke
-9 -1 2299 2502 2 MP stroke
-9 -19 2299 2626 2 MP stroke
-13 -7 2299 2750 2 MP stroke
-6 -15 2299 2874 2 MP stroke
-13 -7 2299 2999 2 MP stroke
-10 -7 2299 3123 2 MP stroke
-7 -6 2299 3247 2 MP stroke
-16 -4 2299 3372 2 MP stroke
-15 1 2299 3496 2 MP stroke
-16 -16 2299 3620 2 MP stroke
-16 -2 2299 3744 2 MP stroke
-13 -3 2299 3869 2 MP stroke
-16 -6 2299 3993 2 MP stroke
-28 -21 2299 4117 2 MP stroke
-20 -10 2299 4242 2 MP stroke
-18 -5 2299 4366 2 MP stroke
-17 5 2299 4490 2 MP stroke
2407 389 PD
-49 9 2407 513 2 MP stroke
-40 0 2407 637 2 MP stroke
-42 7 2407 761 2 MP stroke
-35 -11 2407 886 2 MP stroke
-36 5 2407 1010 2 MP stroke
-32 -20 2407 1134 2 MP stroke
-21 5 2407 1507 2 MP stroke
-15 -17 2407 1631 2 MP stroke
-22 -11 2407 1756 2 MP stroke
-29 -21 2407 1880 2 MP stroke
-23 6 2407 2004 2 MP stroke
-21 -3 2407 2129 2 MP stroke
-17 3 2407 2253 2 MP stroke
-16 -5 2407 2377 2 MP stroke
-17 7 2407 2502 2 MP stroke
-31 -14 2407 2626 2 MP stroke
-19 -6 2407 2750 2 MP stroke
-29 -12 2407 2874 2 MP stroke
-23 10 2407 2999 2 MP stroke
-18 -2 2407 3123 2 MP stroke
-24 -4 2407 3247 2 MP stroke
-16 -6 2407 3372 2 MP stroke
-21 -3 2407 3496 2 MP stroke
-24 -4 2407 3620 2 MP stroke
-25 -2 2407 3744 2 MP stroke
-33 -12 2407 3869 2 MP stroke
-32 -1 2407 3993 2 MP stroke
-31 -17 2407 4117 2 MP stroke
-36 -1 2407 4242 2 MP stroke
-32 -10 2407 4366 2 MP stroke
-28 -3 2407 4490 2 MP stroke
2515 389 PD
-40 11 2515 513 2 MP stroke
-33 -3 2515 637 2 MP stroke
-30 -8 2515 886 2 MP stroke
-24 2 2515 1010 2 MP stroke
-32 -18 2515 1134 2 MP stroke
-31 8 2515 1259 2 MP stroke
-24 -5 2515 1383 2 MP stroke
-24 8 2515 1507 2 MP stroke
-14 -7 2515 1631 2 MP stroke
-10 0 2515 1756 2 MP stroke
-16 1 2515 1880 2 MP stroke
-14 -10 2515 2004 2 MP stroke
-12 -23 2515 2129 2 MP stroke
-10 11 2515 2253 2 MP stroke
-15 -10 2515 2377 2 MP stroke
-9 3 2515 2502 2 MP stroke
-17 -15 2515 2626 2 MP stroke
-16 7 2515 2750 2 MP stroke
-14 -2 2515 2874 2 MP stroke
-9 -2 2515 2999 2 MP stroke
-12 -22 2515 3123 2 MP stroke
-11 -6 2515 3247 2 MP stroke
-17 -5 2515 3372 2 MP stroke
-21 0 2515 3496 2 MP stroke
-20 -15 2515 3620 2 MP stroke
-24 -1 2515 3744 2 MP stroke
-24 -10 2515 3869 2 MP stroke
-22 -4 2515 3993 2 MP stroke
-21 -18 2515 4117 2 MP stroke
-27 -4 2515 4242 2 MP stroke
-29 -11 2515 4366 2 MP stroke
-23 -5 2515 4490 2 MP stroke
-39 3 2622 389 2 MP stroke
-47 10 2622 513 2 MP stroke
-40 1 2622 637 2 MP stroke
-39 11 2622 761 2 MP stroke
-42 -1 2622 886 2 MP stroke
-36 -4 2622 1010 2 MP stroke
-32 0 2622 1134 2 MP stroke
-31 11 2622 1259 2 MP stroke
-38 -10 2622 1383 2 MP stroke
-40 7 2622 1507 2 MP stroke
-32 -15 2622 1631 2 MP stroke
-6 2 2622 1756 2 MP stroke
-18 7 2622 1880 2 MP stroke
-19 -8 2622 2004 2 MP stroke
-15 -3 2622 2129 2 MP stroke
-14 -4 2622 2253 2 MP stroke
-15 0 2622 2377 2 MP stroke
-17 2 2622 2502 2 MP stroke
-17 -6 2622 2626 2 MP stroke
-21 0 2622 2750 2 MP stroke
-18 1 2622 2874 2 MP stroke
-16 -9 2622 2999 2 MP stroke
-17 -14 2622 3123 2 MP stroke
-15 -3 2622 3247 2 MP stroke
-21 -8 2622 3372 2 MP stroke
-25 1 2622 3496 2 MP stroke
-19 -20 2622 3620 2 MP stroke
-22 5 2622 3744 2 MP stroke
-24 -9 2622 3869 2 MP stroke
-24 -3 2622 3993 2 MP stroke
-26 -17 2622 4117 2 MP stroke
-26 -1 2622 4242 2 MP stroke
-29 -11 2622 4366 2 MP stroke
-34 -7 2622 4490 2 MP stroke
2730 389 PD
-28 11 2730 513 2 MP stroke
-22 -10 2730 637 2 MP stroke
-26 6 2730 761 2 MP stroke
-31 -2 2730 886 2 MP stroke
-17 0 2730 1010 2 MP stroke
-4 -14 2730 1134 2 MP stroke
-9 -3 2730 1383 2 MP stroke
-19 3 2730 1507 2 MP stroke
-17 -14 2730 1631 2 MP stroke
6 -12 2730 1880 2 MP stroke
-4 -3 2730 2377 2 MP stroke
-1 -6 2730 2502 2 MP stroke
-3 -15 2730 2626 2 MP stroke
-8 -6 2730 2750 2 MP stroke
-7 -3 2730 2874 2 MP stroke
-14 -5 2730 2999 2 MP stroke
-10 -9 2730 3123 2 MP stroke
-8 -4 2730 3247 2 MP stroke
-12 -7 2730 3372 2 MP stroke
-16 0 2730 3496 2 MP stroke
-11 -13 2730 3620 2 MP stroke
-11 3 2730 3744 2 MP stroke
-11 -4 2730 3869 2 MP stroke
-15 3 2730 3993 2 MP stroke
-25 -16 2730 4117 2 MP stroke
-21 -1 2730 4242 2 MP stroke
-19 -4 2730 4366 2 MP stroke
-24 -9 2730 4490 2 MP stroke
2838 389 PD
-49 10 2838 513 2 MP stroke
-28 3 2838 637 2 MP stroke
-44 -3 2838 761 2 MP stroke
-30 -11 2838 1259 2 MP stroke
-13 -12 2838 1383 2 MP stroke
-19 5 2838 1507 2 MP stroke
-16 -5 2838 1631 2 MP stroke
-24 -21 2838 2377 2 MP stroke
-18 -5 2838 2502 2 MP stroke
-26 -34 2838 2626 2 MP stroke
-17 -4 2838 2750 2 MP stroke
-26 -8 2838 2874 2 MP stroke
-15 -4 2838 2999 2 MP stroke
-16 -15 2838 3123 2 MP stroke
-17 5 2838 3247 2 MP stroke
-19 -6 2838 3372 2 MP stroke
-23 2 2838 3496 2 MP stroke
-27 -17 2838 3620 2 MP stroke
-33 6 2838 3744 2 MP stroke
-35 -8 2838 3869 2 MP stroke
-34 0 2838 3993 2 MP stroke
-38 -21 2838 4117 2 MP stroke
-33 -4 2838 4242 2 MP stroke
-34 -5 2838 4366 2 MP stroke
-35 -6 2838 4490 2 MP stroke
-47 1 2945 389 2 MP stroke
-48 7 2945 513 2 MP stroke
-11 0 2945 637 2 MP stroke
-23 5 2945 886 2 MP stroke
-23 -9 2945 1259 2 MP stroke
-29 -2 2945 1383 2 MP stroke
-27 1 2945 1507 2 MP stroke
-14 -7 2945 2502 2 MP stroke
-14 -19 2945 2626 2 MP stroke
-5 -4 2945 2750 2 MP stroke
-13 -3 2945 2874 2 MP stroke
-10 -5 2945 2999 2 MP stroke
-6 -12 2945 3123 2 MP stroke
-11 1 2945 3247 2 MP stroke
-18 -14 2945 3372 2 MP stroke
-22 0 2945 3496 2 MP stroke
-22 -11 2945 3620 2 MP stroke
-22 -2 2945 3744 2 MP stroke
-20 -6 2945 3869 2 MP stroke
-25 -6 2945 3993 2 MP stroke
-23 -7 2945 4117 2 MP stroke
-22 -1 2945 4242 2 MP stroke
-27 -4 2945 4366 2 MP stroke
-26 3 2945 4490 2 MP stroke
3053 389 PD
-52 13 3053 513 2 MP stroke
-51 -5 3053 637 2 MP stroke
-32 -9 3053 1259 2 MP stroke
-25 -8 3053 1383 2 MP stroke
-20 -3 3053 1507 2 MP stroke
-24 -4 3053 1631 2 MP stroke
-18 -17 3053 1756 2 MP stroke
-21 -7 3053 1880 2 MP stroke
-12 -14 3053 2502 2 MP stroke
-16 -7 3053 2626 2 MP stroke
-15 -9 3053 2750 2 MP stroke
-14 -8 3053 2874 2 MP stroke
-19 -5 3053 2999 2 MP stroke
-23 -15 3053 3123 2 MP stroke
-22 2 3053 3247 2 MP stroke
-25 -8 3053 3372 2 MP stroke
-17 -3 3053 3496 2 MP stroke
-26 -12 3053 3620 2 MP stroke
-22 -1 3053 3744 2 MP stroke
-25 -10 3053 3869 2 MP stroke
-26 -2 3053 3993 2 MP stroke
-30 -14 3053 4117 2 MP stroke
-27 -7 3053 4242 2 MP stroke
-31 -8 3053 4366 2 MP stroke
-33 -7 3053 4490 2 MP stroke
-39 -21 3053 4615 2 MP stroke
3161 389 PD
-32 4 3161 513 2 MP stroke
-21 0 3161 637 2 MP stroke
-16 -14 3161 1134 2 MP stroke
-13 -4 3161 1259 2 MP stroke
-8 -8 3161 1383 2 MP stroke
-11 17 3161 1507 2 MP stroke
-6 6 3161 1631 2 MP stroke
-8 6 3161 1756 2 MP stroke
-7 23 3161 1880 2 MP stroke
-6 41 3161 2004 2 MP stroke
-8 -7 3161 2129 2 MP stroke
-13 -5 3161 2253 2 MP stroke
-10 -8 3161 2377 2 MP stroke
-14 2 3161 2502 2 MP stroke
-7 -17 3161 2626 2 MP stroke
-12 -8 3161 2750 2 MP stroke
-9 -19 3161 2874 2 MP stroke
-9 -4 3161 2999 2 MP stroke
-11 -12 3161 3123 2 MP stroke
-11 1 3161 3247 2 MP stroke
-14 0 3161 3372 2 MP stroke
-14 -1 3161 3496 2 MP stroke
-11 -13 3161 3620 2 MP stroke
-16 -8 3161 3744 2 MP stroke
-9 -8 3161 3869 2 MP stroke
-23 -4 3161 3993 2 MP stroke
-25 -2 3161 4117 2 MP stroke
-24 -7 3161 4242 2 MP stroke
-24 -10 3161 4366 2 MP stroke
-27 2 3161 4490 2 MP stroke
-48 0 3269 389 2 MP stroke
-59 9 3269 513 2 MP stroke
-67 -9 3269 637 2 MP stroke
-40 -11 3269 886 2 MP stroke
-39 4 3269 1010 2 MP stroke
-20 9 3269 1259 2 MP stroke
-19 -5 3269 1383 2 MP stroke
-16 11 3269 1507 2 MP stroke
-15 -8 3269 1631 2 MP stroke
-19 -3 3269 1756 2 MP stroke
-19 3 3269 1880 2 MP stroke
-19 18 3269 2004 2 MP stroke
-22 -12 3269 2129 2 MP stroke
-23 2 3269 2253 2 MP stroke
-23 1 3269 2377 2 MP stroke
-21 -1 3269 2502 2 MP stroke
-15 -19 3269 2626 2 MP stroke
-19 2 3269 2750 2 MP stroke
-14 -5 3269 2874 2 MP stroke
-16 1 3269 2999 2 MP stroke
-22 -19 3269 3123 2 MP stroke
-27 0 3269 3247 2 MP stroke
-27 -10 3269 3372 2 MP stroke
-29 -3 3269 3496 2 MP stroke
-31 -3 3269 3620 2 MP stroke
-28 -6 3269 3744 2 MP stroke
-31 -5 3269 3869 2 MP stroke
-29 -6 3269 3993 2 MP stroke
-40 -18 3269 4117 2 MP stroke
-36 -3 3269 4242 2 MP stroke
-40 -3 3269 4366 2 MP stroke
-37 7 3269 4490 2 MP stroke
3376 389 PD
-41 14 3376 513 2 MP stroke
-55 -5 3376 637 2 MP stroke
-23 5 3376 761 2 MP stroke
-20 -14 3376 886 2 MP stroke
-19 3 3376 1010 2 MP stroke
-24 -14 3376 1134 2 MP stroke
-6 4 3376 1507 2 MP stroke
-6 1 3376 1631 2 MP stroke
-5 2 3376 1756 2 MP stroke
-5 4 3376 1880 2 MP stroke
-6 31 3376 2004 2 MP stroke
-7 -13 3376 2129 2 MP stroke
-6 -3 3376 2253 2 MP stroke
-13 -6 3376 2377 2 MP stroke
-6 -3 3376 2502 2 MP stroke
-10 -17 3376 2626 2 MP stroke
-13 -3 3376 2750 2 MP stroke
-11 -6 3376 2874 2 MP stroke
-2 -3 3376 2999 2 MP stroke
-10 -19 3376 3123 2 MP stroke
-14 -2 3376 3247 2 MP stroke
-9 -8 3376 3372 2 MP stroke
-13 -2 3376 3496 2 MP stroke
-13 -2 3376 3620 2 MP stroke
-27 -8 3376 3744 2 MP stroke
-21 -9 3376 3869 2 MP stroke
-20 -8 3376 3993 2 MP stroke
-21 -2 3376 4117 2 MP stroke
-28 0 3376 4242 2 MP stroke
-29 -3 3376 4366 2 MP stroke
-33 3 3376 4490 2 MP stroke
-21 2 3484 389 2 MP stroke
-52 13 3484 513 2 MP stroke
-43 -7 3484 637 2 MP stroke
-42 7 3484 761 2 MP stroke
-30 -6 3484 886 2 MP stroke
-39 13 3484 1010 2 MP stroke
-37 -23 3484 1134 2 MP stroke
-15 -7 3484 1507 2 MP stroke
-16 -5 3484 1631 2 MP stroke
-21 -6 3484 1880 2 MP stroke
-18 -1 3484 2004 2 MP stroke
-19 -17 3484 2129 2 MP stroke
-16 0 3484 2253 2 MP stroke
-17 -20 3484 2377 2 MP stroke
-15 -2 3484 2502 2 MP stroke
-15 -15 3484 2626 2 MP stroke
-19 -4 3484 2750 2 MP stroke
-17 -8 3484 2874 2 MP stroke
-19 -5 3484 2999 2 MP stroke
-16 -4 3484 3123 2 MP stroke
-21 -6 3484 3247 2 MP stroke
-23 -6 3484 3372 2 MP stroke
-20 -3 3484 3496 2 MP stroke
-18 -5 3484 3620 2 MP stroke
-22 -7 3484 3744 2 MP stroke
-33 -6 3484 3869 2 MP stroke
-27 0 3484 3993 2 MP stroke
-32 -18 3484 4117 2 MP stroke
-37 -3 3484 4242 2 MP stroke
-38 -9 3484 4366 2 MP stroke
-43 0 3484 4490 2 MP stroke
-18 1 3592 389 2 MP stroke
-34 7 3592 513 2 MP stroke
-33 -1 3592 637 2 MP stroke
9 -2 3592 1756 2 MP stroke
-9 -8 3592 2129 2 MP stroke
-7 7 3592 2253 2 MP stroke
-6 -8 3592 2377 2 MP stroke
-9 -1 3592 2502 2 MP stroke
-10 -14 3592 2626 2 MP stroke
-7 1 3592 2750 2 MP stroke
-10 -6 3592 2874 2 MP stroke
-3 -3 3592 2999 2 MP stroke
-15 -13 3592 3123 2 MP stroke
-9 -11 3592 3247 2 MP stroke
-15 -13 3592 3372 2 MP stroke
-10 -7 3592 3496 2 MP stroke
-15 -7 3592 3620 2 MP stroke
-15 -7 3592 3744 2 MP stroke
-16 -10 3592 3869 2 MP stroke
-22 0 3592 3993 2 MP stroke
-23 -9 3592 4117 2 MP stroke
-22 -10 3592 4242 2 MP stroke
-28 -11 3592 4366 2 MP stroke
-49 4 3592 4490 2 MP stroke
3700 389 PD
-58 6 3700 513 2 MP stroke
-50 -2 3700 637 2 MP stroke
-33 -9 3700 1383 2 MP stroke
-29 -8 3700 1507 2 MP stroke
-32 -16 3700 1631 2 MP stroke
-17 2 3700 1756 2 MP stroke
-21 -5 3700 1880 2 MP stroke
-22 -4 3700 2004 2 MP stroke
-24 -21 3700 2129 2 MP stroke
-21 0 3700 2253 2 MP stroke
-21 -10 3700 2377 2 MP stroke
-22 1 3700 2502 2 MP stroke
-17 -11 3700 2626 2 MP stroke
-20 0 3700 2750 2 MP stroke
-18 -11 3700 2874 2 MP stroke
-23 -4 3700 2999 2 MP stroke
-26 -5 3700 3123 2 MP stroke
-27 -8 3700 3247 2 MP stroke
-27 -11 3700 3372 2 MP stroke
-23 -6 3700 3496 2 MP stroke
-32 -6 3700 3620 2 MP stroke
-27 -8 3700 3744 2 MP stroke
-35 -11 3700 3869 2 MP stroke
-33 -3 3700 3993 2 MP stroke
-36 -11 3700 4117 2 MP stroke
-30 -9 3700 4242 2 MP stroke
-35 -14 3700 4366 2 MP stroke
-67 4 3700 4490 2 MP stroke
3807 389 PD
-53 3 3807 513 2 MP stroke
-74 0 3807 637 2 MP stroke
-22 -6 3807 1383 2 MP stroke
-26 -3 3807 1631 2 MP stroke
-3 -19 3807 1880 2 MP stroke
-12 6 3807 2004 2 MP stroke
-9 -14 3807 2129 2 MP stroke
-4 -14 3807 2253 2 MP stroke
-10 -6 3807 2377 2 MP stroke
-9 -4 3807 2502 2 MP stroke
-11 -6 3807 2626 2 MP stroke
-9 3 3807 2750 2 MP stroke
-6 -9 3807 2874 2 MP stroke
-17 -4 3807 2999 2 MP stroke
-17 -10 3807 3123 2 MP stroke
-17 -4 3807 3247 2 MP stroke
-13 -8 3807 3372 2 MP stroke
-17 -8 3807 3496 2 MP stroke
-18 -7 3807 3620 2 MP stroke
-25 -9 3807 3744 2 MP stroke
-25 -19 3807 3869 2 MP stroke
-18 -9 3807 3993 2 MP stroke
-29 -14 3807 4117 2 MP stroke
-30 -3 3807 4242 2 MP stroke
-55 16 3807 4366 2 MP stroke
-48 2 3807 4490 2 MP stroke
-50 4 3915 389 2 MP stroke
-51 15 3915 513 2 MP stroke
-52 -3 3915 637 2 MP stroke
-50 14 3915 1010 2 MP stroke
-19 9 3915 1259 2 MP stroke
-19 -2 3915 1383 2 MP stroke
-5 21 3915 1507 2 MP stroke
-19 -5 3915 1631 2 MP stroke
-25 9 3915 1756 2 MP stroke
-31 6 3915 1880 2 MP stroke
-21 1 3915 2004 2 MP stroke
-25 -5 3915 2129 2 MP stroke
-16 -6 3915 2253 2 MP stroke
-15 -5 3915 2377 2 MP stroke
-21 -6 3915 2502 2 MP stroke
-25 -9 3915 2626 2 MP stroke
-19 -5 3915 2750 2 MP stroke
-17 -17 3915 2874 2 MP stroke
-18 1 3915 2999 2 MP stroke
-20 -7 3915 3123 2 MP stroke
-22 2 3915 3247 2 MP stroke
-21 -7 3915 3372 2 MP stroke
-28 5 3915 3496 2 MP stroke
-31 -12 3915 3620 2 MP stroke
-16 -4 3915 3744 2 MP stroke
-32 -16 3915 3869 2 MP stroke
-34 -3 3915 3993 2 MP stroke
-37 -20 3915 4117 2 MP stroke
-36 -8 3915 4242 2 MP stroke
-33 -21 3915 4366 2 MP stroke
-56 6 3915 4490 2 MP stroke
4023 389 PD
-47 14 4023 513 2 MP stroke
-46 -5 4023 637 2 MP stroke
-45 15 4023 761 2 MP stroke
-49 12 4023 886 2 MP stroke
-51 11 4023 1134 2 MP stroke
-23 31 4023 1259 2 MP stroke
-10 21 4023 1383 2 MP stroke
-18 5 4023 1507 2 MP stroke
-15 -1 4023 1631 2 MP stroke
-11 -3 4023 1756 2 MP stroke
-32 24 4023 1880 2 MP stroke
-6 7 4023 2004 2 MP stroke
-7 6 4023 2129 2 MP stroke
-5 3 4023 2253 2 MP stroke
-14 0 4023 2377 2 MP stroke
-9 -4 4023 2502 2 MP stroke
-9 -17 4023 2626 2 MP stroke
-12 -7 4023 2750 2 MP stroke
-11 -9 4023 2874 2 MP stroke
-31 5 4023 2999 2 MP stroke
-35 1 4023 3123 2 MP stroke
-45 9 4023 3247 2 MP stroke
-42 -17 4023 3372 2 MP stroke
-62 35 4023 3496 2 MP stroke
-40 -5 4023 3620 2 MP stroke
-24 5 4023 3744 2 MP stroke
-27 -7 4023 3869 2 MP stroke
-36 -9 4023 3993 2 MP stroke
-35 -16 4023 4117 2 MP stroke
-30 5 4023 4242 2 MP stroke
-63 -2 4023 4366 2 MP stroke
-64 5 4023 4490 2 MP stroke
-58 1 4131 389 2 MP stroke
-54 9 4131 513 2 MP stroke
-54 -6 4131 637 2 MP stroke
-54 10 4131 761 2 MP stroke
-51 2 4131 886 2 MP stroke
-60 6 4131 1010 2 MP stroke
-62 -2 4131 1134 2 MP stroke
-56 9 4131 1259 2 MP stroke
-55 -4 4131 1383 2 MP stroke
-51 2 4131 1507 2 MP stroke
-58 12 4131 1631 2 MP stroke
-56 4 4131 1756 2 MP stroke
-19 -14 4131 1880 2 MP stroke
-49 24 4131 2004 2 MP stroke
-84 40 4131 2129 2 MP stroke
-55 8 4131 2253 2 MP stroke
-61 -3 4131 2377 2 MP stroke
-56 0 4131 2502 2 MP stroke
-34 -24 4131 2626 2 MP stroke
-17 -8 4131 2750 2 MP stroke
-23 0 4131 2874 2 MP stroke
-59 8 4131 2999 2 MP stroke
-55 -10 4131 3123 2 MP stroke
-63 32 4131 3247 2 MP stroke
-64 -26 4131 3372 2 MP stroke
-73 33 4131 3496 2 MP stroke
-58 7 4131 3620 2 MP stroke
-59 12 4131 3744 2 MP stroke
-67 -3 4131 3869 2 MP stroke
-58 12 4131 3993 2 MP stroke
-58 -6 4131 4117 2 MP stroke
-74 7 4131 4242 2 MP stroke
-71 -9 4131 4366 2 MP stroke
-68 3 4131 4490 2 MP stroke
4238 389 PD
-57 20 4238 513 2 MP stroke
-49 1 4238 637 2 MP stroke
-54 15 4238 761 2 MP stroke
-46 -6 4238 886 2 MP stroke
-46 7 4238 1010 2 MP stroke
-46 3 4238 1134 2 MP stroke
-51 5 4238 1259 2 MP stroke
-42 13 4238 1383 2 MP stroke
-50 9 4238 1507 2 MP stroke
-44 -15 4238 1631 2 MP stroke
-50 -7 4238 1756 2 MP stroke
-61 0 4238 1880 2 MP stroke
-59 13 4238 2004 2 MP stroke
-50 -11 4238 2129 2 MP stroke
-47 5 4238 2253 2 MP stroke
-57 -10 4238 2377 2 MP stroke
-53 0 4238 2502 2 MP stroke
-28 -51 4238 2626 2 MP stroke
-7 -10 4238 2750 2 MP stroke
-39 3 4238 2874 2 MP stroke
-46 6 4238 2999 2 MP stroke
-51 25 4238 3123 2 MP stroke
-58 3 4238 3247 2 MP stroke
-60 0 4238 3372 2 MP stroke
-59 12 4238 3496 2 MP stroke
-59 -6 4238 3620 2 MP stroke
-62 8 4238 3744 2 MP stroke
-58 0 4238 3869 2 MP stroke
-56 8 4238 3993 2 MP stroke
-61 -4 4238 4117 2 MP stroke
-57 -1 4238 4242 2 MP stroke
-60 -18 4238 4366 2 MP stroke
-59 -3 4238 4490 2 MP stroke
-59 10 4346 513 2 MP stroke
-55 1 4346 637 2 MP stroke
-59 12 4346 761 2 MP stroke
-59 -7 4346 886 2 MP stroke
-57 8 4346 1010 2 MP stroke
-59 -2 4346 1134 2 MP stroke
-61 11 4346 1259 2 MP stroke
-55 8 4346 1383 2 MP stroke
-52 6 4346 1507 2 MP stroke
-66 -31 4346 1631 2 MP stroke
-56 -7 4346 1756 2 MP stroke
-56 -1 4346 1880 2 MP stroke
-55 2 4346 2004 2 MP stroke
-43 8 4346 2129 2 MP stroke
-58 2 4346 2253 2 MP stroke
-40 -20 4346 2377 2 MP stroke
-30 8 4346 2502 2 MP stroke
-15 -23 4346 2626 2 MP stroke
-69 3 4346 2750 2 MP stroke
-51 -59 4346 2874 2 MP stroke
-51 6 4346 2999 2 MP stroke
-55 -13 4346 3123 2 MP stroke
-61 0 4346 3247 2 MP stroke
-66 -8 4346 3372 2 MP stroke
-58 4 4346 3496 2 MP stroke
-56 -17 4346 3620 2 MP stroke
-68 12 4346 3744 2 MP stroke
-68 -7 4346 3869 2 MP stroke
-61 6 4346 3993 2 MP stroke
-66 -2 4346 4117 2 MP stroke
-64 -5 4346 4242 2 MP stroke
-72 -9 4346 4366 2 MP stroke
-52 -4 4346 4490 2 MP stroke
-46 11 4454 513 2 MP stroke
-48 -1 4454 637 2 MP stroke
-47 8 4454 761 2 MP stroke
-39 5 4454 886 2 MP stroke
-49 11 4454 1010 2 MP stroke
-54 0 4454 1134 2 MP stroke
-54 14 4454 1259 2 MP stroke
-50 1 4454 1383 2 MP stroke
-45 14 4454 1507 2 MP stroke
-46 -1 4454 1631 2 MP stroke
-50 14 4454 1756 2 MP stroke
-45 -4 4454 1880 2 MP stroke
-48 22 4454 2004 2 MP stroke
-46 -5 4454 2129 2 MP stroke
-43 4 4454 2253 2 MP stroke
-47 3 4454 2377 2 MP stroke
-50 8 4454 2502 2 MP stroke
-49 -33 4454 2626 2 MP stroke
-48 -8 4454 2750 2 MP stroke
-48 1 4454 2874 2 MP stroke
-60 12 4454 2999 2 MP stroke
-56 -4 4454 3123 2 MP stroke
-56 14 4454 3247 2 MP stroke
-49 2 4454 3372 2 MP stroke
-55 2 4454 3496 2 MP stroke
-54 -10 4454 3620 2 MP stroke
-55 2 4454 3744 2 MP stroke
-63 -8 4454 3869 2 MP stroke
-57 5 4454 3993 2 MP stroke
-54 -3 4454 4117 2 MP stroke
-56 0 4454 4242 2 MP stroke
-56 -7 4454 4366 2 MP stroke
-51 -5 4454 4490 2 MP stroke
-67 3 4562 513 2 MP stroke
-58 -1 4562 637 2 MP stroke
-59 10 4562 761 2 MP stroke
-70 -2 4562 886 2 MP stroke
-65 15 4562 1010 2 MP stroke
-68 3 4562 1134 2 MP stroke
-66 10 4562 1259 2 MP stroke
-58 6 4562 1383 2 MP stroke
-72 16 4562 1507 2 MP stroke
-69 -3 4562 1631 2 MP stroke
-62 14 4562 1756 2 MP stroke
-71 15 4562 1880 2 MP stroke
-68 12 4562 2004 2 MP stroke
-70 -5 4562 2129 2 MP stroke
-61 12 4562 2253 2 MP stroke
-72 20 4562 2377 2 MP stroke
-72 2 4562 2502 2 MP stroke
-72 -2 4562 2626 2 MP stroke
-74 6 4562 2750 2 MP stroke
-71 0 4562 2874 2 MP stroke
-69 5 4562 2999 2 MP stroke
-71 1 4562 3123 2 MP stroke
-67 2 4562 3247 2 MP stroke
-72 1 4562 3372 2 MP stroke
-69 9 4562 3496 2 MP stroke
-68 -9 4562 3620 2 MP stroke
-71 -2 4562 3744 2 MP stroke
-68 -6 4562 3869 2 MP stroke
-65 10 4562 3993 2 MP stroke
-69 -1 4562 4117 2 MP stroke
-68 -6 4562 4242 2 MP stroke
-72 0 4562 4366 2 MP stroke
-65 -10 4562 4490 2 MP stroke
4669 389 PD
-56 10 4669 513 2 MP stroke
-53 -1 4669 637 2 MP stroke
-50 16 4669 761 2 MP stroke
-61 4 4669 886 2 MP stroke
-56 10 4669 1010 2 MP stroke
-53 -8 4669 1134 2 MP stroke
-56 7 4669 1259 2 MP stroke
-62 -3 4669 1383 2 MP stroke
-99 -87 4669 1507 2 MP stroke
-82 -143 4669 1631 2 MP stroke
-71 -112 4669 1756 2 MP stroke
-52 -4 4669 1880 2 MP stroke
-56 9 4669 2004 2 MP stroke
-53 -6 4669 2129 2 MP stroke
-60 13 4669 2253 2 MP stroke
-61 -3 4669 2377 2 MP stroke
-65 23 4669 2502 2 MP stroke
-61 -11 4669 2626 2 MP stroke
-61 0 4669 2750 2 MP stroke
-54 -8 4669 2874 2 MP stroke
-55 2 4669 2999 2 MP stroke
-64 -8 4669 3123 2 MP stroke
-57 1 4669 3247 2 MP stroke
-63 -5 4669 3372 2 MP stroke
-63 2 4669 3496 2 MP stroke
-58 -14 4669 3620 2 MP stroke
-63 -2 4669 3744 2 MP stroke
-57 -5 4669 3869 2 MP stroke
-60 1 4669 3993 2 MP stroke
-56 -14 4669 4117 2 MP stroke
-57 -10 4669 4242 2 MP stroke
-61 -12 4669 4366 2 MP stroke
-58 -3 4669 4490 2 MP stroke
-65 -19 4669 4615 2 MP stroke
-57 0 4777 389 2 MP stroke
-64 12 4777 513 2 MP stroke
-62 4 4777 637 2 MP stroke
-54 11 4777 761 2 MP stroke
-55 5 4777 886 2 MP stroke
-62 4 4777 1010 2 MP stroke
-59 -7 4777 1134 2 MP stroke
-58 1 4777 1259 2 MP stroke
-71 -3 4777 1383 2 MP stroke
-61 6 4777 1507 2 MP stroke
-70 -15 4777 1631 2 MP stroke
-60 7 4777 1756 2 MP stroke
-66 27 4777 1880 2 MP stroke
-55 4 4777 2004 2 MP stroke
-52 13 4777 2129 2 MP stroke
-55 3 4777 2253 2 MP stroke
-48 -78 4777 2377 2 MP stroke
-58 -16 4777 2502 2 MP stroke
-55 -1 4777 2626 2 MP stroke
-58 14 4777 2750 2 MP stroke
-59 -6 4777 2874 2 MP stroke
-61 1 4777 2999 2 MP stroke
-59 -1 4777 3123 2 MP stroke
-57 7 4777 3247 2 MP stroke
-65 1 4777 3372 2 MP stroke
-68 -10 4777 3496 2 MP stroke
-62 -43 4777 3620 2 MP stroke
-49 -16 4777 3744 2 MP stroke
-37 -24 4777 3869 2 MP stroke
-53 -7 4777 3993 2 MP stroke
-50 -20 4777 4117 2 MP stroke
-35 -8 4777 4242 2 MP stroke
-33 -9 4777 4366 2 MP stroke
-55 -18 4777 4490 2 MP stroke
-82 -45 4777 4615 2 MP stroke
-60 4 4885 389 2 MP stroke
-48 14 4885 513 2 MP stroke
-55 1 4885 637 2 MP stroke
-59 9 4885 761 2 MP stroke
-55 -8 4885 886 2 MP stroke
-72 15 4885 1010 2 MP stroke
-65 -95 4885 1134 2 MP stroke
-64 -73 4885 1259 2 MP stroke
-73 -2 4885 1383 2 MP stroke
-58 -5 4885 1507 2 MP stroke
-60 -40 4885 1631 2 MP stroke
-31 -13 4885 1756 2 MP stroke
-26 -67 4885 1880 2 MP stroke
-30 -40 4885 2004 2 MP stroke
-29 1 4885 2129 2 MP stroke
-1 16 4885 2253 2 MP stroke
-41 -30 4885 2377 2 MP stroke
-30 2 4885 2502 2 MP stroke
-25 -3 4885 2626 2 MP stroke
-45 9 4885 2750 2 MP stroke
-44 7 4885 2874 2 MP stroke
-51 19 4885 2999 2 MP stroke
-23 -2 4885 3123 2 MP stroke
-24 6 4885 3247 2 MP stroke
-48 49 4885 3372 2 MP stroke
-26 6 4885 3496 2 MP stroke
-25 -5 4885 3620 2 MP stroke
-18 -10 4885 3744 2 MP stroke
-23 -7 4885 3869 2 MP stroke
-26 4 4885 3993 2 MP stroke
-27 -12 4885 4117 2 MP stroke
-34 -9 4885 4242 2 MP stroke
-28 -19 4885 4366 2 MP stroke
-30 -6 4885 4490 2 MP stroke
-55 -15 4885 4615 2 MP stroke
4992 389 PD
-61 8 4992 513 2 MP stroke
-54 6 4992 637 2 MP stroke
-50 -8 4992 761 2 MP stroke
-44 -70 4992 886 2 MP stroke
-48 -63 4992 1010 2 MP stroke
-55 -116 4992 1134 2 MP stroke
-68 -141 4992 1259 2 MP stroke
-84 -96 4992 1383 2 MP stroke
-73 -24 4992 1507 2 MP stroke
-52 -87 4992 1631 2 MP stroke
-38 -89 4992 1756 2 MP stroke
-25 -71 4992 1880 2 MP stroke
-21 -39 4992 2004 2 MP stroke
-32 -13 4992 2129 2 MP stroke
-26 4 4992 2253 2 MP stroke
-20 -15 4992 2377 2 MP stroke
-23 -8 4992 2502 2 MP stroke
-29 -31 4992 2626 2 MP stroke
-27 5 4992 2750 2 MP stroke
-47 10 4992 2874 2 MP stroke
-30 7 4992 2999 2 MP stroke
-28 -15 4992 3123 2 MP stroke
-27 7 4992 3247 2 MP stroke
-28 0 4992 3372 2 MP stroke
-31 4 4992 3496 2 MP stroke
-31 -13 4992 3620 2 MP stroke
-28 -1 4992 3744 2 MP stroke
-31 -2 4992 3869 2 MP stroke
-33 -1 4992 3993 2 MP stroke
-37 -11 4992 4117 2 MP stroke
-37 -10 4992 4242 2 MP stroke
-31 -15 4992 4366 2 MP stroke
-43 4 4992 4490 2 MP stroke
-55 -14 4992 4615 2 MP stroke
5100 389 PD
-43 -1 5100 513 2 MP stroke
-7 -60 5100 637 2 MP stroke
-16 -8 5100 761 2 MP stroke
-19 -32 5100 886 2 MP stroke
-21 -102 5100 1010 2 MP stroke
-21 -132 5100 1134 2 MP stroke
-10 -36 5100 1259 2 MP stroke
-20 -22 5100 1383 2 MP stroke
-11 -2 5100 1507 2 MP stroke
-16 -13 5100 1631 2 MP stroke
-10 -10 5100 1756 2 MP stroke
-9 0 5100 1880 2 MP stroke
-12 -2 5100 2004 2 MP stroke
-7 -17 5100 2129 2 MP stroke
-15 -8 5100 2253 2 MP stroke
-13 -8 5100 2377 2 MP stroke
-7 -6 5100 2502 2 MP stroke
-7 -13 5100 2626 2 MP stroke
-19 -4 5100 2750 2 MP stroke
-14 -11 5100 2874 2 MP stroke
-15 3 5100 2999 2 MP stroke
-18 -8 5100 3123 2 MP stroke
-22 3 5100 3247 2 MP stroke
-18 0 5100 3372 2 MP stroke
-25 1 5100 3496 2 MP stroke
-20 -19 5100 3620 2 MP stroke
-21 9 5100 3744 2 MP stroke
-29 -8 5100 3869 2 MP stroke
-28 1 5100 3993 2 MP stroke
-23 -17 5100 4117 2 MP stroke
-28 -12 5100 4242 2 MP stroke
-25 -5 5100 4366 2 MP stroke
-29 0 5100 4490 2 MP stroke
-25 -13 5100 4615 2 MP stroke
-22 -28 5208 513 2 MP stroke
-21 -53 5208 637 2 MP stroke
-20 -25 5208 761 2 MP stroke
-22 -14 5208 886 2 MP stroke
-16 4 5208 1010 2 MP stroke
-18 -10 5208 1134 2 MP stroke
-22 -1 5208 1259 2 MP stroke
-19 -1 5208 1383 2 MP stroke
-19 5 5208 1507 2 MP stroke
-19 -5 5208 1631 2 MP stroke
-22 -11 5208 1756 2 MP stroke
-25 -12 5208 1880 2 MP stroke
-20 -10 5208 2004 2 MP stroke
-17 -6 5208 2129 2 MP stroke
-24 -6 5208 2253 2 MP stroke
-25 -4 5208 2377 2 MP stroke
-20 1 5208 2502 2 MP stroke
-20 -1 5208 2626 2 MP stroke
-23 -2 5208 2750 2 MP stroke
-24 -2 5208 2874 2 MP stroke
-19 -5 5208 2999 2 MP stroke
-22 -18 5208 3123 2 MP stroke
-24 1 5208 3247 2 MP stroke
-18 1 5208 3372 2 MP stroke
-23 8 5208 3496 2 MP stroke
-29 -19 5208 3620 2 MP stroke
-31 7 5208 3744 2 MP stroke
-32 -5 5208 3869 2 MP stroke
-38 0 5208 3993 2 MP stroke
-33 -3 5208 4117 2 MP stroke
-38 -1 5208 4242 2 MP stroke
-39 -8 5208 4366 2 MP stroke
-38 -3 5208 4490 2 MP stroke
-37 -17 5208 4615 2 MP stroke
-16 -3 5316 886 2 MP stroke
-12 7 5316 1010 2 MP stroke
-13 -4 5316 1259 2 MP stroke
-10 -6 5316 1383 2 MP stroke
-11 7 5316 1507 2 MP stroke
-16 -21 5316 1631 2 MP stroke
-13 -9 5316 1756 2 MP stroke
-15 -18 5316 1880 2 MP stroke
-6 -2 5316 2004 2 MP stroke
-7 -20 5316 2129 2 MP stroke
-8 2 5316 2253 2 MP stroke
-9 -9 5316 2377 2 MP stroke
-11 12 5316 2502 2 MP stroke
-11 -17 5316 2626 2 MP stroke
-5 3 5316 2750 2 MP stroke
-11 -7 5316 2874 2 MP stroke
-14 0 5316 2999 2 MP stroke
-20 -14 5316 3123 2 MP stroke
-14 0 5316 3247 2 MP stroke
-16 -4 5316 3372 2 MP stroke
-25 1 5316 3496 2 MP stroke
-23 -17 5316 3620 2 MP stroke
-21 1 5316 3744 2 MP stroke
-31 -1 5316 3869 2 MP stroke
-20 -4 5316 3993 2 MP stroke
-23 -13 5316 4117 2 MP stroke
-24 -9 5316 4242 2 MP stroke
-32 -7 5316 4366 2 MP stroke
-34 -7 5316 4490 2 MP stroke
-18 -1 5423 1134 2 MP stroke
-25 4 5423 1259 2 MP stroke
-19 -4 5423 1383 2 MP stroke
-19 2 5423 1507 2 MP stroke
-35 -32 5423 1631 2 MP stroke
-31 -12 5423 1756 2 MP stroke
-32 -6 5423 1880 2 MP stroke
-21 1 5423 2004 2 MP stroke
-20 -20 5423 2129 2 MP stroke
-15 5 5423 2253 2 MP stroke
-21 0 5423 2377 2 MP stroke
-21 0 5423 2502 2 MP stroke
-22 -18 5423 2626 2 MP stroke
-15 1 5423 2750 2 MP stroke
-29 -6 5423 2874 2 MP stroke
-29 3 5423 2999 2 MP stroke
-26 -14 5423 3123 2 MP stroke
-28 -1 5423 3247 2 MP stroke
-27 -10 5423 3372 2 MP stroke
-29 4 5423 3496 2 MP stroke
-36 -8 5423 3620 2 MP stroke
-34 -6 5423 3744 2 MP stroke
-37 -8 5423 3869 2 MP stroke
-34 8 5423 3993 2 MP stroke
-38 -4 5423 4117 2 MP stroke
-36 -9 5423 4242 2 MP stroke
-37 -7 5423 4366 2 MP stroke
-39 -9 5423 4490 2 MP stroke
-37 -8 5423 4615 2 MP stroke
-18 -17 5531 1134 2 MP stroke
-9 4 5531 1259 2 MP stroke
28 13 5531 1383 2 MP stroke
-9 8 5531 1507 2 MP stroke
-22 -29 5531 1631 2 MP stroke
-11 8 5531 1756 2 MP stroke
-22 -10 5531 1880 2 MP stroke
-14 5 5531 2004 2 MP stroke
-5 -15 5531 2129 2 MP stroke
-13 4 5531 2253 2 MP stroke
-19 -4 5531 2377 2 MP stroke
-23 13 5531 2502 2 MP stroke
-14 -20 5531 2626 2 MP stroke
-20 8 5531 2750 2 MP stroke
-21 -2 5531 2874 2 MP stroke
-22 10 5531 2999 2 MP stroke
-16 -11 5531 3123 2 MP stroke
-20 2 5531 3247 2 MP stroke
-20 -1 5531 3372 2 MP stroke
-28 3 5531 3496 2 MP stroke
-25 -18 5531 3620 2 MP stroke
-27 3 5531 3744 2 MP stroke
-24 -11 5531 3869 2 MP stroke
-28 4 5531 3993 2 MP stroke
-25 -14 5531 4117 2 MP stroke
-32 0 5531 4242 2 MP stroke
-32 -9 5531 4366 2 MP stroke
-34 -7 5531 4490 2 MP stroke
-4 -17 5639 1134 2 MP stroke
-19 5 5639 1259 2 MP stroke
-3 1 5639 1383 2 MP stroke
-15 4 5639 1507 2 MP stroke
-21 -12 5639 1631 2 MP stroke
-12 6 5639 1756 2 MP stroke
-24 -13 5639 1880 2 MP stroke
-25 0 5639 2004 2 MP stroke
-16 0 5639 2129 2 MP stroke
-18 0 5639 2253 2 MP stroke
-19 -4 5639 2377 2 MP stroke
-19 11 5639 2502 2 MP stroke
-15 -16 5639 2626 2 MP stroke
-17 -1 5639 2750 2 MP stroke
-30 -2 5639 2874 2 MP stroke
-22 8 5639 2999 2 MP stroke
-28 -10 5639 3123 2 MP stroke
-22 5 5639 3247 2 MP stroke
-21 -9 5639 3372 2 MP stroke
-27 1 5639 3496 2 MP stroke
-33 -18 5639 3620 2 MP stroke
-40 3 5639 3744 2 MP stroke
-33 -4 5639 3869 2 MP stroke
-34 3 5639 3993 2 MP stroke
-38 -14 5639 4117 2 MP stroke
-41 -2 5639 4242 2 MP stroke
-40 -9 5639 4366 2 MP stroke
-36 -1 5639 4490 2 MP stroke
-20 4 5747 513 2 MP stroke
-7 10 5747 1010 2 MP stroke
-12 -14 5747 1134 2 MP stroke
-10 3 5747 1259 2 MP stroke
-10 -1 5747 1383 2 MP stroke
-15 5 5747 1507 2 MP stroke
12 22 5747 1631 2 MP stroke
-12 7 5747 1756 2 MP stroke
-13 -7 5747 1880 2 MP stroke
-14 -3 5747 2004 2 MP stroke
-15 -13 5747 2129 2 MP stroke
-12 -11 5747 2253 2 MP stroke
-6 -7 5747 2377 2 MP stroke
-9 9 5747 2502 2 MP stroke
-13 -16 5747 2626 2 MP stroke
-16 4 5747 2750 2 MP stroke
-13 -7 5747 2874 2 MP stroke
-11 2 5747 2999 2 MP stroke
-18 -14 5747 3123 2 MP stroke
-22 1 5747 3247 2 MP stroke
-16 -4 5747 3372 2 MP stroke
-22 -11 5747 3496 2 MP stroke
-28 -7 5747 3620 2 MP stroke
-22 -1 5747 3744 2 MP stroke
-30 -4 5747 3869 2 MP stroke
-30 -1 5747 3993 2 MP stroke
-31 -6 5747 4117 2 MP stroke
-25 1 5747 4242 2 MP stroke
-33 -3 5747 4366 2 MP stroke
-33 6 5747 4490 2 MP stroke
-29 10 5854 1010 2 MP stroke
-24 -12 5854 1134 2 MP stroke
-18 4 5854 1259 2 MP stroke
-26 -9 5854 1383 2 MP stroke
-27 6 5854 1507 2 MP stroke
-14 -6 5854 1631 2 MP stroke
-18 -3 5854 1756 2 MP stroke
-23 -9 5854 1880 2 MP stroke
-24 -8 5854 2004 2 MP stroke
-26 -7 5854 2129 2 MP stroke
-31 -10 5854 2253 2 MP stroke
-31 -5 5854 2377 2 MP stroke
-26 10 5854 2502 2 MP stroke
-20 -13 5854 2626 2 MP stroke
-21 4 5854 2750 2 MP stroke
-32 -9 5854 2874 2 MP stroke
-34 2 5854 2999 2 MP stroke
-25 -15 5854 3123 2 MP stroke
-32 4 5854 3247 2 MP stroke
-32 -9 5854 3372 2 MP stroke
-37 0 5854 3496 2 MP stroke
-32 -11 5854 3620 2 MP stroke
-36 0 5854 3744 2 MP stroke
-32 -10 5854 3869 2 MP stroke
-38 -5 5854 3993 2 MP stroke
-32 -5 5854 4117 2 MP stroke
-35 1 5854 4242 2 MP stroke
-39 -8 5854 4366 2 MP stroke
-40 2 5854 4490 2 MP stroke
-44 14 5962 513 2 MP stroke
-9 -1 5962 1134 2 MP stroke
-17 -4 5962 1259 2 MP stroke
-18 -7 5962 1383 2 MP stroke
-8 0 5962 1507 2 MP stroke
-20 0 5962 1631 2 MP stroke
-13 -4 5962 1756 2 MP stroke
-12 -6 5962 1880 2 MP stroke
-13 1 5962 2004 2 MP stroke
-13 -16 5962 2129 2 MP stroke
-8 0 5962 2253 2 MP stroke
-20 -8 5962 2377 2 MP stroke
-23 -1 5962 2502 2 MP stroke
-27 -14 5962 2626 2 MP stroke
-12 1 5962 2750 2 MP stroke
-22 -3 5962 2874 2 MP stroke
-22 -8 5962 2999 2 MP stroke
-22 -6 5962 3123 2 MP stroke
-28 -9 5962 3247 2 MP stroke
-25 -9 5962 3372 2 MP stroke
-26 4 5962 3496 2 MP stroke
-22 -11 5962 3620 2 MP stroke
-22 2 5962 3744 2 MP stroke
-30 -9 5962 3869 2 MP stroke
-30 -5 5962 3993 2 MP stroke
-33 -16 5962 4117 2 MP stroke
-28 -3 5962 4242 2 MP stroke
-36 -11 5962 4366 2 MP stroke
-66 12 5962 4490 2 MP stroke
-21 1 6070 389 2 MP stroke
-20 -8 6070 513 2 MP stroke
-26 0 6070 1010 2 MP stroke
-16 -10 6070 1134 2 MP stroke
-16 -3 6070 1259 2 MP stroke
-24 -9 6070 1383 2 MP stroke
-21 -7 6070 1507 2 MP stroke
-20 -5 6070 1631 2 MP stroke
-19 -6 6070 1756 2 MP stroke
-13 -6 6070 1880 2 MP stroke
-15 2 6070 2004 2 MP stroke
-17 -6 6070 2129 2 MP stroke
-15 2 6070 2253 2 MP stroke
-16 -7 6070 2377 2 MP stroke
-19 0 6070 2502 2 MP stroke
-24 -12 6070 2626 2 MP stroke
-19 -5 6070 2750 2 MP stroke
-18 -12 6070 2874 2 MP stroke
-22 -3 6070 2999 2 MP stroke
-18 -6 6070 3123 2 MP stroke
-24 -5 6070 3247 2 MP stroke
-29 -12 6070 3372 2 MP stroke
-35 4 6070 3496 2 MP stroke
-24 -19 6070 3620 2 MP stroke
-37 5 6070 3744 2 MP stroke
-34 -7 6070 3869 2 MP stroke
-38 0 6070 3993 2 MP stroke
-43 -19 6070 4117 2 MP stroke
-38 -3 6070 4242 2 MP stroke
-35 -13 6070 4366 2 MP stroke
-67 -5 6070 4490 2 MP stroke
11 -22 6178 886 2 MP stroke
-10 -5 6178 1010 2 MP stroke
-12 -5 6178 1134 2 MP stroke
-12 -9 6178 1259 2 MP stroke
-10 -10 6178 1383 2 MP stroke
-8 -10 6178 1507 2 MP stroke
-17 -9 6178 1631 2 MP stroke
-6 -6 6178 1756 2 MP stroke
-65 13 6178 1880 2 MP stroke
-16 2 6178 2004 2 MP stroke
-8 -10 6178 2129 2 MP stroke
-11 -5 6178 2253 2 MP stroke
-11 -4 6178 2377 2 MP stroke
-10 1 6178 2502 2 MP stroke
-3 -16 6178 2626 2 MP stroke
-18 -7 6178 2750 2 MP stroke
-17 -12 6178 2874 2 MP stroke
-10 -2 6178 2999 2 MP stroke
-13 -12 6178 3123 2 MP stroke
-18 0 6178 3247 2 MP stroke
-24 -15 6178 3372 2 MP stroke
-25 8 6178 3496 2 MP stroke
-22 -17 6178 3620 2 MP stroke
-21 2 6178 3744 2 MP stroke
-24 -12 6178 3869 2 MP stroke
-32 -4 6178 3993 2 MP stroke
-30 -2 6178 4117 2 MP stroke
-30 5 6178 4242 2 MP stroke
-32 -7 6178 4366 2 MP stroke
-50 -4 6178 4490 2 MP stroke
gr

c8

end %%Color Dict

eplot
%%EndObject

epage
end

showpage

%%Trailer
%%EOF
