%!PS-Adobe-2.0 EPSF-1.2
%%Creator: MATLAB, The MathWorks, Inc. Version 8.3.0.532 (R2014a). Operating System: Linux 3.19.0-31-generic #36~14.04.1-Ubuntu SMP Thu Oct 8 10:21:08 UTC 2015 x86_64.
%%Title: ../../data/output/p4/win_size5n_level3n_iter1min_eig0.0001.eps
%%CreationDate: 11/22/2015  18:44:41
%%DocumentNeededFonts: Helvetica
%%DocumentProcessColors: Cyan Magenta Yellow Black
%%Extensions: CMYK
%%Pages: 1
%%BoundingBox:    78   215   548   583
%%EndComments

%%BeginProlog
% MathWorks dictionary
/MathWorks 160 dict begin
% definition operators
/bdef {bind def} bind def
/ldef {load def} bind def
/xdef {exch def} bdef
/xstore {exch store} bdef
% operator abbreviations
/c  /clip ldef
/cc /concat ldef
/cp /closepath ldef
/gr /grestore ldef
/gs /gsave ldef
/mt /moveto ldef
/np /newpath ldef
/cm /currentmatrix ldef
/sm /setmatrix ldef
/rm /rmoveto ldef
/rl /rlineto ldef
/s {show newpath} bdef
/sc {setcmykcolor} bdef
/sr /setrgbcolor ldef
/sg /setgray ldef
/w /setlinewidth ldef
/j /setlinejoin ldef
/cap /setlinecap ldef
/rc {rectclip} bdef
/rf {rectfill} bdef
% page state control
/pgsv () def
/bpage {/pgsv save def} bdef
/epage {pgsv restore} bdef
/bplot /gsave ldef
/eplot {stroke grestore} bdef
% orientation switch
/portraitMode 0 def /landscapeMode 1 def /rotateMode 2 def
% coordinate system mappings
/dpi2point 0 def
% font control
/FontSize 0 def
/FMS {/FontSize xstore findfont [FontSize 0 0 FontSize neg 0 0]
  makefont setfont} bdef
/reencode {exch dup where {pop load} {pop StandardEncoding} ifelse
  exch dup 3 1 roll findfont dup length dict begin
  { 1 index /FID ne {def}{pop pop} ifelse } forall
  /Encoding exch def currentdict end definefont pop} bdef
/isroman {findfont /CharStrings get /Agrave known} bdef
/FMSR {3 1 roll 1 index dup isroman {reencode} {pop pop} ifelse
  exch FMS} bdef
/csm {1 dpi2point div -1 dpi2point div scale neg translate
 dup landscapeMode eq {pop -90 rotate}
  {rotateMode eq {90 rotate} if} ifelse} bdef
% line types: solid, dotted, dashed, dotdash
/SO { [] 0 setdash } bdef
/DO { [.5 dpi2point mul 4 dpi2point mul] 0 setdash } bdef
/DA { [6 dpi2point mul] 0 setdash } bdef
/DD { [.5 dpi2point mul 4 dpi2point mul 6 dpi2point mul 4
  dpi2point mul] 0 setdash } bdef
% macros for lines and objects
/L {lineto stroke} bdef
/MP {3 1 roll moveto 1 sub {rlineto} repeat} bdef
/AP {{rlineto} repeat} bdef
/PDlw -1 def
/W {/PDlw currentlinewidth def setlinewidth} def
/PP {closepath eofill} bdef
/DP {closepath stroke} bdef
/MR {4 -2 roll moveto dup  0 exch rlineto exch 0 rlineto
  neg 0 exch rlineto closepath} bdef
/FR {MR stroke} bdef
/PR {MR fill} bdef
/L1i {{currentfile picstr readhexstring pop} image} bdef
/tMatrix matrix def
/MakeOval {newpath tMatrix currentmatrix pop translate scale
0 0 1 0 360 arc tMatrix setmatrix} bdef
/FO {MakeOval stroke} bdef
/PO {MakeOval fill} bdef
/PD {currentlinewidth 2 div 0 360 arc fill
   PDlw -1 eq not {PDlw w /PDlw -1 def} if} def
/FA {newpath tMatrix currentmatrix pop translate scale
  0 0 1 5 -2 roll arc tMatrix setmatrix stroke} bdef
/PA {newpath tMatrix currentmatrix pop	translate 0 0 moveto scale
  0 0 1 5 -2 roll arc closepath tMatrix setmatrix fill} bdef
/FAn {newpath tMatrix currentmatrix pop translate scale
  0 0 1 5 -2 roll arcn tMatrix setmatrix stroke} bdef
/PAn {newpath tMatrix currentmatrix pop translate 0 0 moveto scale
  0 0 1 5 -2 roll arcn closepath tMatrix setmatrix fill} bdef
/vradius 0 def /hradius 0 def /lry 0 def
/lrx 0 def /uly 0 def /ulx 0 def /rad 0 def
/MRR {/vradius xdef /hradius xdef /lry xdef /lrx xdef /uly xdef
  /ulx xdef newpath tMatrix currentmatrix pop ulx hradius add uly
  vradius add translate hradius vradius scale 0 0 1 180 270 arc 
  tMatrix setmatrix lrx hradius sub uly vradius add translate
  hradius vradius scale 0 0 1 270 360 arc tMatrix setmatrix
  lrx hradius sub lry vradius sub translate hradius vradius scale
  0 0 1 0 90 arc tMatrix setmatrix ulx hradius add lry vradius sub
  translate hradius vradius scale 0 0 1 90 180 arc tMatrix setmatrix
  closepath} bdef
/FRR {MRR stroke } bdef
/PRR {MRR fill } bdef
/MlrRR {/lry xdef /lrx xdef /uly xdef /ulx xdef /rad lry uly sub 2 div def
  newpath tMatrix currentmatrix pop ulx rad add uly rad add translate
  rad rad scale 0 0 1 90 270 arc tMatrix setmatrix lrx rad sub lry rad
  sub translate rad rad scale 0 0 1 270 90 arc tMatrix setmatrix
  closepath} bdef
/FlrRR {MlrRR stroke } bdef
/PlrRR {MlrRR fill } bdef
/MtbRR {/lry xdef /lrx xdef /uly xdef /ulx xdef /rad lrx ulx sub 2 div def
  newpath tMatrix currentmatrix pop ulx rad add uly rad add translate
  rad rad scale 0 0 1 180 360 arc tMatrix setmatrix lrx rad sub lry rad
  sub translate rad rad scale 0 0 1 0 180 arc tMatrix setmatrix
  closepath} bdef
/FtbRR {MtbRR stroke } bdef
/PtbRR {MtbRR fill } bdef
/stri 6 array def /dtri 6 array def
/smat 6 array def /dmat 6 array def
/tmat1 6 array def /tmat2 6 array def /dif 3 array def
/asub {/ind2 exch def /ind1 exch def dup dup
  ind1 get exch ind2 get sub exch } bdef
/tri_to_matrix {
  2 0 asub 3 1 asub 4 0 asub 5 1 asub
  dup 0 get exch 1 get 7 -1 roll astore } bdef
/compute_transform {
  dmat dtri tri_to_matrix tmat1 invertmatrix 
  smat stri tri_to_matrix tmat2 concatmatrix } bdef
/ds {stri astore pop} bdef
/dt {dtri astore pop} bdef
/db {2 copy /cols xdef /rows xdef mul dup 3 mul string
  currentfile exch readhexstring pop
  dup 0 3 index getinterval /rbmap xdef
  dup 2 index dup getinterval /gbmap xdef
  1 index dup 2 mul exch getinterval /bbmap xdef pop pop}bdef
/it {gs np dtri aload pop moveto lineto lineto cp c
  cols rows 8 compute_transform 
  rbmap gbmap bbmap true 3 colorimage gr}bdef
/il {newpath moveto lineto stroke}bdef
currentdict end def
%%EndProlog

%%BeginSetup
MathWorks begin

0 cap

end
%%EndSetup

%%Page: 1 1
%%BeginPageSetup
%%PageBoundingBox:    78   215   548   583
MathWorks begin
bpage
%%EndPageSetup

%%BeginObject: obj1
bplot

/dpi2point 12 def
portraitMode 0216 7344 csm

  731   341  5640  4420 MR c np
85 dict begin %Colortable dictionary
/c0 { 0.000000 0.000000 0.000000 sr} bdef
/c1 { 1.000000 1.000000 1.000000 sr} bdef
/c2 { 0.900000 0.000000 0.000000 sr} bdef
/c3 { 0.000000 0.820000 0.000000 sr} bdef
/c4 { 0.000000 0.000000 0.800000 sr} bdef
/c5 { 0.910000 0.820000 0.320000 sr} bdef
/c6 { 1.000000 0.260000 0.820000 sr} bdef
/c7 { 0.000000 0.820000 0.820000 sr} bdef
c0
1 j
1 sg
   0    0 6913 5186 PR
6 w
0 -4226 5356 0 0 4226 899 389 4 MP
PP
-5356 0 0 -4226 5356 0 0 4226 899 389 5 MP stroke
4 w
DO
SO
6 w
0 sg
 899  389 mt 6255  389 L
 899 4615 mt 6255 4615 L
 899  389 mt  899 4615 L
6255  389 mt 6255 4615 L
 899 4615 mt 6255 4615 L
 899  389 mt  899 4615 L
1406 4615 mt 1406 4561 L
1406  389 mt 1406  442 L
%%IncludeResource: font Helvetica
/Helvetica /ISOLatin1Encoding 120 FMSR

1373 4760 mt 
(5) s
1945 4615 mt 1945 4561 L
1945  389 mt 1945  442 L
1879 4760 mt 
(10) s
2484 4615 mt 2484 4561 L
2484  389 mt 2484  442 L
2418 4760 mt 
(15) s
3022 4615 mt 3022 4561 L
3022  389 mt 3022  442 L
2956 4760 mt 
(20) s
3561 4615 mt 3561 4561 L
3561  389 mt 3561  442 L
3495 4760 mt 
(25) s
4100 4615 mt 4100 4561 L
4100  389 mt 4100  442 L
4034 4760 mt 
(30) s
4638 4615 mt 4638 4561 L
4638  389 mt 4638  442 L
4572 4760 mt 
(35) s
5177 4615 mt 5177 4561 L
5177  389 mt 5177  442 L
5111 4760 mt 
(40) s
5716 4615 mt 5716 4561 L
5716  389 mt 5716  442 L
5650 4760 mt 
(45) s
6255 4615 mt 6255 4561 L
6255  389 mt 6255  442 L
6189 4760 mt 
(50) s
 899  974 mt  952  974 L
6255  974 mt 6201  974 L
 798 1018 mt 
(5) s
 899 1596 mt  952 1596 L
6255 1596 mt 6201 1596 L
 731 1640 mt 
(10) s
 899 2217 mt  952 2217 L
6255 2217 mt 6201 2217 L
 731 2261 mt 
(15) s
 899 2839 mt  952 2839 L
6255 2839 mt 6201 2839 L
 731 2883 mt 
(20) s
 899 3460 mt  952 3460 L
6255 3460 mt 6201 3460 L
 731 3504 mt 
(25) s
 899 4082 mt  952 4082 L
6255 4082 mt 6201 4082 L
 731 4126 mt 
(30) s
 899  389 mt 6255  389 L
 899 4615 mt 6255 4615 L
 899  389 mt  899 4615 L
6255  389 mt 6255 4615 L
gs 899 389 5357 4227 MR c np
/c8 { 0.000000 0.000000 1.000000 sr} bdef
c8
6 0 -6 3 995 514 3 MP stroke
7 11 -11 -6 990 617 3 MP stroke
4 5 -6 -2 996 876 3 MP stroke
10 4 -10 2 986 1005 3 MP stroke
9 4 -10 1 988 1128 3 MP stroke
10 6 -11 0 987 1250 3 MP stroke
6 6 -7 -2 994 1374 3 MP stroke
10 7 -11 -1 985 1497 3 MP stroke
13 10 -16 -2 979 1617 3 MP stroke
6 8 -9 -4 993 2361 3 MP stroke
2 1 -2 0 1002 2499 3 MP stroke
2 1 -2 0 1002 2624 3 MP stroke
0 7 -3 -7 1006 2736 3 MP stroke
0 6 -2 -5 1005 2863 3 MP stroke
0 2 -1 -1 1005 2996 3 MP stroke
1005 3123 PD
6 5 -7 -1 992 3238 3 MP stroke
-2 3 1 -4 1008 3366 3 MP stroke
2 3 -3 -2 1004 3490 3 MP stroke
2 3 -3 -2 1002 3615 3 MP stroke
4 3 -5 -1 997 3739 3 MP stroke
4 3 -5 -1 999 3863 3 MP stroke
6 3 -6 1 995 3990 3 MP stroke
8 5 -8 0 990 4111 3 MP stroke
8 4 -8 1 990 4236 3 MP stroke
8 4 -9 1 990 4361 3 MP stroke
11 3 -11 3 985 4488 3 MP stroke
15 1 -13 7 1084 514 3 MP stroke
19 7 -20 4 1075 629 3 MP stroke
15 7 -16 2 1082 877 3 MP stroke
20 5 -20 7 1073 1005 3 MP stroke
19 8 -20 3 1075 1124 3 MP stroke
18 8 -19 3 1079 1249 3 MP stroke
16 9 -18 1 1080 1369 3 MP stroke
19 9 -20 2 1074 1495 3 MP stroke
18 10 -20 1 1076 1619 3 MP stroke
12 5 -13 3 1088 2371 3 MP stroke
7 4 -8 0 1099 2495 3 MP stroke
6 4 -7 0 1100 2619 3 MP stroke
10 11 -13 -4 1091 2733 3 MP stroke
6 5 -8 -1 1101 2867 3 MP stroke
7 5 -9 -1 1099 2990 3 MP stroke
6 5 -8 -1 1100 3115 3 MP stroke
7 5 -8 -1 1099 3241 3 MP stroke
7 5 -7 0 1099 3365 3 MP stroke
6 4 -7 0 1101 3489 3 MP stroke
8 5 -9 0 1097 3614 3 MP stroke
12 4 -12 3 1090 3739 3 MP stroke
13 5 -13 3 1087 3864 3 MP stroke
15 4 -16 4 1084 3988 3 MP stroke
18 7 -18 3 1078 4109 3 MP stroke
18 6 -19 4 1078 4234 3 MP stroke
20 6 -20 5 1074 4359 3 MP stroke
20 5 -20 6 1073 4485 3 MP stroke
17 0 -14 9 1189 519 3 MP stroke
14 8 -16 1 1191 624 3 MP stroke
14 1 -12 7 1194 763 3 MP stroke
14 7 -15 1 1193 875 3 MP stroke
16 1 -15 8 1188 1011 3 MP stroke
15 10 -18 -1 1190 1120 3 MP stroke
9 7 -11 -1 1201 1372 3 MP stroke
9 8 -11 -2 1203 1494 3 MP stroke
8 6 -9 -1 1206 1622 3 MP stroke
8 6 -9 -1 1205 2493 3 MP stroke
8 7 -10 -2 1205 2616 3 MP stroke
8 9 -10 -4 1205 2736 3 MP stroke
7 6 -9 -2 1207 2864 3 MP stroke
6 5 -8 -1 1208 2990 3 MP stroke
6 5 -7 -1 1209 3115 3 MP stroke
4 4 -6 -1 1212 3241 3 MP stroke
4 4 -5 -1 1213 3366 3 MP stroke
8 4 -8 1 1205 3490 3 MP stroke
10 5 -11 1 1203 3613 3 MP stroke
12 5 -12 2 1198 3738 3 MP stroke
12 5 -13 2 1197 3863 3 MP stroke
10 4 -11 2 1201 3988 3 MP stroke
11 4 -11 2 1199 4113 3 MP stroke
13 4 -13 3 1195 4238 3 MP stroke
17 8 -18 2 1187 4355 3 MP stroke
14 3 -14 4 1194 4487 3 MP stroke
1 0 1309 389 2 MP stroke
17 4 -17 6 1295 510 3 MP stroke
8 11 -11 -6 1312 618 3 MP stroke
14 7 -16 1 1301 751 3 MP stroke
15 10 -17 0 1296 871 3 MP stroke
23 6 -23 6 1285 1004 3 MP stroke
24 9 -25 5 1280 1124 3 MP stroke
21 6 -21 7 1285 1252 3 MP stroke
5 3 -6 0 1320 1503 3 MP stroke
9 7 -11 -1 1310 2490 3 MP stroke
10 8 -11 -2 1308 2614 3 MP stroke
7 5 -8 -1 1315 2741 3 MP stroke
9 4 -10 1 1310 2868 3 MP stroke
8 4 -8 0 1314 2993 3 MP stroke
7 3 -7 1 1315 3118 3 MP stroke
9 4 -10 1 1311 3242 3 MP stroke
7 5 -8 0 1315 3365 3 MP stroke
8 4 -9 1 1314 3490 3 MP stroke
10 5 -11 1 1310 3613 3 MP stroke
12 5 -12 2 1305 3737 3 MP stroke
13 5 -14 2 1303 3862 3 MP stroke
16 6 -17 3 1298 3986 3 MP stroke
16 7 -17 2 1296 4108 3 MP stroke
17 7 -17 3 1294 4232 3 MP stroke
16 14 -20 -5 1297 4343 3 MP stroke
11 4 -12 2 1307 4485 3 MP stroke
10 -1 -9 6 1418 517 3 MP stroke
10 11 -13 -4 1416 618 3 MP stroke
10 3 -10 3 1416 758 3 MP stroke
7 7 -9 -3 1422 875 3 MP stroke
13 3 -13 4 1411 1008 3 MP stroke
12 3 -12 5 1411 1132 3 MP stroke
10 3 -10 3 1418 1255 3 MP stroke
1 2 -2 -1 1435 1379 3 MP stroke
3 4 -4 -2 1430 2496 3 MP stroke
3 2 -3 0 1431 2622 3 MP stroke
2 2 -3 -1 1434 3119 3 MP stroke
7 3 -8 2 1422 3243 3 MP stroke
4 3 -5 0 1427 3367 3 MP stroke
8 4 -8 1 1420 3490 3 MP stroke
9 4 -10 1 1419 3615 3 MP stroke
4 3 -5 0 1429 3740 3 MP stroke
7 3 -7 0 1424 3864 3 MP stroke
8 5 -9 0 1421 3986 3 MP stroke
7 6 -8 -2 1423 4107 3 MP stroke
7 6 -8 -1 1421 4233 3 MP stroke
7 3 -7 1 1424 4362 3 MP stroke
7 3 -8 1 1423 4487 3 MP stroke
7 2 -7 1 1424 4611 3 MP stroke
19 2 -18 9 1506 513 3 MP stroke
7 8 -10 -3 1529 623 3 MP stroke
20 7 -20 4 1505 754 3 MP stroke
20 9 -21 3 1504 873 3 MP stroke
17 4 -17 6 1511 1006 3 MP stroke
16 14 -20 -3 1510 1112 3 MP stroke
19 5 -19 6 1506 1253 3 MP stroke
15 5 -16 4 1513 1377 3 MP stroke
9 5 -10 0 1527 1500 3 MP stroke
6 2 -6 2 1531 3120 3 MP stroke
8 3 -9 1 1529 3244 3 MP stroke
9 3 -9 2 1527 3367 3 MP stroke
8 3 -9 2 1528 3491 3 MP stroke
10 4 -10 2 1526 3616 3 MP stroke
12 4 -12 3 1520 3738 3 MP stroke
13 4 -13 3 1518 3863 3 MP stroke
13 6 -14 2 1516 3985 3 MP stroke
13 7 -14 2 1516 4108 3 MP stroke
16 6 -16 3 1513 4234 3 MP stroke
16 6 -16 3 1511 4360 3 MP stroke
17 5 -17 5 1510 4485 3 MP stroke
10 4 -17 4 1512 4608 3 MP stroke
4 1 1616 389 2 MP stroke
12 2 -11 5 1628 514 3 MP stroke
14 6 -15 2 1624 628 3 MP stroke
15 1 -14 8 1622 763 3 MP stroke
12 6 -13 1 1628 878 3 MP stroke
16 3 -15 6 1622 1009 3 MP stroke
12 11 -15 -3 1626 1115 3 MP stroke
14 4 -14 4 1625 1255 3 MP stroke
16 5 -16 5 1619 1377 3 MP stroke
13 6 -14 2 1627 1499 3 MP stroke
8 -4 -5 8 1637 2512 3 MP stroke
2 9 -5 -7 1646 2610 3 MP stroke
5 1 -5 2 1641 2749 3 MP stroke
6 2 -6 1 1641 3120 3 MP stroke
7 3 -7 1 1638 3243 3 MP stroke
7 3 -8 1 1638 3368 3 MP stroke
9 3 -9 2 1634 3492 3 MP stroke
10 3 -10 2 1633 3617 3 MP stroke
13 4 -13 3 1626 3740 3 MP stroke
13 5 -14 2 1625 3863 3 MP stroke
14 6 -15 2 1625 3985 3 MP stroke
14 5 -14 3 1624 4111 3 MP stroke
15 5 -15 4 1623 4236 3 MP stroke
14 6 -15 3 1623 4358 3 MP stroke
11 3 -11 3 1631 4487 3 MP stroke
5 2 1722 389 2 MP stroke
15 5 -15 5 1728 507 3 MP stroke
13 9 -15 -1 1733 625 3 MP stroke
18 5 -18 5 1725 757 3 MP stroke
14 6 -15 2 1732 878 3 MP stroke
11 4 -12 2 1739 1003 3 MP stroke
14 11 -17 -3 1731 1117 3 MP stroke
14 2 -14 6 1732 1257 3 MP stroke
13 0 -12 7 1734 1386 3 MP stroke
8 4 -9 1 1744 1501 3 MP stroke
12 6 -13 1 1737 1624 3 MP stroke
12 1 -11 6 1737 2503 3 MP stroke
8 9 -11 -4 1743 2610 3 MP stroke
10 0 -9 6 1740 2753 3 MP stroke
8 3 -8 2 1744 2871 3 MP stroke
7 2 -7 2 1746 2997 3 MP stroke
7 3 -7 1 1746 3119 3 MP stroke
10 4 -10 2 1740 3242 3 MP stroke
12 5 -13 2 1736 3366 3 MP stroke
10 3 -11 3 1740 3491 3 MP stroke
8 13 -13 -7 1742 3597 3 MP stroke
14 5 -14 3 1733 3739 3 MP stroke
14 6 -14 3 1732 3862 3 MP stroke
13 7 -14 1 1734 3984 3 MP stroke
14 4 -14 4 1731 4112 3 MP stroke
16 5 -16 4 1728 4238 3 MP stroke
13 11 -16 -3 1733 4348 3 MP stroke
16 5 -17 4 1727 4485 3 MP stroke
9 2 -5 1 1848 389 3 MP stroke
6 1 -6 3 1857 512 3 MP stroke
18 14 -21 -3 1830 615 3 MP stroke
8 1 -8 3 1853 760 3 MP stroke
11 4 -11 2 1846 881 3 MP stroke
15 -2 -12 10 1839 1018 3 MP stroke
10 10 -13 -3 1846 1117 3 MP stroke
8 1 -8 4 1851 1258 3 MP stroke
6 4 -6 0 1856 1378 3 MP stroke
5 3 -5 0 1857 1503 3 MP stroke
0 1 -1 -1 1868 1629 3 MP stroke
0 11 -5 -9 1866 2604 3 MP stroke
4 1 -4 1 1860 2749 3 MP stroke
4 2 -4 0 1860 2872 3 MP stroke
4 3 -4 0 1859 2995 3 MP stroke
4 3 -5 0 1859 3118 3 MP stroke
5 3 -5 0 1857 3243 3 MP stroke
5 4 -6 -1 1857 3367 3 MP stroke
3 2 -3 0 1861 3493 3 MP stroke
4 2 -4 0 1860 3618 3 MP stroke
6 2 -6 1 1856 3741 3 MP stroke
8 4 -8 1 1852 3863 3 MP stroke
10 2 -9 3 1849 3993 3 MP stroke
8 12 -12 -6 1851 4096 3 MP stroke
8 3 -8 2 1851 4237 3 MP stroke
8 4 -9 1 1851 4360 3 MP stroke
8 3 -8 1 1852 4486 3 MP stroke
11 2 -7 2 1951 389 3 MP stroke
13 4 -13 4 1948 510 3 MP stroke
21 13 -24 0 1932 618 3 MP stroke
19 6 -19 6 1936 756 3 MP stroke
19 7 -20 5 1936 877 3 MP stroke
20 7 -20 5 1933 1004 3 MP stroke
14 15 -18 -6 1945 1109 3 MP stroke
12 5 -13 3 1950 1252 3 MP stroke
12 5 -13 2 1952 1377 3 MP stroke
9 4 -10 2 1956 1502 3 MP stroke
6 4 -7 0 1964 1625 3 MP stroke
8 7 -10 -2 1958 2490 3 MP stroke
7 10 -10 -5 1960 2607 3 MP stroke
10 3 -10 3 1954 2747 3 MP stroke
10 3 -10 2 1956 2870 3 MP stroke
10 3 -10 2 1957 2995 3 MP stroke
9 4 -9 2 1957 3118 3 MP stroke
9 4 -10 1 1957 3242 3 MP stroke
12 5 -13 2 1952 3366 3 MP stroke
10 4 -10 1 1957 3492 3 MP stroke
10 4 -10 2 1956 3615 3 MP stroke
12 4 -12 3 1950 3739 3 MP stroke
13 5 -14 3 1949 3863 3 MP stroke
14 5 -15 4 1946 3988 3 MP stroke
8 10 -11 -5 1957 4099 3 MP stroke
16 5 -16 5 1942 4236 3 MP stroke
16 5 -16 4 1942 4360 3 MP stroke
16 6 -17 4 1942 4483 3 MP stroke
13 2 -13 5 2058 514 3 MP stroke
11 7 -12 -1 2061 625 3 MP stroke
14 2 -13 6 2055 761 3 MP stroke
15 7 -17 2 2052 876 3 MP stroke
15 1 -14 7 2054 1011 3 MP stroke
13 10 -16 -2 2055 1118 3 MP stroke
7 1 -7 3 2068 1258 3 MP stroke
10 3 -10 3 2065 1380 3 MP stroke
6 5 -7 -1 2071 1499 3 MP stroke
6 4 -7 0 2070 1626 3 MP stroke
5 3 -6 0 2072 2371 3 MP stroke
7 3 -7 1 2069 2499 3 MP stroke
6 6 -7 -2 2071 2617 3 MP stroke
4 2 -4 0 2074 2747 3 MP stroke
2 2 -3 -1 2079 2870 3 MP stroke
3 2 -3 0 2076 2995 3 MP stroke
3 3 -4 -1 2076 3118 3 MP stroke
4 3 -5 -1 2074 3242 3 MP stroke
7 3 -7 0 2070 3368 3 MP stroke
9 4 -9 2 2064 3491 3 MP stroke
10 3 -10 2 2064 3616 3 MP stroke
12 4 -12 3 2059 3739 3 MP stroke
13 5 -13 3 2057 3863 3 MP stroke
10 3 -10 2 2065 3989 3 MP stroke
7 10 -10 -5 2067 4100 3 MP stroke
14 5 -15 3 2054 4235 3 MP stroke
11 3 -11 3 2061 4362 3 MP stroke
11 5 -12 2 2061 4485 3 MP stroke
12 3 -3 0 2160 389 3 MP stroke
13 2 -12 6 2164 514 3 MP stroke
11 9 -14 -2 2166 622 3 MP stroke
12 1 -11 6 2167 762 3 MP stroke
13 0 -11 7 2165 889 3 MP stroke
11 2 -11 4 2168 1009 3 MP stroke
13 10 -16 -2 2163 1118 3 MP stroke
18 5 -18 6 2155 1254 3 MP stroke
10 3 -10 3 2171 1380 3 MP stroke
9 4 -10 2 2172 1626 3 MP stroke
9 8 -11 -2 2171 2364 3 MP stroke
11 3 -11 3 2168 2499 3 MP stroke
12 4 -13 4 2166 2621 3 MP stroke
8 5 -9 0 2175 2743 3 MP stroke
8 6 -9 -1 2175 2865 3 MP stroke
9 4 -10 1 2174 2993 3 MP stroke
9 5 -9 1 2173 3116 3 MP stroke
10 4 -10 1 2171 3241 3 MP stroke
12 4 -12 3 2166 3368 3 MP stroke
9 2 -10 3 2172 3493 3 MP stroke
10 12 -14 -5 2168 3599 3 MP stroke
13 4 -13 3 2166 3739 3 MP stroke
11 10 -13 -3 2167 3853 3 MP stroke
14 4 -14 4 2163 3988 3 MP stroke
13 12 -16 -3 2163 4097 3 MP stroke
16 5 -16 5 2159 4237 3 MP stroke
18 8 -20 3 2155 4355 3 MP stroke
19 1 -17 10 2154 4493 3 MP stroke
13 0 -12 7 2273 516 3 MP stroke
11 9 -14 -2 2276 622 3 MP stroke
12 0 -10 6 2277 765 3 MP stroke
9 4 -10 1 2281 879 3 MP stroke
9 1 -8 5 2280 1010 3 MP stroke
10 14 -15 -7 2277 1109 3 MP stroke
9 3 -9 3 2281 1256 3 MP stroke
0 4 -1 -4 2299 1375 3 MP stroke
-1 -2 1 1 2301 1510 3 MP stroke
1 -1 0 1 2297 1634 3 MP stroke
2 1 -2 0 2296 1754 3 MP stroke
2 1 -2 0 2295 1878 3 MP stroke
4 1 -4 2 2289 2252 3 MP stroke
6 5 -8 -1 2286 2369 3 MP stroke
5 2 -5 0 2290 2499 3 MP stroke
1 8 -5 -6 2295 2610 3 MP stroke
4 3 -4 0 2290 2744 3 MP stroke
3 4 -4 -2 2294 2868 3 MP stroke
3 2 -4 0 2292 2996 3 MP stroke
4 2 -5 1 2290 3120 3 MP stroke
5 2 -5 1 2288 3244 3 MP stroke
7 7 -9 -3 2284 3359 3 MP stroke
2 1 -2 0 2295 3494 3 MP stroke
3 11 -7 -8 2289 3599 3 MP stroke
6 2 -6 2 2288 3742 3 MP stroke
6 2 -7 2 2287 3866 3 MP stroke
7 2 -7 2 2286 3990 3 MP stroke
5 12 -10 -8 2287 4095 3 MP stroke
7 4 -8 1 2284 4236 3 MP stroke
5 6 -7 -2 2289 4356 3 MP stroke
8 1 -8 3 2283 4491 3 MP stroke
24 6 -8 2 2344 389 3 MP stroke
20 3 -18 9 2366 513 3 MP stroke
15 12 -18 -2 2374 618 3 MP stroke
19 2 -17 8 2369 762 3 MP stroke
17 9 -19 2 2371 872 3 MP stroke
19 5 -19 5 2369 1005 3 MP stroke
13 17 -18 -8 2378 1105 3 MP stroke
11 4 -11 2 2385 1502 3 MP stroke
10 5 -11 1 2386 1625 3 MP stroke
12 5 -12 2 2382 1751 3 MP stroke
8 4 -8 1 2391 1874 3 MP stroke
13 2 -13 6 2381 2004 3 MP stroke
11 12 -14 -5 2383 2108 3 MP stroke
12 1 -11 6 2382 2255 3 MP stroke
11 7 -12 0 2384 2367 3 MP stroke
12 3 -12 4 2383 2499 3 MP stroke
9 10 -11 -4 2387 2610 3 MP stroke
11 1 -10 5 2385 2752 3 MP stroke
11 4 -11 2 2385 2869 3 MP stroke
9 2 -9 3 2389 2996 3 MP stroke
9 3 -9 2 2389 3120 3 MP stroke
10 4 -10 2 2386 3243 3 MP stroke
14 3 -14 4 2380 3368 3 MP stroke
13 4 -13 3 2381 3491 3 MP stroke
14 3 -14 5 2378 3617 3 MP stroke
11 4 -12 3 2383 3740 3 MP stroke
12 9 -14 -1 2380 3855 3 MP stroke
16 4 -16 5 2376 3989 3 MP stroke
11 12 -15 -4 2383 4097 3 MP stroke
17 5 -17 5 2371 4237 3 MP stroke
16 9 -17 1 2373 4354 3 MP stroke
17 4 -17 6 2371 4487 3 MP stroke
1 0 2480 389 2 MP stroke
20 1 -18 10 2475 517 3 MP stroke
13 13 -17 -5 2486 615 3 MP stroke
15 12 -18 -2 2482 868 3 MP stroke
16 4 -16 5 2483 1008 3 MP stroke
13 13 -16 -5 2487 1113 3 MP stroke
19 1 -17 9 2478 1262 3 MP stroke
14 2 -14 6 2486 1382 3 MP stroke
15 4 -15 5 2484 1505 3 MP stroke
10 1 -9 5 2493 1632 3 MP stroke
7 2 -7 2 2500 1755 3 MP stroke
6 3 -6 0 2503 1877 3 MP stroke
6 3 -7 0 2503 1999 3 MP stroke
4 9 -7 -5 2504 2111 3 MP stroke
6 0 -5 3 2504 2255 3 MP stroke
5 5 -6 -1 2503 2368 3 MP stroke
6 4 -6 0 2502 2496 3 MP stroke
4 11 -8 -7 2505 2606 3 MP stroke
7 -1 -6 5 2502 2753 3 MP stroke
5 3 -6 0 2504 2870 3 MP stroke
5 2 -5 1 2505 2997 3 MP stroke
0 9 -4 -8 2512 3105 3 MP stroke
5 2 -5 1 2504 3244 3 MP stroke
8 7 -10 -3 2498 3360 3 MP stroke
9 2 -9 3 2496 3494 3 MP stroke
3 12 -8 -8 2505 3598 3 MP stroke
12 3 -12 4 2488 3741 3 MP stroke
13 8 -15 0 2486 3855 3 MP stroke
14 5 -14 3 2486 3987 3 MP stroke
9 12 -13 -5 2493 4095 3 MP stroke
12 4 -12 2 2492 4238 3 MP stroke
14 8 -16 0 2486 4353 3 MP stroke
11 4 -11 3 2491 4487 3 MP stroke
20 5 -1 0 2564 389 3 MP stroke
21 0 -19 11 2582 518 3 MP stroke
20 12 -22 0 2581 620 3 MP stroke
16 2 -15 7 2591 761 3 MP stroke
14 1 -12 7 2594 889 3 MP stroke
18 6 -18 5 2586 1004 3 MP stroke
20 6 -20 5 2583 1128 3 MP stroke
12 -2 -10 8 2600 1264 3 MP stroke
17 10 -19 0 2586 1368 3 MP stroke
15 3 -15 6 2591 1506 3 MP stroke
12 14 -16 -6 2595 1609 3 MP stroke
9 2 -9 3 2603 1755 3 MP stroke
10 3 -10 3 2603 1877 3 MP stroke
9 2 -9 3 2604 2003 3 MP stroke
7 6 -9 -2 2608 2117 3 MP stroke
10 0 -8 5 2603 2257 3 MP stroke
9 5 -10 1 2603 2369 3 MP stroke
10 5 -11 1 2602 2496 3 MP stroke
10 4 -11 2 2601 2621 3 MP stroke
11 3 -11 3 2601 2747 3 MP stroke
9 7 -11 -1 2604 2863 3 MP stroke
10 3 -10 2 2603 2994 3 MP stroke
5 9 -8 -5 2610 3108 3 MP stroke
8 3 -9 2 2605 3244 3 MP stroke
11 7 -13 0 2598 3362 3 MP stroke
8 3 -8 2 2605 3494 3 MP stroke
10 13 -14 -7 2601 3598 3 MP stroke
13 3 -12 4 2596 3743 3 MP stroke
14 9 -16 0 2593 3856 3 MP stroke
13 5 -14 3 2595 3987 3 MP stroke
9 12 -13 -6 2602 4095 3 MP stroke
15 5 -15 4 2591 4237 3 MP stroke
13 9 -15 0 2594 4353 3 MP stroke
16 5 -17 5 2589 4484 3 MP stroke
10 3 2690 389 2 MP stroke
15 -1 -13 10 2699 519 3 MP stroke
15 11 -17 -2 2698 621 3 MP stroke
13 -1 -11 8 2704 767 3 MP stroke
9 2 -9 3 2712 883 3 MP stroke
6 0 -5 3 2719 1012 3 MP stroke
0 1 -1 -1 2729 1133 3 MP stroke
8 3 -9 1 2713 1378 3 MP stroke
12 4 -12 3 2707 1503 3 MP stroke
10 3 -10 3 2709 1627 3 MP stroke
4 5 -5 -2 2722 1871 3 MP stroke
5 2 -5 1 2720 2374 3 MP stroke
6 3 -6 1 2719 2498 3 MP stroke
4 13 -9 -9 2719 2600 3 MP stroke
6 2 -6 1 2719 2748 3 MP stroke
4 7 -7 -4 2720 2862 3 MP stroke
5 1 -5 2 2721 2997 3 MP stroke
1 8 -5 -7 2726 3106 3 MP stroke
3 1 -3 1 2723 3246 3 MP stroke
7 5 -8 0 2715 3363 3 MP stroke
3 1 -3 0 2724 3495 3 MP stroke
1 11 -6 -9 2725 3597 3 MP stroke
6 1 -5 2 2718 3744 3 MP stroke
1 5 -2 -4 2727 3860 3 MP stroke
7 2 -6 2 2716 3992 3 MP stroke
6 13 -10 -8 2715 4093 3 MP stroke
6 3 -7 1 2717 4238 3 MP stroke
7 4 -8 0 2717 4360 3 MP stroke
7 4 -8 0 2716 4484 3 MP stroke
13 4 2780 389 2 MP stroke
24 1 -22 12 2789 518 3 MP stroke
15 9 -17 0 2808 624 3 MP stroke
22 5 -21 7 2793 757 3 MP stroke
14 5 -15 3 2809 1252 3 MP stroke
7 7 -9 -2 2823 1370 3 MP stroke
8 1 -7 3 2823 1507 3 MP stroke
7 6 -9 -2 2824 1621 3 MP stroke
6 5 -7 -1 2825 2370 3 MP stroke
9 3 -9 3 2819 2498 3 MP stroke
7 18 -13 -12 2820 2594 3 MP stroke
10 4 -10 2 2817 2747 3 MP stroke
9 8 -11 -2 2818 2862 3 MP stroke
10 2 -10 4 2816 2996 3 MP stroke
-2 7 -1 -7 2841 3109 3 MP stroke
10 2 -10 4 2817 3245 3 MP stroke
9 7 -11 -1 2818 3360 3 MP stroke
9 2 -9 3 2820 3494 3 MP stroke
11 11 -15 -3 2814 3601 3 MP stroke
14 3 -14 4 2811 3742 3 MP stroke
12 9 -15 -1 2812 3854 3 MP stroke
14 4 -14 4 2808 3988 3 MP stroke
10 13 -14 -7 2815 4095 3 MP stroke
13 5 -13 3 2810 4236 3 MP stroke
14 4 -14 4 2809 4361 3 MP stroke
15 5 -15 4 2807 4486 3 MP stroke
13 4 2894 389 2 MP stroke
20 -1 -17 11 2907 520 3 MP stroke
9 5 -10 1 2927 630 3 MP stroke
16 5 -16 5 2913 880 3 MP stroke
12 6 -13 1 2920 1250 3 MP stroke
11 4 -11 2 2923 1378 3 MP stroke
11 4 -11 3 2922 1503 3 MP stroke
5 3 -6 0 2934 2497 3 MP stroke
6 2 -6 2 2934 2624 3 MP stroke
5 2 -5 1 2936 2747 3 MP stroke
4 2 -4 1 2937 2872 3 MP stroke
4 2 -4 0 2938 2997 3 MP stroke
2 12 -7 -9 2939 3100 3 MP stroke
6 1 -6 2 2934 3246 3 MP stroke
6 9 -9 -4 2932 3356 3 MP stroke
10 2 -10 3 2927 3494 3 MP stroke
5 11 -9 -8 2935 3600 3 MP stroke
12 4 -12 3 2922 3740 3 MP stroke
13 5 -14 3 2919 3862 3 MP stroke
13 5 -14 3 2918 3986 3 MP stroke
14 6 -15 3 2916 4109 3 MP stroke
14 4 -14 4 2916 4237 3 MP stroke
14 5 -14 3 2918 4358 3 MP stroke
16 3 -15 6 2913 4487 3 MP stroke
1 0 3007 389 2 MP stroke
23 2 -21 10 3008 516 3 MP stroke
15 9 -17 0 3022 625 3 MP stroke
17 8 -19 2 3018 1247 3 MP stroke
11 5 -12 2 3029 1377 3 MP stroke
10 4 -11 2 3032 1503 3 MP stroke
11 4 -11 2 3031 1627 3 MP stroke
9 6 -11 -1 3035 1746 3 MP stroke
13 6 -14 2 3025 1874 3 MP stroke
6 4 -7 0 3041 2494 3 MP stroke
10 4 -10 2 3032 2621 3 MP stroke
10 4 -10 2 3033 2745 3 MP stroke
10 4 -10 2 3033 2869 3 MP stroke
10 4 -10 2 3033 2995 3 MP stroke
10 13 -14 -7 3032 3100 3 MP stroke
9 2 -9 3 3036 3247 3 MP stroke
10 8 -12 -2 3032 3358 3 MP stroke
10 3 -10 3 3033 3493 3 MP stroke
11 13 -15 -5 3028 3599 3 MP stroke
12 4 -12 3 3030 3740 3 MP stroke
13 4 -13 4 3027 3864 3 MP stroke
13 4 -14 3 3027 3989 3 MP stroke
9 13 -13 -6 3031 4096 3 MP stroke
14 4 -14 4 3023 4237 3 MP stroke
15 8 -16 1 3022 4355 3 MP stroke
18 9 -19 2 3016 4476 3 MP stroke
19 12 -22 0 3013 4598 3 MP stroke
3117 389 PD
21 1 -19 11 3118 517 3 MP stroke
15 11 -18 -1 3128 621 3 MP stroke
-1 8 -2 -8 3162 1117 3 MP stroke
8 5 -9 0 3144 1252 3 MP stroke
6 4 -7 -1 3148 1377 3 MP stroke
4 3 -5 0 3151 1502 3 MP stroke
4 3 -5 -1 3153 1627 3 MP stroke
5 1 -5 2 3149 1754 3 MP stroke
5 0 -4 3 3150 1882 3 MP stroke
6 -2 -5 4 3151 2009 3 MP stroke
2 9 -6 -7 3154 2111 3 MP stroke
6 -2 -4 5 3151 2259 3 MP stroke
5 0 -4 3 3151 2378 3 MP stroke
7 1 -6 2 3148 2501 3 MP stroke
4 11 -8 -8 3150 2605 3 MP stroke
4 1 -4 1 3152 2748 3 MP stroke
5 5 -7 -2 3151 2865 3 MP stroke
0 -1 3162 2997 2 MP stroke
4 12 -9 -8 3149 3100 3 MP stroke
1 0 -1 0 3158 3247 3 MP stroke
0 2 -1 -1 3160 3367 3 MP stroke
4 1 -4 1 3153 3495 3 MP stroke
3 10 -7 -7 3153 3601 3 MP stroke
5 2 -6 1 3149 3741 3 MP stroke
2 5 -4 -3 3156 3860 3 MP stroke
7 2 -7 1 3148 3990 3 MP stroke
7 3 -7 1 3147 4114 3 MP stroke
8 3 -8 1 3145 4237 3 MP stroke
7 5 -8 -1 3148 4358 3 MP stroke
9 1 -8 4 3143 4490 3 MP stroke
10 3 3214 389 2 MP stroke
25 0 -22 13 3219 519 3 MP stroke
20 11 -22 1 3228 621 3 MP stroke
22 11 -24 2 3225 870 3 MP stroke
23 4 -22 9 3222 1008 3 MP stroke
7 0 -6 4 3256 1261 3 MP stroke
10 7 -11 -1 3248 1374 3 MP stroke
9 0 -8 5 3250 1510 3 MP stroke
9 3 -9 2 3250 1628 3 MP stroke
9 3 -9 2 3250 1753 3 MP stroke
9 3 -9 3 3250 1876 3 MP stroke
10 -1 -9 6 3249 2009 3 MP stroke
8 9 -11 -4 3250 2113 3 MP stroke
10 7 -12 -1 3249 2243 3 MP stroke
10 9 -12 -3 3248 2363 3 MP stroke
11 2 -11 4 3246 2500 3 MP stroke
11 12 -14 -5 3245 2606 3 MP stroke
10 2 -9 4 3248 2750 3 MP stroke
12 6 -13 1 3246 2867 3 MP stroke
13 2 -12 5 3243 2997 3 MP stroke
8 12 -12 -7 3251 3101 3 MP stroke
8 2 -8 3 3251 3245 3 MP stroke
9 8 -11 -2 3249 3358 3 MP stroke
10 3 -10 3 3249 3492 3 MP stroke
11 3 -11 3 3248 3616 3 MP stroke
12 4 -12 3 3244 3739 3 MP stroke
13 6 -13 2 3242 3862 3 MP stroke
14 6 -15 2 3239 3986 3 MP stroke
11 12 -15 -4 3245 4097 3 MP stroke
17 5 -17 5 3235 4237 3 MP stroke
15 8 -16 1 3237 4356 3 MP stroke
17 1 -16 8 3234 4493 3 MP stroke
10 3 3326 389 2 MP stroke
19 -2 -16 12 3340 521 3 MP stroke
17 9 -19 1 3340 624 3 MP stroke
13 -3 -10 9 3351 771 3 MP stroke
11 8 -13 -1 3353 874 3 MP stroke
14 0 -12 7 3348 1013 3 MP stroke
12 12 -15 -4 3351 1114 3 MP stroke
5 1 -4 2 3366 1507 3 MP stroke
2 4 -4 -2 3370 1623 3 MP stroke
2 0 -2 1 3371 1755 3 MP stroke
4 3 -5 0 3369 1876 3 MP stroke
5 -3 -3 6 3367 2013 3 MP stroke
3 10 -7 -7 3368 2110 3 MP stroke
5 0 -4 2 3366 2253 3 MP stroke
4 7 -6 -4 3367 2366 3 MP stroke
5 2 -5 1 3367 2500 3 MP stroke
3 10 -7 -7 3368 2607 3 MP stroke
6 3 -6 1 3365 2747 3 MP stroke
5 3 -6 0 3366 2872 3 MP stroke
4 1 -4 1 3368 2997 3 MP stroke
3 11 -7 -8 3367 3103 3 MP stroke
8 3 -8 1 3362 3245 3 MP stroke
6 7 -8 -3 3365 3359 3 MP stroke
9 3 -9 2 3357 3493 3 MP stroke
9 3 -9 2 3357 3617 3 MP stroke
12 5 -12 2 3352 3738 3 MP stroke
13 6 -14 2 3350 3861 3 MP stroke
10 5 -11 1 3357 3986 3 MP stroke
10 3 -10 2 3356 4114 3 MP stroke
12 3 -12 4 3353 4238 3 MP stroke
12 6 -13 1 3352 4357 3 MP stroke
18 1 -16 9 3340 4493 3 MP stroke
14 3 3442 389 2 MP stroke
15 3 -15 6 3453 511 3 MP stroke
16 9 -18 1 3450 624 3 MP stroke
15 0 -14 8 3455 764 3 MP stroke
13 3 -12 4 3459 884 3 MP stroke
15 0 -14 9 3453 1013 3 MP stroke
9 14 -13 -8 3463 1108 3 MP stroke
4 2 -4 0 3476 1504 3 MP stroke
4 2 -4 1 3476 1629 3 MP stroke
5 6 -7 -2 3472 1870 3 MP stroke
11 3 -11 3 3464 2001 3 MP stroke
9 13 -13 -7 3465 2105 3 MP stroke
8 4 -9 1 3467 2247 3 MP stroke
3 11 -7 -9 3477 2356 3 MP stroke
9 2 -9 3 3464 2499 3 MP stroke
8 11 -11 -5 3466 2606 3 MP stroke
10 4 -11 2 3464 2746 3 MP stroke
10 4 -10 2 3464 2869 3 MP stroke
11 4 -11 2 3463 2994 3 MP stroke
12 4 -12 3 3459 3118 3 MP stroke
8 3 -8 1 3468 3243 3 MP stroke
8 4 -9 1 3467 3367 3 MP stroke
9 4 -10 2 3465 3491 3 MP stroke
9 3 -9 2 3465 3616 3 MP stroke
11 5 -11 1 3462 3738 3 MP stroke
14 6 -15 2 3455 3861 3 MP stroke
16 7 -17 3 3450 3984 3 MP stroke
11 12 -15 -4 3459 4096 3 MP stroke
17 5 -17 5 3448 4237 3 MP stroke
15 9 -17 0 3455 4352 3 MP stroke
15 2 -14 7 3454 4491 3 MP stroke
17 3 -15 6 3557 389 3 MP stroke
17 2 -16 7 3558 514 3 MP stroke
13 6 -14 2 3565 629 3 MP stroke
2 0 -2 1 3588 1756 3 MP stroke
1 12 -6 -10 3587 2104 3 MP stroke
6 0 -6 3 3581 2254 3 MP stroke
4 7 -6 -4 3584 2365 3 MP stroke
5 1 -5 2 3581 2501 3 MP stroke
4 8 -6 -5 3583 2611 3 MP stroke
5 2 -4 1 3582 2749 3 MP stroke
4 2 -5 1 3583 2872 3 MP stroke
5 2 -6 1 3581 2995 3 MP stroke
7 3 -8 1 3578 3119 3 MP stroke
2 2 -2 -1 3588 3244 3 MP stroke
2 3 -3 -2 3587 3367 3 MP stroke
4 2 -4 1 3583 3493 3 MP stroke
3 2 -4 0 3584 3617 3 MP stroke
5 3 -6 0 3582 3742 3 MP stroke
7 2 -7 2 3577 3866 3 MP stroke
6 5 -7 -1 3580 3985 3 MP stroke
6 5 -7 -1 3578 4111 3 MP stroke
7 4 -8 0 3579 4236 3 MP stroke
7 4 -8 0 3577 4360 3 MP stroke
17 5 -17 5 3556 4485 3 MP stroke
18 5 3636 389 2 MP stroke
23 4 -22 9 3653 511 3 MP stroke
12 5 -13 3 3675 631 3 MP stroke
8 4 -9 1 3685 1376 3 MP stroke
11 4 -11 2 3678 1500 3 MP stroke
7 5 -8 0 3684 1624 3 MP stroke
5 3 -6 0 3690 1750 3 MP stroke
7 2 -7 2 3686 1878 3 MP stroke
10 2 -10 4 3678 2002 3 MP stroke
3 11 -7 -8 3690 2109 3 MP stroke
12 3 -11 4 3676 2251 3 MP stroke
6 7 -8 -3 3686 2365 3 MP stroke
10 3 -10 3 3679 2499 3 MP stroke
7 11 -11 -6 3683 2605 3 MP stroke
9 2 -9 3 3681 2749 3 MP stroke
10 2 -10 4 3679 2873 3 MP stroke
11 4 -11 3 3677 2994 3 MP stroke
12 5 -12 2 3675 3118 3 MP stroke
7 4 -8 1 3684 3242 3 MP stroke
8 4 -8 1 3683 3365 3 MP stroke
9 3 -9 2 3681 3492 3 MP stroke
10 4 -11 2 3678 3615 3 MP stroke
12 5 -12 2 3675 3738 3 MP stroke
13 6 -14 2 3672 3861 3 MP stroke
15 7 -16 2 3670 3984 3 MP stroke
15 6 -16 3 3667 4109 3 MP stroke
17 5 -17 4 3665 4235 3 MP stroke
19 9 -20 2 3661 4354 3 MP stroke
24 8 -25 6 3650 4481 3 MP stroke
28 6 -27 10 3751 508 3 MP stroke
23 8 -24 5 3761 627 3 MP stroke
6 6 -8 -2 3794 1372 3 MP stroke
8 2 -8 2 3792 1628 3 MP stroke
2 3 -3 -1 3802 1874 3 MP stroke
6 0 -5 3 3796 2005 3 MP stroke
4 6 -6 -3 3798 2118 3 MP stroke
2 4 -4 -2 3803 2245 3 MP stroke
3 2 -4 0 3801 2374 3 MP stroke
3 2 -3 0 3801 2499 3 MP stroke
3 1 -3 1 3801 2626 3 MP stroke
3 0 -3 2 3800 2750 3 MP stroke
3 3 -4 -1 3802 2870 3 MP stroke
7 2 -7 1 3794 2996 3 MP stroke
1 12 -6 -10 3801 3100 3 MP stroke
10 4 -10 2 3786 3243 3 MP stroke
12 4 -12 2 3784 3366 3 MP stroke
12 5 -13 3 3782 3489 3 MP stroke
10 5 -10 1 3787 3615 3 MP stroke
10 6 -12 0 3787 3735 3 MP stroke
9 6 -10 0 3787 3860 3 MP stroke
14 5 -14 3 3779 3986 3 MP stroke
8 9 -11 -3 3788 4100 3 MP stroke
16 5 -16 5 3775 4237 3 MP stroke
18 7 -19 4 3770 4358 3 MP stroke
21 5 -21 8 3764 4487 3 MP stroke
20 6 -2 0 3856 389 3 MP stroke
23 5 -22 8 3868 511 3 MP stroke
23 10 -25 3 3868 624 3 MP stroke
19 2 -18 8 3878 1010 3 MP stroke
11 -2 -9 7 3894 1265 3 MP stroke
9 3 -9 2 3896 1380 3 MP stroke
5 -4 -3 6 3906 1517 3 MP stroke
8 6 -9 -1 3899 1622 3 MP stroke
9 1 -9 4 3897 1756 3 MP stroke
22 -1 -19 13 3871 1889 3 MP stroke
9 4 -10 2 3896 1999 3 MP stroke
9 9 -12 -3 3895 2113 3 MP stroke
6 6 -8 -2 3901 2242 3 MP stroke
7 3 -8 1 3901 2372 3 MP stroke
7 3 -7 1 3901 2498 3 MP stroke
7 4 -8 1 3899 2619 3 MP stroke
6 5 -7 -1 3903 2741 3 MP stroke
6 4 -7 -1 3903 2867 3 MP stroke
12 3 -11 4 3890 2997 3 MP stroke
14 9 -16 0 3886 3109 3 MP stroke
11 2 -10 4 3892 3246 3 MP stroke
10 5 -11 1 3894 3365 3 MP stroke
13 3 -12 5 3888 3493 3 MP stroke
9 11 -12 -5 3895 3601 3 MP stroke
10 6 -11 1 3893 3735 3 MP stroke
10 6 -12 0 3894 3859 3 MP stroke
16 8 -18 1 3881 3982 3 MP stroke
11 7 -12 0 3893 4107 3 MP stroke
13 7 -14 1 3887 4232 3 MP stroke
20 8 -21 3 3875 4355 3 MP stroke
26 5 -25 9 3864 4488 3 MP stroke
23 2 -21 11 3978 391 3 MP stroke
19 2 -18 8 3985 513 3 MP stroke
18 9 -19 2 3986 626 3 MP stroke
20 0 -18 11 3984 765 3 MP stroke
20 1 -18 10 3984 891 3 MP stroke
13 8 -15 0 3997 1122 3 MP stroke
16 -5 -12 13 3992 1274 3 MP stroke
12 1 -11 5 4000 1385 3 MP stroke
12 -1 -10 7 4000 1513 3 MP stroke
8 12 -12 -6 4004 1611 3 MP stroke
7 4 -8 1 4007 1751 3 MP stroke
10 -6 -6 10 4004 1893 3 MP stroke
2 0 -2 1 4019 2005 3 MP stroke
4 2 -5 1 4013 2125 3 MP stroke
6 -3 -4 6 4012 2261 3 MP stroke
7 8 -10 -3 4007 2364 3 MP stroke
3 5 -5 -3 4016 2492 3 MP stroke
3 5 -5 -3 4017 2616 3 MP stroke
4 6 -6 -3 4013 2741 3 MP stroke
5 4 -6 -1 4013 2868 3 MP stroke
12 0 -11 7 3998 3001 3 MP stroke
15 7 -16 2 3992 3112 3 MP stroke
18 2 -16 7 3988 3248 3 MP stroke
18 8 -19 2 3985 3360 3 MP stroke
17 2 -15 8 3988 3497 3 MP stroke
14 5 -14 3 3995 3615 3 MP stroke
12 2 -11 4 4000 3744 3 MP stroke
8 2 -8 2 4007 3867 3 MP stroke
12 4 -13 3 3999 3989 3 MP stroke
13 6 -13 1 3997 4110 3 MP stroke
15 2 -14 6 3994 4241 3 MP stroke
23 4 -21 8 3978 4365 3 MP stroke
26 5 -25 10 3970 4488 3 MP stroke
27 -7 -21 21 4077 409 3 MP stroke
25 -2 -21 15 4082 523 3 MP stroke
22 9 -23 4 4084 627 3 MP stroke
28 2 -26 14 4075 766 3 MP stroke
26 2 -24 12 4080 890 3 MP stroke
28 4 -26 11 4076 1010 3 MP stroke
27 5 -26 11 4075 1131 3 MP stroke
30 -6 -24 22 4074 1279 3 MP stroke
26 30 -35 -12 4072 1332 3 MP stroke
25 22 -31 -7 4078 1470 3 MP stroke
23 19 -28 -5 4083 1601 3 MP stroke
21 7 -21 5 4086 1749 3 MP stroke
13 1 -12 5 4106 1882 3 MP stroke
14 -2 -12 10 4102 2012 3 MP stroke
22 -6 -17 17 4090 2146 3 MP stroke
15 -5 -11 13 4103 2268 3 MP stroke
13 0 -11 7 4105 2379 3 MP stroke
10 8 -12 -2 4109 2489 3 MP stroke
6 10 -9 -6 4117 2608 3 MP stroke
3 4 -4 -2 4124 2742 3 MP stroke
4 1 -4 1 4123 2874 3 MP stroke
16 1 -15 7 4099 3000 3 MP stroke
25 9 -26 6 4078 3111 3 MP stroke
27 -4 -23 18 4078 3263 3 MP stroke
28 14 -30 3 4072 3352 3 MP stroke
28 5 -27 11 4074 3493 3 MP stroke
23 8 -24 6 4084 3611 3 MP stroke
22 5 -21 8 4085 3742 3 MP stroke
20 6 -20 5 4092 3864 3 MP stroke
21 6 -21 6 4088 3988 3 MP stroke
21 10 -22 2 4088 4104 3 MP stroke
28 -2 -24 17 4074 4253 3 MP stroke
29 8 -28 9 4071 4359 3 MP stroke
29 5 -28 11 4072 4488 3 MP stroke
26 1 -23 13 4187 393 3 MP stroke
28 0 -25 15 4184 520 3 MP stroke
22 9 -23 5 4192 625 3 MP stroke
23 1 -21 11 4192 765 3 MP stroke
21 8 -22 5 4194 876 3 MP stroke
26 1 -24 13 4187 1015 3 MP stroke
27 2 -24 13 4185 1137 3 MP stroke
29 -4 -24 18 4184 1275 3 MP stroke
20 18 -25 -5 4195 1352 3 MP stroke
16 31 -27 -18 4200 1450 3 MP stroke
19 17 -24 -4 4198 1603 3 MP stroke
21 12 -23 0 4195 1738 3 MP stroke
25 8 -25 7 4187 1872 3 MP stroke
26 5 -25 10 4185 2001 3 MP stroke
20 3 -19 8 4198 2127 3 MP stroke
14 -3 -12 11 4212 2262 3 MP stroke
14 5 -14 3 4210 2372 3 MP stroke
8 9 -10 -3 4221 2487 3 MP stroke
9 9 -12 -3 4219 2610 3 MP stroke
-1 2 0 -3 4240 2745 3 MP stroke
10 5 -11 1 4218 2868 3 MP stroke
15 -1 -13 9 4210 3003 3 MP stroke
24 -1 -21 13 4193 3131 3 MP stroke
24 3 -22 10 4190 3248 3 MP stroke
22 12 -24 2 4192 3355 3 MP stroke
25 1 -23 12 4189 3501 3 MP stroke
26 8 -27 7 4185 3612 3 MP stroke
27 4 -26 11 4185 3744 3 MP stroke
22 5 -22 7 4194 3864 3 MP stroke
24 3 -23 10 4190 3992 3 MP stroke
23 7 -23 6 4193 4111 3 MP stroke
22 7 -22 6 4193 4235 3 MP stroke
24 2 -22 12 4189 4369 3 MP stroke
24 3 -22 10 4191 4490 3 MP stroke
26 3 -24 12 4293 391 3 MP stroke
31 3 -28 14 4285 515 3 MP stroke
31 9 -31 9 4284 629 3 MP stroke
26 7 -26 8 4293 756 3 MP stroke
25 4 -24 10 4295 884 3 MP stroke
24 1 -22 12 4299 1014 3 MP stroke
21 9 -22 4 4301 1123 3 MP stroke
20 4 -20 8 4306 1256 3 MP stroke
16 -1 -14 9 4314 1389 3 MP stroke
17 -2 -14 11 4313 1515 3 MP stroke
14 14 -18 -5 4316 1608 3 MP stroke
14 6 -15 2 4318 1747 3 MP stroke
21 4 -21 8 4302 1877 3 MP stroke
24 2 -22 12 4299 2007 3 MP stroke
22 7 -22 6 4301 2121 3 MP stroke
19 6 -19 5 4308 2247 3 MP stroke
17 12 -20 -1 4310 2358 3 MP stroke
4 13 -9 -10 4337 2477 3 MP stroke
9 12 -13 -6 4327 2604 3 MP stroke
19 11 -21 1 4307 2733 3 MP stroke
22 11 -24 2 4301 2857 3 MP stroke
19 5 -19 6 4308 2995 3 MP stroke
14 4 -14 5 4317 3120 3 MP stroke
24 6 -23 8 4298 3242 3 MP stroke
24 7 -24 7 4297 3364 3 MP stroke
25 3 -23 11 4296 3498 3 MP stroke
22 12 -24 1 4300 3604 3 MP stroke
26 3 -24 12 4294 3747 3 MP stroke
25 4 -24 10 4296 3867 3 MP stroke
28 -1 -24 16 4291 4002 3 MP stroke
30 13 -32 5 4284 4100 3 MP stroke
29 11 -30 6 4288 4228 3 MP stroke
28 4 -26 12 4291 4366 3 MP stroke
26 9 -27 7 4292 4480 3 MP stroke
25 3 -24 11 4403 514 3 MP stroke
25 9 -25 6 4403 626 3 MP stroke
21 9 -23 4 4411 750 3 MP stroke
21 3 -20 9 4411 884 3 MP stroke
24 3 -22 11 4406 1011 3 MP stroke
21 8 -22 5 4409 1124 3 MP stroke
21 3 -20 9 4412 1257 3 MP stroke
20 3 -19 8 4414 1384 3 MP stroke
19 0 -17 11 4416 1513 3 MP stroke
22 4 -21 8 4411 1630 3 MP stroke
22 1 -20 11 4410 1759 3 MP stroke
24 1 -22 12 4407 1883 3 MP stroke
25 -2 -21 15 4406 2016 3 MP stroke
24 8 -24 6 4405 2119 3 MP stroke
21 4 -20 8 4412 2252 3 MP stroke
22 -6 -17 18 4411 2396 3 MP stroke
22 2 -20 10 4410 2502 3 MP stroke
21 12 -23 0 4411 2608 3 MP stroke
21 9 -22 4 4411 2739 3 MP stroke
23 5 -22 8 4408 2871 3 MP stroke
23 4 -23 9 4408 2996 3 MP stroke
20 7 -20 5 4412 3114 3 MP stroke
21 3 -20 9 4410 3248 3 MP stroke
18 0 -16 10 4417 3376 3 MP stroke
24 1 -21 12 4408 3501 3 MP stroke
21 5 -21 7 4410 3615 3 MP stroke
27 7 -27 8 4399 3739 3 MP stroke
28 7 -27 9 4398 3862 3 MP stroke
28 -2 -24 17 4400 4004 3 MP stroke
25 13 -27 3 4401 4100 3 MP stroke
26 8 -26 7 4401 4233 3 MP stroke
22 9 -24 4 4408 4354 3 MP stroke
21 6 -21 6 4411 4483 3 MP stroke
19 4 -19 7 4522 510 3 MP stroke
27 10 -28 5 4508 625 3 MP stroke
25 8 -25 6 4510 752 3 MP stroke
30 7 -29 10 4501 881 3 MP stroke
31 4 -29 14 4500 1011 3 MP stroke
30 8 -30 10 4500 1127 3 MP stroke
32 4 -30 14 4499 1259 3 MP stroke
28 7 -28 9 4505 1376 3 MP stroke
31 1 -28 16 4499 1512 3 MP stroke
30 6 -29 11 4499 1628 3 MP stroke
28 6 -27 10 4506 1752 3 MP stroke
30 5 -29 12 4501 1879 3 MP stroke
31 -4 -25 20 4502 2022 3 MP stroke
31 11 -32 7 4499 2116 3 MP stroke
31 3 -28 14 4500 2256 3 MP stroke
29 7 -29 10 4502 2373 3 MP stroke
31 4 -29 13 4501 2502 3 MP stroke
29 18 -33 -1 4502 2599 3 MP stroke
28 10 -29 7 4504 2739 3 MP stroke
31 9 -31 9 4498 2866 3 MP stroke
31 8 -30 10 4499 2993 3 MP stroke
31 2 -28 15 4501 3128 3 MP stroke
31 -11 -23 27 4502 3279 3 MP stroke
29 -1 -25 17 4503 3382 3 MP stroke
34 6 -33 13 4493 3494 3 MP stroke
36 8 -35 12 4490 3613 3 MP stroke
36 14 -38 8 4487 3727 3 MP stroke
36 9 -35 12 4490 3862 3 MP stroke
38 -1 -33 22 4486 4005 3 MP stroke
36 9 -36 12 4489 4109 3 MP stroke
32 8 -32 10 4495 4234 3 MP stroke
31 11 -31 7 4499 4353 3 MP stroke
25 7 -25 8 4509 4483 3 MP stroke
6 2 4616 389 2 MP stroke
24 2 -22 11 4622 515 3 MP stroke
24 8 -24 6 4620 628 3 MP stroke
24 0 -21 13 4622 768 3 MP stroke
24 6 -24 7 4621 879 3 MP stroke
23 3 -21 10 4622 1011 3 MP stroke
24 10 -26 4 4619 1120 3 MP stroke
23 7 -23 6 4623 1251 3 MP stroke
25 13 -27 1 4618 1364 3 MP stroke
23 8 -24 6 4621 1497 3 MP stroke
23 17 -27 -2 4620 1604 3 MP stroke
21 28 -30 -13 4620 1707 3 MP stroke
22 7 -22 6 4623 1872 3 MP stroke
26 2 -24 13 4619 2007 3 MP stroke
24 12 -26 3 4618 2112 3 MP stroke
24 3 -22 10 4622 2254 3 MP stroke
27 -1 -24 16 4615 2385 3 MP stroke
31 -5 -25 21 4610 2520 3 MP stroke
28 -1 -24 17 4614 2637 3 MP stroke
23 8 -24 5 4623 2740 3 MP stroke
26 5 -25 10 4617 2873 3 MP stroke
28 -7 -21 21 4617 3021 3 MP stroke
26 4 -25 11 4616 3122 3 MP stroke
29 -12 -21 27 4613 3279 3 MP stroke
28 -5 -23 20 4615 3389 3 MP stroke
28 5 -27 11 4613 3494 3 MP stroke
25 15 -28 0 4617 3598 3 MP stroke
25 9 -26 6 4618 3734 3 MP stroke
27 12 -28 4 4613 3853 3 MP stroke
28 6 -27 10 4613 3991 3 MP stroke
27 13 -29 3 4613 4099 3 MP stroke
26 17 -29 -1 4614 4216 3 MP stroke
23 15 -27 0 4621 4343 3 MP stroke
24 14 -27 2 4617 4469 3 MP stroke
34 37 -45 -14 4594 4551 3 MP stroke
16 5 4713 389 2 MP stroke
28 1 -25 14 4721 519 3 MP stroke
28 6 -27 10 4721 633 3 MP stroke
28 0 -24 15 4722 770 3 MP stroke
25 8 -25 7 4726 878 3 MP stroke
27 9 -28 7 4723 1000 3 MP stroke
25 14 -27 1 4726 1114 3 MP stroke
24 14 -27 1 4725 1238 3 MP stroke
28 22 -33 -5 4719 1348 3 MP stroke
26 38 -38 -19 4717 1441 3 MP stroke
21 28 -30 -14 4730 1582 3 MP stroke
25 13 -27 2 4725 1738 3 MP stroke
28 8 -28 8 4722 1872 3 MP stroke
24 3 -23 10 4728 2005 3 MP stroke
26 11 -27 5 4724 2115 3 MP stroke
23 1 -21 12 4731 2258 3 MP stroke
10 21 -18 -12 4752 2338 3 MP stroke
25 12 -27 3 4726 2484 3 MP stroke
24 7 -24 7 4728 2618 3 MP stroke
25 3 -23 11 4728 2752 3 MP stroke
26 9 -26 6 4724 2865 3 MP stroke
22 9 -23 5 4730 2988 3 MP stroke
23 7 -23 6 4731 3117 3 MP stroke
23 -13 -15 24 4734 3279 3 MP stroke
28 -5 -22 19 4724 3390 3 MP stroke
22 7 -22 6 4731 3490 3 MP stroke
17 19 -23 -8 4740 3586 3 MP stroke
17 9 -19 2 4740 3731 3 MP stroke
17 9 -19 1 4742 3854 3 MP stroke
20 11 -22 1 4736 3978 3 MP stroke
19 14 -22 -2 4737 4097 3 MP stroke
18 14 -22 -3 4739 4219 3 MP stroke
15 11 -18 -2 4746 4348 3 MP stroke
24 13 -26 1 4726 4472 3 MP stroke
23 21 -29 -6 4727 4581 3 MP stroke
23 3 -22 10 4839 389 3 MP stroke
20 0 -18 11 4846 518 3 MP stroke
21 5 -20 7 4843 633 3 MP stroke
23 2 -21 11 4838 763 3 MP stroke
18 10 -20 1 4848 872 3 MP stroke
11 29 -22 -20 4858 956 3 MP stroke
9 50 -28 -39 4858 1039 3 MP stroke
18 55 -38 -39 4839 1156 3 MP stroke
21 51 -39 -33 4832 1290 3 MP stroke
21 40 -35 -24 4836 1434 3 MP stroke
18 26 -27 -13 4843 1585 3 MP stroke
14 19 -20 -9 4854 1721 3 MP stroke
10 25 -20 -17 4860 1833 3 MP stroke
13 13 -17 -5 4856 1982 3 MP stroke
15 9 -17 0 4855 2115 3 MP stroke
8 -2 -6 6 4870 2257 3 MP stroke
7 8 -10 -3 4869 2363 3 MP stroke
8 7 -10 -2 4868 2491 3 MP stroke
10 4 -10 2 4864 2621 3 MP stroke
17 2 -16 8 4850 2752 3 MP stroke
17 6 -17 4 4850 2867 3 MP stroke
17 3 -16 6 4850 2998 3 MP stroke
9 6 -10 0 4866 3114 3 MP stroke
12 -2 -10 8 4863 3254 3 MP stroke
17 -7 -12 15 4854 3391 3 MP stroke
14 0 -12 8 4857 3499 3 MP stroke
12 9 -14 -2 4860 3607 3 MP stroke
10 1 -10 4 4865 3745 3 MP stroke
10 7 -12 0 4863 3859 3 MP stroke
12 3 -12 4 4860 3990 3 MP stroke
11 9 -13 -2 4861 4103 3 MP stroke
11 7 -13 0 4860 4231 3 MP stroke
14 10 -17 -1 4855 4350 3 MP stroke
13 9 -15 -1 4858 4475 3 MP stroke
18 16 -22 -5 4847 4587 3 MP stroke
27 3 -25 12 4938 392 3 MP stroke
25 5 -24 9 4943 509 3 MP stroke
24 4 -22 9 4945 637 3 MP stroke
23 3 -21 10 4947 761 3 MP stroke
12 21 -20 -12 4964 847 3 MP stroke
12 35 -24 -24 4963 945 3 MP stroke
6 48 -25 -39 4971 1040 3 MP stroke
12 34 -24 -23 4962 1195 3 MP stroke
18 21 -24 -9 4953 1347 3 MP stroke
19 23 -27 -10 4950 1466 3 MP stroke
11 21 -18 -13 4966 1594 3 MP stroke
14 24 -22 -13 4961 1712 3 MP stroke
13 13 -17 -4 4964 1858 3 MP stroke
13 11 -16 -2 4965 1986 3 MP stroke
13 10 -16 -2 4966 2113 3 MP stroke
13 7 -14 0 4966 2243 3 MP stroke
12 5 -13 2 4968 2371 3 MP stroke
16 4 -15 5 4961 2498 3 MP stroke
18 7 -19 3 4956 2617 3 MP stroke
15 3 -15 5 4962 2748 3 MP stroke
15 9 -17 0 4961 2860 3 MP stroke
14 4 -14 5 4963 2996 3 MP stroke
13 12 -17 -3 4964 3103 3 MP stroke
17 1 -15 8 4959 3250 3 MP stroke
16 6 -17 4 4960 3365 3 MP stroke
16 -3 -13 11 4963 3505 3 MP stroke
15 14 -19 -4 4960 3597 3 MP stroke
20 3 -19 8 4953 3744 3 MP stroke
19 10 -21 1 4954 3854 3 MP stroke
20 6 -20 5 4952 3986 3 MP stroke
19 11 -21 1 4952 4100 3 MP stroke
16 15 -20 -4 4958 4216 3 MP stroke
18 9 -19 2 4955 4352 3 MP stroke
20 7 -21 5 4952 4482 3 MP stroke
19 11 -21 1 4952 4598 3 MP stroke
32 2 -29 16 5035 394 3 MP stroke
18 4 -17 6 5065 509 3 MP stroke
9 15 -14 -8 5077 610 3 MP stroke
9 13 -13 -6 5079 739 3 MP stroke
5 17 -12 -12 5086 853 3 MP stroke
7 20 -15 -14 5083 971 3 MP stroke
7 15 -13 -10 5083 1106 3 MP stroke
9 3 -9 3 5081 1256 3 MP stroke
10 9 -13 -3 5079 1368 3 MP stroke
10 6 -11 0 5079 1496 3 MP stroke
10 7 -12 -1 5080 1620 3 MP stroke
9 8 -11 -3 5081 1743 3 MP stroke
9 3 -10 2 5081 1876 3 MP stroke
7 7 -9 -2 5083 1992 3 MP stroke
5 6 -6 -2 5089 2118 3 MP stroke
3 4 -5 -2 5094 2244 3 MP stroke
6 3 -6 0 5089 2373 3 MP stroke
5 3 -6 0 5089 2498 3 MP stroke
6 4 -7 -1 5089 2620 3 MP stroke
11 3 -11 3 5077 2747 3 MP stroke
13 9 -15 -1 5074 2860 3 MP stroke
11 5 -12 2 5077 2994 3 MP stroke
8 10 -11 -5 5083 3105 3 MP stroke
12 1 -11 6 5076 3248 3 MP stroke
10 6 -11 0 5078 3362 3 MP stroke
11 1 -10 5 5079 3496 3 MP stroke
10 14 -14 -7 5077 3596 3 MP stroke
12 2 -12 5 5077 3744 3 MP stroke
11 7 -13 0 5076 3859 3 MP stroke
13 4 -13 3 5074 3988 3 MP stroke
12 8 -14 0 5073 4105 3 MP stroke
16 7 -17 2 5068 4231 3 MP stroke
14 12 -17 -3 5070 4348 3 MP stroke
17 4 -17 6 5067 4488 3 MP stroke
15 12 -18 -3 5067 4595 3 MP stroke
8 18 -14 -12 5190 480 3 MP stroke
7 22 -15 -16 5191 596 3 MP stroke
9 17 -15 -10 5188 730 3 MP stroke
11 11 -14 -4 5185 868 3 MP stroke
8 6 -9 -1 5191 1002 3 MP stroke
8 4 -8 1 5191 1128 3 MP stroke
8 4 -9 1 5191 1253 3 MP stroke
10 3 -10 3 5188 1380 3 MP stroke
10 1 -10 4 5188 1507 3 MP stroke
8 2 -9 3 5191 1628 3 MP stroke
9 4 -10 2 5188 1749 3 MP stroke
10 3 -10 3 5188 1877 3 MP stroke
8 3 -8 1 5192 1999 3 MP stroke
11 5 -12 2 5185 2123 3 MP stroke
11 4 -11 2 5185 2248 3 MP stroke
11 4 -12 2 5186 2373 3 MP stroke
11 3 -11 4 5184 2498 3 MP stroke
12 4 -11 3 5184 2623 3 MP stroke
12 4 -12 3 5183 2747 3 MP stroke
8 3 -8 2 5191 2871 3 MP stroke
8 4 -9 2 5190 2994 3 MP stroke
4 10 -8 -6 5198 3105 3 MP stroke
12 4 -12 3 5184 3242 3 MP stroke
13 7 -14 1 5181 3361 3 MP stroke
15 3 -15 5 5177 3494 3 MP stroke
11 12 -15 -5 5185 3598 3 MP stroke
17 4 -16 5 5174 3742 3 MP stroke
15 8 -17 1 5176 3856 3 MP stroke
17 6 -17 5 5172 3987 3 MP stroke
18 6 -19 5 5171 4111 3 MP stroke
19 7 -19 4 5169 4233 3 MP stroke
17 10 -19 0 5174 4352 3 MP stroke
19 8 -20 3 5168 4480 3 MP stroke
20 8 -21 3 5168 4604 3 MP stroke
3 8 -6 -6 5307 870 3 MP stroke
6 5 -7 -1 5303 1004 3 MP stroke
5 1 -5 1 5306 1257 3 MP stroke
5 7 -7 -4 5306 1371 3 MP stroke
6 -1 -5 4 5303 1510 3 MP stroke
1 10 -5 -8 5311 1613 3 MP stroke
7 4 -8 1 5300 1751 3 MP stroke
8 8 -10 -3 5300 1867 3 MP stroke
5 2 -6 0 5306 2002 3 MP stroke
3 12 -8 -9 5308 2106 3 MP stroke
6 2 -6 1 5304 2251 3 MP stroke
6 1 -6 2 5303 2376 3 MP stroke
3 -1 -2 2 5309 2504 3 MP stroke
2 10 -5 -8 5309 2608 3 MP stroke
6 1 -6 2 5305 2749 3 MP stroke
7 7 -9 -3 5299 2863 3 MP stroke
8 2 -8 3 5298 2996 3 MP stroke
3 9 -6 -6 5309 3105 3 MP stroke
4 1 -4 1 5309 3246 3 MP stroke
2 2 -2 -1 5312 3369 3 MP stroke
8 1 -7 4 5300 3497 3 MP stroke
5 11 -9 -7 5303 3599 3 MP stroke
8 1 -7 4 5299 3746 3 MP stroke
5 3 -6 0 5304 3864 3 MP stroke
8 1 -8 4 5299 3993 3 MP stroke
9 4 -9 1 5298 4114 3 MP stroke
10 5 -11 1 5295 4236 3 MP stroke
11 5 -12 2 5293 4360 3 MP stroke
9 5 -10 1 5295 4484 3 MP stroke
9 5 -10 0 5297 4608 3 MP stroke
13 3 -12 5 5398 1132 3 MP stroke
11 2 -10 3 5402 1258 3 MP stroke
8 4 -9 1 5406 1377 3 MP stroke
10 -2 -8 7 5404 1514 3 MP stroke
7 9 -10 -5 5408 1616 3 MP stroke
9 5 -10 0 5405 1749 3 MP stroke
11 14 -15 -6 5399 1856 3 MP stroke
11 3 -10 4 5401 2002 3 MP stroke
8 13 -12 -7 5405 2105 3 MP stroke
12 3 -11 4 5400 2251 3 MP stroke
11 6 -13 1 5399 2368 3 MP stroke
7 2 -7 2 5409 2500 3 MP stroke
12 10 -15 -2 5398 2608 3 MP stroke
13 3 -12 4 5397 2748 3 MP stroke
9 7 -11 -1 5405 2863 3 MP stroke
9 2 -9 3 5405 2998 3 MP stroke
10 11 -14 -4 5402 3104 3 MP stroke
11 3 -11 3 5402 3245 3 MP stroke
7 9 -9 -4 5407 3356 3 MP stroke
15 2 -14 7 5393 3496 3 MP stroke
11 10 -14 -3 5401 3603 3 MP stroke
16 3 -15 6 5391 3744 3 MP stroke
14 8 -15 0 5394 3857 3 MP stroke
18 4 -18 6 5386 3991 3 MP stroke
19 6 -19 5 5385 4111 3 MP stroke
21 6 -21 5 5382 4235 3 MP stroke
17 9 -18 1 5388 4354 3 MP stroke
20 6 -20 5 5384 4485 3 MP stroke
0 17 -7 -15 5528 1100 3 MP stroke
5 1 -5 2 5521 1258 3 MP stroke
-2 -4 3 3 5535 1389 3 MP stroke
5 1 -5 3 5520 1508 3 MP stroke
2 11 -6 -9 5525 1612 3 MP stroke
6 -1 -5 5 5519 1759 3 MP stroke
9 10 -12 -4 5511 1862 3 MP stroke
6 1 -6 2 5520 2005 3 MP stroke
4 6 -6 -3 5522 2119 3 MP stroke
8 2 -7 2 5516 2252 3 MP stroke
8 2 -8 2 5515 2375 3 MP stroke
10 0 -8 5 5512 2504 3 MP stroke
4 13 -8 -9 5520 2602 3 MP stroke
8 1 -7 3 5515 2751 3 MP stroke
10 7 -12 -1 5512 2862 3 MP stroke
9 1 -9 4 5512 2999 3 MP stroke
7 12 -11 -7 5516 3103 3 MP stroke
11 2 -11 4 5508 3246 3 MP stroke
14 4 -14 4 5503 3368 3 MP stroke
10 3 -10 3 5509 3493 3 MP stroke
11 13 -15 -5 5508 3598 3 MP stroke
12 3 -12 4 5506 3742 3 MP stroke
13 9 -15 -1 5505 3854 3 MP stroke
13 3 -13 5 5504 3991 3 MP stroke
10 10 -13 -3 5510 4101 3 MP stroke
16 5 -16 4 5499 4238 3 MP stroke
17 10 -19 1 5496 4352 3 MP stroke
17 5 -18 5 5497 4484 3 MP stroke
-3 12 -2 -13 5642 1110 3 MP stroke
10 2 -9 3 5619 1258 3 MP stroke
0 1 -1 -1 5639 1381 3 MP stroke
10 4 -10 2 5619 1502 3 MP stroke
2 4 -4 -2 5634 1625 3 MP stroke
9 -3 -7 7 5622 1764 3 MP stroke
8 5 -9 0 5622 1871 3 MP stroke
12 3 -12 4 5615 2001 3 MP stroke
12 3 -12 4 5614 2126 3 MP stroke
12 1 -12 5 5615 2253 3 MP stroke
8 8 -10 -2 5621 2363 3 MP stroke
13 2 -13 5 5613 2501 3 MP stroke
7 11 -11 -6 5622 2606 3 MP stroke
9 1 -9 4 5621 2750 3 MP stroke
9 7 -11 -2 5619 2862 3 MP stroke
10 2 -9 4 5618 2998 3 MP stroke
9 13 -14 -6 5618 3100 3 MP stroke
11 2 -11 5 5615 3246 3 MP stroke
13 8 -15 0 5613 3360 3 MP stroke
15 5 -15 4 5608 3491 3 MP stroke
12 15 -16 -6 5612 3595 3 MP stroke
18 5 -18 5 5603 3739 3 MP stroke
16 6 -17 3 5606 3860 3 MP stroke
12 3 -12 4 5615 3992 3 MP stroke
10 14 -15 -7 5615 4092 3 MP stroke
12 3 -12 4 5614 4239 3 MP stroke
8 4 -9 1 5621 4360 3 MP stroke
11 2 -11 4 5617 4489 3 MP stroke
11 -3 -9 8 5725 522 3 MP stroke
5 0 -4 3 5736 1012 3 MP stroke
2 9 -6 -6 5741 1118 3 MP stroke
7 1 -7 3 5734 1258 3 MP stroke
6 6 -8 -3 5734 1372 3 MP stroke
7 2 -7 2 5732 1506 3 MP stroke
6 7 -8 -3 5733 1619 3 MP stroke
7 -1 -6 5 5734 1760 3 MP stroke
7 4 -8 1 5732 1875 3 MP stroke
9 4 -10 1 5729 1999 3 MP stroke
5 5 -7 -1 5735 2119 3 MP stroke
8 2 -8 3 5730 2252 3 MP stroke
3 7 -6 -5 5739 2365 3 MP stroke
2 -2 -1 3 5742 2505 3 MP stroke
0 7 -3 -6 5744 2611 3 MP stroke
4 1 -4 2 5738 2750 3 MP stroke
1 5 -3 -4 5745 2864 3 MP stroke
5 1 -5 2 5737 2997 3 MP stroke
5 10 -9 -6 5734 3104 3 MP stroke
8 3 -8 2 5731 3244 3 MP stroke
7 3 -7 1 5733 3368 3 MP stroke
9 5 -10 0 5728 3490 3 MP stroke
6 3 -7 1 5733 3616 3 MP stroke
8 4 -8 1 5730 3740 3 MP stroke
9 4 -9 1 5728 3865 3 MP stroke
9 3 -9 2 5727 3990 3 MP stroke
11 14 -15 -6 5723 4093 3 MP stroke
12 2 -12 5 5722 4241 3 MP stroke
9 5 -11 0 5728 4358 3 MP stroke
14 3 -14 5 5718 4489 3 MP stroke
16 4 -3 1 5810 389 3 MP stroke
23 6 -23 7 5808 506 3 MP stroke
11 1 -10 5 5833 1011 3 MP stroke
8 9 -11 -4 5838 1119 3 MP stroke
10 3 -9 3 5835 1256 3 MP stroke
4 4 -6 -1 5845 1375 3 MP stroke
10 2 -10 4 5833 1506 3 MP stroke
4 4 -5 -1 5846 1624 3 MP stroke
10 2 -10 4 5835 1754 3 MP stroke
8 4 -8 0 5838 1875 3 MP stroke
9 4 -9 1 5835 1999 3 MP stroke
7 6 -9 -1 5839 2119 3 MP stroke
10 3 -10 3 5836 2250 3 MP stroke
8 7 -10 -1 5836 2366 3 MP stroke
10 0 -9 5 5835 2503 3 MP stroke
11 9 -14 -2 5831 2611 3 MP stroke
11 3 -11 4 5833 2747 3 MP stroke
12 10 -15 -2 5828 2858 3 MP stroke
13 3 -12 4 5828 2996 3 MP stroke
8 12 -13 -7 5836 3101 3 MP stroke
15 3 -15 5 5825 3244 3 MP stroke
13 9 -15 -1 5826 3359 3 MP stroke
18 5 -18 5 5819 3490 3 MP stroke
6 10 -9 -6 5840 3602 3 MP stroke
19 6 -19 5 5816 3738 3 MP stroke
13 9 -15 0 5827 3855 3 MP stroke
19 7 -20 4 5815 3985 3 MP stroke
20 7 -21 5 5814 4108 3 MP stroke
21 6 -21 6 5812 4236 3 MP stroke
22 7 -23 6 5810 4359 3 MP stroke
22 7 -22 6 5811 4484 3 MP stroke
14 4 -2 0 5922 389 3 MP stroke
16 5 -16 5 5930 508 3 MP stroke
9 3 -9 2 5944 1132 3 MP stroke
10 4 -10 2 5943 1254 3 MP stroke
10 4 -10 1 5942 1377 3 MP stroke
8 3 -8 2 5946 1504 3 MP stroke
7 3 -8 1 5948 1629 3 MP stroke
5 2 -5 1 5950 1754 3 MP stroke
6 2 -6 1 5949 1878 3 MP stroke
7 1 -7 3 5947 2005 3 MP stroke
5 12 -9 -8 5950 2106 3 MP stroke
6 1 -6 3 5949 2253 3 MP stroke
7 6 -8 -1 5948 2368 3 MP stroke
8 1 -8 4 5945 2500 3 MP stroke
8 9 -11 -4 5946 2610 3 MP stroke
10 4 -10 2 5943 2746 3 MP stroke
11 4 -12 3 5940 2869 3 MP stroke
11 4 -12 2 5940 2993 3 MP stroke
11 4 -12 2 5940 3118 3 MP stroke
13 5 -14 3 5935 3240 3 MP stroke
12 7 -14 1 5936 3362 3 MP stroke
13 2 -12 5 5936 3496 3 MP stroke
5 7 -7 -4 5951 3608 3 MP stroke
13 3 -13 5 5935 3743 3 MP stroke
19 9 -20 2 5923 3857 3 MP stroke
17 5 -17 5 5929 3988 3 MP stroke
13 11 -16 -3 5934 4099 3 MP stroke
20 4 -19 7 5923 4240 3 MP stroke
21 8 -22 4 5919 4356 3 MP stroke
25 2 -23 12 5913 4495 3 MP stroke
10 9 -13 -3 6048 497 3 MP stroke
9 3 -9 2 6051 1007 3 MP stroke
7 4 -8 0 6056 1128 3 MP stroke
8 3 -9 2 6053 1254 3 MP stroke
9 4 -10 1 6051 1377 3 MP stroke
9 5 -10 1 6052 1501 3 MP stroke
9 3 -9 2 6051 1627 3 MP stroke
9 3 -10 2 6051 1752 3 MP stroke
5 8 -7 -4 6058 1867 3 MP stroke
12 1 -11 5 6047 2006 3 MP stroke
10 9 -12 -3 6049 2114 3 MP stroke
11 2 -11 5 6047 2251 3 MP stroke
11 7 -13 0 6048 2366 3 MP stroke
13 3 -12 5 6044 2500 3 MP stroke
10 14 -15 -7 6048 2602 3 MP stroke
9 3 -10 2 6051 2745 3 MP stroke
10 5 -11 1 6050 2867 3 MP stroke
9 5 -10 1 6051 2991 3 MP stroke
10 5 -11 1 6050 3117 3 MP stroke
13 5 -13 2 6043 3241 3 MP stroke
14 11 -17 -2 6039 3353 3 MP stroke
18 4 -17 6 6034 3494 3 MP stroke
12 14 -16 -6 6044 3595 3 MP stroke
20 4 -20 7 6029 3743 3 MP stroke
20 8 -21 4 6028 3858 3 MP stroke
13 3 -13 4 6044 3991 3 MP stroke
13 14 -17 -5 6040 4094 3 MP stroke
16 2 -15 6 6038 4242 3 MP stroke
10 7 -12 -1 6047 4354 3 MP stroke
24 1 -22 12 6022 4496 3 MP stroke
-5 5 2 -7 6186 748 3 MP stroke
-7 2 5 -5 6191 880 3 MP stroke
4 3 -4 -1 6170 1007 3 MP stroke
2 1 -2 0 6175 1132 3 MP stroke
0 3 -1 -2 6176 1253 3 MP stroke
1 3 -2 -2 6175 1378 3 MP stroke
1 2 -2 -1 6174 1503 3 MP stroke
2 2 -3 -1 6174 1628 3 MP stroke
4 2 -4 0 6170 1753 3 MP stroke
21 5 -20 7 6135 1878 3 MP stroke
7 0 -6 4 6163 2008 3 MP stroke
6 8 -8 -4 6166 2115 3 MP stroke
7 0 -7 3 6164 2254 3 MP stroke
11 4 -12 2 6155 2371 3 MP stroke
7 2 -7 2 6164 2501 3 MP stroke
6 7 -8 -3 6163 2612 3 MP stroke
10 5 -11 1 6158 2743 3 MP stroke
3 3 -4 -1 6172 2870 3 MP stroke
8 7 -10 -1 6159 2988 3 MP stroke
2 1 -2 1 6172 3122 3 MP stroke
5 2 -5 1 6167 3246 3 MP stroke
4 9 -7 -6 6168 3356 3 MP stroke
7 1 -7 3 6165 3495 3 MP stroke
6 12 -10 -7 6162 3599 3 MP stroke
8 1 -8 3 6162 3746 3 MP stroke
6 6 -7 -2 6164 3860 3 MP stroke
10 4 -10 2 6158 3989 3 MP stroke
11 9 -14 -1 6154 4103 3 MP stroke
14 -3 -11 10 6151 4251 3 MP stroke
14 8 -15 0 6150 4355 3 MP stroke
21 5 -20 7 6136 4486 3 MP stroke
1006 389 PD
-17 4 1006 513 2 MP stroke
-27 -26 1006 637 2 MP stroke
-16 -12 1006 886 2 MP stroke
-30 -3 1006 1010 2 MP stroke
-28 -5 1006 1134 2 MP stroke
-30 -9 1006 1259 2 MP stroke
-19 -11 1006 1383 2 MP stroke
-32 -11 1006 1507 2 MP stroke
-43 -16 1006 1631 2 MP stroke
-22 -20 1006 2377 2 MP stroke
-6 -3 1006 2502 2 MP stroke
-6 -2 1006 2626 2 MP stroke
-3 -21 1006 2750 2 MP stroke
-3 -16 1006 2874 2 MP stroke
-2 -4 1006 2999 2 MP stroke
-1 0 1006 3123 2 MP stroke
-21 -10 1006 3247 2 MP stroke
3 -10 1006 3372 2 MP stroke
-5 -8 1006 3496 2 MP stroke
-7 -7 1006 3620 2 MP stroke
-14 -6 1006 3744 2 MP stroke
-12 -7 1006 3869 2 MP stroke
-17 -2 1006 3993 2 MP stroke
-24 -6 1006 4117 2 MP stroke
-24 -5 1006 4242 2 MP stroke
-25 -4 1006 4366 2 MP stroke
-32 1 1006 4490 2 MP stroke
1114 389 PD
-43 8 1114 513 2 MP stroke
-59 -4 1114 637 2 MP stroke
-48 -7 1114 886 2 MP stroke
-61 2 1114 1010 2 MP stroke
-59 -7 1114 1134 2 MP stroke
-54 -7 1114 1259 2 MP stroke
-52 -13 1114 1383 2 MP stroke
-60 -10 1114 1507 2 MP stroke
-58 -11 1114 1631 2 MP stroke
-39 -3 1114 2377 2 MP stroke
-23 -7 1114 2502 2 MP stroke
-21 -7 1114 2626 2 MP stroke
-36 -21 1114 2750 2 MP stroke
-21 -8 1114 2874 2 MP stroke
-24 -10 1114 2999 2 MP stroke
-22 -9 1114 3123 2 MP stroke
-23 -7 1114 3247 2 MP stroke
-22 -7 1114 3372 2 MP stroke
-20 -7 1114 3496 2 MP stroke
-26 -6 1114 3620 2 MP stroke
-36 -2 1114 3744 2 MP stroke
-40 -2 1114 3869 2 MP stroke
-46 -1 1114 3993 2 MP stroke
-54 -5 1114 4117 2 MP stroke
-55 -4 1114 4242 2 MP stroke
-60 -2 1114 4366 2 MP stroke
-61 1 1114 4490 2 MP stroke
1222 389 PD
-47 15 1222 513 2 MP stroke
-47 -12 1222 637 2 MP stroke
-40 9 1222 761 2 MP stroke
-44 -10 1222 886 2 MP stroke
-49 9 1222 1010 2 MP stroke
-50 -15 1222 1134 2 MP stroke
-32 -12 1222 1383 2 MP stroke
-30 -15 1222 1507 2 MP stroke
-25 -10 1222 1631 2 MP stroke
-26 -10 1222 2502 2 MP stroke
-27 -12 1222 2626 2 MP stroke
-27 -18 1222 2750 2 MP stroke
-24 -12 1222 2874 2 MP stroke
-22 -10 1222 2999 2 MP stroke
-20 -9 1222 3123 2 MP stroke
-16 -7 1222 3247 2 MP stroke
-14 -7 1222 3372 2 MP stroke
-25 -5 1222 3496 2 MP stroke
-30 -6 1222 3620 2 MP stroke
-36 -4 1222 3744 2 MP stroke
-38 -4 1222 3869 2 MP stroke
-32 -3 1222 3993 2 MP stroke
-34 -2 1222 4117 2 MP stroke
-40 -1 1222 4242 2 MP stroke
-53 -9 1222 4366 2 MP stroke
-42 1 1222 4490 2 MP stroke
1329 389 PD
-51 3 1329 513 2 MP stroke
-28 -25 1329 637 2 MP stroke
-44 -9 1329 761 2 MP stroke
-50 -15 1329 886 2 MP stroke
-67 0 1329 1010 2 MP stroke
-74 -5 1329 1134 2 MP stroke
-65 0 1329 1259 2 MP stroke
-15 -4 1329 1507 2 MP stroke
-30 -13 1329 2502 2 MP stroke
-32 -14 1329 2626 2 MP stroke
-22 -10 1329 2750 2 MP stroke
-29 -5 1329 2874 2 MP stroke
-23 -6 1329 2999 2 MP stroke
-21 -4 1329 3123 2 MP stroke
-28 -4 1329 3247 2 MP stroke
-22 -7 1329 3372 2 MP stroke
-24 -5 1329 3496 2 MP stroke
-30 -6 1329 3620 2 MP stroke
-36 -5 1329 3744 2 MP stroke
-40 -5 1329 3869 2 MP stroke
-48 -4 1329 3993 2 MP stroke
-50 -7 1329 4117 2 MP stroke
-52 -7 1329 4242 2 MP stroke
-52 -28 1329 4366 2 MP stroke
-34 -3 1329 4490 2 MP stroke
1437 389 PD
-28 10 1437 513 2 MP stroke
-34 -23 1437 637 2 MP stroke
-31 0 1437 761 2 MP stroke
-24 -14 1437 886 2 MP stroke
-39 2 1437 1010 2 MP stroke
-38 3 1437 1134 2 MP stroke
-29 -1 1437 1259 2 MP stroke
-4 -5 1437 1383 2 MP stroke
-11 -8 1437 2502 2 MP stroke
-9 -4 1437 2626 2 MP stroke
-6 -5 1437 3123 2 MP stroke
-23 -2 1437 3247 2 MP stroke
-15 -5 1437 3372 2 MP stroke
-25 -5 1437 3496 2 MP stroke
-28 -4 1437 3620 2 MP stroke
-13 -4 1437 3744 2 MP stroke
-20 -5 1437 3869 2 MP stroke
-25 -7 1437 3993 2 MP stroke
-22 -12 1437 4117 2 MP stroke
-24 -10 1437 4242 2 MP stroke
-20 -3 1437 4366 2 MP stroke
-22 -2 1437 4490 2 MP stroke
-20 -3 1437 4615 2 MP stroke
1545 389 PD
-57 9 1545 513 2 MP stroke
-26 -17 1545 637 2 MP stroke
-60 -3 1545 761 2 MP stroke
-62 -10 1545 886 2 MP stroke
-51 2 1545 1010 2 MP stroke
-55 -25 1545 1134 2 MP stroke
-58 0 1545 1259 2 MP stroke
-48 -2 1545 1383 2 MP stroke
-28 -7 1545 1507 2 MP stroke
-20 -1 1545 3123 2 MP stroke
-25 -2 1545 3247 2 MP stroke
-27 -3 1545 3372 2 MP stroke
-26 -3 1545 3496 2 MP stroke
-29 -2 1545 3620 2 MP stroke
-37 -3 1545 3744 2 MP stroke
-40 -3 1545 3869 2 MP stroke
-43 -6 1545 3993 2 MP stroke
-43 -7 1545 4117 2 MP stroke
-48 -5 1545 4242 2 MP stroke
-50 -3 1545 4366 2 MP stroke
-52 0 1545 4490 2 MP stroke
-50 -3 1545 4615 2 MP stroke
1653 389 PD
-36 6 1653 513 2 MP stroke
-44 -7 1653 637 2 MP stroke
-45 10 1653 761 2 MP stroke
-38 -7 1653 886 2 MP stroke
-46 5 1653 1010 2 MP stroke
-42 -22 1653 1134 2 MP stroke
-42 0 1653 1259 2 MP stroke
-50 -1 1653 1383 2 MP stroke
-40 -6 1653 1507 2 MP stroke
-21 18 1653 2502 2 MP stroke
-12 -23 1653 2626 2 MP stroke
-17 1 1653 2750 2 MP stroke
-18 -2 1653 3123 2 MP stroke
-22 -3 1653 3247 2 MP stroke
-23 -3 1653 3372 2 MP stroke
-28 -2 1653 3496 2 MP stroke
-30 -1 1653 3620 2 MP stroke
-40 -1 1653 3744 2 MP stroke
-42 -4 1653 3869 2 MP stroke
-43 -6 1653 3993 2 MP stroke
-43 -3 1653 4117 2 MP stroke
-45 -2 1653 4242 2 MP stroke
-45 -5 1653 4366 2 MP stroke
-33 0 1653 4490 2 MP stroke
1760 389 PD
-47 -1 1760 513 2 MP stroke
-42 -13 1760 637 2 MP stroke
-53 1 1760 761 2 MP stroke
-43 -6 1760 886 2 MP stroke
-33 -5 1760 1010 2 MP stroke
-46 -20 1760 1134 2 MP stroke
-42 4 1760 1259 2 MP stroke
-38 10 1760 1383 2 MP stroke
-25 -5 1760 1507 2 MP stroke
-36 -6 1760 1631 2 MP stroke
-34 7 1760 2502 2 MP stroke
-28 -20 1760 2626 2 MP stroke
-29 9 1760 2750 2 MP stroke
-24 -1 1760 2874 2 MP stroke
-21 0 1760 2999 2 MP stroke
-21 -3 1760 3123 2 MP stroke
-30 -3 1760 3247 2 MP stroke
-37 -4 1760 3372 2 MP stroke
-31 -2 1760 3496 2 MP stroke
-31 -30 1760 3620 2 MP stroke
-41 -2 1760 3744 2 MP stroke
-42 -4 1760 3869 2 MP stroke
-40 -8 1760 3993 2 MP stroke
-43 -1 1760 4117 2 MP stroke
-48 0 1760 4242 2 MP stroke
-43 -21 1760 4366 2 MP stroke
-50 -1 1760 4490 2 MP stroke
-25 1 1868 389 2 MP stroke
-17 2 1868 513 2 MP stroke
-59 -25 1868 637 2 MP stroke
-23 2 1868 761 2 MP stroke
-33 -3 1868 886 2 MP stroke
-41 18 1868 1010 2 MP stroke
-35 -20 1868 1134 2 MP stroke
-25 3 1868 1259 2 MP stroke
-18 -5 1868 1383 2 MP stroke
-16 -4 1868 1507 2 MP stroke
-1 -3 1868 1631 2 MP stroke
-7 -31 1868 2626 2 MP stroke
-12 0 1868 2750 2 MP stroke
-12 -2 1868 2874 2 MP stroke
-13 -4 1868 2999 2 MP stroke
-14 -5 1868 3123 2 MP stroke
-16 -4 1868 3247 2 MP stroke
-17 -6 1868 3372 2 MP stroke
-10 -3 1868 3496 2 MP stroke
-12 -2 1868 3620 2 MP stroke
-18 -2 1868 3744 2 MP stroke
-24 -5 1868 3869 2 MP stroke
-28 3 1868 3993 2 MP stroke
-29 -27 1868 4117 2 MP stroke
-25 -3 1868 4242 2 MP stroke
-26 -5 1868 4366 2 MP stroke
-24 -3 1868 4490 2 MP stroke
-32 2 1976 389 2 MP stroke
-41 1 1976 513 2 MP stroke
-68 -19 1976 637 2 MP stroke
-59 1 1976 761 2 MP stroke
-60 -4 1976 886 2 MP stroke
-63 -1 1976 1010 2 MP stroke
-49 -31 1976 1134 2 MP stroke
-39 -4 1976 1259 2 MP stroke
-37 -4 1976 1383 2 MP stroke
-30 -3 1976 1507 2 MP stroke
-19 -6 1976 1631 2 MP stroke
-28 -14 1976 2502 2 MP stroke
-26 -24 1976 2626 2 MP stroke
-32 0 1976 2750 2 MP stroke
-30 -2 1976 2874 2 MP stroke
-29 -2 1976 2999 2 MP stroke
-28 -3 1976 3123 2 MP stroke
-29 -4 1976 3247 2 MP stroke
-37 -4 1976 3372 2 MP stroke
-29 -3 1976 3496 2 MP stroke
-30 -3 1976 3620 2 MP stroke
-38 -2 1976 3744 2 MP stroke
-41 -3 1976 3869 2 MP stroke
-45 -1 1976 3993 2 MP stroke
-30 -23 1976 4117 2 MP stroke
-50 -1 1976 4242 2 MP stroke
-50 -2 1976 4366 2 MP stroke
-51 -3 1976 4490 2 MP stroke
2084 389 PD
-39 6 2084 513 2 MP stroke
-35 -13 2084 637 2 MP stroke
-42 6 2084 761 2 MP stroke
-49 -8 2084 886 2 MP stroke
-44 8 2084 1010 2 MP stroke
-45 -18 2084 1134 2 MP stroke
-23 2 2084 1259 2 MP stroke
-29 0 2084 1383 2 MP stroke
-20 -9 2084 1507 2 MP stroke
-21 -5 2084 1631 2 MP stroke
-18 -6 2084 2377 2 MP stroke
-22 -2 2084 2502 2 MP stroke
-20 -11 2084 2626 2 MP stroke
-14 -3 2084 2750 2 MP stroke
-8 -5 2084 2874 2 MP stroke
-11 -4 2084 2999 2 MP stroke
-12 -6 2084 3123 2 MP stroke
-15 -6 2084 3247 2 MP stroke
-21 -4 2084 3372 2 MP stroke
-29 -3 2084 3496 2 MP stroke
-30 -2 2084 3620 2 MP stroke
-37 -2 2084 3744 2 MP stroke
-40 -3 2084 3869 2 MP stroke
-29 -2 2084 3993 2 MP stroke
-27 -22 2084 4117 2 MP stroke
-45 -4 2084 4242 2 MP stroke
-34 -1 2084 4366 2 MP stroke
-35 -3 2084 4490 2 MP stroke
-34 0 2191 389 2 MP stroke
-39 7 2191 513 2 MP stroke
-39 -17 2191 637 2 MP stroke
-35 7 2191 761 2 MP stroke
-37 10 2191 886 2 MP stroke
-34 3 2191 1010 2 MP stroke
-44 -18 2191 1134 2 MP stroke
-54 1 2191 1259 2 MP stroke
-30 0 2191 1383 2 MP stroke
-29 -3 2191 1631 2 MP stroke
-31 -15 2191 2377 2 MP stroke
-34 0 2191 2502 2 MP stroke
-38 -1 2191 2626 2 MP stroke
-25 -7 2191 2750 2 MP stroke
-25 -10 2191 2874 2 MP stroke
-27 -5 2191 2999 2 MP stroke
-27 -6 2191 3123 2 MP stroke
-30 -5 2191 3247 2 MP stroke
-37 -1 2191 3372 2 MP stroke
-29 0 2191 3496 2 MP stroke
-37 -26 2191 3620 2 MP stroke
-38 -2 2191 3744 2 MP stroke
-37 -19 2191 3869 2 MP stroke
-42 -1 2191 3993 2 MP stroke
-44 -23 2191 4117 2 MP stroke
-48 0 2191 4242 2 MP stroke
-56 -8 2191 4366 2 MP stroke
-54 13 2191 4490 2 MP stroke
2299 389 PD
-38 10 2299 513 2 MP stroke
-37 -17 2299 637 2 MP stroke
-32 10 2299 761 2 MP stroke
-28 -6 2299 886 2 MP stroke
-27 5 2299 1010 2 MP stroke
-37 -32 2299 1134 2 MP stroke
-27 0 2299 1259 2 MP stroke
-1 -12 2299 1383 2 MP stroke
3 4 2299 1507 2 MP stroke
-2 4 2299 1631 2 MP stroke
-5 -2 2299 1756 2 MP stroke
-6 -2 2299 1880 2 MP stroke
-14 1 2299 2253 2 MP stroke
-21 -9 2299 2377 2 MP stroke
-14 -3 2299 2502 2 MP stroke
-9 -22 2299 2626 2 MP stroke
-13 -6 2299 2750 2 MP stroke
-9 -8 2299 2874 2 MP stroke
-11 -3 2299 2999 2 MP stroke
-14 -2 2299 3123 2 MP stroke
-16 -2 2299 3247 2 MP stroke
-24 -16 2299 3372 2 MP stroke
-6 -2 2299 3496 2 MP stroke
-17 -29 2299 3620 2 MP stroke
-17 0 2299 3744 2 MP stroke
-19 -1 2299 3869 2 MP stroke
-20 -1 2299 3993 2 MP stroke
-22 -30 2299 4117 2 MP stroke
-23 -5 2299 4242 2 MP stroke
-17 -12 2299 4366 2 MP stroke
-24 4 2299 4490 2 MP stroke
-71 2 2407 389 2 MP stroke
-59 9 2407 513 2 MP stroke
-51 -21 2407 637 2 MP stroke
-55 9 2407 761 2 MP stroke
-55 -12 2407 886 2 MP stroke
-57 0 2407 1010 2 MP stroke
-47 -37 2407 1134 2 MP stroke
-33 -3 2407 1507 2 MP stroke
-32 -5 2407 1631 2 MP stroke
-37 -3 2407 1756 2 MP stroke
-24 -5 2407 1880 2 MP stroke
-39 6 2407 2004 2 MP stroke
-38 -26 2407 2129 2 MP stroke
-36 8 2407 2253 2 MP stroke
-35 -10 2407 2377 2 MP stroke
-36 1 2407 2502 2 MP stroke
-31 -20 2407 2626 2 MP stroke
-32 7 2407 2750 2 MP stroke
-33 -3 2407 2874 2 MP stroke
-27 0 2407 2999 2 MP stroke
-27 -1 2407 3123 2 MP stroke
-31 -2 2407 3247 2 MP stroke
-41 0 2407 3372 2 MP stroke
-39 -2 2407 3496 2 MP stroke
-43 2 2407 3620 2 MP stroke
-36 -1 2407 3744 2 MP stroke
-41 -15 2407 3869 2 MP stroke
-47 1 2407 3993 2 MP stroke
-39 -24 2407 4117 2 MP stroke
-53 0 2407 4242 2 MP stroke
-51 -11 2407 4366 2 MP stroke
-53 3 2407 4490 2 MP stroke
2515 389 PD
-58 14 2515 513 2 MP stroke
-46 -27 2515 637 2 MP stroke
-51 -20 2515 886 2 MP stroke
-48 3 2515 1010 2 MP stroke
-44 -26 2515 1134 2 MP stroke
-54 12 2515 1259 2 MP stroke
-43 5 2515 1383 2 MP stroke
-46 3 2515 1507 2 MP stroke
-31 6 2515 1631 2 MP stroke
-22 1 2515 1756 2 MP stroke
-18 -3 2515 1880 2 MP stroke
-19 -5 2515 2004 2 MP stroke
-18 -23 2515 2129 2 MP stroke
-16 5 2515 2253 2 MP stroke
-18 -10 2515 2377 2 MP stroke
-19 -6 2515 2502 2 MP stroke
-18 -27 2515 2626 2 MP stroke
-19 8 2515 2750 2 MP stroke
-17 -4 2515 2874 2 MP stroke
-15 -1 2515 2999 2 MP stroke
-7 -26 2515 3123 2 MP stroke
-16 -2 2515 3247 2 MP stroke
-27 -15 2515 3372 2 MP stroke
-28 1 2515 3496 2 MP stroke
-18 -30 2515 3620 2 MP stroke
-39 1 2515 3744 2 MP stroke
-44 -14 2515 3869 2 MP stroke
-43 -3 2515 3993 2 MP stroke
-35 -27 2515 4117 2 MP stroke
-35 -2 2515 4242 2 MP stroke
-45 -13 2515 4366 2 MP stroke
-35 0 2515 4490 2 MP stroke
-59 0 2622 389 2 MP stroke
-59 16 2622 513 2 MP stroke
-63 -17 2622 637 2 MP stroke
-46 7 2622 761 2 MP stroke
-40 10 2622 886 2 MP stroke
-54 -1 2622 1010 2 MP stroke
-59 -1 2622 1134 2 MP stroke
-32 13 2622 1259 2 MP stroke
-55 -15 2622 1383 2 MP stroke
-46 5 2622 1507 2 MP stroke
-43 -28 2622 1631 2 MP stroke
-28 2 2622 1756 2 MP stroke
-29 0 2622 1880 2 MP stroke
-27 2 2622 2004 2 MP stroke
-23 -14 2622 2129 2 MP stroke
-27 9 2622 2253 2 MP stroke
-29 -7 2622 2377 2 MP stroke
-31 -5 2622 2502 2 MP stroke
-32 -3 2622 2626 2 MP stroke
-32 0 2622 2750 2 MP stroke
-29 -12 2622 2874 2 MP stroke
-29 -3 2622 2999 2 MP stroke
-20 -20 2622 3123 2 MP stroke
-26 -1 2622 3247 2 MP stroke
-37 -10 2622 3372 2 MP stroke
-25 0 2622 3496 2 MP stroke
-35 -29 2622 3620 2 MP stroke
-38 3 2622 3744 2 MP stroke
-45 -13 2622 3869 2 MP stroke
-41 -3 2622 3993 2 MP stroke
-33 -28 2622 4117 2 MP stroke
-46 -1 2622 4242 2 MP stroke
-43 -13 2622 4366 2 MP stroke
-50 -1 2622 4490 2 MP stroke
2730 389 PD
-44 16 2730 513 2 MP stroke
-49 -18 2730 637 2 MP stroke
-37 14 2730 761 2 MP stroke
-27 0 2730 886 2 MP stroke
-16 5 2730 1010 2 MP stroke
-2 -2 2730 1134 2 MP stroke
-26 -4 2730 1383 2 MP stroke
-35 -1 2730 1507 2 MP stroke
-31 -1 2730 1631 2 MP stroke
-13 -11 2730 1880 2 MP stroke
-15 -2 2730 2377 2 MP stroke
-17 -3 2730 2502 2 MP stroke
-20 -35 2730 2626 2 MP stroke
-17 -1 2730 2750 2 MP stroke
-17 -16 2730 2874 2 MP stroke
-14 0 2730 2999 2 MP stroke
-9 -24 2730 3123 2 MP stroke
-10 0 2730 3247 2 MP stroke
-23 -9 2730 3372 2 MP stroke
-9 -1 2730 3496 2 MP stroke
-11 -32 2730 3620 2 MP stroke
-17 2 2730 3744 2 MP stroke
-5 -13 2730 3869 2 MP stroke
-20 1 2730 3993 2 MP stroke
-25 -32 2730 4117 2 MP stroke
-20 -3 2730 4242 2 MP stroke
-21 -6 2730 4366 2 MP stroke
-22 -6 2730 4490 2 MP stroke
2838 389 PD
-71 17 2838 513 2 MP stroke
-47 -13 2838 637 2 MP stroke
-66 3 2838 761 2 MP stroke
-44 -4 2838 1259 2 MP stroke
-24 -15 2838 1383 2 MP stroke
-22 3 2838 1507 2 MP stroke
-23 -12 2838 1631 2 MP stroke
-20 -8 2838 2377 2 MP stroke
-28 -1 2838 2502 2 MP stroke
-31 -44 2838 2626 2 MP stroke
-31 -1 2838 2750 2 MP stroke
-31 -14 2838 2874 2 MP stroke
-32 1 2838 2999 2 MP stroke
2 -21 2838 3123 2 MP stroke
-31 2 2838 3247 2 MP stroke
-31 -13 2838 3372 2 MP stroke
-27 1 2838 3496 2 MP stroke
-39 -22 2838 3620 2 MP stroke
-41 2 2838 3744 2 MP stroke
-41 -16 2838 3869 2 MP stroke
-44 -1 2838 3993 2 MP stroke
-37 -29 2838 4117 2 MP stroke
-41 -3 2838 4242 2 MP stroke
-43 -1 2838 4366 2 MP stroke
-46 0 2838 4490 2 MP stroke
2945 389 PD
-55 18 2945 513 2 MP stroke
-28 -6 2945 637 2 MP stroke
-48 -1 2945 886 2 MP stroke
-38 -8 2945 1259 2 MP stroke
-33 -3 2945 1383 2 MP stroke
-34 -1 2945 1507 2 MP stroke
-17 -5 2945 2502 2 MP stroke
-17 0 2945 2626 2 MP stroke
-14 -2 2945 2750 2 MP stroke
-12 -1 2945 2874 2 MP stroke
-11 -2 2945 2999 2 MP stroke
-13 -32 2945 3123 2 MP stroke
-17 1 2945 3247 2 MP stroke
-22 -20 2945 3372 2 MP stroke
-28 1 2945 3496 2 MP stroke
-19 -28 2945 3620 2 MP stroke
-35 -1 2945 3744 2 MP stroke
-40 -4 2945 3869 2 MP stroke
-41 -4 2945 3993 2 MP stroke
-44 -5 2945 4117 2 MP stroke
-43 -1 2945 4242 2 MP stroke
-41 -5 2945 4366 2 MP stroke
-47 3 2945 4490 2 MP stroke
3053 389 PD
-66 13 3053 513 2 MP stroke
-48 -12 3053 637 2 MP stroke
-54 -10 3053 1259 2 MP stroke
-36 -4 3053 1383 2 MP stroke
-32 -2 3053 1507 2 MP stroke
-33 -2 3053 1631 2 MP stroke
-29 -11 3053 1756 2 MP stroke
-42 -4 3053 1880 2 MP stroke
-19 -8 3053 2502 2 MP stroke
-31 -3 3053 2626 2 MP stroke
-30 -3 3053 2750 2 MP stroke
-30 -3 3053 2874 2 MP stroke
-30 -2 3053 2999 2 MP stroke
-35 -30 3053 3123 2 MP stroke
-26 3 3053 3247 2 MP stroke
-33 -16 3053 3372 2 MP stroke
-30 0 3053 3496 2 MP stroke
-40 -26 3053 3620 2 MP stroke
-35 -1 3053 3744 2 MP stroke
-39 -1 3053 3869 2 MP stroke
-40 -1 3053 3993 2 MP stroke
-35 -27 3053 4117 2 MP stroke
-44 -1 3053 4242 2 MP stroke
-47 -10 3053 4366 2 MP stroke
-56 -12 3053 4490 2 MP stroke
-62 -17 3053 4615 2 MP stroke
3161 389 PD
-62 15 3161 513 2 MP stroke
-51 -17 3161 637 2 MP stroke
-1 -25 3161 1134 2 MP stroke
-26 -7 3161 1259 2 MP stroke
-20 -7 3161 1383 2 MP stroke
-15 -5 3161 1507 2 MP stroke
-13 -5 3161 1631 2 MP stroke
-17 0 3161 1756 2 MP stroke
-15 5 3161 1880 2 MP stroke
-15 9 3161 2004 2 MP stroke
-13 -25 3161 2129 2 MP stroke
-14 11 3161 2253 2 MP stroke
-14 4 3161 2377 2 MP stroke
-19 1 3161 2502 2 MP stroke
-19 -29 3161 2626 2 MP stroke
-13 -1 3161 2750 2 MP stroke
-17 -11 3161 2874 2 MP stroke
1 -3 3161 2999 2 MP stroke
-21 -31 3161 3123 2 MP stroke
-4 0 3161 3247 2 MP stroke
-2 -6 3161 3372 2 MP stroke
-12 0 3161 3496 2 MP stroke
-15 -26 3161 3620 2 MP stroke
-18 -2 3161 3744 2 MP stroke
-9 -12 3161 3869 2 MP stroke
-20 -2 3161 3993 2 MP stroke
-21 -2 3161 4117 2 MP stroke
-24 -4 3161 4242 2 MP stroke
-21 -9 3161 4366 2 MP stroke
-26 4 3161 4490 2 MP stroke
3269 389 PD
-72 19 3269 513 2 MP stroke
-63 -15 3269 637 2 MP stroke
-68 -14 3269 886 2 MP stroke
-69 7 3269 1010 2 MP stroke
-19 6 3269 1259 2 MP stroke
-32 -10 3269 1383 2 MP stroke
-27 8 3269 1507 2 MP stroke
-28 -1 3269 1631 2 MP stroke
-28 -1 3269 1756 2 MP stroke
-28 -1 3269 1880 2 MP stroke
-29 11 3269 2004 2 MP stroke
-30 -20 3269 2129 2 MP stroke
-32 -11 3269 2253 2 MP stroke
-33 -17 3269 2377 2 MP stroke
-34 2 3269 2502 2 MP stroke
-38 -25 3269 2626 2 MP stroke
-30 4 3269 2750 2 MP stroke
-36 -6 3269 2874 2 MP stroke
-38 3 3269 2999 2 MP stroke
-30 -29 3269 3123 2 MP stroke
-26 1 3269 3247 2 MP stroke
-31 -16 3269 3372 2 MP stroke
-30 -1 3269 3496 2 MP stroke
-32 -1 3269 3620 2 MP stroke
-37 -2 3269 3744 2 MP stroke
-40 -5 3269 3869 2 MP stroke
-45 -5 3269 3993 2 MP stroke
-39 -24 3269 4117 2 MP stroke
-51 0 3269 4242 2 MP stroke
-48 -9 3269 4366 2 MP stroke
-51 11 3269 4490 2 MP stroke
3376 389 PD
-52 20 3376 513 2 MP stroke
-55 -12 3376 637 2 MP stroke
-35 19 3376 761 2 MP stroke
-36 -13 3376 886 2 MP stroke
-40 10 3376 1010 2 MP stroke
-40 -24 3376 1134 2 MP stroke
-14 2 3376 1507 2 MP stroke
-10 -10 3376 1631 2 MP stroke
-7 0 3376 1756 2 MP stroke
-12 -4 3376 1880 2 MP stroke
-12 15 3376 2004 2 MP stroke
-15 -26 3376 2129 2 MP stroke
-14 2 3376 2253 2 MP stroke
-15 -15 3376 2377 2 MP stroke
-14 -1 3376 2502 2 MP stroke
-15 -26 3376 2626 2 MP stroke
-17 -2 3376 2750 2 MP stroke
-16 -2 3376 2874 2 MP stroke
-12 -1 3376 2999 2 MP stroke
-16 -28 3376 3123 2 MP stroke
-22 -1 3376 3247 2 MP stroke
-19 -16 3376 3372 2 MP stroke
-28 -1 3376 3496 2 MP stroke
-28 -1 3376 3620 2 MP stroke
-36 -4 3376 3744 2 MP stroke
-40 -6 3376 3869 2 MP stroke
-30 -6 3376 3993 2 MP stroke
-30 -1 3376 4117 2 MP stroke
-35 0 3376 4242 2 MP stroke
-37 -8 3376 4366 2 MP stroke
-52 12 3376 4490 2 MP stroke
3484 389 PD
-46 4 3484 513 2 MP stroke
-52 -12 3484 637 2 MP stroke
-43 11 3484 761 2 MP stroke
-37 2 3484 886 2 MP stroke
-45 12 3484 1010 2 MP stroke
-34 -34 3484 1134 2 MP stroke
-12 -3 3484 1507 2 MP stroke
-12 -1 3484 1631 2 MP stroke
-19 -12 3484 1880 2 MP stroke
-31 0 3484 2004 2 MP stroke
-32 -31 3484 2129 2 MP stroke
-26 -5 3484 2253 2 MP stroke
-14 -30 3484 2377 2 MP stroke
-29 0 3484 2502 2 MP stroke
-29 -25 3484 2626 2 MP stroke
-31 -2 3484 2750 2 MP stroke
-30 -3 3484 2874 2 MP stroke
-32 -3 3484 2999 2 MP stroke
-37 -2 3484 3123 2 MP stroke
-24 -3 3484 3247 2 MP stroke
-26 -4 3484 3372 2 MP stroke
-29 -3 3484 3496 2 MP stroke
-28 -2 3484 3620 2 MP stroke
-33 -5 3484 3744 2 MP stroke
-44 -6 3484 3869 2 MP stroke
-51 -6 3484 3993 2 MP stroke
-40 -25 3484 4117 2 MP stroke
-53 0 3484 4242 2 MP stroke
-46 -14 3484 4366 2 MP stroke
-44 8 3484 4490 2 MP stroke
-50 6 3592 389 2 MP stroke
-50 8 3592 513 2 MP stroke
-41 -6 3592 637 2 MP stroke
-6 1 3592 1756 2 MP stroke
-11 -35 3592 2129 2 MP stroke
-17 4 3592 2253 2 MP stroke
-14 -16 3592 2377 2 MP stroke
-16 1 3592 2502 2 MP stroke
-15 -20 3592 2626 2 MP stroke
-14 0 3592 2750 2 MP stroke
-14 -1 3592 2874 2 MP stroke
-17 -3 3592 2999 2 MP stroke
-22 -3 3592 3123 2 MP stroke
-6 -4 3592 3247 2 MP stroke
-8 -7 3592 3372 2 MP stroke
-13 -2 3592 3496 2 MP stroke
-12 -3 3592 3620 2 MP stroke
-16 -2 3592 3744 2 MP stroke
-22 -1 3592 3869 2 MP stroke
-19 -9 3592 3993 2 MP stroke
-21 -7 3592 4117 2 MP stroke
-21 -6 3592 4242 2 MP stroke
-23 -6 3592 4366 2 MP stroke
-53 0 3592 4490 2 MP stroke
3700 389 PD
-69 7 3700 513 2 MP stroke
-38 -3 3700 637 2 MP stroke
-24 -6 3700 1383 2 MP stroke
-33 -5 3700 1507 2 MP stroke
-24 -7 3700 1631 2 MP stroke
-16 -6 3700 1756 2 MP stroke
-21 0 3700 1880 2 MP stroke
-32 2 3700 2004 2 MP stroke
-17 -28 3700 2129 2 MP stroke
-35 2 3700 2253 2 MP stroke
-22 -15 3700 2377 2 MP stroke
-31 0 3700 2502 2 MP stroke
-28 -27 3700 2626 2 MP stroke
-28 2 3700 2750 2 MP stroke
-31 3 3700 2874 2 MP stroke
-34 -2 3700 2999 2 MP stroke
-37 -3 3700 3123 2 MP stroke
-24 -4 3700 3247 2 MP stroke
-25 -6 3700 3372 2 MP stroke
-28 -2 3700 3496 2 MP stroke
-33 -3 3700 3620 2 MP stroke
-37 -4 3700 3744 2 MP stroke
-42 -6 3700 3869 2 MP stroke
-46 -7 3700 3993 2 MP stroke
-49 -5 3700 4117 2 MP stroke
-52 -3 3700 4242 2 MP stroke
-59 -10 3700 4366 2 MP stroke
-75 -3 3700 4490 2 MP stroke
3807 389 PD
-83 5 3807 513 2 MP stroke
-70 -5 3807 637 2 MP stroke
-21 -13 3807 1383 2 MP stroke
-23 -1 3807 1631 2 MP stroke
-8 -7 3807 1880 2 MP stroke
-16 4 3807 2004 2 MP stroke
-15 -14 3807 2129 2 MP stroke
-8 -10 3807 2253 2 MP stroke
-10 -3 3807 2377 2 MP stroke
-9 -3 3807 2502 2 MP stroke
-9 1 3807 2626 2 MP stroke
-10 2 3807 2750 2 MP stroke
-9 -5 3807 2874 2 MP stroke
-20 -2 3807 2999 2 MP stroke
-12 -33 3807 3123 2 MP stroke
-31 -2 3807 3247 2 MP stroke
-35 -4 3807 3372 2 MP stroke
-38 -4 3807 3496 2 MP stroke
-30 -4 3807 3620 2 MP stroke
-32 -9 3807 3744 2 MP stroke
-30 -9 3807 3869 2 MP stroke
-42 -4 3807 3993 2 MP stroke
-30 -20 3807 4117 2 MP stroke
-48 0 3807 4242 2 MP stroke
-56 -4 3807 4366 2 MP stroke
-64 5 3807 4490 2 MP stroke
-61 0 3915 389 2 MP stroke
-69 6 3915 513 2 MP stroke
-72 -10 3915 637 2 MP stroke
-55 8 3915 1010 2 MP stroke
-30 13 3915 1259 2 MP stroke
-28 -1 3915 1383 2 MP stroke
-12 16 3915 1507 2 MP stroke
-25 -10 3915 1631 2 MP stroke
-27 4 3915 1756 2 MP stroke
-63 22 3915 1880 2 MP stroke
-29 -3 3915 2004 2 MP stroke
-32 -19 3915 2129 2 MP stroke
-22 -13 3915 2253 2 MP stroke
-22 -4 3915 2377 2 MP stroke
-21 -3 3915 2502 2 MP stroke
-24 -6 3915 2626 2 MP stroke
-19 -10 3915 2750 2 MP stroke
-19 -8 3915 2874 2 MP stroke
-36 2 3915 2999 2 MP stroke
-45 -14 3915 3123 2 MP stroke
-33 3 3915 3247 2 MP stroke
-32 -6 3915 3372 2 MP stroke
-39 2 3915 3496 2 MP stroke
-32 -24 3915 3620 2 MP stroke
-33 -8 3915 3744 2 MP stroke
-33 -10 3915 3869 2 MP stroke
-52 -10 3915 3993 2 MP stroke
-34 -10 3915 4117 2 MP stroke
-42 -9 3915 4242 2 MP stroke
-61 -8 3915 4366 2 MP stroke
-76 7 3915 4490 2 MP stroke
-66 13 4023 389 2 MP stroke
-56 8 4023 513 2 MP stroke
-56 -9 4023 637 2 MP stroke
-57 15 4023 761 2 MP stroke
-57 15 4023 886 2 MP stroke
-41 -12 4023 1134 2 MP stroke
-43 28 4023 1259 2 MP stroke
-34 7 4023 1383 2 MP stroke
-33 13 4023 1507 2 MP stroke
-31 -26 4023 1631 2 MP stroke
-24 -4 4023 1756 2 MP stroke
-25 23 4023 1880 2 MP stroke
-6 2 4023 2004 2 MP stroke
-15 -3 4023 2129 2 MP stroke
-15 14 4023 2253 2 MP stroke
-26 -16 4023 2377 2 MP stroke
-12 -13 4023 2502 2 MP stroke
-11 -13 4023 2626 2 MP stroke
-16 -12 4023 2750 2 MP stroke
-16 -7 4023 2874 2 MP stroke
-36 9 4023 2999 2 MP stroke
-47 -9 4023 3123 2 MP stroke
-51 8 4023 3247 2 MP stroke
-57 -10 4023 3372 2 MP stroke
-50 9 4023 3496 2 MP stroke
-42 -2 4023 3620 2 MP stroke
-34 4 4023 3744 2 MP stroke
-24 0 4023 3869 2 MP stroke
-37 -1 4023 3993 2 MP stroke
-39 -6 4023 4117 2 MP stroke
-43 5 4023 4242 2 MP stroke
-66 7 4023 4366 2 MP stroke
-78 8 4023 4490 2 MP stroke
-75 41 4131 389 2 MP stroke
-70 25 4131 513 2 MP stroke
-70 -6 4131 637 2 MP stroke
-82 19 4131 761 2 MP stroke
-75 16 4131 886 2 MP stroke
-81 11 4131 1010 2 MP stroke
-82 8 4131 1134 2 MP stroke
-81 42 4131 1259 2 MP stroke
-94 -63 4131 1383 2 MP stroke
-84 -44 4131 1507 2 MP stroke
-76 -35 4131 1631 2 MP stroke
-66 -2 4131 1756 2 MP stroke
-37 7 4131 1880 2 MP stroke
-41 18 4131 2004 2 MP stroke
-58 34 4131 2129 2 MP stroke
-39 28 4131 2253 2 MP stroke
-37 9 4131 2377 2 MP stroke
-34 -15 4131 2502 2 MP stroke
-23 -24 4131 2626 2 MP stroke
-11 -10 4131 2750 2 MP stroke
-12 1 4131 2874 2 MP stroke
-47 8 4131 2999 2 MP stroke
-79 -6 4131 3123 2 MP stroke
-76 34 4131 3247 2 MP stroke
-89 -17 4131 3372 2 MP stroke
-84 8 4131 3496 2 MP stroke
-71 -3 4131 3620 2 MP stroke
-67 6 4131 3744 2 MP stroke
-59 0 4131 3869 2 MP stroke
-64 1 4131 3993 2 MP stroke
-65 -11 4131 4117 2 MP stroke
-81 28 4131 4242 2 MP stroke
-88 2 4131 4366 2 MP stroke
-87 9 4131 4490 2 MP stroke
-74 17 4238 389 2 MP stroke
-79 22 4238 513 2 MP stroke
-69 -7 4238 637 2 MP stroke
-67 15 4238 761 2 MP stroke
-66 -5 4238 886 2 MP stroke
-75 18 4238 1010 2 MP stroke
-77 16 4238 1134 2 MP stroke
-78 34 4238 1259 2 MP stroke
-68 -36 4238 1383 2 MP stroke
-65 -75 4238 1507 2 MP stroke
-64 -32 4238 1631 2 MP stroke
-66 -18 4238 1756 2 MP stroke
-76 -1 4238 1880 2 MP stroke
-78 7 4238 2004 2 MP stroke
-59 6 4238 2129 2 MP stroke
-38 20 4238 2253 2 MP stroke
-42 -2 4238 2377 2 MP stroke
-27 -18 4238 2502 2 MP stroke
-31 -19 4238 2626 2 MP stroke
2 -8 4238 2750 2 MP stroke
-31 -5 4238 2874 2 MP stroke
-41 13 4238 2999 2 MP stroke
-66 21 4238 3123 2 MP stroke
-70 11 4238 3247 2 MP stroke
-70 -15 4238 3372 2 MP stroke
-72 17 4238 3496 2 MP stroke
-80 -1 4238 3620 2 MP stroke
-79 11 4238 3744 2 MP stroke
-66 2 4238 3869 2 MP stroke
-71 9 4238 3993 2 MP stroke
-68 0 4238 4117 2 MP stroke
-67 -1 4238 4242 2 MP stroke
-71 15 4238 4366 2 MP stroke
-69 10 4238 4490 2 MP stroke
-77 14 4346 389 2 MP stroke
-89 16 4346 513 2 MP stroke
-93 1 4346 637 2 MP stroke
-79 3 4346 761 2 MP stroke
-75 8 4346 886 2 MP stroke
-69 16 4346 1010 2 MP stroke
-67 -7 4346 1134 2 MP stroke
-60 5 4346 1259 2 MP stroke
-46 15 4346 1383 2 MP stroke
-47 19 4346 1507 2 MP stroke
-48 -28 4346 1631 2 MP stroke
-43 -7 4346 1756 2 MP stroke
-65 5 4346 1880 2 MP stroke
-69 15 4346 2004 2 MP stroke
-67 -2 4346 2129 2 MP stroke
-57 -1 4346 2253 2 MP stroke
-56 -20 4346 2377 2 MP stroke
-18 -35 4346 2502 2 MP stroke
-32 -28 4346 2626 2 MP stroke
-60 -16 4346 2750 2 MP stroke
-69 -15 4346 2874 2 MP stroke
-57 2 4346 2999 2 MP stroke
-43 2 4346 3123 2 MP stroke
-71 3 4346 3247 2 MP stroke
-73 -1 4346 3372 2 MP stroke
-73 13 4346 3496 2 MP stroke
-70 -15 4346 3620 2 MP stroke
-76 15 4346 3744 2 MP stroke
-74 8 4346 3869 2 MP stroke
-79 25 4346 3993 2 MP stroke
-94 -12 4346 4117 2 MP stroke
-88 -8 4346 4242 2 MP stroke
-81 12 4346 4366 2 MP stroke
-81 -3 4346 4490 2 MP stroke
4454 389 PD
-75 12 4454 513 2 MP stroke
-76 -5 4454 637 2 MP stroke
-66 -7 4454 761 2 MP stroke
-63 7 4454 886 2 MP stroke
-70 12 4454 1010 2 MP stroke
-67 -5 4454 1134 2 MP stroke
-62 7 4454 1259 2 MP stroke
-59 9 4454 1383 2 MP stroke
-55 17 4454 1507 2 MP stroke
-64 7 4454 1631 2 MP stroke
-64 14 4454 1756 2 MP stroke
-69 15 4454 1880 2 MP stroke
-69 27 4454 2004 2 MP stroke
-73 -4 4454 2129 2 MP stroke
-62 7 4454 2253 2 MP stroke
-60 37 4454 2377 2 MP stroke
-64 10 4454 2502 2 MP stroke
-66 -18 4454 2626 2 MP stroke
-65 -7 4454 2750 2 MP stroke
-68 5 4454 2874 2 MP stroke
-69 6 4454 2999 2 MP stroke
-62 -4 4454 3123 2 MP stroke
-64 10 4454 3247 2 MP stroke
-53 14 4454 3372 2 MP stroke
-67 17 4454 3496 2 MP stroke
-65 2 4454 3620 2 MP stroke
-82 3 4454 3744 2 MP stroke
-83 2 4454 3869 2 MP stroke
-78 28 4454 3993 2 MP stroke
-80 -14 4454 4117 2 MP stroke
-79 -2 4454 4242 2 MP stroke
-70 -8 4454 4366 2 MP stroke
-64 -1 4454 4490 2 MP stroke
4562 389 PD
-59 4 4562 513 2 MP stroke
-82 -7 4562 637 2 MP stroke
-77 -3 4562 761 2 MP stroke
-90 5 4562 886 2 MP stroke
-91 15 4562 1010 2 MP stroke
-92 3 4562 1134 2 MP stroke
-93 14 4562 1259 2 MP stroke
-85 2 4562 1383 2 MP stroke
-91 21 4562 1507 2 MP stroke
-92 8 4562 1631 2 MP stroke
-83 6 4562 1756 2 MP stroke
-90 11 4562 1880 2 MP stroke
-85 38 4562 2004 2 MP stroke
-95 -6 4562 2129 2 MP stroke
-90 17 4562 2253 2 MP stroke
-89 6 4562 2377 2 MP stroke
-90 13 4562 2502 2 MP stroke
-93 -28 4562 2626 2 MP stroke
-87 -4 4562 2750 2 MP stroke
-95 1 4562 2874 2 MP stroke
-93 4 4562 2999 2 MP stroke
-89 20 4562 3123 2 MP stroke
-83 59 4562 3247 2 MP stroke
-84 27 4562 3372 2 MP stroke
-102 11 4562 3496 2 MP stroke
-107 5 4562 3620 2 MP stroke
-113 -9 4562 3744 2 MP stroke
-107 5 4562 3869 2 MP stroke
-109 34 4562 3993 2 MP stroke
-109 4 4562 4117 2 MP stroke
-99 2 4562 4242 2 MP stroke
-94 -6 4562 4366 2 MP stroke
-78 1 4562 4490 2 MP stroke
4669 389 PD
-69 13 4669 513 2 MP stroke
-73 -3 4669 637 2 MP stroke
-68 20 4669 761 2 MP stroke
-72 0 4669 886 2 MP stroke
-68 11 4669 1010 2 MP stroke
-76 -10 4669 1134 2 MP stroke
-69 -2 4669 1259 2 MP stroke
-78 -18 4669 1383 2 MP stroke
-72 -4 4669 1507 2 MP stroke
-76 -29 4669 1631 2 MP stroke
-79 -62 4669 1756 2 MP stroke
-68 -2 4669 1880 2 MP stroke
-74 16 4669 2004 2 MP stroke
-77 -14 4669 2129 2 MP stroke
-69 11 4669 2253 2 MP stroke
-78 24 4669 2377 2 MP stroke
-84 39 4669 2502 2 MP stroke
-79 28 4669 2626 2 MP stroke
-70 -5 4669 2750 2 MP stroke
-77 9 4669 2874 2 MP stroke
-73 43 4669 2999 2 MP stroke
-78 10 4669 3123 2 MP stroke
-77 59 4669 3247 2 MP stroke
-77 37 4669 3372 2 MP stroke
-83 9 4669 3496 2 MP stroke
-80 -22 4669 3620 2 MP stroke
-77 -4 4669 3744 2 MP stroke
-84 -12 4669 3869 2 MP stroke
-83 8 4669 3993 2 MP stroke
-85 -15 4669 4117 2 MP stroke
-84 -27 4669 4242 2 MP stroke
-75 -23 4669 4366 2 MP stroke
-79 -19 4669 4490 2 MP stroke
-120 -78 4669 4615 2 MP stroke
4777 389 PD
-81 20 4777 513 2 MP stroke
-83 6 4777 637 2 MP stroke
-79 24 4777 761 2 MP stroke
-76 -1 4777 886 2 MP stroke
-82 -3 4777 1010 2 MP stroke
-78 -19 4777 1134 2 MP stroke
-79 -20 4777 1259 2 MP stroke
-91 -40 4777 1383 2 MP stroke
-98 -85 4777 1507 2 MP stroke
-77 -63 4777 1631 2 MP stroke
-79 -16 4777 1756 2 MP stroke
-83 0 4777 1880 2 MP stroke
-72 11 4777 2004 2 MP stroke
-80 -9 4777 2129 2 MP stroke
-67 17 4777 2253 2 MP stroke
-43 -51 4777 2377 2 MP stroke
-78 -15 4777 2502 2 MP stroke
-73 -1 4777 2626 2 MP stroke
-72 13 4777 2750 2 MP stroke
-79 -3 4777 2874 2 MP stroke
-70 -6 4777 2999 2 MP stroke
-69 0 4777 3123 2 MP stroke
-58 56 4777 3247 2 MP stroke
-75 37 4777 3372 2 MP stroke
-68 0 4777 3496 2 MP stroke
-60 -42 4777 3620 2 MP stroke
-56 -11 4777 3744 2 MP stroke
-54 -14 4777 3869 2 MP stroke
-63 -14 4777 3993 2 MP stroke
-62 -22 4777 4117 2 MP stroke
-60 -26 4777 4242 2 MP stroke
-49 -20 4777 4366 2 MP stroke
-77 -17 4777 4490 2 MP stroke
-79 -40 4777 4615 2 MP stroke
-68 10 4885 389 2 MP stroke
-57 16 4885 513 2 MP stroke
-62 3 4885 637 2 MP stroke
-68 13 4885 761 2 MP stroke
-57 -13 4885 886 2 MP stroke
-49 -74 4885 1010 2 MP stroke
-55 -134 4885 1134 2 MP stroke
-84 -142 4885 1259 2 MP stroke
-92 -126 4885 1383 2 MP stroke
-84 -97 4885 1507 2 MP stroke
-69 -59 4885 1631 2 MP stroke
-51 -44 4885 1756 2 MP stroke
-45 -64 4885 1880 2 MP stroke
-46 -27 4885 2004 2 MP stroke
-47 -14 4885 2129 2 MP stroke
-21 10 4885 2253 2 MP stroke
-26 -17 4885 2377 2 MP stroke
-27 -13 4885 2502 2 MP stroke
-31 -3 4885 2626 2 MP stroke
-51 10 4885 2750 2 MP stroke
-52 -3 4885 2874 2 MP stroke
-51 5 4885 2999 2 MP stroke
-29 -9 4885 3123 2 MP stroke
-32 15 4885 3247 2 MP stroke
-43 34 4885 3372 2 MP stroke
-40 11 4885 3496 2 MP stroke
-39 -15 4885 3620 2 MP stroke
-30 5 4885 3744 2 MP stroke
-34 -10 4885 3869 2 MP stroke
-37 1 4885 3993 2 MP stroke
-37 -16 4885 4117 2 MP stroke
-38 -11 4885 4242 2 MP stroke
-47 -17 4885 4366 2 MP stroke
-42 -16 4885 4490 2 MP stroke
-60 -33 4885 4615 2 MP stroke
-79 15 4992 389 2 MP stroke
-73 5 4992 513 2 MP stroke
-69 9 4992 637 2 MP stroke
-66 10 4992 761 2 MP stroke
-48 -51 4992 886 2 MP stroke
-53 -89 4992 1010 2 MP stroke
-46 -133 4992 1134 2 MP stroke
-54 -87 4992 1259 2 MP stroke
-63 -45 4992 1383 2 MP stroke
-69 -51 4992 1507 2 MP stroke
-44 -50 4992 1631 2 MP stroke
-53 -57 4992 1756 2 MP stroke
-45 -26 4992 1880 2 MP stroke
-43 -20 4992 2004 2 MP stroke
-42 -18 4992 2129 2 MP stroke
-40 -10 4992 2253 2 MP stroke
-37 -4 4992 2377 2 MP stroke
-46 1 4992 2502 2 MP stroke
-55 -6 4992 2626 2 MP stroke
-45 3 4992 2750 2 MP stroke
-48 -14 4992 2874 2 MP stroke
-43 2 4992 2999 2 MP stroke
-45 -23 4992 3123 2 MP stroke
-48 11 4992 3247 2 MP stroke
-49 -3 4992 3372 2 MP stroke
-42 20 4992 3496 2 MP stroke
-51 -27 4992 3620 2 MP stroke
-58 8 4992 3744 2 MP stroke
-59 -14 4992 3869 2 MP stroke
-60 -2 4992 3993 2 MP stroke
-61 -16 4992 4117 2 MP stroke
-54 -30 4992 4242 2 MP stroke
-56 -12 4992 4366 2 MP stroke
-61 -3 4992 4490 2 MP stroke
-61 -16 4992 4615 2 MP stroke
-94 21 5100 389 2 MP stroke
-52 2 5100 513 2 MP stroke
-37 -35 5100 637 2 MP stroke
-34 -28 5100 761 2 MP stroke
-26 -45 5100 886 2 MP stroke
-32 -53 5100 1010 2 MP stroke
-30 -38 5100 1134 2 MP stroke
-28 0 5100 1259 2 MP stroke
-34 -18 5100 1383 2 MP stroke
-32 -11 5100 1507 2 MP stroke
-32 -12 5100 1631 2 MP stroke
-30 -16 5100 1756 2 MP stroke
-29 -2 5100 1880 2 MP stroke
-26 -14 5100 2004 2 MP stroke
-17 -13 5100 2129 2 MP stroke
-11 -11 5100 2253 2 MP stroke
-17 -4 5100 2377 2 MP stroke
-17 -4 5100 2502 2 MP stroke
-18 -7 5100 2626 2 MP stroke
-34 0 5100 2750 2 MP stroke
-41 -15 5100 2874 2 MP stroke
-35 -3 5100 2999 2 MP stroke
-28 -23 5100 3123 2 MP stroke
-35 7 5100 3247 2 MP stroke
-33 -10 5100 3372 2 MP stroke
-31 5 5100 3496 2 MP stroke
-37 -31 5100 3620 2 MP stroke
-35 5 5100 3744 2 MP stroke
-37 -10 5100 3869 2 MP stroke
-39 -2 5100 3993 2 MP stroke
-41 -12 5100 4117 2 MP stroke
-49 -9 5100 4242 2 MP stroke
-47 -21 5100 4366 2 MP stroke
-50 4 5100 4490 2 MP stroke
-51 -23 5100 4615 2 MP stroke
5208 389 PD
-32 -45 5208 513 2 MP stroke
-32 -57 5208 637 2 MP stroke
-35 -41 5208 761 2 MP stroke
-37 -22 5208 886 2 MP stroke
-26 -9 5208 1010 2 MP stroke
-25 -5 5208 1134 2 MP stroke
-26 -5 5208 1259 2 MP stroke
-30 0 5208 1383 2 MP stroke
-30 4 5208 1507 2 MP stroke
-26 0 5208 1631 2 MP stroke
-30 -5 5208 1756 2 MP stroke
-30 0 5208 1880 2 MP stroke
-24 -4 5208 2004 2 MP stroke
-35 -4 5208 2129 2 MP stroke
-34 -3 5208 2253 2 MP stroke
-34 -2 5208 2377 2 MP stroke
-35 0 5208 2502 2 MP stroke
-35 0 5208 2626 2 MP stroke
-37 0 5208 2750 2 MP stroke
-25 -1 5208 2874 2 MP stroke
-27 -3 5208 2999 2 MP stroke
-18 -24 5208 3123 2 MP stroke
-36 -2 5208 3247 2 MP stroke
-41 -10 5208 3372 2 MP stroke
-46 3 5208 3496 2 MP stroke
-38 -27 5208 3620 2 MP stroke
-50 3 5208 3744 2 MP stroke
-49 -12 5208 3869 2 MP stroke
-53 -1 5208 3993 2 MP stroke
-56 -1 5208 4117 2 MP stroke
-58 -5 5208 4242 2 MP stroke
-53 -14 5208 4366 2 MP stroke
-60 -7 5208 4490 2 MP stroke
-61 -8 5208 4615 2 MP stroke
5316 389 PD
-15 -22 5316 886 2 MP stroke
-20 -7 5316 1010 2 MP stroke
-15 -1 5316 1259 2 MP stroke
-17 -16 5316 1383 2 MP stroke
-18 7 5316 1507 2 MP stroke
-10 -26 5316 1631 2 MP stroke
-24 -4 5316 1756 2 MP stroke
-26 -16 5316 1880 2 MP stroke
-16 -2 5316 2004 2 MP stroke
-16 -32 5316 2129 2 MP stroke
-18 -1 5316 2253 2 MP stroke
-19 1 5316 2377 2 MP stroke
-9 4 5316 2502 2 MP stroke
-12 -26 5316 2626 2 MP stroke
-17 1 5316 2750 2 MP stroke
-26 -14 5316 2874 2 MP stroke
-26 0 5316 2999 2 MP stroke
-13 -24 5316 3123 2 MP stroke
-11 0 5316 3247 2 MP stroke
-6 -4 5316 3372 2 MP stroke
-23 5 5316 3496 2 MP stroke
-22 -28 5316 3620 2 MP stroke
-24 6 5316 3744 2 MP stroke
-18 -5 5316 3869 2 MP stroke
-25 4 5316 3993 2 MP stroke
-27 -2 5316 4117 2 MP stroke
-32 -5 5316 4242 2 MP stroke
-35 -4 5316 4366 2 MP stroke
-31 -5 5316 4490 2 MP stroke
-29 -7 5316 4615 2 MP stroke
-37 3 5423 1134 2 MP stroke
-31 2 5423 1259 2 MP stroke
-26 -5 5423 1383 2 MP stroke
-27 14 5423 1507 2 MP stroke
-25 -20 5423 1631 2 MP stroke
-28 -7 5423 1756 2 MP stroke
-39 -30 5423 1880 2 MP stroke
-32 2 5423 2004 2 MP stroke
-30 -31 5423 2129 2 MP stroke
-34 2 5423 2253 2 MP stroke
-37 -8 5423 2377 2 MP stroke
-21 0 5423 2502 2 MP stroke
-40 -20 5423 2626 2 MP stroke
-38 2 5423 2750 2 MP stroke
-29 -12 5423 2874 2 MP stroke
-27 2 5423 2999 2 MP stroke
-35 -23 5423 3123 2 MP stroke
-32 1 5423 3247 2 MP stroke
-25 -20 5423 3372 2 MP stroke
-44 7 5423 3496 2 MP stroke
-36 -20 5423 3620 2 MP stroke
-47 6 5423 3744 2 MP stroke
-44 -12 5423 3869 2 MP stroke
-55 4 5423 3993 2 MP stroke
-57 -1 5423 4117 2 MP stroke
-62 -2 5423 4242 2 MP stroke
-53 -11 5423 4366 2 MP stroke
-59 0 5423 4490 2 MP stroke
-10 -49 5531 1134 2 MP stroke
-15 1 5531 1259 2 MP stroke
7 9 5531 1383 2 MP stroke
-16 4 5531 1507 2 MP stroke
-12 -28 5531 1631 2 MP stroke
-17 8 5531 1756 2 MP stroke
-32 -22 5531 1880 2 MP stroke
-17 3 5531 2004 2 MP stroke
-15 -13 5531 2129 2 MP stroke
-22 1 5531 2253 2 MP stroke
-24 0 5531 2377 2 MP stroke
-27 7 5531 2502 2 MP stroke
-19 -33 5531 2626 2 MP stroke
-23 4 5531 2750 2 MP stroke
-31 -13 5531 2874 2 MP stroke
-28 4 5531 2999 2 MP stroke
-26 -27 5531 3123 2 MP stroke
-34 3 5531 3247 2 MP stroke
-42 0 5531 3372 2 MP stroke
-32 0 5531 3496 2 MP stroke
-38 -27 5531 3620 2 MP stroke
-37 2 5531 3744 2 MP stroke
-41 -16 5531 3869 2 MP stroke
-40 3 5531 3993 2 MP stroke
-34 -19 5531 4117 2 MP stroke
-48 0 5531 4242 2 MP stroke
-54 -13 5531 4366 2 MP stroke
-52 -1 5531 4490 2 MP stroke
1 -37 5639 1134 2 MP stroke
-29 2 5639 1259 2 MP stroke
-1 -3 5639 1383 2 MP stroke
-30 -3 5639 1507 2 MP stroke
-9 -8 5639 1631 2 MP stroke
-24 15 5639 1756 2 MP stroke
-26 -9 5639 1880 2 MP stroke
-36 1 5639 2004 2 MP stroke
-37 1 5639 2129 2 MP stroke
-36 5 5639 2253 2 MP stroke
-28 -16 5639 2377 2 MP stroke
-39 4 5639 2502 2 MP stroke
-28 -26 5639 2626 2 MP stroke
-27 4 5639 2750 2 MP stroke
-31 -14 5639 2874 2 MP stroke
-30 3 5639 2999 2 MP stroke
-35 -29 5639 3123 2 MP stroke
-35 4 5639 3247 2 MP stroke
-41 -12 5639 3372 2 MP stroke
-46 -1 5639 3496 2 MP stroke
-43 -31 5639 3620 2 MP stroke
-54 0 5639 3744 2 MP stroke
-50 -6 5639 3869 2 MP stroke
-36 3 5639 3993 2 MP stroke
-39 -32 5639 4117 2 MP stroke
-37 1 5639 4242 2 MP stroke
-27 -5 5639 4366 2 MP stroke
-33 3 5639 4490 2 MP stroke
-31 17 5747 513 2 MP stroke
-15 5 5747 1010 2 MP stroke
-12 -22 5747 1134 2 MP stroke
-20 2 5747 1259 2 MP stroke
-21 -14 5747 1383 2 MP stroke
-22 1 5747 1507 2 MP stroke
-22 -15 5747 1631 2 MP stroke
-19 9 5747 1756 2 MP stroke
-23 -4 5747 1880 2 MP stroke
-28 -4 5747 2004 2 MP stroke
-19 -11 5747 2129 2 MP stroke
-25 2 5747 2253 2 MP stroke
-14 -17 5747 2377 2 MP stroke
-6 6 5747 2502 2 MP stroke
-6 -21 5747 2626 2 MP stroke
-13 2 5747 2750 2 MP stroke
-5 -14 5747 2874 2 MP stroke
-15 0 5747 2999 2 MP stroke
-22 -25 5747 3123 2 MP stroke
-24 -1 5747 3247 2 MP stroke
-21 -3 5747 3372 2 MP stroke
-29 -6 5747 3496 2 MP stroke
-21 -3 5747 3620 2 MP stroke
-25 -3 5747 3744 2 MP stroke
-28 -3 5747 3869 2 MP stroke
-29 -1 5747 3993 2 MP stroke
-39 -30 5747 4117 2 MP stroke
-37 4 5747 4242 2 MP stroke
-30 -8 5747 4366 2 MP stroke
-43 4 5747 4490 2 MP stroke
-47 1 5854 389 2 MP stroke
-69 0 5854 513 2 MP stroke
-31 6 5854 1010 2 MP stroke
-27 -19 5854 1134 2 MP stroke
-28 0 5854 1259 2 MP stroke
-15 -9 5854 1383 2 MP stroke
-31 3 5854 1507 2 MP stroke
-13 -8 5854 1631 2 MP stroke
-29 2 5854 1756 2 MP stroke
-24 -5 5854 1880 2 MP stroke
-28 -4 5854 2004 2 MP stroke
-24 -11 5854 2129 2 MP stroke
-28 0 5854 2253 2 MP stroke
-28 -12 5854 2377 2 MP stroke
-28 6 5854 2502 2 MP stroke
-37 -17 5854 2626 2 MP stroke
-32 1 5854 2750 2 MP stroke
-41 -18 5854 2874 2 MP stroke
-38 1 5854 2999 2 MP stroke
-31 -29 5854 3123 2 MP stroke
-44 2 5854 3247 2 MP stroke
-43 -14 5854 3372 2 MP stroke
-53 -1 5854 3496 2 MP stroke
-23 -24 5854 3620 2 MP stroke
-57 -1 5854 3744 2 MP stroke
-42 -14 5854 3869 2 MP stroke
-59 -4 5854 3993 2 MP stroke
-61 -4 5854 4117 2 MP stroke
-63 0 5854 4242 2 MP stroke
-67 -1 5854 4366 2 MP stroke
-65 0 5854 4490 2 MP stroke
-42 0 5962 389 2 MP stroke
-48 0 5962 513 2 MP stroke
-27 0 5962 1134 2 MP stroke
-29 -3 5962 1259 2 MP stroke
-30 -5 5962 1383 2 MP stroke
-24 -1 5962 1507 2 MP stroke
-22 -1 5962 1631 2 MP stroke
-17 -1 5962 1756 2 MP stroke
-19 -1 5962 1880 2 MP stroke
-22 4 5962 2004 2 MP stroke
-21 -31 5962 2129 2 MP stroke
-19 3 5962 2253 2 MP stroke
-22 -10 5962 2377 2 MP stroke
-25 2 5962 2502 2 MP stroke
-27 -20 5962 2626 2 MP stroke
-29 -2 5962 2750 2 MP stroke
-34 -2 5962 2874 2 MP stroke
-34 -4 5962 2999 2 MP stroke
-34 -3 5962 3123 2 MP stroke
-41 -4 5962 3247 2 MP stroke
-40 -9 5962 3372 2 MP stroke
-38 5 5962 3496 2 MP stroke
-18 -16 5962 3620 2 MP stroke
-40 4 5962 3744 2 MP stroke
-59 -10 5962 3869 2 MP stroke
-50 0 5962 3993 2 MP stroke
-44 -21 5962 4117 2 MP stroke
-58 5 5962 4242 2 MP stroke
-65 -6 5962 4366 2 MP stroke
-72 17 5962 4490 2 MP stroke
6070 389 PD
-35 -19 6070 513 2 MP stroke
-28 -1 6070 1010 2 MP stroke
-22 -6 6070 1134 2 MP stroke
-26 -3 6070 1259 2 MP stroke
-29 -5 6070 1383 2 MP stroke
-28 -5 6070 1507 2 MP stroke
-28 -2 6070 1631 2 MP stroke
-29 -2 6070 1756 2 MP stroke
-19 -17 6070 1880 2 MP stroke
-34 7 6070 2004 2 MP stroke
-33 -18 6070 2129 2 MP stroke
-34 3 6070 2253 2 MP stroke
-35 -11 6070 2377 2 MP stroke
-38 3 6070 2502 2 MP stroke
-37 -31 6070 2626 2 MP stroke
-29 -3 6070 2750 2 MP stroke
-31 -6 6070 2874 2 MP stroke
-29 -7 6070 2999 2 MP stroke
-31 -5 6070 3123 2 MP stroke
-40 -4 6070 3247 2 MP stroke
-48 -21 6070 3372 2 MP stroke
-53 4 6070 3496 2 MP stroke
-42 -31 6070 3620 2 MP stroke
-61 6 6070 3744 2 MP stroke
-63 -7 6070 3869 2 MP stroke
-39 2 6070 3993 2 MP stroke
-47 -28 6070 4117 2 MP stroke
-47 6 6070 4242 2 MP stroke
-35 -13 6070 4366 2 MP stroke
-70 18 6070 4490 2 MP stroke
10 -20 6178 761 2 MP stroke
18 -11 6178 886 2 MP stroke
-12 -4 6178 1010 2 MP stroke
-5 -2 6178 1134 2 MP stroke
-3 -8 6178 1259 2 MP stroke
-5 -7 6178 1383 2 MP stroke
-6 -5 6178 1507 2 MP stroke
-7 -4 6178 1631 2 MP stroke
-12 -3 6178 1756 2 MP stroke
-63 5 6178 1880 2 MP stroke
-21 8 6178 2004 2 MP stroke
-20 -18 6178 2129 2 MP stroke
-21 4 6178 2253 2 MP stroke
-35 -4 6178 2377 2 MP stroke
-21 1 6178 2502 2 MP stroke
-23 -17 6178 2626 2 MP stroke
-31 -6 6178 2750 2 MP stroke
-10 -5 6178 2874 2 MP stroke
-29 -12 6178 2999 2 MP stroke
-8 0 6178 3123 2 MP stroke
-16 0 6178 3247 2 MP stroke
-17 -22 6178 3372 2 MP stroke
-20 2 6178 3496 2 MP stroke
-26 -28 6178 3620 2 MP stroke
-24 5 6178 3744 2 MP stroke
-21 -11 6178 3869 2 MP stroke
-30 -2 6178 3993 2 MP stroke
-38 -15 6178 4117 2 MP stroke
-38 19 6178 4242 2 MP stroke
-43 -11 6178 4366 2 MP stroke
-62 3 6178 4490 2 MP stroke
gr

c8

end %%Color Dict

eplot
%%EndObject

epage
end

showpage

%%Trailer
%%EOF
