%!PS-Adobe-2.0 EPSF-1.2
%%Creator: MATLAB, The MathWorks, Inc. Version 8.3.0.532 (R2014a). Operating System: Linux 3.19.0-31-generic #36~14.04.1-Ubuntu SMP Thu Oct 8 10:21:08 UTC 2015 x86_64.
%%Title: ../../data/output/p4/win_size5n_level4n_iter30min_eig0.0001.eps
%%CreationDate: 11/22/2015  18:55:53
%%DocumentNeededFonts: Helvetica
%%DocumentProcessColors: Cyan Magenta Yellow Black
%%Extensions: CMYK
%%Pages: 1
%%BoundingBox:    78   215   548   583
%%EndComments

%%BeginProlog
% MathWorks dictionary
/MathWorks 160 dict begin
% definition operators
/bdef {bind def} bind def
/ldef {load def} bind def
/xdef {exch def} bdef
/xstore {exch store} bdef
% operator abbreviations
/c  /clip ldef
/cc /concat ldef
/cp /closepath ldef
/gr /grestore ldef
/gs /gsave ldef
/mt /moveto ldef
/np /newpath ldef
/cm /currentmatrix ldef
/sm /setmatrix ldef
/rm /rmoveto ldef
/rl /rlineto ldef
/s {show newpath} bdef
/sc {setcmykcolor} bdef
/sr /setrgbcolor ldef
/sg /setgray ldef
/w /setlinewidth ldef
/j /setlinejoin ldef
/cap /setlinecap ldef
/rc {rectclip} bdef
/rf {rectfill} bdef
% page state control
/pgsv () def
/bpage {/pgsv save def} bdef
/epage {pgsv restore} bdef
/bplot /gsave ldef
/eplot {stroke grestore} bdef
% orientation switch
/portraitMode 0 def /landscapeMode 1 def /rotateMode 2 def
% coordinate system mappings
/dpi2point 0 def
% font control
/FontSize 0 def
/FMS {/FontSize xstore findfont [FontSize 0 0 FontSize neg 0 0]
  makefont setfont} bdef
/reencode {exch dup where {pop load} {pop StandardEncoding} ifelse
  exch dup 3 1 roll findfont dup length dict begin
  { 1 index /FID ne {def}{pop pop} ifelse } forall
  /Encoding exch def currentdict end definefont pop} bdef
/isroman {findfont /CharStrings get /Agrave known} bdef
/FMSR {3 1 roll 1 index dup isroman {reencode} {pop pop} ifelse
  exch FMS} bdef
/csm {1 dpi2point div -1 dpi2point div scale neg translate
 dup landscapeMode eq {pop -90 rotate}
  {rotateMode eq {90 rotate} if} ifelse} bdef
% line types: solid, dotted, dashed, dotdash
/SO { [] 0 setdash } bdef
/DO { [.5 dpi2point mul 4 dpi2point mul] 0 setdash } bdef
/DA { [6 dpi2point mul] 0 setdash } bdef
/DD { [.5 dpi2point mul 4 dpi2point mul 6 dpi2point mul 4
  dpi2point mul] 0 setdash } bdef
% macros for lines and objects
/L {lineto stroke} bdef
/MP {3 1 roll moveto 1 sub {rlineto} repeat} bdef
/AP {{rlineto} repeat} bdef
/PDlw -1 def
/W {/PDlw currentlinewidth def setlinewidth} def
/PP {closepath eofill} bdef
/DP {closepath stroke} bdef
/MR {4 -2 roll moveto dup  0 exch rlineto exch 0 rlineto
  neg 0 exch rlineto closepath} bdef
/FR {MR stroke} bdef
/PR {MR fill} bdef
/L1i {{currentfile picstr readhexstring pop} image} bdef
/tMatrix matrix def
/MakeOval {newpath tMatrix currentmatrix pop translate scale
0 0 1 0 360 arc tMatrix setmatrix} bdef
/FO {MakeOval stroke} bdef
/PO {MakeOval fill} bdef
/PD {currentlinewidth 2 div 0 360 arc fill
   PDlw -1 eq not {PDlw w /PDlw -1 def} if} def
/FA {newpath tMatrix currentmatrix pop translate scale
  0 0 1 5 -2 roll arc tMatrix setmatrix stroke} bdef
/PA {newpath tMatrix currentmatrix pop	translate 0 0 moveto scale
  0 0 1 5 -2 roll arc closepath tMatrix setmatrix fill} bdef
/FAn {newpath tMatrix currentmatrix pop translate scale
  0 0 1 5 -2 roll arcn tMatrix setmatrix stroke} bdef
/PAn {newpath tMatrix currentmatrix pop translate 0 0 moveto scale
  0 0 1 5 -2 roll arcn closepath tMatrix setmatrix fill} bdef
/vradius 0 def /hradius 0 def /lry 0 def
/lrx 0 def /uly 0 def /ulx 0 def /rad 0 def
/MRR {/vradius xdef /hradius xdef /lry xdef /lrx xdef /uly xdef
  /ulx xdef newpath tMatrix currentmatrix pop ulx hradius add uly
  vradius add translate hradius vradius scale 0 0 1 180 270 arc 
  tMatrix setmatrix lrx hradius sub uly vradius add translate
  hradius vradius scale 0 0 1 270 360 arc tMatrix setmatrix
  lrx hradius sub lry vradius sub translate hradius vradius scale
  0 0 1 0 90 arc tMatrix setmatrix ulx hradius add lry vradius sub
  translate hradius vradius scale 0 0 1 90 180 arc tMatrix setmatrix
  closepath} bdef
/FRR {MRR stroke } bdef
/PRR {MRR fill } bdef
/MlrRR {/lry xdef /lrx xdef /uly xdef /ulx xdef /rad lry uly sub 2 div def
  newpath tMatrix currentmatrix pop ulx rad add uly rad add translate
  rad rad scale 0 0 1 90 270 arc tMatrix setmatrix lrx rad sub lry rad
  sub translate rad rad scale 0 0 1 270 90 arc tMatrix setmatrix
  closepath} bdef
/FlrRR {MlrRR stroke } bdef
/PlrRR {MlrRR fill } bdef
/MtbRR {/lry xdef /lrx xdef /uly xdef /ulx xdef /rad lrx ulx sub 2 div def
  newpath tMatrix currentmatrix pop ulx rad add uly rad add translate
  rad rad scale 0 0 1 180 360 arc tMatrix setmatrix lrx rad sub lry rad
  sub translate rad rad scale 0 0 1 0 180 arc tMatrix setmatrix
  closepath} bdef
/FtbRR {MtbRR stroke } bdef
/PtbRR {MtbRR fill } bdef
/stri 6 array def /dtri 6 array def
/smat 6 array def /dmat 6 array def
/tmat1 6 array def /tmat2 6 array def /dif 3 array def
/asub {/ind2 exch def /ind1 exch def dup dup
  ind1 get exch ind2 get sub exch } bdef
/tri_to_matrix {
  2 0 asub 3 1 asub 4 0 asub 5 1 asub
  dup 0 get exch 1 get 7 -1 roll astore } bdef
/compute_transform {
  dmat dtri tri_to_matrix tmat1 invertmatrix 
  smat stri tri_to_matrix tmat2 concatmatrix } bdef
/ds {stri astore pop} bdef
/dt {dtri astore pop} bdef
/db {2 copy /cols xdef /rows xdef mul dup 3 mul string
  currentfile exch readhexstring pop
  dup 0 3 index getinterval /rbmap xdef
  dup 2 index dup getinterval /gbmap xdef
  1 index dup 2 mul exch getinterval /bbmap xdef pop pop}bdef
/it {gs np dtri aload pop moveto lineto lineto cp c
  cols rows 8 compute_transform 
  rbmap gbmap bbmap true 3 colorimage gr}bdef
/il {newpath moveto lineto stroke}bdef
currentdict end def
%%EndProlog

%%BeginSetup
MathWorks begin

0 cap

end
%%EndSetup

%%Page: 1 1
%%BeginPageSetup
%%PageBoundingBox:    78   215   548   583
MathWorks begin
bpage
%%EndPageSetup

%%BeginObject: obj1
bplot

/dpi2point 12 def
portraitMode 0216 7344 csm

  731   341  5640  4420 MR c np
85 dict begin %Colortable dictionary
/c0 { 0.000000 0.000000 0.000000 sr} bdef
/c1 { 1.000000 1.000000 1.000000 sr} bdef
/c2 { 0.900000 0.000000 0.000000 sr} bdef
/c3 { 0.000000 0.820000 0.000000 sr} bdef
/c4 { 0.000000 0.000000 0.800000 sr} bdef
/c5 { 0.910000 0.820000 0.320000 sr} bdef
/c6 { 1.000000 0.260000 0.820000 sr} bdef
/c7 { 0.000000 0.820000 0.820000 sr} bdef
c0
1 j
1 sg
   0    0 6913 5186 PR
6 w
0 -4226 5356 0 0 4226 899 389 4 MP
PP
-5356 0 0 -4226 5356 0 0 4226 899 389 5 MP stroke
4 w
DO
SO
6 w
0 sg
 899  389 mt 6255  389 L
 899 4615 mt 6255 4615 L
 899  389 mt  899 4615 L
6255  389 mt 6255 4615 L
 899 4615 mt 6255 4615 L
 899  389 mt  899 4615 L
1406 4615 mt 1406 4561 L
1406  389 mt 1406  442 L
%%IncludeResource: font Helvetica
/Helvetica /ISOLatin1Encoding 120 FMSR

1373 4760 mt 
(5) s
1945 4615 mt 1945 4561 L
1945  389 mt 1945  442 L
1879 4760 mt 
(10) s
2484 4615 mt 2484 4561 L
2484  389 mt 2484  442 L
2418 4760 mt 
(15) s
3022 4615 mt 3022 4561 L
3022  389 mt 3022  442 L
2956 4760 mt 
(20) s
3561 4615 mt 3561 4561 L
3561  389 mt 3561  442 L
3495 4760 mt 
(25) s
4100 4615 mt 4100 4561 L
4100  389 mt 4100  442 L
4034 4760 mt 
(30) s
4638 4615 mt 4638 4561 L
4638  389 mt 4638  442 L
4572 4760 mt 
(35) s
5177 4615 mt 5177 4561 L
5177  389 mt 5177  442 L
5111 4760 mt 
(40) s
5716 4615 mt 5716 4561 L
5716  389 mt 5716  442 L
5650 4760 mt 
(45) s
6255 4615 mt 6255 4561 L
6255  389 mt 6255  442 L
6189 4760 mt 
(50) s
 899  974 mt  952  974 L
6255  974 mt 6201  974 L
 798 1018 mt 
(5) s
 899 1596 mt  952 1596 L
6255 1596 mt 6201 1596 L
 731 1640 mt 
(10) s
 899 2217 mt  952 2217 L
6255 2217 mt 6201 2217 L
 731 2261 mt 
(15) s
 899 2839 mt  952 2839 L
6255 2839 mt 6201 2839 L
 731 2883 mt 
(20) s
 899 3460 mt  952 3460 L
6255 3460 mt 6201 3460 L
 731 3504 mt 
(25) s
 899 4082 mt  952 4082 L
6255 4082 mt 6201 4082 L
 731 4126 mt 
(30) s
 899  389 mt 6255  389 L
 899 4615 mt 6255 4615 L
 899  389 mt  899 4615 L
6255  389 mt 6255 4615 L
gs 899 389 5357 4227 MR c np
/c8 { 0.000000 0.000000 1.000000 sr} bdef
c8
7 0 -6 4 1207 514 3 MP stroke
2 -1 -2 2 1217 638 3 MP stroke
1 0 -1 1 1219 762 3 MP stroke
1 0 -1 0 1219 885 3 MP stroke
1 0 -1 1 1218 1010 3 MP stroke
1 1 -1 -1 1220 1132 3 MP stroke
1 1 -1 -1 1221 2501 3 MP stroke
0 1 -1 -1 1221 2624 3 MP stroke
1 1 -1 0 1219 2749 3 MP stroke
0 -1 0 0 1221 2873 3 MP stroke
3 11 -7 -8 1212 2979 3 MP stroke
1 1 -1 -1 1221 3122 3 MP stroke
0 1 1221 3246 2 MP stroke
0 1 1221 3370 2 MP stroke
1221 3495 PD
-1 1 1221 3618 2 MP stroke
1 1 -1 0 1220 3743 3 MP stroke
0 1 -1 -1 1220 3867 3 MP stroke
2 0 -1 0 1219 3993 3 MP stroke
-1 1 1220 4115 2 MP stroke
2 0 -2 1 1220 4241 3 MP stroke
2 0 -1 1 1325 514 3 MP stroke
2 1 -2 0 1326 636 3 MP stroke
2 0 -2 1 1326 760 3 MP stroke
2 2 -2 -1 1326 884 3 MP stroke
2 0 -2 1 1325 1010 3 MP stroke
2 2 -3 0 1325 1131 3 MP stroke
-1 1 1328 2500 2 MP stroke
1 1 -1 -1 1328 2624 3 MP stroke
1 1 -1 0 1328 2748 3 MP stroke
1 1 -2 0 1328 2872 3 MP stroke
-1 0 1328 2998 2 MP stroke
1 1 -1 -1 1328 3122 3 MP stroke
-4 0 3 -1 1337 3247 3 MP stroke
-1 0 1329 3370 2 MP stroke
1 1 -1 -1 1327 3495 3 MP stroke
1 1 -1 -1 1327 3619 3 MP stroke
-1 1 1328 3743 2 MP stroke
2 1 -2 0 1326 3866 3 MP stroke
2 2 -2 -1 1326 4115 3 MP stroke
1 1 -1 0 1326 4240 3 MP stroke
1 0 -1 1 1434 513 3 MP stroke
1 0 -1 0 1435 637 3 MP stroke
1 1 -1 0 1434 760 3 MP stroke
2 1 -2 -1 1435 884 3 MP stroke
1 1 -1 0 1434 1010 3 MP stroke
1 1 -1 0 1434 1133 3 MP stroke
1 0 -1 0 1435 1259 3 MP stroke
-1 0 1 -1 1438 1383 3 MP stroke
1 0 -1 0 1435 2501 3 MP stroke
1 1 -1 -1 1436 2625 3 MP stroke
0 1 -1 -1 1437 3121 3 MP stroke
0 -1 0 0 1436 3247 3 MP stroke
1 1 -1 0 1436 3369 3 MP stroke
0 1 1436 3495 2 MP stroke
1 1 -1 0 1436 3618 3 MP stroke
1 1 -1 0 1436 3743 3 MP stroke
0 1 -1 -1 1436 3867 3 MP stroke
1 1 -2 0 1435 3991 3 MP stroke
1 1 -1 -1 1435 4115 3 MP stroke
1 1 -1 0 1435 4241 3 MP stroke
1 1 -2 0 1435 4364 3 MP stroke
1 0 -1 0 1434 4490 3 MP stroke
1 1 -1 -1 1435 4613 3 MP stroke
2 0 -2 1 1542 513 3 MP stroke
2 1 -2 0 1541 637 3 MP stroke
2 2 -2 0 1541 759 3 MP stroke
2 0 -2 1 1541 885 3 MP stroke
2 0 -1 1 1541 1010 3 MP stroke
2 1 -2 0 1541 1134 3 MP stroke
2 1 -2 0 1541 1259 3 MP stroke
2 1 -2 0 1541 1382 3 MP stroke
1544 1507 PD
0 1 -1 -1 1544 3121 3 MP stroke
-1 1 1544 3246 2 MP stroke
1 1 -1 -1 1543 3370 3 MP stroke
0 1 1543 3495 2 MP stroke
1 1 -1 0 1543 3618 3 MP stroke
1 1 -1 0 1543 3743 3 MP stroke
1 1 -2 0 1543 3867 3 MP stroke
1 1 -1 0 1542 3993 3 MP stroke
1 1 -1 0 1542 4116 3 MP stroke
2 1 -2 0 1542 4240 3 MP stroke
2 1 -2 0 1542 4364 3 MP stroke
1 1 -1 0 1541 4489 3 MP stroke
2 2 -2 -1 1542 4612 3 MP stroke
2 0 -2 1 1650 513 3 MP stroke
1 1 -2 0 1650 636 3 MP stroke
2 0 -1 1 1649 761 3 MP stroke
1 1 -1 0 1650 885 3 MP stroke
1 0 -1 1 1650 1010 3 MP stroke
1 0 -1 0 1650 1134 3 MP stroke
2 0 -2 1 1650 1258 3 MP stroke
2 1 -2 0 1650 1382 3 MP stroke
4 2 -5 1 1645 1504 3 MP stroke
1 -1 -1 2 1650 2504 3 MP stroke
1 0 -1 0 1652 2625 3 MP stroke
0 1 1651 2749 2 MP stroke
0 -1 0 0 1651 3121 3 MP stroke
1 1 -1 0 1650 3246 3 MP stroke
1 2 -1 -1 1651 3369 3 MP stroke
0 1 1651 3495 2 MP stroke
1 1 -1 -1 1651 3618 3 MP stroke
1 1 -1 0 1650 3744 3 MP stroke
1 1 -1 -1 1650 3867 3 MP stroke
1 1 -1 0 1650 3992 3 MP stroke
1 1 -1 0 1650 4115 3 MP stroke
1 0 -1 0 1650 4241 3 MP stroke
1 0 -1 1 1757 513 3 MP stroke
2 0 -2 1 1756 636 3 MP stroke
2 0 -1 1 1756 762 3 MP stroke
4 2 -4 1 1751 884 3 MP stroke
2 1 -2 0 1757 1009 3 MP stroke
2 1 -2 0 1756 1134 3 MP stroke
3 -1 -2 2 1756 1259 3 MP stroke
2 1 -2 0 1757 1382 3 MP stroke
1 0 -1 0 1759 1507 3 MP stroke
1 1 -1 0 1758 1629 3 MP stroke
1 0 1759 2502 2 MP stroke
1 0 -1 0 1759 2626 3 MP stroke
1 -1 -1 1 1758 2751 3 MP stroke
1 1 -1 0 1758 2873 3 MP stroke
-1 0 1759 2998 2 MP stroke
-1 1 1759 3121 2 MP stroke
1 0 -1 0 1758 3247 3 MP stroke
1 1 -1 0 1758 3370 3 MP stroke
1 0 -1 0 1758 3495 3 MP stroke
1 1 -1 0 1758 3618 3 MP stroke
1 1 -1 0 1758 3743 3 MP stroke
1 2 -1 -1 1757 3867 3 MP stroke
1 1 -1 0 1757 3992 3 MP stroke
1 1 -1 0 1757 4115 3 MP stroke
2 0 -2 1 1757 4242 3 MP stroke
12 -1 -10 7 1845 517 3 MP stroke
1 1 -1 -1 1865 636 3 MP stroke
2 0 -1 0 1865 762 3 MP stroke
2 1 -2 0 1866 885 3 MP stroke
2 0 -1 1 1864 1011 3 MP stroke
1 1 -1 0 1865 1133 3 MP stroke
2 0 -1 1 1865 1259 3 MP stroke
2 1 -2 0 1864 1382 3 MP stroke
1867 1506 PD
0 1 -1 -1 1868 1629 3 MP stroke
1 1 -1 -1 1867 2624 3 MP stroke
0 1 1868 2750 2 MP stroke
0 1 1867 2874 2 MP stroke
1 0 -1 1 1867 2999 3 MP stroke
1 1 -1 -1 1867 3121 3 MP stroke
0 1 1867 3246 2 MP stroke
1 1 -1 0 1867 3369 3 MP stroke
1 1 -1 0 1866 3495 3 MP stroke
1 1 -1 0 1867 3618 3 MP stroke
0 1 1867 3743 2 MP stroke
0 1 -1 -1 1867 3867 3 MP stroke
1 1 -2 0 1866 3992 3 MP stroke
1 1 -1 -1 1866 4116 3 MP stroke
1 0 -2 0 1866 4241 3 MP stroke
1 1 -1 -1 1866 4364 3 MP stroke
3 0 -3 1 1969 514 3 MP stroke
2 2 -3 0 1971 634 3 MP stroke
2 0 -2 1 1973 761 3 MP stroke
2 0 -2 1 1972 885 3 MP stroke
1 0 -1 1 1972 1009 3 MP stroke
2 1 -2 0 1972 1132 3 MP stroke
2 0 -2 1 1972 1260 3 MP stroke
2 1 -2 0 1972 1382 3 MP stroke
2 0 -1 1 1972 1507 3 MP stroke
0 -1 0 0 1976 1630 3 MP stroke
1 1 -1 -1 1974 2500 3 MP stroke
0 1 1974 2624 2 MP stroke
2 1 -2 0 1974 2749 3 MP stroke
1 1 -2 -1 1975 2872 3 MP stroke
0 -1 0 0 1974 2998 3 MP stroke
1 1 -1 -1 1974 3121 3 MP stroke
0 1 1974 3246 2 MP stroke
1 1 -2 -1 1974 3370 3 MP stroke
1 0 -2 0 1974 3495 3 MP stroke
1 1 -1 -1 1974 3619 3 MP stroke
1 0 -1 0 1974 3744 3 MP stroke
1 1 -2 0 1973 3866 3 MP stroke
1 1 -2 0 1973 3992 3 MP stroke
1 1 -2 0 1973 4115 3 MP stroke
2 1 -2 0 1973 4240 3 MP stroke
1 1 -2 0 1973 4363 3 MP stroke
1 0 -1 1 2080 513 3 MP stroke
1 1 -1 0 2081 635 3 MP stroke
1 0 -1 1 2081 762 3 MP stroke
2 1 -2 0 2081 885 3 MP stroke
1 1 -1 0 2081 1009 3 MP stroke
1 1 -2 0 2081 1134 3 MP stroke
1 0 -1 0 2083 1259 3 MP stroke
-1 0 2083 1382 2 MP stroke
0 -1 2085 1507 2 MP stroke
1 1 -1 0 2082 1629 3 MP stroke
2083 2377 PD
1 0 -1 0 2082 2501 3 MP stroke
0 1 -1 -1 2083 2624 3 MP stroke
2082 2750 PD
1 1 -1 -1 2083 2873 3 MP stroke
1 0 2082 3000 2 MP stroke
0 -1 0 0 2082 3121 3 MP stroke
2083 3246 PD
1 1 -1 0 2082 3370 3 MP stroke
1 1 -1 0 2083 3495 3 MP stroke
1 2 -1 -1 2082 3618 3 MP stroke
1 0 -1 0 2083 3744 3 MP stroke
1 1 -1 -1 2082 3867 3 MP stroke
1 0 -1 1 2081 3992 3 MP stroke
1 1 -2 -1 2082 4116 3 MP stroke
1 0 -1 0 2081 4241 3 MP stroke
1 1 -1 0 2081 4364 3 MP stroke
2 0 -2 1 2188 513 3 MP stroke
2 0 -2 1 2188 636 3 MP stroke
2 0 -2 1 2187 761 3 MP stroke
2 0 -2 1 2186 885 3 MP stroke
3 0 -3 1 2186 1009 3 MP stroke
2 1 -2 0 2186 1134 3 MP stroke
3 0 -2 1 2187 1259 3 MP stroke
2 0 -2 1 2188 1382 3 MP stroke
4 1 -4 0 2185 1630 3 MP stroke
1 0 -1 0 2190 2377 3 MP stroke
1 0 -1 0 2190 2502 3 MP stroke
1 1 -1 0 2189 2624 3 MP stroke
1 1 -1 0 2189 2749 3 MP stroke
-1 0 2190 2873 2 MP stroke
1 0 -1 0 2190 2999 3 MP stroke
1 1 -1 -1 2189 3121 3 MP stroke
1 1 -1 0 2190 3246 3 MP stroke
1 0 -1 0 2190 3370 3 MP stroke
1 0 -1 0 2189 3496 3 MP stroke
-1 1 2190 3618 2 MP stroke
1 1 -1 0 2188 3744 3 MP stroke
1 1 -1 -1 2189 3867 3 MP stroke
1 0 -1 0 2189 3992 3 MP stroke
2 1 -2 0 2188 4115 3 MP stroke
1 1 -1 0 2188 4240 3 MP stroke
2 1 -2 0 2188 4364 3 MP stroke
1 0 -1 0 2296 513 3 MP stroke
1 0 -1 1 2296 637 3 MP stroke
2 0 -2 1 2296 762 3 MP stroke
1 1 -1 0 2296 885 3 MP stroke
1 0 -1 1 2296 1010 3 MP stroke
1 2 -1 -1 2296 1132 3 MP stroke
2 0 -1 1 2296 1259 3 MP stroke
1 0 -1 0 2297 1382 3 MP stroke
1 0 -1 1 2298 1507 3 MP stroke
2298 1631 PD
2298 1755 PD
2298 1880 PD
1 0 2297 2254 2 MP stroke
1 1 -1 -1 2298 2377 3 MP stroke
0 1 -1 -1 2299 2501 3 MP stroke
-1 1 2299 2625 2 MP stroke
2298 2749 PD
0 -1 0 0 2299 2873 3 MP stroke
1 0 -1 0 2299 2998 3 MP stroke
-1 1 2299 3121 2 MP stroke
2298 3247 PD
0 -1 0 0 2298 3370 3 MP stroke
1 -1 -1 1 2298 3496 3 MP stroke
1 1 -1 0 2298 3618 3 MP stroke
-1 0 2298 3744 2 MP stroke
1 1 -1 -1 2297 3867 3 MP stroke
2 0 -2 0 2297 3992 3 MP stroke
1 2 -2 -1 2297 4115 3 MP stroke
1 1 -1 0 2297 4241 3 MP stroke
1 1 -1 -1 2297 4364 3 MP stroke
2 1 -2 0 2403 513 3 MP stroke
2 0 -2 1 2403 637 3 MP stroke
1 0 -1 1 2403 761 3 MP stroke
2 1 -3 1 2403 884 3 MP stroke
2 0 -2 1 2404 1009 3 MP stroke
1 2 -2 -1 2404 1132 3 MP stroke
1 1 -1 0 2405 1506 3 MP stroke
-1 1 2405 1629 2 MP stroke
1 1 -1 0 2405 1754 3 MP stroke
1 0 -1 0 2405 1880 3 MP stroke
1 0 -1 0 2405 2004 3 MP stroke
1 1 -1 0 2405 2128 3 MP stroke
1 0 -1 0 2405 2253 3 MP stroke
2 -9 1 9 2404 2395 3 MP stroke
1 0 -1 0 2405 2501 3 MP stroke
1 0 -1 0 2405 2625 3 MP stroke
2405 2751 PD
1 1 -1 -1 2405 2873 3 MP stroke
0 1 2405 2999 2 MP stroke
1 1 -1 -1 2405 3121 3 MP stroke
1 0 -1 0 2405 3247 3 MP stroke
1 1 -1 0 2404 3370 3 MP stroke
1 0 -1 1 2405 3496 3 MP stroke
1 1 -1 0 2405 3618 3 MP stroke
1 1 -1 0 2405 3743 3 MP stroke
1 1 -1 -1 2405 3867 3 MP stroke
1 1 -2 0 2404 3992 3 MP stroke
1 1 -2 0 2404 4115 3 MP stroke
2 1 -2 0 2403 4241 3 MP stroke
2 1 -2 0 2403 4363 3 MP stroke
1 1 -1 0 2511 513 3 MP stroke
2 1 -2 0 2510 637 3 MP stroke
1 2 -2 -1 2513 883 3 MP stroke
1 0 -1 1 2512 1009 3 MP stroke
1 1 -1 0 2511 1133 3 MP stroke
2 0 -1 1 2511 1259 3 MP stroke
1 0 -1 0 2512 1383 3 MP stroke
2 0 -2 1 2512 1507 3 MP stroke
1 0 -1 0 2514 1631 3 MP stroke
2513 1756 PD
0 2 2514 1884 2 MP stroke
1 1 -1 0 2514 2003 3 MP stroke
0 1 -1 -1 2514 2127 3 MP stroke
1 -1 -1 1 2514 2253 3 MP stroke
0 1 -1 -1 2514 2376 3 MP stroke
-1 1 2514 2500 2 MP stroke
1 0 -1 0 2514 2624 3 MP stroke
1 0 -1 0 2513 2750 3 MP stroke
1 1 -1 -1 2514 2873 3 MP stroke
-1 0 2514 2998 2 MP stroke
0 -1 0 0 2514 3121 3 MP stroke
1 0 -1 0 2514 3247 3 MP stroke
1 0 -1 0 2513 3370 3 MP stroke
1 0 -1 0 2514 3495 3 MP stroke
2513 3620 PD
1 0 -1 0 2513 3744 3 MP stroke
1 1 -1 0 2512 3867 3 MP stroke
1 1 -1 0 2512 3992 3 MP stroke
1 1 -1 0 2512 4115 3 MP stroke
1 1 -1 0 2512 4240 3 MP stroke
1 1 -1 -1 2512 4365 3 MP stroke
3 1 -2 0 2616 389 3 MP stroke
2 0 -2 1 2619 513 3 MP stroke
2 1 -2 0 2619 637 3 MP stroke
2 -2 -1 3 2619 765 3 MP stroke
1 0 -1 1 2619 885 3 MP stroke
2 1 -2 0 2619 1008 3 MP stroke
2 0 -2 1 2619 1133 3 MP stroke
2 0 -2 1 2619 1259 3 MP stroke
2 1 -2 0 2619 1383 3 MP stroke
1 0 -1 1 2619 1507 3 MP stroke
2 0 -2 1 2618 1630 3 MP stroke
2622 1757 PD
1 0 -1 0 2620 1880 3 MP stroke
1 1 -1 -1 2620 2003 3 MP stroke
1 0 -1 0 2621 2128 3 MP stroke
1 0 -1 0 2621 2254 3 MP stroke
1 0 -1 0 2620 2377 3 MP stroke
1 0 -1 0 2620 2502 3 MP stroke
1 1 -1 -1 2620 2624 3 MP stroke
1 1 -1 0 2620 2750 3 MP stroke
1 1 -1 0 2620 2873 3 MP stroke
1 0 -1 0 2620 2998 3 MP stroke
1 1 -2 -1 2621 3121 3 MP stroke
1 0 -1 0 2621 3247 3 MP stroke
1 1 -1 0 2620 3370 3 MP stroke
1 0 -1 1 2620 3495 3 MP stroke
0 1 -1 -1 2621 3619 3 MP stroke
1 0 -1 0 2620 3744 3 MP stroke
2 2 -2 -1 2619 3867 3 MP stroke
1 0 -2 0 2620 3992 3 MP stroke
1 1 -2 0 2620 4116 3 MP stroke
2 0 -2 1 2619 4240 3 MP stroke
1 1 -1 0 2619 4363 3 MP stroke
1 0 2727 389 2 MP stroke
1 0 -1 1 2727 513 3 MP stroke
1 0 -1 0 2728 637 3 MP stroke
1 -1 -1 1 2728 763 3 MP stroke
2 0 -1 1 2727 886 3 MP stroke
1 1 -1 -1 2728 1009 3 MP stroke
1 2 -1 -1 2728 1132 3 MP stroke
0 1 2729 1381 2 MP stroke
2 -1 -1 1 2727 1508 3 MP stroke
1 1 -1 0 2728 1630 3 MP stroke
0 -2 2730 1878 2 MP stroke
0 -1 0 0 2729 2375 3 MP stroke
2729 2501 PD
1 1 -1 0 2729 2624 3 MP stroke
-1 1 2729 2749 2 MP stroke
-1 0 2730 2873 2 MP stroke
0 1 -1 -1 2730 2998 3 MP stroke
0 -1 0 0 2729 3121 3 MP stroke
2729 3247 PD
1 0 -1 0 2729 3371 3 MP stroke
0 1 2728 3495 2 MP stroke
0 1 -1 -1 2729 3619 3 MP stroke
1 0 -1 1 2728 3744 3 MP stroke
1 1 -1 0 2728 3867 3 MP stroke
1 1 -1 0 2728 3992 3 MP stroke
1 1 -1 -1 2728 4116 3 MP stroke
1 1 -1 -1 2728 4241 3 MP stroke
1 1 -2 -1 2728 4364 3 MP stroke
2 0 -1 0 2833 389 3 MP stroke
2 0 -2 2 2833 513 3 MP stroke
1 0 -1 1 2834 637 3 MP stroke
2 1 -2 0 2834 759 3 MP stroke
1 0 -1 0 2836 1258 3 MP stroke
-4 -2 4 -1 2846 1385 3 MP stroke
2836 1508 PD
2836 1631 PD
1 1 -2 0 2835 2374 3 MP stroke
1 0 -1 0 2836 2501 3 MP stroke
-1 1 2836 2623 2 MP stroke
1 1 -1 0 2836 2749 3 MP stroke
1 2 -1 -1 2836 2872 3 MP stroke
1 0 -1 0 2836 2998 3 MP stroke
1 2 -2 -1 2836 3121 3 MP stroke
1 0 -1 1 2836 3247 3 MP stroke
1 1 -1 0 2835 3371 3 MP stroke
1 1 -2 0 2836 3495 3 MP stroke
1 2 -2 -1 2836 3618 3 MP stroke
1 0 -1 1 2834 3744 3 MP stroke
2 1 -2 0 2835 3866 3 MP stroke
1 0 -1 1 2834 3992 3 MP stroke
2 1 -2 0 2834 4116 3 MP stroke
1 1 -1 0 2834 4241 3 MP stroke
1 1 -2 0 2835 4364 3 MP stroke
2 -1 -2 1 2943 514 3 MP stroke
2947 637 PD
1 0 -1 1 2943 887 3 MP stroke
2 0 -1 1 2943 1259 3 MP stroke
1 1 -1 0 2943 1382 3 MP stroke
2 1 -2 1 2940 1507 3 MP stroke
1 0 -1 0 2945 2501 3 MP stroke
0 1 -1 -1 2945 2624 3 MP stroke
1 1 -1 -1 2945 2749 3 MP stroke
0 1 -1 -1 2945 2873 3 MP stroke
0 1 -1 -1 2945 2998 3 MP stroke
1 1 -1 0 2944 3121 3 MP stroke
0 1 -1 -1 2945 3247 3 MP stroke
0 1 -1 -1 2945 3370 3 MP stroke
2944 3495 PD
1 1 -1 -1 2945 3619 3 MP stroke
1 1 -1 0 2943 3743 3 MP stroke
1 1 -2 -1 2944 3867 3 MP stroke
1 0 -1 0 2943 3992 3 MP stroke
1 2 -1 -1 2943 4115 3 MP stroke
1 1 -2 0 2943 4240 3 MP stroke
1 1 -1 0 2943 4364 3 MP stroke
1 1 -1 0 2942 4490 3 MP stroke
3 0 -1 0 3045 389 3 MP stroke
2 1 -2 0 3048 513 3 MP stroke
-1 0 1 0 3055 637 3 MP stroke
1 4 -3 -3 3049 1252 3 MP stroke
2 1 -2 0 3050 1382 3 MP stroke
1 0 -1 0 3052 1507 3 MP stroke
1 1 -2 -1 3052 1630 3 MP stroke
0 1 -1 -1 3052 1753 3 MP stroke
1 1 -2 0 3051 1878 3 MP stroke
0 1 3052 2500 2 MP stroke
1 2 -1 -1 3051 2624 3 MP stroke
1 1 -1 0 3051 2749 3 MP stroke
1 1 -1 0 3052 2872 3 MP stroke
-1 0 3052 2998 2 MP stroke
0 1 -1 -1 3052 3121 3 MP stroke
1 0 -1 1 3051 3246 3 MP stroke
-1 1 3052 3369 2 MP stroke
1 1 -1 0 3051 3495 3 MP stroke
1 1 -1 0 3051 3618 3 MP stroke
1 1 -1 0 3051 3743 3 MP stroke
-1 1 3052 3867 2 MP stroke
1 0 -1 0 3050 3993 3 MP stroke
1 2 -1 -1 3050 4116 3 MP stroke
2 1 -2 0 3050 4241 3 MP stroke
1 2 -2 -1 3050 4364 3 MP stroke
1 1 -1 0 3050 4489 3 MP stroke
1 -1 -1 1 3158 514 3 MP stroke
2 1 -2 0 3159 637 3 MP stroke
0 -1 0 0 3160 1132 3 MP stroke
0 -2 0 1 3160 1255 3 MP stroke
0 1 -1 -1 3160 1381 3 MP stroke
3160 1508 PD
1 -1 -1 1 3160 1634 3 MP stroke
-1 0 3160 1757 2 MP stroke
0 1 3160 1882 2 MP stroke
1 -2 0 2 3160 2007 3 MP stroke
1 0 -1 0 3160 2128 3 MP stroke
3160 2252 PD
1 1 -1 -1 3160 2375 3 MP stroke
0 1 3160 2501 2 MP stroke
0 1 -1 -1 3161 2624 3 MP stroke
0 -1 0 0 3160 2749 3 MP stroke
0 1 -1 -1 3161 2873 3 MP stroke
1 1 -1 -1 3160 2998 3 MP stroke
0 1 -1 -1 3160 3121 3 MP stroke
1 1 -1 -1 3160 3247 3 MP stroke
0 1 3160 3370 2 MP stroke
1 1 -1 0 3160 3495 3 MP stroke
1 1 -1 -1 3160 3619 3 MP stroke
1 1 -1 0 3159 3743 3 MP stroke
1 1 -1 -1 3160 3867 3 MP stroke
1 1 -1 0 3158 3992 3 MP stroke
1 1 -2 0 3159 4115 3 MP stroke
1 0 -1 0 3158 4241 3 MP stroke
1 1 -2 -1 3159 4364 3 MP stroke
1 1 -1 0 3159 4489 3 MP stroke
2 1 -2 1 3264 513 3 MP stroke
2 1 -2 0 3266 636 3 MP stroke
1 1 -1 0 3265 884 3 MP stroke
2 1 -2 0 3265 1009 3 MP stroke
1 0 -1 1 3267 1259 3 MP stroke
1 0 -1 1 3267 1382 3 MP stroke
1 0 -1 1 3267 1508 3 MP stroke
1 1 -1 0 3267 1630 3 MP stroke
1 1 -1 0 3267 1754 3 MP stroke
3267 1880 PD
1 0 -1 0 3267 2005 3 MP stroke
1 0 -1 1 3266 2128 3 MP stroke
1 1 -1 0 3266 2251 3 MP stroke
1 1 -1 0 3267 2375 3 MP stroke
1 0 -2 0 3267 2501 3 MP stroke
1 1 -1 0 3267 2624 3 MP stroke
1 0 -1 1 3267 2750 3 MP stroke
1 1 -1 -1 3266 2873 3 MP stroke
0 1 3267 2997 2 MP stroke
1 1 -1 0 3267 3121 3 MP stroke
1 0 -1 0 3266 3247 3 MP stroke
1 0 -1 0 3267 3371 3 MP stroke
1 1 -1 0 3267 3495 3 MP stroke
7 7 -9 -3 3255 3609 3 MP stroke
2 1 -2 0 3265 3744 3 MP stroke
2 2 -2 -1 3265 3867 3 MP stroke
2 1 -2 0 3265 3991 3 MP stroke
1 1 -1 0 3265 4115 3 MP stroke
2 1 -2 0 3266 4241 3 MP stroke
2 1 -2 0 3266 4364 3 MP stroke
1 0 3370 389 2 MP stroke
2 1 -2 0 3373 513 3 MP stroke
1 0 -1 1 3374 636 3 MP stroke
1 0 -1 1 3373 762 3 MP stroke
1 1 -1 0 3373 884 3 MP stroke
1 0 -1 0 3374 1010 3 MP stroke
1 1 -1 0 3374 1134 3 MP stroke
1 -1 -1 1 3376 1508 3 MP stroke
1 0 -1 0 3376 1631 3 MP stroke
3377 1755 PD
3375 1880 PD
1 0 -1 0 3376 2005 3 MP stroke
1 0 -1 0 3375 2128 3 MP stroke
3375 2254 PD
0 1 3375 2375 2 MP stroke
-1 0 3376 2501 2 MP stroke
1 1 -1 -1 3376 2625 3 MP stroke
1 0 -1 0 3375 2749 3 MP stroke
1 1 -1 0 3376 2872 3 MP stroke
1 0 -1 1 3376 2998 3 MP stroke
1 1 -1 -1 3376 3121 3 MP stroke
3375 3247 PD
0 1 3375 3371 2 MP stroke
0 1 3375 3496 2 MP stroke
1 1 -1 -1 3375 3619 3 MP stroke
2 1 -2 0 3374 3743 3 MP stroke
-1 1 3375 3866 2 MP stroke
2 1 -2 0 3374 3993 3 MP stroke
1 2 -2 -1 3374 4115 3 MP stroke
1 1 -1 -1 3374 4241 3 MP stroke
1 1 -1 -1 3374 4364 3 MP stroke
3 0 -3 2 3477 512 3 MP stroke
2 1 -2 1 3480 636 3 MP stroke
2 0 -2 2 3480 762 3 MP stroke
2 0 -2 1 3480 885 3 MP stroke
2 1 -2 0 3481 1009 3 MP stroke
2 2 -2 -1 3481 1132 3 MP stroke
1 1 -1 0 3482 1506 3 MP stroke
1 1 -1 0 3482 1631 3 MP stroke
1 2 -2 -1 3481 1878 3 MP stroke
1 0 -1 0 3482 2005 3 MP stroke
1 1 -1 0 3482 2126 3 MP stroke
1 1 -1 0 3482 2252 3 MP stroke
-1 1 3484 2375 2 MP stroke
0 -1 3484 2500 2 MP stroke
1 1 -1 -1 3482 2625 3 MP stroke
1 1 -1 0 3483 2749 3 MP stroke
1 2 -1 -1 3482 2872 3 MP stroke
1 0 -1 0 3482 2998 3 MP stroke
0 1 -1 -1 3483 3121 3 MP stroke
2 0 -2 0 3482 3247 3 MP stroke
1 1 -2 -1 3483 3370 3 MP stroke
1 0 -1 1 3482 3496 3 MP stroke
1 1 -2 -1 3482 3618 3 MP stroke
2 0 -2 1 3481 3744 3 MP stroke
1 2 -1 -1 3481 3867 3 MP stroke
2 1 -2 0 3480 3992 3 MP stroke
2 1 -2 0 3481 4116 3 MP stroke
1 1 -1 0 3481 4240 3 MP stroke
2 1 -2 0 3481 4363 3 MP stroke
1 0 -1 1 3589 513 3 MP stroke
2 1 -2 0 3588 637 3 MP stroke
-1 -1 1 1 3592 1756 3 MP stroke
3591 2128 PD
3591 2254 PD
0 1 3591 2375 2 MP stroke
1 0 -1 0 3591 2501 3 MP stroke
1 1 -1 -1 3591 2624 3 MP stroke
1 0 -1 0 3591 2751 3 MP stroke
0 -1 0 0 3591 2873 3 MP stroke
3591 2998 PD
1 0 -1 0 3591 3121 3 MP stroke
0 1 3591 3246 2 MP stroke
1 0 -1 0 3591 3370 3 MP stroke
1 0 -1 0 3591 3496 3 MP stroke
0 1 -1 -1 3591 3619 3 MP stroke
3591 3744 PD
1 1 -2 0 3590 3866 3 MP stroke
1 0 -1 0 3590 3992 3 MP stroke
1 1 -2 0 3590 4115 3 MP stroke
1 1 -2 0 3590 4240 3 MP stroke
1 1 -2 0 3590 4364 3 MP stroke
4 1 3689 389 2 MP stroke
2 1 -2 1 3694 513 3 MP stroke
3 0 -3 1 3694 637 3 MP stroke
3 1 -3 1 3695 1382 3 MP stroke
1 0 -1 1 3696 1507 3 MP stroke
1 1 -1 0 3698 1629 3 MP stroke
3698 1756 PD
1 1 -1 0 3698 1878 3 MP stroke
1 0 -1 0 3698 2003 3 MP stroke
1 1 -1 0 3698 2128 3 MP stroke
1 1 -1 -1 3698 2252 3 MP stroke
0 -1 0 0 3698 2376 3 MP stroke
1 0 -1 0 3698 2502 3 MP stroke
-1 1 3698 2624 2 MP stroke
1 0 -1 1 3698 2749 3 MP stroke
1 1 -1 0 3698 2873 3 MP stroke
1 1 -1 0 3698 2997 3 MP stroke
1 1 -1 -1 3698 3122 3 MP stroke
1 0 -2 0 3698 3247 3 MP stroke
1 1 -2 0 3698 3369 3 MP stroke
1 0 -1 0 3698 3496 3 MP stroke
1 1 -1 0 3697 3618 3 MP stroke
2 0 -2 1 3696 3744 3 MP stroke
1 2 -2 -1 3697 3867 3 MP stroke
1 1 -1 0 3697 3992 3 MP stroke
2 1 -2 0 3696 4115 3 MP stroke
1 0 -1 1 3696 4240 3 MP stroke
1 1 -2 0 3697 4363 3 MP stroke
1 0 3802 389 2 MP stroke
2 0 -2 1 3803 513 3 MP stroke
2 0 -2 1 3803 636 3 MP stroke
1 0 -1 0 3807 1383 3 MP stroke
1 1 -1 0 3805 1631 3 MP stroke
0 1 -1 -1 3807 1878 3 MP stroke
3806 2005 PD
1 0 -1 0 3806 2128 3 MP stroke
1 1 -1 -1 3807 2252 3 MP stroke
0 1 3806 2375 2 MP stroke
1 0 3806 2502 2 MP stroke
1 0 -1 0 3807 2625 3 MP stroke
0 1 3806 2751 2 MP stroke
0 -1 0 0 3806 2873 3 MP stroke
0 -1 0 0 3806 2998 3 MP stroke
0 -1 0 0 3806 3122 3 MP stroke
1 0 -1 0 3806 3246 3 MP stroke
0 1 3806 3370 2 MP stroke
3806 3495 PD
1 1 -1 -1 3805 3619 3 MP stroke
1 1 -1 0 3806 3743 3 MP stroke
1 1 -2 0 3806 3866 3 MP stroke
2 0 -2 0 3805 3993 3 MP stroke
1 1 -1 0 3805 4116 3 MP stroke
2 0 -2 1 3805 4242 3 MP stroke
1 0 -1 1 3804 4365 3 MP stroke
3 0 -3 1 3910 513 3 MP stroke
3 1 -3 1 3909 636 3 MP stroke
2 0 -2 2 3911 1010 3 MP stroke
1 0 -1 0 3913 1259 3 MP stroke
1 0 -1 0 3913 1382 3 MP stroke
0 -4 1 4 3915 1514 3 MP stroke
1 1 -1 0 3913 1630 3 MP stroke
1 0 -1 0 3913 1756 3 MP stroke
2 0 -2 1 3911 1881 3 MP stroke
1 1 -1 0 3913 2004 3 MP stroke
-1 0 3914 2128 2 MP stroke
1 0 -1 0 3913 2252 3 MP stroke
-1 0 3914 2377 2 MP stroke
1 0 -1 0 3913 2502 3 MP stroke
1 1 -2 0 3913 2623 3 MP stroke
2 0 -2 1 3913 2750 3 MP stroke
0 2 -1 -1 3914 2872 3 MP stroke
1 0 -1 0 3913 2998 3 MP stroke
0 1 -1 -1 3914 3121 3 MP stroke
1 1 -1 0 3913 3246 3 MP stroke
12 -3 -10 9 3892 3381 3 MP stroke
3913 3495 PD
2 0 -2 0 3913 3620 3 MP stroke
1 1 -1 0 3913 3743 3 MP stroke
1 1 -2 0 3912 3867 3 MP stroke
2 1 -2 0 3912 3992 3 MP stroke
2 1 -2 0 3911 4115 3 MP stroke
2 1 -2 0 3911 4240 3 MP stroke
2 1 -2 0 3911 4364 3 MP stroke
2 1 -3 1 3910 4613 3 MP stroke
4018 389 PD
3 0 -2 2 4018 513 3 MP stroke
2 0 -2 1 4018 636 3 MP stroke
2 0 -1 1 4018 763 3 MP stroke
2 1 -2 1 4018 885 3 MP stroke
3 0 -3 2 4016 1136 3 MP stroke
1 0 -1 0 4022 1258 3 MP stroke
0 1 -1 -1 4022 1381 3 MP stroke
4022 1507 PD
4022 1630 PD
0 1 4022 1755 2 MP stroke
3 -2 -2 3 4017 1884 3 MP stroke
1 0 -1 0 4023 2005 3 MP stroke
1 0 -1 0 4022 2129 3 MP stroke
0 1 4022 2252 2 MP stroke
1 0 -1 0 4022 2377 3 MP stroke
1 1 -1 0 4022 2500 3 MP stroke
0 1 -1 -1 4023 2624 3 MP stroke
0 1 4022 2751 2 MP stroke
0 -1 0 0 4022 2872 3 MP stroke
1 0 -1 1 4020 2999 3 MP stroke
1 0 -1 1 4020 3122 3 MP stroke
2 0 -2 1 4018 3248 3 MP stroke
3 3 -4 -1 4017 3366 3 MP stroke
2 2 -2 0 4018 3494 3 MP stroke
1 1 -1 0 4020 3619 3 MP stroke
1 0 -1 1 4020 3745 3 MP stroke
3 0 -3 2 4018 3871 3 MP stroke
1 0 -1 1 4020 3993 3 MP stroke
2 1 -2 0 4019 4115 3 MP stroke
1 0 -1 1 4020 4242 3 MP stroke
7 -2 -5 5 4010 4371 3 MP stroke
2 1 -1 0 4124 389 3 MP stroke
3 0 -2 2 4125 513 3 MP stroke
2 1 -2 1 4125 636 3 MP stroke
3 0 -3 1 4125 761 3 MP stroke
3 1 -3 1 4125 884 3 MP stroke
3 1 -3 1 4125 1010 3 MP stroke
2 2 -3 0 4125 1133 3 MP stroke
3 0 -3 2 4125 1258 3 MP stroke
3 -2 -2 3 4125 1388 3 MP stroke
2 2 -3 0 4126 1503 3 MP stroke
2 1 -2 0 4126 1629 3 MP stroke
3 1 -3 1 4126 1754 3 MP stroke
-2 1 1 -2 4134 1879 3 MP stroke
10 -7 -6 12 4114 2021 3 MP stroke
28 -9 -21 23 4076 2153 3 MP stroke
2 0 -2 1 4125 2254 3 MP stroke
3 1 -3 1 4125 2377 3 MP stroke
3 0 -3 1 4125 2502 3 MP stroke
2 1 -2 0 4127 2623 3 MP stroke
1 0 -1 1 4129 2751 3 MP stroke
1 0 -1 1 4128 2874 3 MP stroke
4 1 -4 1 4124 2998 3 MP stroke
3 2 -3 -1 4125 3120 3 MP stroke
3 -3 -2 5 4125 3253 3 MP stroke
3 3 -4 -1 4124 3365 3 MP stroke
3 1 -3 0 4125 3494 3 MP stroke
3 1 -3 1 4125 3620 3 MP stroke
11 4 -12 3 4107 3739 3 MP stroke
9 0 -8 5 4113 3871 3 MP stroke
3 0 -3 2 4125 3994 3 MP stroke
4 1 -4 1 4124 4116 3 MP stroke
5 -2 -4 4 4121 4247 3 MP stroke
3 2 -4 0 4124 4364 3 MP stroke
3 1 -3 1 4125 4489 3 MP stroke
2 2 -3 0 4125 4612 3 MP stroke
3 1 -1 0 4231 389 3 MP stroke
3 0 -2 1 4233 514 3 MP stroke
2 0 -2 1 4234 637 3 MP stroke
3 0 -3 1 4234 762 3 MP stroke
2 1 -2 0 4234 886 3 MP stroke
3 0 -3 2 4234 1010 3 MP stroke
2 0 -2 1 4234 1133 3 MP stroke
2 0 -2 1 4234 1259 3 MP stroke
2 1 -2 1 4234 1382 3 MP stroke
2 0 -2 1 4234 1507 3 MP stroke
3 1 -3 0 4234 1631 3 MP stroke
2 2 -2 -1 4234 1754 3 MP stroke
10 -5 -7 10 4218 1892 3 MP stroke
2 1 -2 1 4234 2003 3 MP stroke
2 1 -3 0 4234 2126 3 MP stroke
2 0 -2 1 4234 2253 3 MP stroke
52 -9 -42 36 4139 2409 3 MP stroke
2 8 -5 -7 4234 2487 3 MP stroke
1 3 -2 -2 4236 2619 3 MP stroke
3 1 -3 1 4233 2750 3 MP stroke
2 0 -2 1 4233 2874 3 MP stroke
3 0 -2 2 4232 2998 3 MP stroke
3 0 -3 1 4233 3122 3 MP stroke
3 1 -3 1 4232 3247 3 MP stroke
3 1 -3 1 4232 3370 3 MP stroke
2 1 -2 1 4232 3495 3 MP stroke
2 1 -2 0 4233 3619 3 MP stroke
3 1 -3 1 4232 3744 3 MP stroke
-5 23 -5 -23 4244 3821 3 MP stroke
3 0 -3 1 4232 3993 3 MP stroke
3 1 -3 1 4233 4115 3 MP stroke
2 0 -2 1 4232 4241 3 MP stroke
2 1 -3 0 4233 4364 3 MP stroke
3 1 -3 0 4234 4489 3 MP stroke
3 0 -2 1 4340 762 3 MP stroke
4 0 -4 1 4340 885 3 MP stroke
3 1 -2 1 4340 1010 3 MP stroke
4 1 -3 1 4339 1134 3 MP stroke
4 0 -3 2 4339 1259 3 MP stroke
3 0 -3 1 4341 1383 3 MP stroke
3 0 -2 1 4340 1508 3 MP stroke
3 0 -3 1 4341 1631 3 MP stroke
2 0 -2 2 4340 1755 3 MP stroke
4 1 -4 1 4339 1879 3 MP stroke
2 1 -2 1 4340 2004 3 MP stroke
3 1 -3 1 4341 2127 3 MP stroke
4 0 -4 2 4339 2253 3 MP stroke
3 1 -3 1 4341 2376 3 MP stroke
4 0 -3 2 4339 2502 3 MP stroke
4 1 -4 1 4339 2625 3 MP stroke
4 0 -4 2 4339 2750 3 MP stroke
3 1 -3 1 4339 2874 3 MP stroke
4 1 -3 1 4339 2999 3 MP stroke
3 1 -3 1 4339 3122 3 MP stroke
3 0 -3 1 4341 3248 3 MP stroke
3 1 -3 1 4339 3370 3 MP stroke
4 1 -4 2 4339 3495 3 MP stroke
3 1 -3 1 4340 3619 3 MP stroke
3 1 -3 1 4339 3744 3 MP stroke
3 1 -3 1 4339 3867 3 MP stroke
3 1 -3 1 4339 3993 3 MP stroke
4 1 -4 1 4339 4116 3 MP stroke
4 1 -4 1 4339 4240 3 MP stroke
3 2 -3 0 4339 4364 3 MP stroke
3 1 -3 0 4341 4489 3 MP stroke
2 0 -2 1 4449 513 3 MP stroke
3 0 -2 1 4449 762 3 MP stroke
2 1 -2 0 4449 885 3 MP stroke
3 0 -3 1 4449 1011 3 MP stroke
3 1 -3 1 4448 1133 3 MP stroke
3 0 -3 2 4448 1259 3 MP stroke
3 1 -3 1 4448 1382 3 MP stroke
2 0 -2 1 4449 1508 3 MP stroke
3 0 -3 1 4449 1631 3 MP stroke
3 0 -3 2 4449 1756 3 MP stroke
2 0 -2 1 4449 1880 3 MP stroke
2 0 -2 1 4450 2004 3 MP stroke
2 1 -2 1 4449 2127 3 MP stroke
2 0 -2 1 4449 2253 3 MP stroke
2 0 -2 1 4449 2377 3 MP stroke
3 0 -3 2 4447 2501 3 MP stroke
2 2 -3 0 4449 2624 3 MP stroke
2 0 -2 1 4449 2751 3 MP stroke
3 0 -3 1 4449 2874 3 MP stroke
4 1 -3 1 4447 2999 3 MP stroke
3 1 -3 1 4448 3122 3 MP stroke
4 0 -3 1 4447 3248 3 MP stroke
3 1 -4 1 4448 3370 3 MP stroke
3 0 -3 1 4448 3496 3 MP stroke
3 1 -3 1 4448 3618 3 MP stroke
3 1 -3 1 4448 3744 3 MP stroke
3 1 -3 1 4448 3867 3 MP stroke
3 1 -3 1 4448 3993 3 MP stroke
3 1 -3 1 4449 4116 3 MP stroke
3 0 -3 1 4448 4241 3 MP stroke
3 2 -3 0 4448 4364 3 MP stroke
3 1 -3 0 4448 4489 3 MP stroke
4 0 -4 1 4555 513 3 MP stroke
3 1 -3 1 4556 761 3 MP stroke
3 1 -3 1 4556 884 3 MP stroke
3 1 -3 1 4556 1010 3 MP stroke
3 1 -3 0 4556 1133 3 MP stroke
3 0 -2 2 4555 1259 3 MP stroke
3 1 -3 1 4556 1382 3 MP stroke
4 0 -4 2 4555 1507 3 MP stroke
2 0 -2 1 4556 1631 3 MP stroke
3 0 -3 1 4556 1756 3 MP stroke
4 1 -4 1 4555 1879 3 MP stroke
4 0 -4 1 4555 2004 3 MP stroke
3 1 -3 1 4556 2128 3 MP stroke
3 1 -3 1 4556 2253 3 MP stroke
3 1 -3 1 4556 2376 3 MP stroke
4 0 -3 2 4554 2502 3 MP stroke
3 2 -3 0 4554 2625 3 MP stroke
4 1 -4 1 4555 2749 3 MP stroke
3 2 -3 0 4555 2873 3 MP stroke
3 1 -3 1 4554 2998 3 MP stroke
3 1 -3 1 4554 3122 3 MP stroke
4 0 -4 2 4555 3247 3 MP stroke
3 1 -3 1 4554 3370 3 MP stroke
4 1 -4 1 4555 3496 3 MP stroke
4 2 -4 0 4555 3617 3 MP stroke
4 1 -4 1 4555 3743 3 MP stroke
4 2 -4 0 4554 3867 3 MP stroke
3 1 -3 1 4554 3993 3 MP stroke
4 2 -4 0 4555 4115 3 MP stroke
4 0 -4 2 4555 4241 3 MP stroke
3 1 -4 1 4555 4364 3 MP stroke
3 1 -3 0 4556 4489 3 MP stroke
3 0 -2 1 4663 513 3 MP stroke
2 0 -2 1 4665 637 3 MP stroke
2 0 -2 1 4664 762 3 MP stroke
3 1 -3 1 4664 884 3 MP stroke
3 1 -3 1 4663 1010 3 MP stroke
3 1 -3 0 4665 1134 3 MP stroke
3 1 -2 1 4664 1258 3 MP stroke
3 1 -2 1 4663 1382 3 MP stroke
3 0 -2 1 4664 1508 3 MP stroke
2 1 -2 1 4664 1630 3 MP stroke
3 0 -2 2 4663 1756 3 MP stroke
3 1 -3 1 4665 1879 3 MP stroke
3 0 -2 1 4664 2005 3 MP stroke
2 0 -2 1 4665 2128 3 MP stroke
3 0 -3 2 4663 2253 3 MP stroke
3 1 -3 1 4663 2377 3 MP stroke
3 0 -3 1 4663 2502 3 MP stroke
3 1 -3 1 4664 2625 3 MP stroke
3 0 -3 2 4663 2750 3 MP stroke
3 1 -3 1 4664 2873 3 MP stroke
2 0 -2 1 4664 2998 3 MP stroke
3 1 -3 1 4663 3122 3 MP stroke
3 1 -3 1 4663 3245 3 MP stroke
3 1 -3 1 4663 3370 3 MP stroke
3 0 -3 2 4663 3496 3 MP stroke
3 1 -3 1 4663 3619 3 MP stroke
3 0 -2 1 4663 3745 3 MP stroke
3 1 -3 1 4663 3867 3 MP stroke
3 0 -3 2 4663 3993 3 MP stroke
3 2 -3 0 4663 4114 3 MP stroke
3 1 -3 1 4663 4240 3 MP stroke
3 0 -1 0 4769 389 3 MP stroke
3 0 -3 2 4770 513 3 MP stroke
3 1 -3 1 4770 636 3 MP stroke
3 0 -3 2 4771 761 3 MP stroke
3 1 -3 1 4770 885 3 MP stroke
3 1 -3 1 4770 1010 3 MP stroke
3 1 -3 0 4772 1133 3 MP stroke
3 0 -3 1 4771 1258 3 MP stroke
4 1 -4 1 4770 1381 3 MP stroke
3 0 -3 1 4771 1507 3 MP stroke
3 0 -3 1 4770 1631 3 MP stroke
4 0 -4 2 4770 1756 3 MP stroke
5 -4 -3 6 4767 1888 3 MP stroke
3 1 -2 1 4771 2004 3 MP stroke
3 0 -2 2 4771 2129 3 MP stroke
3 1 -3 1 4771 2253 3 MP stroke
2 4 -4 -3 4773 2369 3 MP stroke
3 0 -3 1 4772 2502 3 MP stroke
3 1 -3 1 4771 2625 3 MP stroke
3 1 -3 1 4772 2750 3 MP stroke
3 2 -3 0 4770 2873 3 MP stroke
3 1 -3 1 4770 2999 3 MP stroke
3 1 -3 1 4771 3122 3 MP stroke
3 2 -3 0 4770 3246 3 MP stroke
3 2 -4 0 4770 3368 3 MP stroke
4 2 -4 0 4770 3494 3 MP stroke
3 3 -4 -1 4770 3615 3 MP stroke
2 5 -4 -3 4773 3735 3 MP stroke
1 1 -2 0 4774 3866 3 MP stroke
3 0 -3 2 4772 3993 3 MP stroke
2 2 -2 -1 4772 4115 3 MP stroke
2 1 -2 0 4774 4241 3 MP stroke
3 1 -1 0 4877 389 3 MP stroke
3 0 -3 2 4879 513 3 MP stroke
3 1 -3 1 4879 636 3 MP stroke
3 0 -3 2 4879 761 3 MP stroke
3 1 -3 1 4879 884 3 MP stroke
4 0 -3 2 4877 1012 3 MP stroke
1 7 -4 -6 4882 1120 3 MP stroke
2 6 -4 -4 4878 1249 3 MP stroke
4 1 -4 1 4877 1382 3 MP stroke
4 -10 0 11 4878 1528 3 MP stroke
2 0 -3 1 4881 1630 3 MP stroke
1 2 -1 -1 4882 1752 3 MP stroke
-10 33 -5 -35 4899 1811 3 MP stroke
0 7 -2 -6 4883 1992 3 MP stroke
2 1 -2 0 4881 2129 3 MP stroke
1 -2 0 2 4883 2256 3 MP stroke
1 1 -1 0 4882 2374 3 MP stroke
2 0 -2 1 4882 2502 3 MP stroke
2 0 -2 1 4882 2625 3 MP stroke
3 1 -3 0 4880 2750 3 MP stroke
3 2 -4 0 4879 2873 3 MP stroke
-1 0 4883 3000 2 MP stroke
1 1 -1 0 4883 3122 3 MP stroke
4 -4 -2 6 4878 3256 3 MP stroke
2 -1 -1 2 4882 3375 3 MP stroke
1 0 -1 1 4882 3496 3 MP stroke
1 0 -1 0 4882 3620 3 MP stroke
1 1 -1 0 4882 3743 3 MP stroke
1 1 -2 -1 4883 3867 3 MP stroke
1 0 -1 0 4882 3992 3 MP stroke
1 1 -1 -1 4882 4116 3 MP stroke
1 1 -1 0 4882 4240 3 MP stroke
4 0 -3 2 4985 513 3 MP stroke
2 0 -2 1 4987 637 3 MP stroke
3 1 -3 1 4987 760 3 MP stroke
-2 6 -1 -7 4995 872 3 MP stroke
1 5 -3 -3 4988 1000 3 MP stroke
1 9 -4 -8 4989 1118 3 MP stroke
-1 12 -4 -11 4991 1236 3 MP stroke
4 3 -5 -1 4984 1378 3 MP stroke
4 -7 0 9 4985 1523 3 MP stroke
1 0 -1 1 4991 1631 3 MP stroke
1 1 -1 0 4991 1754 3 MP stroke
-1 11 -3 -10 4993 1859 3 MP stroke
1 0 -1 1 4991 2005 3 MP stroke
-1 1 4991 2126 2 MP stroke
1 0 -1 0 4990 2252 3 MP stroke
1 0 -1 1 4990 2376 3 MP stroke
1 0 -1 1 4991 2501 3 MP stroke
1 1 -1 0 4991 2624 3 MP stroke
1 0 -1 0 4990 2749 3 MP stroke
1 0 -1 0 4990 2874 3 MP stroke
1 1 -1 0 4990 2998 3 MP stroke
1 0 -1 0 4990 3123 3 MP stroke
1 0 -1 1 4991 3247 3 MP stroke
2 0 -2 0 4990 3371 3 MP stroke
1 0 -1 1 4989 3496 3 MP stroke
1 1 -1 0 4989 3620 3 MP stroke
1 1 -1 0 4989 3743 3 MP stroke
1 1 -2 0 4989 3867 3 MP stroke
2 1 -2 0 4989 3992 3 MP stroke
2 1 -2 0 4989 4115 3 MP stroke
2 1 -2 0 4989 4241 3 MP stroke
0 1 5099 762 2 MP stroke
0 1 5099 885 2 MP stroke
-1 6 -2 -6 5100 998 3 MP stroke
0 5 -2 -5 5099 1124 3 MP stroke
-1 12 -4 -11 5099 1237 3 MP stroke
0 -1 0 0 5099 1381 3 MP stroke
5099 1507 PD
-1 1 5100 1630 2 MP stroke
0 1 -1 -1 5100 1755 3 MP stroke
1 0 -1 0 5099 1880 3 MP stroke
0 7 -2 -6 5100 1991 3 MP stroke
-1 0 5100 2127 2 MP stroke
0 1 5099 2252 2 MP stroke
1 0 -1 0 5099 2377 3 MP stroke
1 0 -1 1 5099 2502 3 MP stroke
1 1 -1 -1 5099 2624 3 MP stroke
0 -1 0 0 5099 2750 3 MP stroke
1 1 -1 0 5099 2873 3 MP stroke
5099 2999 PD
5099 3123 PD
0 1 5099 3248 2 MP stroke
2 0 -2 0 5098 3371 3 MP stroke
2 0 -2 0 5098 3496 3 MP stroke
1 1 -1 -1 5098 3619 3 MP stroke
2 0 -2 1 5098 3743 3 MP stroke
1 0 -1 0 5098 3868 3 MP stroke
2 0 -2 0 5098 3993 3 MP stroke
1 1 -1 0 5097 4115 3 MP stroke
1 1 -1 0 5098 4240 3 MP stroke
1 -1 -1 2 5206 763 3 MP stroke
1 1 -1 0 5206 885 3 MP stroke
1 0 -1 0 5206 1010 3 MP stroke
1 1 -1 -1 5206 1132 3 MP stroke
1 1 -1 -1 5206 1258 3 MP stroke
1 0 -1 0 5206 1382 3 MP stroke
1 -1 -1 1 5206 1508 3 MP stroke
1 1 -1 -1 5206 1630 3 MP stroke
1 1 -1 0 5206 1754 3 MP stroke
-2 0 2 -2 5212 2004 3 MP stroke
1 1 -2 0 5206 2126 3 MP stroke
1 0 -1 0 5206 2252 3 MP stroke
-1 1 5207 2375 2 MP stroke
2 0 -1 1 5205 2502 3 MP stroke
1 1 -1 0 5206 2625 3 MP stroke
1 0 -1 0 5206 2750 3 MP stroke
1 1 -2 -1 5206 2873 3 MP stroke
1 0 -1 1 5206 2998 3 MP stroke
1 1 -1 0 5205 3121 3 MP stroke
2 1 -2 1 5204 3247 3 MP stroke
2 1 -2 0 5206 3371 3 MP stroke
1 1 -1 0 5204 3495 3 MP stroke
2 1 -2 0 5205 3618 3 MP stroke
1 1 -1 0 5204 3744 3 MP stroke
2 1 -2 0 5205 3867 3 MP stroke
1 1 -1 0 5204 3992 3 MP stroke
2 1 -2 0 5204 4115 3 MP stroke
2 1 -2 0 5204 4240 3 MP stroke
1 0 -1 0 5315 885 3 MP stroke
1 1 -1 0 5314 1010 3 MP stroke
0 1 5315 1257 2 MP stroke
5314 1383 PD
-1 0 5315 1508 2 MP stroke
5315 1631 PD
1 0 -1 0 5315 1755 3 MP stroke
0 1 -1 -1 5314 1878 3 MP stroke
5315 2003 PD
1 1 -1 -1 5314 2127 3 MP stroke
0 1 5314 2252 2 MP stroke
5314 2377 PD
1 -1 -1 1 5315 2502 3 MP stroke
5314 2625 PD
5314 2750 PD
0 1 -1 -1 5315 2873 3 MP stroke
0 1 -1 -1 5315 2998 3 MP stroke
0 1 -1 -1 5315 3121 3 MP stroke
2 1 -2 0 5314 3247 3 MP stroke
2 0 -2 1 5313 3370 3 MP stroke
1 1 -1 0 5314 3495 3 MP stroke
1 2 -1 -1 5313 3618 3 MP stroke
1 1 -1 0 5313 3743 3 MP stroke
1 0 -1 0 5313 3868 3 MP stroke
2 1 -2 0 5313 3992 3 MP stroke
1 1 -1 0 5313 4115 3 MP stroke
1 1 -2 0 5313 4240 3 MP stroke
1 1 -1 0 5421 1133 3 MP stroke
1 0 -1 0 5422 1259 3 MP stroke
1 1 -1 0 5421 1382 3 MP stroke
-1 0 5422 1509 2 MP stroke
1 2 -1 -1 5421 1629 3 MP stroke
1 1 -1 0 5421 1755 3 MP stroke
1 1 -1 0 5422 1879 3 MP stroke
1 0 -1 0 5422 2004 3 MP stroke
1 1 -1 -1 5422 2127 3 MP stroke
1 1 -1 0 5421 2253 3 MP stroke
1 1 -1 0 5421 2376 3 MP stroke
1 0 -1 0 5422 2501 3 MP stroke
1 1 -1 -1 5422 2624 3 MP stroke
1 1 -1 0 5421 2749 3 MP stroke
2 1 -2 0 5421 2873 3 MP stroke
1 0 -1 1 5421 2999 3 MP stroke
1 1 -1 -1 5422 3122 3 MP stroke
1 0 -1 0 5421 3247 3 MP stroke
1 1 -1 0 5421 3370 3 MP stroke
2 0 -2 1 5420 3496 3 MP stroke
2 0 -2 1 5420 3619 3 MP stroke
2 1 -2 0 5421 3743 3 MP stroke
1 1 -1 0 5420 3866 3 MP stroke
2 1 -2 0 5420 3992 3 MP stroke
2 1 -2 0 5420 4115 3 MP stroke
2 1 -2 0 5420 4241 3 MP stroke
-1 0 5531 1133 2 MP stroke
1 0 -1 0 5530 1259 3 MP stroke
-2 -1 3 0 5535 1385 3 MP stroke
5530 1506 PD
1 0 -1 0 5530 1631 3 MP stroke
1 0 -1 0 5530 1757 3 MP stroke
-1 0 5530 1879 2 MP stroke
1 -1 -1 1 5530 2005 3 MP stroke
1 1 -1 -1 5530 2128 3 MP stroke
1 0 5530 2254 2 MP stroke
5530 2377 PD
1 0 -1 1 5530 2501 3 MP stroke
-1 1 0 -1 5531 2624 3 MP stroke
1 0 -1 0 5531 2750 3 MP stroke
5530 2874 PD
1 0 -1 0 5530 2999 3 MP stroke
1 1 -1 0 5529 3122 3 MP stroke
2 0 -2 1 5529 3248 3 MP stroke
1 1 -1 0 5529 3371 3 MP stroke
1 0 -1 0 5529 3497 3 MP stroke
1 1 -1 0 5529 3618 3 MP stroke
1 1 -1 0 5529 3743 3 MP stroke
1 1 -2 0 5529 3867 3 MP stroke
1 0 -1 0 5529 3993 3 MP stroke
1 1 -1 0 5528 4116 3 MP stroke
1 1 -2 0 5529 4240 3 MP stroke
1 1 -1 0 5637 1132 3 MP stroke
1 0 -1 0 5637 1259 3 MP stroke
-2 -1 2 0 5644 1385 3 MP stroke
0 -1 1 1 5638 1511 3 MP stroke
0 1 5637 1631 2 MP stroke
-1 0 5638 1757 2 MP stroke
1 0 -1 0 5637 1880 3 MP stroke
1 0 -1 0 5637 2005 3 MP stroke
1 0 -1 1 5637 2128 3 MP stroke
1 0 -1 0 5637 2254 3 MP stroke
1 0 -1 0 5637 2377 3 MP stroke
1 0 -1 1 5637 2502 3 MP stroke
0 1 5637 2625 2 MP stroke
1 1 -1 0 5637 2750 3 MP stroke
1 1 -1 0 5637 2873 3 MP stroke
1 0 -1 0 5636 2999 3 MP stroke
2 0 -2 0 5636 3122 3 MP stroke
1 1 -1 0 5637 3247 3 MP stroke
1 1 -1 0 5635 3370 3 MP stroke
2 0 -2 1 5636 3495 3 MP stroke
2 1 -2 0 5635 3618 3 MP stroke
2 0 -2 1 5635 3744 3 MP stroke
2 2 -2 0 5635 3866 3 MP stroke
2 0 -2 1 5635 3992 3 MP stroke
2 1 -2 0 5635 4115 3 MP stroke
2 1 -2 1 5635 4240 3 MP stroke
5745 1011 PD
1 1 -1 0 5745 1134 3 MP stroke
5 3 -5 0 5737 1254 3 MP stroke
-13 -7 14 -1 5773 1393 3 MP stroke
1 -1 5747 1634 2 MP stroke
0 1 5746 1756 2 MP stroke
0 -1 0 0 5746 1878 3 MP stroke
5746 2004 PD
1 1 -1 0 5745 2127 3 MP stroke
1 1 -1 0 5745 2252 3 MP stroke
0 -1 0 0 5746 2375 3 MP stroke
0 1 5746 2502 2 MP stroke
0 1 5745 2624 2 MP stroke
-1 0 5746 2749 2 MP stroke
1 0 -1 0 5745 2873 3 MP stroke
1 1 -1 0 5745 2998 3 MP stroke
5745 3122 PD
-1 0 5745 3249 2 MP stroke
1 1 -1 0 5744 3370 3 MP stroke
2 1 -2 0 5744 3494 3 MP stroke
1 1 -1 0 5744 3619 3 MP stroke
1 1 -1 0 5744 3743 3 MP stroke
2 2 -2 -1 5744 3867 3 MP stroke
1 0 -1 0 5744 3993 3 MP stroke
2 1 -2 -1 5744 4116 3 MP stroke
2 1 -2 0 5744 4241 3 MP stroke
1 0 -1 0 5851 1010 3 MP stroke
1 1 -1 0 5852 1133 3 MP stroke
1 1 -1 0 5853 1258 3 MP stroke
1 0 -1 0 5853 1383 3 MP stroke
1 0 -1 0 5852 1631 3 MP stroke
-5 3 3 -6 5863 1747 3 MP stroke
0 1 5853 1878 2 MP stroke
1 1 -1 0 5853 2003 3 MP stroke
-1 1 5853 2127 2 MP stroke
1 1 -1 0 5852 2252 3 MP stroke
1 1 -1 0 5852 2376 3 MP stroke
1 0 -1 0 5852 2502 3 MP stroke
1 1 -1 -1 5852 2624 3 MP stroke
1 1 -1 0 5852 2749 3 MP stroke
1 0 -1 0 5852 2874 3 MP stroke
1 1 -1 0 5851 2998 3 MP stroke
1 1 -2 0 5852 3121 3 MP stroke
1 0 -1 1 5851 3246 3 MP stroke
2 1 -2 0 5851 3369 3 MP stroke
2 1 -2 0 5851 3495 3 MP stroke
2 1 -2 0 5851 3618 3 MP stroke
2 1 -2 0 5851 3743 3 MP stroke
1 1 -2 0 5851 3866 3 MP stroke
2 1 -2 1 5850 3991 3 MP stroke
2 2 -2 -1 5851 4116 3 MP stroke
2 1 -2 0 5851 4242 3 MP stroke
2 1 -3 0 5851 4364 3 MP stroke
1 0 -1 0 5961 1134 3 MP stroke
1 0 -1 1 5961 1259 3 MP stroke
1 1 -1 0 5960 1380 3 MP stroke
1 0 -1 0 5961 1631 3 MP stroke
-5 1 4 -3 5970 1754 3 MP stroke
1 1 -1 0 5961 1879 3 MP stroke
5961 2005 PD
5961 2128 PD
5961 2252 PD
-1 1 5962 2376 2 MP stroke
1 1 -1 0 5960 2500 3 MP stroke
1 0 -1 0 5961 2625 3 MP stroke
-1 0 5961 2751 2 MP stroke
-1 0 5961 2874 2 MP stroke
1 1 -1 0 5960 2998 3 MP stroke
1 0 -1 0 5961 3121 3 MP stroke
2 1 -2 0 5960 3246 3 MP stroke
1 1 -2 0 5960 3370 3 MP stroke
1 0 -1 1 5959 3495 3 MP stroke
1 1 -1 0 5960 3619 3 MP stroke
1 1 -1 0 5959 3743 3 MP stroke
1 2 -1 -1 5960 3867 3 MP stroke
1 1 -1 0 5959 3992 3 MP stroke
1 1 -2 0 5960 4115 3 MP stroke
2 1 -2 0 5959 4240 3 MP stroke
1 1 -1 0 5959 4363 3 MP stroke
1 0 -1 0 6068 512 3 MP stroke
1 0 -1 0 6068 1010 3 MP stroke
1 1 -1 -1 6068 1132 3 MP stroke
1 0 -1 0 6068 1259 3 MP stroke
13 8 -15 -1 6043 1370 3 MP stroke
1 0 -1 1 6067 1506 3 MP stroke
1 1 -1 0 6068 1631 3 MP stroke
6068 1880 PD
1 0 -1 0 6068 2005 3 MP stroke
1 0 -1 0 6068 2129 3 MP stroke
1 0 -1 0 6068 2253 3 MP stroke
1 1 -2 0 6068 2376 3 MP stroke
1 0 -1 0 6068 2501 3 MP stroke
1 1 -1 -1 6068 2624 3 MP stroke
1 0 -1 0 6068 2751 3 MP stroke
1 1 -1 0 6067 2872 3 MP stroke
1 0 -1 0 6067 2998 3 MP stroke
1 2 -2 -1 6068 3121 3 MP stroke
2 1 -2 0 6066 3247 3 MP stroke
2 1 -2 0 6066 3370 3 MP stroke
1 1 -1 0 6066 3496 3 MP stroke
1 2 -2 -1 6067 3618 3 MP stroke
2 0 -2 1 6067 3743 3 MP stroke
2 1 -2 0 6066 3866 3 MP stroke
2 0 -2 1 6066 3992 3 MP stroke
1 1 -2 0 6067 4115 3 MP stroke
2 1 -2 0 6066 4241 3 MP stroke
0 -1 6178 884 2 MP stroke
1 0 -1 0 6177 1009 3 MP stroke
1 0 -1 0 6177 1134 3 MP stroke
0 -1 0 0 6177 1258 3 MP stroke
0 1 -1 -1 6177 1381 3 MP stroke
6176 1630 PD
6176 1755 PD
7 1 -7 3 6164 1881 3 MP stroke
1 0 6176 2005 2 MP stroke
1 1 -1 -1 6177 2127 3 MP stroke
-1 0 6177 2253 2 MP stroke
0 -2 0 1 6176 2375 3 MP stroke
6176 2501 PD
0 1 -1 -1 6177 2624 3 MP stroke
1 0 -1 0 6177 2750 3 MP stroke
0 1 6176 2872 2 MP stroke
1 1 -1 0 6176 2997 3 MP stroke
1 0 -1 0 6176 3123 3 MP stroke
1 0 -1 1 6175 3248 3 MP stroke
2 1 -2 -1 6175 3370 3 MP stroke
1 0 -1 0 6176 3495 3 MP stroke
1 1 -2 0 6176 3618 3 MP stroke
1 0 -1 0 6175 3744 3 MP stroke
1 1 -1 -1 6175 3867 3 MP stroke
2 0 -2 1 6175 3992 3 MP stroke
1 1 -1 0 6175 4115 3 MP stroke
2 0 -1 1 6174 4242 3 MP stroke
-21 5 1222 513 2 MP stroke
-7 3 1222 637 2 MP stroke
-4 2 1222 761 2 MP stroke
-4 -1 1222 886 2 MP stroke
-5 1 1222 1010 2 MP stroke
-3 -3 1222 1134 2 MP stroke
-2 -2 1222 2502 2 MP stroke
-2 -3 1222 2626 2 MP stroke
-4 -1 1222 2750 2 MP stroke
-1 -2 1222 2874 2 MP stroke
-17 -28 1222 2999 2 MP stroke
-2 -2 1222 3123 2 MP stroke
-1 -1 1222 3247 2 MP stroke
-1 -2 1222 3372 2 MP stroke
-1 -1 1222 3496 2 MP stroke
-2 -2 1222 3620 2 MP stroke
-3 -1 1222 3744 2 MP stroke
-3 -3 1222 3869 2 MP stroke
-4 0 1222 3993 2 MP stroke
-3 -2 1222 4117 2 MP stroke
-4 0 1222 4242 2 MP stroke
-5 2 1329 513 2 MP stroke
-5 -1 1329 637 2 MP stroke
-5 0 1329 761 2 MP stroke
-5 -3 1329 886 2 MP stroke
-6 1 1329 1010 2 MP stroke
-7 -3 1329 1134 2 MP stroke
-2 -2 1329 2502 2 MP stroke
-2 -3 1329 2626 2 MP stroke
-2 -2 1329 2750 2 MP stroke
-3 -2 1329 2874 2 MP stroke
-2 -1 1329 2999 2 MP stroke
-2 -2 1329 3123 2 MP stroke
11 -1 1329 3247 2 MP stroke
-1 -2 1329 3372 2 MP stroke
-3 -2 1329 3496 2 MP stroke
-3 -2 1329 3620 2 MP stroke
-2 -1 1329 3744 2 MP stroke
-5 -3 1329 3869 2 MP stroke
-5 -3 1329 4117 2 MP stroke
-4 -2 1329 4242 2 MP stroke
-4 1 1437 513 2 MP stroke
-3 0 1437 637 2 MP stroke
-4 -1 1437 761 2 MP stroke
-4 -3 1437 886 2 MP stroke
-4 0 1437 1010 2 MP stroke
-4 -1 1437 1134 2 MP stroke
-3 0 1437 1259 2 MP stroke
2 -1 1437 1383 2 MP stroke
-3 -1 1437 2502 2 MP stroke
-2 -2 1437 2626 2 MP stroke
-1 -3 1437 3123 2 MP stroke
-1 -1 1437 3247 2 MP stroke
-2 -3 1437 3372 2 MP stroke
-1 -1 1437 3496 2 MP stroke
-2 -2 1437 3620 2 MP stroke
-2 -1 1437 3744 2 MP stroke
-2 -3 1437 3869 2 MP stroke
-4 -2 1437 3993 2 MP stroke
-3 -3 1437 4117 2 MP stroke
-3 -1 1437 4242 2 MP stroke
-4 -2 1437 4366 2 MP stroke
-4 0 1437 4490 2 MP stroke
-3 -3 1437 4615 2 MP stroke
-5 1 1545 513 2 MP stroke
-6 0 1545 637 2 MP stroke
-6 -2 1545 761 2 MP stroke
-6 0 1545 886 2 MP stroke
-5 1 1545 1010 2 MP stroke
-6 0 1545 1134 2 MP stroke
-6 0 1545 1259 2 MP stroke
-6 -1 1545 1383 2 MP stroke
-1 0 1545 1507 2 MP stroke
-2 -3 1545 3123 2 MP stroke
-2 -1 1545 3247 2 MP stroke
-3 -3 1545 3372 2 MP stroke
-2 -1 1545 3496 2 MP stroke
-3 -2 1545 3620 2 MP stroke
-3 -1 1545 3744 2 MP stroke
-4 -2 1545 3869 2 MP stroke
-4 0 1545 3993 2 MP stroke
-4 -1 1545 4117 2 MP stroke
-5 -2 1545 4242 2 MP stroke
-5 -2 1545 4366 2 MP stroke
-5 -1 1545 4490 2 MP stroke
-5 -4 1545 4615 2 MP stroke
-5 1 1653 513 2 MP stroke
-5 -1 1653 637 2 MP stroke
-5 1 1653 761 2 MP stroke
-4 -1 1653 886 2 MP stroke
-4 1 1653 1010 2 MP stroke
-4 0 1653 1134 2 MP stroke
-5 0 1653 1259 2 MP stroke
-5 -1 1653 1383 2 MP stroke
-13 -2 1653 1507 2 MP stroke
-4 4 1653 2502 2 MP stroke
-2 -1 1653 2626 2 MP stroke
-2 -1 1653 2750 2 MP stroke
-2 -3 1653 3123 2 MP stroke
-4 -1 1653 3247 2 MP stroke
-3 -4 1653 3372 2 MP stroke
-2 -1 1653 3496 2 MP stroke
-3 -3 1653 3620 2 MP stroke
-4 0 1653 3744 2 MP stroke
-4 -3 1653 3869 2 MP stroke
-4 -1 1653 3993 2 MP stroke
-4 -2 1653 4117 2 MP stroke
-4 -1 1653 4242 2 MP stroke
-4 1 1760 513 2 MP stroke
-6 0 1760 637 2 MP stroke
-5 2 1760 761 2 MP stroke
-13 -1 1760 886 2 MP stroke
-5 -1 1760 1010 2 MP stroke
-6 0 1760 1134 2 MP stroke
-6 2 1760 1259 2 MP stroke
-5 -1 1760 1383 2 MP stroke
-2 0 1760 1507 2 MP stroke
-3 -2 1760 1631 2 MP stroke
-1 0 1760 2502 2 MP stroke
-2 0 1760 2626 2 MP stroke
-3 2 1760 2750 2 MP stroke
-3 -1 1760 2874 2 MP stroke
-2 -1 1760 2999 2 MP stroke
-2 -2 1760 3123 2 MP stroke
-3 0 1760 3247 2 MP stroke
-3 -2 1760 3372 2 MP stroke
-3 -1 1760 3496 2 MP stroke
-3 -2 1760 3620 2 MP stroke
-3 -1 1760 3744 2 MP stroke
-4 -3 1760 3869 2 MP stroke
-4 -1 1760 3993 2 MP stroke
-4 -2 1760 4117 2 MP stroke
-5 1 1760 4242 2 MP stroke
-33 11 1868 513 2 MP stroke
-4 -2 1868 637 2 MP stroke
-4 1 1868 761 2 MP stroke
-4 -1 1868 886 2 MP stroke
-5 2 1868 1010 2 MP stroke
-4 -1 1868 1134 2 MP stroke
-4 1 1868 1259 2 MP stroke
-6 -1 1868 1383 2 MP stroke
-1 -1 1868 1507 2 MP stroke
-1 -3 1868 1631 2 MP stroke
-2 -3 1868 2626 2 MP stroke
0 1 1868 2750 2 MP stroke
-1 1 1868 2874 2 MP stroke
-2 1 1868 2999 2 MP stroke
-2 -3 1868 3123 2 MP stroke
-1 -1 1868 3247 2 MP stroke
-2 -3 1868 3372 2 MP stroke
-3 -1 1868 3496 2 MP stroke
-2 -2 1868 3620 2 MP stroke
-1 -1 1868 3744 2 MP stroke
-2 -3 1868 3869 2 MP stroke
-4 -1 1868 3993 2 MP stroke
-3 -2 1868 4117 2 MP stroke
-4 -1 1868 4242 2 MP stroke
-3 -3 1868 4366 2 MP stroke
-10 2 1976 513 2 MP stroke
-8 -3 1976 637 2 MP stroke
-5 1 1976 761 2 MP stroke
-6 0 1976 886 2 MP stroke
-5 0 1976 1010 2 MP stroke
-6 -2 1976 1134 2 MP stroke
-6 2 1976 1259 2 MP stroke
-6 -1 1976 1383 2 MP stroke
-5 1 1976 1507 2 MP stroke
0 -2 1976 1631 2 MP stroke
-3 -3 1976 2502 2 MP stroke
-2 -2 1976 2626 2 MP stroke
-4 -1 1976 2750 2 MP stroke
-3 -3 1976 2874 2 MP stroke
-2 -2 1976 2999 2 MP stroke
-3 -3 1976 3123 2 MP stroke
-2 -1 1976 3247 2 MP stroke
-4 -3 1976 3372 2 MP stroke
-4 -1 1976 3496 2 MP stroke
-3 -2 1976 3620 2 MP stroke
-3 0 1976 3744 2 MP stroke
-5 -3 1976 3869 2 MP stroke
-5 -1 1976 3993 2 MP stroke
-5 -2 1976 4117 2 MP stroke
-5 -2 1976 4242 2 MP stroke
-5 -3 1976 4366 2 MP stroke
2084 389 PD
-5 1 2084 513 2 MP stroke
-4 -2 2084 637 2 MP stroke
-4 2 2084 761 2 MP stroke
-5 -1 2084 886 2 MP stroke
-4 -1 2084 1010 2 MP stroke
-5 0 2084 1134 2 MP stroke
-2 0 2084 1259 2 MP stroke
-2 -1 2084 1383 2 MP stroke
1 -1 2084 1507 2 MP stroke
-3 -2 2084 1631 2 MP stroke
-1 0 2084 2377 2 MP stroke
-3 -1 2084 2502 2 MP stroke
-2 -3 2084 2626 2 MP stroke
-2 0 2084 2750 2 MP stroke
-2 -2 2084 2874 2 MP stroke
-2 1 2084 2999 2 MP stroke
-2 -3 2084 3123 2 MP stroke
-1 -1 2084 3247 2 MP stroke
-3 -2 2084 3372 2 MP stroke
-2 -1 2084 3496 2 MP stroke
-3 -3 2084 3620 2 MP stroke
-2 0 2084 3744 2 MP stroke
-3 -3 2084 3869 2 MP stroke
-4 0 2084 3993 2 MP stroke
-4 -2 2084 4117 2 MP stroke
-4 -1 2084 4242 2 MP stroke
-4 -2 2084 4366 2 MP stroke
-5 1 2191 513 2 MP stroke
-5 0 2191 637 2 MP stroke
-6 1 2191 761 2 MP stroke
-7 0 2191 886 2 MP stroke
-8 0 2191 1010 2 MP stroke
-7 0 2191 1134 2 MP stroke
-6 1 2191 1259 2 MP stroke
-5 0 2191 1383 2 MP stroke
-10 -1 2191 1631 2 MP stroke
-2 0 2191 2377 2 MP stroke
-2 0 2191 2502 2 MP stroke
-3 -2 2191 2626 2 MP stroke
-3 -1 2191 2750 2 MP stroke
-2 -1 2191 2874 2 MP stroke
-2 0 2191 2999 2 MP stroke
-3 -3 2191 3123 2 MP stroke
-2 -1 2191 3247 2 MP stroke
-2 -2 2191 3372 2 MP stroke
-3 0 2191 3496 2 MP stroke
-2 -2 2191 3620 2 MP stroke
-4 0 2191 3744 2 MP stroke
-3 -3 2191 3869 2 MP stroke
-3 -1 2191 3993 2 MP stroke
-5 -2 2191 4117 2 MP stroke
-4 -2 2191 4242 2 MP stroke
-5 -2 2191 4366 2 MP stroke
-4 0 2299 513 2 MP stroke
-4 1 2299 637 2 MP stroke
-5 2 2299 761 2 MP stroke
-4 -1 2299 886 2 MP stroke
-4 1 2299 1010 2 MP stroke
-4 -3 2299 1134 2 MP stroke
-4 1 2299 1259 2 MP stroke
-3 -1 2299 1383 2 MP stroke
-2 1 2299 1507 2 MP stroke
-1 0 2299 1631 2 MP stroke
-1 -1 2299 1756 2 MP stroke
-1 0 2299 1880 2 MP stroke
-2 1 2299 2253 2 MP stroke
-2 -1 2299 2377 2 MP stroke
-1 -2 2299 2502 2 MP stroke
-1 -1 2299 2626 2 MP stroke
-1 -1 2299 2750 2 MP stroke
0 -2 2299 2874 2 MP stroke
-1 -1 2299 2999 2 MP stroke
-1 -2 2299 3123 2 MP stroke
-1 0 2299 3247 2 MP stroke
-1 -3 2299 3372 2 MP stroke
-2 1 2299 3496 2 MP stroke
-2 -2 2299 3620 2 MP stroke
-2 0 2299 3744 2 MP stroke
-3 -3 2299 3869 2 MP stroke
-4 -1 2299 3993 2 MP stroke
-4 -3 2299 4117 2 MP stroke
-3 -1 2299 4242 2 MP stroke
-3 -3 2299 4366 2 MP stroke
-6 0 2407 513 2 MP stroke
-6 1 2407 637 2 MP stroke
-5 1 2407 761 2 MP stroke
-7 -1 2407 886 2 MP stroke
-5 0 2407 1010 2 MP stroke
-5 -3 2407 1134 2 MP stroke
-3 -1 2407 1507 2 MP stroke
-3 -2 2407 1631 2 MP stroke
-3 -2 2407 1756 2 MP stroke
-3 0 2407 1880 2 MP stroke
-3 0 2407 2004 2 MP stroke
-3 -1 2407 2129 2 MP stroke
-3 0 2407 2253 2 MP stroke
-2 27 2407 2377 2 MP stroke
-3 -1 2407 2502 2 MP stroke
-3 -1 2407 2626 2 MP stroke
-2 1 2407 2750 2 MP stroke
-3 -2 2407 2874 2 MP stroke
-2 1 2407 2999 2 MP stroke
-3 -3 2407 3123 2 MP stroke
-3 0 2407 3247 2 MP stroke
-4 -2 2407 3372 2 MP stroke
-3 1 2407 3496 2 MP stroke
-3 -2 2407 3620 2 MP stroke
-3 -1 2407 3744 2 MP stroke
-3 -3 2407 3869 2 MP stroke
-5 -1 2407 3993 2 MP stroke
-5 -2 2407 4117 2 MP stroke
-6 -1 2407 4242 2 MP stroke
-6 -3 2407 4366 2 MP stroke
2515 389 PD
-5 0 2515 513 2 MP stroke
-7 0 2515 637 2 MP stroke
-4 -4 2515 886 2 MP stroke
-4 0 2515 1010 2 MP stroke
-5 -1 2515 1134 2 MP stroke
-5 1 2515 1259 2 MP stroke
-4 0 2515 1383 2 MP stroke
-5 1 2515 1507 2 MP stroke
-2 0 2515 1631 2 MP stroke
-2 0 2515 1756 2 MP stroke
-1 6 2515 1880 2 MP stroke
-2 -1 2515 2004 2 MP stroke
-2 -3 2515 2129 2 MP stroke
-2 1 2515 2253 2 MP stroke
-2 -2 2515 2377 2 MP stroke
-2 -2 2515 2502 2 MP stroke
-2 -2 2515 2626 2 MP stroke
-3 0 2515 2750 2 MP stroke
-2 -2 2515 2874 2 MP stroke
-2 -1 2515 2999 2 MP stroke
-1 -3 2515 3123 2 MP stroke
-2 0 2515 3247 2 MP stroke
-3 -2 2515 3372 2 MP stroke
-2 -1 2515 3496 2 MP stroke
-2 0 2515 3620 2 MP stroke
-3 0 2515 3744 2 MP stroke
-4 -2 2515 3869 2 MP stroke
-4 -1 2515 3993 2 MP stroke
-4 -2 2515 4117 2 MP stroke
-4 -2 2515 4242 2 MP stroke
-4 -2 2515 4366 2 MP stroke
-8 0 2622 389 2 MP stroke
-5 1 2622 513 2 MP stroke
-5 0 2622 637 2 MP stroke
-4 7 2622 761 2 MP stroke
-4 0 2622 886 2 MP stroke
-5 -2 2622 1010 2 MP stroke
-5 0 2622 1134 2 MP stroke
-5 1 2622 1259 2 MP stroke
-5 0 2622 1383 2 MP stroke
-4 1 2622 1507 2 MP stroke
-6 0 2622 1631 2 MP stroke
0 1 2622 1756 2 MP stroke
-3 0 2622 1880 2 MP stroke
-3 -2 2622 2004 2 MP stroke
-2 -1 2622 2129 2 MP stroke
-2 1 2622 2253 2 MP stroke
-3 0 2622 2377 2 MP stroke
-3 0 2622 2502 2 MP stroke
-3 -3 2622 2626 2 MP stroke
-3 0 2622 2750 2 MP stroke
-3 -1 2622 2874 2 MP stroke
-3 -1 2622 2999 2 MP stroke
-3 -3 2622 3123 2 MP stroke
-2 0 2622 3247 2 MP stroke
-3 -2 2622 3372 2 MP stroke
-3 0 2622 3496 2 MP stroke
-2 -2 2622 3620 2 MP stroke
-3 0 2622 3744 2 MP stroke
-5 -3 2622 3869 2 MP stroke
-4 -1 2622 3993 2 MP stroke
-4 -1 2622 4117 2 MP stroke
-5 -1 2622 4242 2 MP stroke
-4 -3 2622 4366 2 MP stroke
2730 389 PD
-4 1 2730 513 2 MP stroke
-3 0 2730 637 2 MP stroke
-3 3 2730 761 2 MP stroke
-4 1 2730 886 2 MP stroke
-3 -2 2730 1010 2 MP stroke
-3 -3 2730 1134 2 MP stroke
-1 -2 2730 1383 2 MP stroke
-4 2 2730 1507 2 MP stroke
-3 -1 2730 1631 2 MP stroke
0 -4 2730 1880 2 MP stroke
-1 -3 2730 2377 2 MP stroke
-1 -1 2730 2502 2 MP stroke
-2 -2 2730 2626 2 MP stroke
-2 -1 2730 2750 2 MP stroke
-1 -1 2730 2874 2 MP stroke
-1 -2 2730 2999 2 MP stroke
-1 -3 2730 3123 2 MP stroke
-1 0 2730 3247 2 MP stroke
-2 -1 2730 3372 2 MP stroke
-2 -1 2730 3496 2 MP stroke
-2 -2 2730 3620 2 MP stroke
-3 1 2730 3744 2 MP stroke
-3 -2 2730 3869 2 MP stroke
-3 -1 2730 3993 2 MP stroke
-3 -2 2730 4117 2 MP stroke
-3 -2 2730 4242 2 MP stroke
-4 -3 2730 4366 2 MP stroke
-6 0 2838 389 2 MP stroke
-7 2 2838 513 2 MP stroke
-5 1 2838 637 2 MP stroke
-6 -2 2838 761 2 MP stroke
-3 -1 2838 1259 2 MP stroke
12 1 2838 1383 2 MP stroke
-2 1 2838 1507 2 MP stroke
-2 0 2838 1631 2 MP stroke
-5 -3 2838 2377 2 MP stroke
-3 -1 2838 2502 2 MP stroke
-3 -3 2838 2626 2 MP stroke
-3 -1 2838 2750 2 MP stroke
-3 -3 2838 2874 2 MP stroke
-3 -1 2838 2999 2 MP stroke
-4 -3 2838 3123 2 MP stroke
-3 1 2838 3247 2 MP stroke
-4 -1 2838 3372 2 MP stroke
-4 -1 2838 3496 2 MP stroke
-4 -3 2838 3620 2 MP stroke
-5 1 2838 3744 2 MP stroke
-5 -3 2838 3869 2 MP stroke
-5 0 2838 3993 2 MP stroke
-6 -1 2838 4117 2 MP stroke
-5 -1 2838 4242 2 MP stroke
-5 -2 2838 4366 2 MP stroke
2945 389 PD
-4 2 2945 513 2 MP stroke
2 0 2945 637 2 MP stroke
-3 2 2945 886 2 MP stroke
-3 1 2945 1259 2 MP stroke
-3 -1 2945 1383 2 MP stroke
-7 1 2945 1507 2 MP stroke
-1 -1 2945 2502 2 MP stroke
-1 -3 2945 2626 2 MP stroke
-1 -2 2945 2750 2 MP stroke
-1 -2 2945 2874 2 MP stroke
-1 -2 2945 2999 2 MP stroke
-2 -2 2945 3123 2 MP stroke
-1 -1 2945 3247 2 MP stroke
-1 -3 2945 3372 2 MP stroke
-1 -1 2945 3496 2 MP stroke
-1 -2 2945 3620 2 MP stroke
-3 -1 2945 3744 2 MP stroke
-3 -3 2945 3869 2 MP stroke
-3 -1 2945 3993 2 MP stroke
-3 -3 2945 4117 2 MP stroke
-4 -2 2945 4242 2 MP stroke
-3 -2 2945 4366 2 MP stroke
-4 0 2945 4490 2 MP stroke
-9 0 3053 389 2 MP stroke
-7 0 3053 513 2 MP stroke
3 0 3053 637 2 MP stroke
-7 -10 3053 1259 2 MP stroke
-5 -1 3053 1383 2 MP stroke
-2 0 3053 1507 2 MP stroke
-3 -2 3053 1631 2 MP stroke
-2 -4 3053 1756 2 MP stroke
-4 -2 3053 1880 2 MP stroke
-1 -2 3053 2502 2 MP stroke
-3 -3 3053 2626 2 MP stroke
-3 -1 3053 2750 2 MP stroke
-2 -2 3053 2874 2 MP stroke
-2 -1 3053 2999 2 MP stroke
-2 -3 3053 3123 2 MP stroke
-3 0 3053 3247 2 MP stroke
-2 -3 3053 3372 2 MP stroke
-3 -1 3053 3496 2 MP stroke
-3 -2 3053 3620 2 MP stroke
-3 -1 3053 3744 2 MP stroke
-2 -2 3053 3869 2 MP stroke
-4 0 3053 3993 2 MP stroke
-4 -2 3053 4117 2 MP stroke
-5 -1 3053 4242 2 MP stroke
-5 -3 3053 4366 2 MP stroke
-4 -1 3053 4490 2 MP stroke
-4 2 3161 513 2 MP stroke
-4 0 3161 637 2 MP stroke
-1 -3 3161 1134 2 MP stroke
-1 -5 3161 1259 2 MP stroke
-2 -3 3161 1383 2 MP stroke
-1 1 3161 1507 2 MP stroke
-2 4 3161 1631 2 MP stroke
-2 1 3161 1756 2 MP stroke
-1 3 3161 1880 2 MP stroke
-1 5 3161 2004 2 MP stroke
-2 -1 3161 2129 2 MP stroke
-1 -1 3161 2253 2 MP stroke
-2 -3 3161 2377 2 MP stroke
-1 0 3161 2502 2 MP stroke
-1 -3 3161 2626 2 MP stroke
-1 -2 3161 2750 2 MP stroke
-1 -2 3161 2874 2 MP stroke
-2 -2 3161 2999 2 MP stroke
-2 -3 3161 3123 2 MP stroke
-2 -1 3161 3247 2 MP stroke
-1 -2 3161 3372 2 MP stroke
-2 -1 3161 3496 2 MP stroke
-2 -2 3161 3620 2 MP stroke
-3 -1 3161 3744 2 MP stroke
-2 -3 3161 3869 2 MP stroke
-4 -1 3161 3993 2 MP stroke
-4 -2 3161 4117 2 MP stroke
-4 -1 3161 4242 2 MP stroke
-4 -3 3161 4366 2 MP stroke
-3 -1 3161 4490 2 MP stroke
3269 389 PD
-7 1 3269 513 2 MP stroke
-5 -1 3269 637 2 MP stroke
-5 -2 3269 886 2 MP stroke
-6 -1 3269 1010 2 MP stroke
-3 1 3269 1259 2 MP stroke
-3 0 3269 1383 2 MP stroke
-3 2 3269 1507 2 MP stroke
-3 -1 3269 1631 2 MP stroke
-3 -2 3269 1756 2 MP stroke
-2 0 3269 1880 2 MP stroke
-3 1 3269 2004 2 MP stroke
-4 0 3269 2129 2 MP stroke
-4 -2 3269 2253 2 MP stroke
-3 -2 3269 2377 2 MP stroke
-4 -1 3269 2502 2 MP stroke
-3 -2 3269 2626 2 MP stroke
-3 1 3269 2750 2 MP stroke
-4 -2 3269 2874 2 MP stroke
-2 -2 3269 2999 2 MP stroke
-3 -2 3269 3123 2 MP stroke
-4 0 3269 3247 2 MP stroke
-3 -1 3269 3372 2 MP stroke
-3 -1 3269 3496 2 MP stroke
-23 -14 3269 3620 2 MP stroke
-6 0 3269 3744 2 MP stroke
-6 -3 3269 3869 2 MP stroke
-6 -2 3269 3993 2 MP stroke
-5 -2 3269 4117 2 MP stroke
-5 -1 3269 4242 2 MP stroke
-5 -2 3269 4366 2 MP stroke
3376 389 PD
-5 0 3376 513 2 MP stroke
-3 0 3376 637 2 MP stroke
-4 2 3376 761 2 MP stroke
-4 -2 3376 886 2 MP stroke
-3 0 3376 1010 2 MP stroke
-3 0 3376 1134 2 MP stroke
-1 2 3376 1507 2 MP stroke
-1 0 3376 1631 2 MP stroke
1 -1 3376 1756 2 MP stroke
-1 0 3376 1880 2 MP stroke
-1 1 3376 2004 2 MP stroke
-2 -1 3376 2129 2 MP stroke
-1 1 3376 2253 2 MP stroke
-1 -2 3376 2377 2 MP stroke
-1 -1 3376 2502 2 MP stroke
-1 -2 3376 2626 2 MP stroke
-2 -1 3376 2750 2 MP stroke
-1 -2 3376 2874 2 MP stroke
-1 0 3376 2999 2 MP stroke
-1 -3 3376 3123 2 MP stroke
-1 0 3376 3247 2 MP stroke
-1 -1 3376 3372 2 MP stroke
-1 1 3376 3496 2 MP stroke
-2 -2 3376 3620 2 MP stroke
-4 -1 3376 3744 2 MP stroke
-2 -3 3376 3869 2 MP stroke
-4 0 3376 3993 2 MP stroke
-4 -3 3376 4117 2 MP stroke
-3 -2 3376 4242 2 MP stroke
-3 -3 3376 4366 2 MP stroke
3484 389 PD
-10 1 3484 513 2 MP stroke
-6 0 3484 637 2 MP stroke
-6 3 3484 761 2 MP stroke
-6 0 3484 886 2 MP stroke
-5 -1 3484 1010 2 MP stroke
-5 -3 3484 1134 2 MP stroke
-3 -1 3484 1507 2 MP stroke
-3 0 3484 1631 2 MP stroke
-5 -3 3484 1880 2 MP stroke
-3 1 3484 2004 2 MP stroke
-3 -3 3484 2129 2 MP stroke
-3 -1 3484 2253 2 MP stroke
-1 -2 3484 2377 2 MP stroke
0 -3 3484 2502 2 MP stroke
-3 -2 3484 2626 2 MP stroke
-2 -1 3484 2750 2 MP stroke
-3 -3 3484 2874 2 MP stroke
-3 -1 3484 2999 2 MP stroke
-2 -3 3484 3123 2 MP stroke
-4 0 3484 3247 2 MP stroke
-3 -3 3484 3372 2 MP stroke
-3 1 3484 3496 2 MP stroke
-4 -3 3484 3620 2 MP stroke
-5 1 3484 3744 2 MP stroke
-4 -3 3484 3869 2 MP stroke
-6 -1 3484 3993 2 MP stroke
-5 -1 3484 4117 2 MP stroke
-4 -2 3484 4242 2 MP stroke
-5 -3 3484 4366 2 MP stroke
-4 1 3592 513 2 MP stroke
-6 0 3592 637 2 MP stroke
1 1 3592 1756 2 MP stroke
-1 -1 3592 2129 2 MP stroke
-1 1 3592 2253 2 MP stroke
-1 -2 3592 2377 2 MP stroke
-2 -1 3592 2502 2 MP stroke
-2 -3 3592 2626 2 MP stroke
-2 1 3592 2750 2 MP stroke
-1 -2 3592 2874 2 MP stroke
-1 -1 3592 2999 2 MP stroke
-2 -2 3592 3123 2 MP stroke
-1 -1 3592 3247 2 MP stroke
-2 -2 3592 3372 2 MP stroke
-2 0 3592 3496 2 MP stroke
-2 -2 3592 3620 2 MP stroke
-1 0 3592 3744 2 MP stroke
-4 -3 3592 3869 2 MP stroke
-3 -1 3592 3993 2 MP stroke
-4 -2 3592 4117 2 MP stroke
-4 -2 3592 4242 2 MP stroke
-4 -2 3592 4366 2 MP stroke
-11 0 3700 389 2 MP stroke
-8 1 3700 513 2 MP stroke
-9 1 3700 637 2 MP stroke
-8 0 3700 1383 2 MP stroke
-5 1 3700 1507 2 MP stroke
-3 -2 3700 1631 2 MP stroke
-2 0 3700 1756 2 MP stroke
-3 -2 3700 1880 2 MP stroke
-3 -1 3700 2004 2 MP stroke
-3 -1 3700 2129 2 MP stroke
-3 -2 3700 2253 2 MP stroke
-2 -2 3700 2377 2 MP stroke
-3 0 3700 2502 2 MP stroke
-3 -2 3700 2626 2 MP stroke
-3 0 3700 2750 2 MP stroke
-3 -1 3700 2874 2 MP stroke
-3 -2 3700 2999 2 MP stroke
-3 -2 3700 3123 2 MP stroke
-4 0 3700 3247 2 MP stroke
-4 -3 3700 3372 2 MP stroke
-3 0 3700 3496 2 MP stroke
-4 -2 3700 3620 2 MP stroke
-6 1 3700 3744 2 MP stroke
-5 -3 3700 3869 2 MP stroke
-4 -1 3700 3993 2 MP stroke
-6 -2 3700 4117 2 MP stroke
-5 -1 3700 4242 2 MP stroke
-5 -3 3700 4366 2 MP stroke
3807 389 PD
-6 1 3807 513 2 MP stroke
-6 0 3807 637 2 MP stroke
-1 0 3807 1383 2 MP stroke
-3 0 3807 1631 2 MP stroke
-1 -3 3807 1880 2 MP stroke
-1 1 3807 2004 2 MP stroke
-2 -1 3807 2129 2 MP stroke
-1 -2 3807 2253 2 MP stroke
-1 -2 3807 2377 2 MP stroke
-1 0 3807 2502 2 MP stroke
-1 -1 3807 2626 2 MP stroke
-1 2 3807 2750 2 MP stroke
-1 -2 3807 2874 2 MP stroke
-1 -2 3807 2999 2 MP stroke
-1 -2 3807 3123 2 MP stroke
-2 -1 3807 3247 2 MP stroke
-1 -2 3807 3372 2 MP stroke
-1 -1 3807 3496 2 MP stroke
-3 -2 3807 3620 2 MP stroke
-2 -1 3807 3744 2 MP stroke
-3 -3 3807 3869 2 MP stroke
-4 0 3807 3993 2 MP stroke
-3 -1 3807 4117 2 MP stroke
-4 1 3807 4242 2 MP stroke
-4 0 3807 4366 2 MP stroke
3915 389 PD
-8 1 3915 513 2 MP stroke
-9 0 3915 637 2 MP stroke
-6 2 3915 1010 2 MP stroke
-3 0 3915 1259 2 MP stroke
-3 -1 3915 1383 2 MP stroke
1 11 3915 1507 2 MP stroke
-3 -1 3915 1631 2 MP stroke
-3 0 3915 1756 2 MP stroke
-6 2 3915 1880 2 MP stroke
-3 0 3915 2004 2 MP stroke
-2 -1 3915 2129 2 MP stroke
-3 -1 3915 2253 2 MP stroke
-2 0 3915 2377 2 MP stroke
-3 0 3915 2502 2 MP stroke
-4 -3 3915 2626 2 MP stroke
-4 1 3915 2750 2 MP stroke
-2 -3 3915 2874 2 MP stroke
-3 -1 3915 2999 2 MP stroke
-2 -3 3915 3123 2 MP stroke
-3 -1 3915 3247 2 MP stroke
-33 18 3915 3372 2 MP stroke
-2 -1 3915 3496 2 MP stroke
-4 0 3915 3620 2 MP stroke
-3 -1 3915 3744 2 MP stroke
-5 -2 3915 3869 2 MP stroke
-5 -1 3915 3993 2 MP stroke
-6 -2 3915 4117 2 MP stroke
-6 -2 3915 4242 2 MP stroke
-6 -2 3915 4366 2 MP stroke
-8 -1 3915 4615 2 MP stroke
4023 389 PD
-7 2 4023 513 2 MP stroke
-7 0 4023 637 2 MP stroke
-6 3 4023 761 2 MP stroke
-7 0 4023 886 2 MP stroke
-10 4 4023 1134 2 MP stroke
-2 -1 4023 1259 2 MP stroke
-2 -3 4023 1383 2 MP stroke
-1 0 4023 1507 2 MP stroke
-1 -1 4023 1631 2 MP stroke
-1 -1 4023 1756 2 MP stroke
-8 7 4023 1880 2 MP stroke
-1 1 4023 2004 2 MP stroke
-2 0 4023 2129 2 MP stroke
-1 -1 4023 2253 2 MP stroke
-2 0 4023 2377 2 MP stroke
-2 -2 4023 2502 2 MP stroke
-1 -3 4023 2626 2 MP stroke
-1 2 4023 2750 2 MP stroke
-1 -3 4023 2874 2 MP stroke
-4 1 4023 2999 2 MP stroke
-4 0 4023 3123 2 MP stroke
-7 2 4023 3247 2 MP stroke
-10 -7 4023 3372 2 MP stroke
-7 -2 4023 3496 2 MP stroke
-4 -1 4023 3620 2 MP stroke
-4 2 4023 3744 2 MP stroke
-8 4 4023 3869 2 MP stroke
-4 1 4023 3993 2 MP stroke
-6 -2 4023 4117 2 MP stroke
-4 1 4023 4242 2 MP stroke
-18 10 4023 4366 2 MP stroke
-8 0 4131 389 2 MP stroke
-8 2 4131 513 2 MP stroke
-8 0 4131 637 2 MP stroke
-9 1 4131 761 2 MP stroke
-9 -1 4131 886 2 MP stroke
-9 1 4131 1010 2 MP stroke
-9 -1 4131 1134 2 MP stroke
-9 1 4131 1259 2 MP stroke
-8 8 4131 1383 2 MP stroke
-8 -4 4131 1507 2 MP stroke
-7 -2 4131 1631 2 MP stroke
-8 -1 4131 1756 2 MP stroke
4 -3 4131 1880 2 MP stroke
-23 29 4131 2004 2 MP stroke
-76 47 4131 2129 2 MP stroke
-8 2 4131 2253 2 MP stroke
-9 1 4131 2377 2 MP stroke
-9 1 4131 2502 2 MP stroke
-6 -3 4131 2626 2 MP stroke
-3 2 4131 2750 2 MP stroke
-4 1 4131 2874 2 MP stroke
-11 0 4131 2999 2 MP stroke
-9 -4 4131 3123 2 MP stroke
-8 11 4131 3247 2 MP stroke
-11 -8 4131 3372 2 MP stroke
-9 -2 4131 3496 2 MP stroke
-9 1 4131 3620 2 MP stroke
-36 -2 4131 3744 2 MP stroke
-26 7 4131 3869 2 MP stroke
-9 3 4131 3993 2 MP stroke
-11 0 4131 4117 2 MP stroke
-14 9 4131 4242 2 MP stroke
-11 -2 4131 4366 2 MP stroke
-9 0 4131 4490 2 MP stroke
-9 -3 4131 4615 2 MP stroke
-8 0 4238 389 2 MP stroke
-7 2 4238 513 2 MP stroke
-6 1 4238 637 2 MP stroke
-7 2 4238 761 2 MP stroke
-6 0 4238 886 2 MP stroke
-7 2 4238 1010 2 MP stroke
-6 0 4238 1134 2 MP stroke
-6 1 4238 1259 2 MP stroke
-6 0 4238 1383 2 MP stroke
-6 1 4238 1507 2 MP stroke
-7 0 4238 1631 2 MP stroke
-6 -3 4238 1756 2 MP stroke
-27 22 4238 1880 2 MP stroke
-6 0 4238 2004 2 MP stroke
-7 -3 4238 2129 2 MP stroke
-6 1 4238 2253 2 MP stroke
-141 68 4238 2377 2 MP stroke
-9 -22 4238 2502 2 MP stroke
-4 -9 4238 2626 2 MP stroke
-8 1 4238 2750 2 MP stroke
-7 1 4238 2874 2 MP stroke
-8 1 4238 2999 2 MP stroke
-8 0 4238 3123 2 MP stroke
-9 1 4238 3247 2 MP stroke
-9 -1 4238 3372 2 MP stroke
-8 0 4238 3496 2 MP stroke
-7 -1 4238 3620 2 MP stroke
-9 1 4238 3744 2 MP stroke
1 -71 4238 3869 2 MP stroke
-9 1 4238 3993 2 MP stroke
-8 -1 4238 4117 2 MP stroke
-8 0 4238 4242 2 MP stroke
-8 -2 4238 4366 2 MP stroke
-7 -1 4238 4490 2 MP stroke
-8 2 4346 761 2 MP stroke
-10 0 4346 886 2 MP stroke
-8 1 4346 1010 2 MP stroke
-10 1 4346 1134 2 MP stroke
-10 2 4346 1259 2 MP stroke
-8 1 4346 1383 2 MP stroke
-8 2 4346 1507 2 MP stroke
-8 1 4346 1631 2 MP stroke
-8 1 4346 1756 2 MP stroke
-11 0 4346 1880 2 MP stroke
-8 1 4346 2004 2 MP stroke
-8 -1 4346 2129 2 MP stroke
-11 2 4346 2253 2 MP stroke
-8 0 4346 2377 2 MP stroke
-10 2 4346 2502 2 MP stroke
-11 0 4346 2626 2 MP stroke
-11 2 4346 2750 2 MP stroke
-10 1 4346 2874 2 MP stroke
-10 1 4346 2999 2 MP stroke
-10 0 4346 3123 2 MP stroke
-8 2 4346 3247 2 MP stroke
-10 -1 4346 3372 2 MP stroke
-11 1 4346 3496 2 MP stroke
-9 0 4346 3620 2 MP stroke
-10 1 4346 3744 2 MP stroke
-10 -1 4346 3869 2 MP stroke
-10 1 4346 3993 2 MP stroke
-11 0 4346 4117 2 MP stroke
-11 -1 4346 4242 2 MP stroke
-10 -2 4346 4366 2 MP stroke
-8 -1 4346 4490 2 MP stroke
-7 1 4454 513 2 MP stroke
-7 2 4454 761 2 MP stroke
-7 -1 4454 886 2 MP stroke
-8 2 4454 1010 2 MP stroke
-9 0 4454 1134 2 MP stroke
-9 2 4454 1259 2 MP stroke
-9 0 4454 1383 2 MP stroke
-7 2 4454 1507 2 MP stroke
-8 1 4454 1631 2 MP stroke
-8 2 4454 1756 2 MP stroke
-7 1 4454 1880 2 MP stroke
-6 1 4454 2004 2 MP stroke
-7 -1 4454 2129 2 MP stroke
-7 1 4454 2253 2 MP stroke
-7 1 4454 2377 2 MP stroke
-10 1 4454 2502 2 MP stroke
-8 -2 4454 2626 2 MP stroke
-7 2 4454 2750 2 MP stroke
-8 1 4454 2874 2 MP stroke
-10 1 4454 2999 2 MP stroke
-9 0 4454 3123 2 MP stroke
-10 2 4454 3247 2 MP stroke
-10 -1 4454 3372 2 MP stroke
-9 1 4454 3496 2 MP stroke
-9 -1 4454 3620 2 MP stroke
-9 1 4454 3744 2 MP stroke
-9 -1 4454 3869 2 MP stroke
-9 1 4454 3993 2 MP stroke
-8 0 4454 4117 2 MP stroke
-9 0 4454 4242 2 MP stroke
-9 -2 4454 4366 2 MP stroke
-9 -1 4454 4490 2 MP stroke
-11 1 4562 513 2 MP stroke
-9 1 4562 761 2 MP stroke
-9 -1 4562 886 2 MP stroke
-9 1 4562 1010 2 MP stroke
-9 -1 4562 1134 2 MP stroke
-9 2 4562 1259 2 MP stroke
-9 0 4562 1383 2 MP stroke
-11 2 4562 1507 2 MP stroke
-8 1 4562 1631 2 MP stroke
-9 1 4562 1756 2 MP stroke
-11 0 4562 1880 2 MP stroke
-11 1 4562 2004 2 MP stroke
-9 0 4562 2129 2 MP stroke
-9 1 4562 2253 2 MP stroke
-9 0 4562 2377 2 MP stroke
-11 2 4562 2502 2 MP stroke
-11 -1 4562 2626 2 MP stroke
-11 0 4562 2750 2 MP stroke
-10 -1 4562 2874 2 MP stroke
-11 0 4562 2999 2 MP stroke
-11 0 4562 3123 2 MP stroke
-11 2 4562 3247 2 MP stroke
-11 -1 4562 3372 2 MP stroke
-11 1 4562 3496 2 MP stroke
-11 -3 4562 3620 2 MP stroke
-11 0 4562 3744 2 MP stroke
-12 -2 4562 3869 2 MP stroke
-11 1 4562 3993 2 MP stroke
-11 -2 4562 4117 2 MP stroke
-11 1 4562 4242 2 MP stroke
-11 -1 4562 4366 2 MP stroke
-9 -1 4562 4490 2 MP stroke
-8 1 4669 513 2 MP stroke
-6 1 4669 637 2 MP stroke
-7 2 4669 761 2 MP stroke
-8 -1 4669 886 2 MP stroke
-9 1 4669 1010 2 MP stroke
-7 0 4669 1134 2 MP stroke
-7 0 4669 1259 2 MP stroke
-8 0 4669 1383 2 MP stroke
-7 2 4669 1507 2 MP stroke
-7 0 4669 1631 2 MP stroke
-8 2 4669 1756 2 MP stroke
-7 0 4669 1880 2 MP stroke
-7 2 4669 2004 2 MP stroke
-6 0 4669 2129 2 MP stroke
-9 2 4669 2253 2 MP stroke
-9 1 4669 2377 2 MP stroke
-9 1 4669 2502 2 MP stroke
-8 0 4669 2626 2 MP stroke
-9 2 4669 2750 2 MP stroke
-8 0 4669 2874 2 MP stroke
-7 0 4669 2999 2 MP stroke
-9 0 4669 3123 2 MP stroke
-9 -1 4669 3247 2 MP stroke
-9 -1 4669 3372 2 MP stroke
-9 2 4669 3496 2 MP stroke
-9 0 4669 3620 2 MP stroke
-8 2 4669 3744 2 MP stroke
-9 -1 4669 3869 2 MP stroke
-9 2 4669 3993 2 MP stroke
-9 -3 4669 4117 2 MP stroke
-9 -1 4669 4242 2 MP stroke
-9 0 4777 389 2 MP stroke
-10 2 4777 513 2 MP stroke
-10 0 4777 637 2 MP stroke
-9 2 4777 761 2 MP stroke
-10 0 4777 886 2 MP stroke
-10 1 4777 1010 2 MP stroke
-8 -1 4777 1134 2 MP stroke
-9 0 4777 1259 2 MP stroke
-11 -1 4777 1383 2 MP stroke
-9 1 4777 1507 2 MP stroke
-10 1 4777 1631 2 MP stroke
-11 2 4777 1756 2 MP stroke
-13 14 4777 1880 2 MP stroke
-8 1 4777 2004 2 MP stroke
-8 2 4777 2129 2 MP stroke
-9 1 4777 2253 2 MP stroke
-8 -11 4777 2377 2 MP stroke
-8 1 4777 2502 2 MP stroke
-9 0 4777 2626 2 MP stroke
-8 1 4777 2750 2 MP stroke
-10 -1 4777 2874 2 MP stroke
-10 1 4777 2999 2 MP stroke
-9 0 4777 3123 2 MP stroke
-10 -1 4777 3247 2 MP stroke
-11 -4 4777 3372 2 MP stroke
-11 -2 4777 3496 2 MP stroke
-11 -6 4777 3620 2 MP stroke
-8 -12 4777 3744 2 MP stroke
-5 -3 4777 3869 2 MP stroke
-8 2 4777 3993 2 MP stroke
-7 -3 4777 4117 2 MP stroke
-5 -1 4777 4242 2 MP stroke
-9 0 4885 389 2 MP stroke
-9 2 4885 513 2 MP stroke
-9 0 4885 637 2 MP stroke
-9 2 4885 761 2 MP stroke
-9 -1 4885 886 2 MP stroke
-11 4 4885 1010 2 MP stroke
-7 -20 4885 1134 2 MP stroke
-11 -14 4885 1259 2 MP stroke
-12 0 4885 1383 2 MP stroke
-7 32 4885 1507 2 MP stroke
-7 0 4885 1631 2 MP stroke
-4 -5 4885 1756 2 MP stroke
9 -104 4885 1880 2 MP stroke
-4 -18 4885 2004 2 MP stroke
-6 0 4885 2129 2 MP stroke
-2 5 4885 2253 2 MP stroke
-4 -3 4885 2377 2 MP stroke
-5 1 4885 2502 2 MP stroke
-5 0 4885 2626 2 MP stroke
-8 0 4885 2750 2 MP stroke
-10 -1 4885 2874 2 MP stroke
-3 1 4885 2999 2 MP stroke
-3 -1 4885 3123 2 MP stroke
-9 15 4885 3247 2 MP stroke
-4 5 4885 3372 2 MP stroke
-4 1 4885 3496 2 MP stroke
-4 0 4885 3620 2 MP stroke
-4 -1 4885 3744 2 MP stroke
-4 -3 4885 3869 2 MP stroke
-4 -1 4885 3993 2 MP stroke
-4 -2 4885 4117 2 MP stroke
-4 -2 4885 4242 2 MP stroke
4992 389 PD
-10 2 4992 513 2 MP stroke
-7 1 4992 637 2 MP stroke
-8 0 4992 761 2 MP stroke
2 -21 4992 886 2 MP stroke
-7 -13 4992 1010 2 MP stroke
-7 -24 4992 1134 2 MP stroke
-5 -34 4992 1259 2 MP stroke
-13 -6 4992 1383 2 MP stroke
-7 25 4992 1507 2 MP stroke
-2 1 4992 1631 2 MP stroke
-2 -2 4992 1756 2 MP stroke
-2 -31 4992 1880 2 MP stroke
-2 2 4992 2004 2 MP stroke
-2 -3 4992 2129 2 MP stroke
-3 -1 4992 2253 2 MP stroke
-3 0 4992 2377 2 MP stroke
-2 0 4992 2502 2 MP stroke
-2 -2 4992 2626 2 MP stroke
-3 -1 4992 2750 2 MP stroke
-3 0 4992 2874 2 MP stroke
-3 -1 4992 2999 2 MP stroke
-3 0 4992 3123 2 MP stroke
-2 1 4992 3247 2 MP stroke
-4 -1 4992 3372 2 MP stroke
-4 1 4992 3496 2 MP stroke
-4 0 4992 3620 2 MP stroke
-4 -1 4992 3744 2 MP stroke
-5 -2 4992 3869 2 MP stroke
-5 -1 4992 3993 2 MP stroke
-5 -2 4992 4117 2 MP stroke
-5 -1 4992 4242 2 MP stroke
-1 2 5100 761 2 MP stroke
-1 0 5100 886 2 MP stroke
-2 -18 5100 1010 2 MP stroke
-3 -15 5100 1134 2 MP stroke
-5 -33 5100 1259 2 MP stroke
-1 -3 5100 1383 2 MP stroke
-1 0 5100 1507 2 MP stroke
-1 -1 5100 1631 2 MP stroke
-1 -2 5100 1756 2 MP stroke
-2 0 5100 1880 2 MP stroke
-2 -19 5100 2004 2 MP stroke
-1 -2 5100 2129 2 MP stroke
-1 -1 5100 2253 2 MP stroke
-2 0 5100 2377 2 MP stroke
-2 1 5100 2502 2 MP stroke
-2 -3 5100 2626 2 MP stroke
-1 -1 5100 2750 2 MP stroke
-2 -1 5100 2874 2 MP stroke
-1 0 5100 2999 2 MP stroke
-1 0 5100 3123 2 MP stroke
-1 2 5100 3247 2 MP stroke
-4 -1 5100 3372 2 MP stroke
-4 0 5100 3496 2 MP stroke
-3 -2 5100 3620 2 MP stroke
-4 0 5100 3744 2 MP stroke
-3 -1 5100 3869 2 MP stroke
-4 0 5100 3993 2 MP stroke
-4 -2 5100 4117 2 MP stroke
-3 -2 5100 4242 2 MP stroke
-3 4 5208 761 2 MP stroke
-3 -1 5208 886 2 MP stroke
-3 0 5208 1010 2 MP stroke
-3 -3 5208 1134 2 MP stroke
-3 -2 5208 1259 2 MP stroke
-3 -1 5208 1383 2 MP stroke
-3 2 5208 1507 2 MP stroke
-3 -2 5208 1631 2 MP stroke
-3 -2 5208 1756 2 MP stroke
6 -2 5208 2004 2 MP stroke
-4 -3 5208 2129 2 MP stroke
-3 -1 5208 2253 2 MP stroke
-2 -2 5208 2377 2 MP stroke
-4 1 5208 2502 2 MP stroke
-3 -1 5208 2626 2 MP stroke
-3 0 5208 2750 2 MP stroke
-4 -2 5208 2874 2 MP stroke
-3 0 5208 2999 2 MP stroke
-4 -2 5208 3123 2 MP stroke
-6 1 5208 3247 2 MP stroke
-4 -1 5208 3372 2 MP stroke
-5 -1 5208 3496 2 MP stroke
-5 -2 5208 3620 2 MP stroke
-5 0 5208 3744 2 MP stroke
-5 -2 5208 3869 2 MP stroke
-5 -1 5208 3993 2 MP stroke
-6 -2 5208 4117 2 MP stroke
-6 -2 5208 4242 2 MP stroke
-2 -1 5316 886 2 MP stroke
-3 0 5316 1010 2 MP stroke
-1 -2 5316 1259 2 MP stroke
-2 0 5316 1383 2 MP stroke
-2 1 5316 1507 2 MP stroke
-1 0 5316 1631 2 MP stroke
-2 -1 5316 1756 2 MP stroke
-3 -3 5316 1880 2 MP stroke
-1 -1 5316 2004 2 MP stroke
-3 -3 5316 2129 2 MP stroke
-2 -1 5316 2253 2 MP stroke
-2 0 5316 2377 2 MP stroke
-2 1 5316 2502 2 MP stroke
-2 -1 5316 2626 2 MP stroke
-2 0 5316 2750 2 MP stroke
-2 -2 5316 2874 2 MP stroke
-2 -2 5316 2999 2 MP stroke
-2 -3 5316 3123 2 MP stroke
-4 0 5316 3247 2 MP stroke
-5 -1 5316 3372 2 MP stroke
-3 -1 5316 3496 2 MP stroke
-4 -3 5316 3620 2 MP stroke
-4 -1 5316 3744 2 MP stroke
-4 -1 5316 3869 2 MP stroke
-5 -1 5316 3993 2 MP stroke
-4 -2 5316 4117 2 MP stroke
-5 -2 5316 4242 2 MP stroke
-3 -1 5423 1134 2 MP stroke
-2 0 5423 1259 2 MP stroke
-3 -1 5423 1383 2 MP stroke
-2 2 5423 1507 2 MP stroke
-3 -3 5423 1631 2 MP stroke
-3 -1 5423 1756 2 MP stroke
-2 -1 5423 1880 2 MP stroke
-2 0 5423 2004 2 MP stroke
-2 -3 5423 2129 2 MP stroke
-3 0 5423 2253 2 MP stroke
-3 -1 5423 2377 2 MP stroke
-2 -1 5423 2502 2 MP stroke
-2 -3 5423 2626 2 MP stroke
-3 -1 5423 2750 2 MP stroke
-4 -1 5423 2874 2 MP stroke
-3 1 5423 2999 2 MP stroke
-2 -2 5423 3123 2 MP stroke
-3 0 5423 3247 2 MP stroke
-3 -2 5423 3372 2 MP stroke
-5 1 5423 3496 2 MP stroke
-5 0 5423 3620 2 MP stroke
-4 -1 5423 3744 2 MP stroke
-4 -3 5423 3869 2 MP stroke
-5 -1 5423 3993 2 MP stroke
-5 -2 5423 4117 2 MP stroke
-5 -1 5423 4242 2 MP stroke
-1 -1 5531 1134 2 MP stroke
-2 0 5531 1259 2 MP stroke
7 2 5531 1383 2 MP stroke
-1 -1 5531 1507 2 MP stroke
-2 0 5531 1631 2 MP stroke
-2 1 5531 1756 2 MP stroke
-2 -1 5531 1880 2 MP stroke
-2 2 5531 2004 2 MP stroke
-2 -2 5531 2129 2 MP stroke
-1 1 5531 2253 2 MP stroke
-1 0 5531 2377 2 MP stroke
-2 0 5531 2502 2 MP stroke
0 -3 5531 2626 2 MP stroke
-1 0 5531 2750 2 MP stroke
-1 0 5531 2874 2 MP stroke
-2 0 5531 2999 2 MP stroke
-3 -1 5531 3123 2 MP stroke
-4 2 5531 3247 2 MP stroke
-3 -1 5531 3372 2 MP stroke
-3 1 5531 3496 2 MP stroke
-3 -2 5531 3620 2 MP stroke
-3 -1 5531 3744 2 MP stroke
-4 -2 5531 3869 2 MP stroke
-3 0 5531 3993 2 MP stroke
-4 -1 5531 4117 2 MP stroke
-4 -2 5531 4242 2 MP stroke
-3 -2 5639 1134 2 MP stroke
-3 0 5639 1259 2 MP stroke
7 2 5639 1383 2 MP stroke
0 5 5639 1507 2 MP stroke
-2 0 5639 1631 2 MP stroke
-2 1 5639 1756 2 MP stroke
-3 0 5639 1880 2 MP stroke
-3 1 5639 2004 2 MP stroke
-3 0 5639 2129 2 MP stroke
-3 1 5639 2253 2 MP stroke
-3 0 5639 2377 2 MP stroke
-3 1 5639 2502 2 MP stroke
-2 -1 5639 2626 2 MP stroke
-3 0 5639 2750 2 MP stroke
-3 -1 5639 2874 2 MP stroke
-4 0 5639 2999 2 MP stroke
-5 -1 5639 3123 2 MP stroke
-3 0 5639 3247 2 MP stroke
-5 -2 5639 3372 2 MP stroke
-5 0 5639 3496 2 MP stroke
-6 -2 5639 3620 2 MP stroke
-6 1 5639 3744 2 MP stroke
-6 -3 5639 3869 2 MP stroke
-6 0 5639 3993 2 MP stroke
-6 -2 5639 4117 2 MP stroke
-6 -1 5639 4242 2 MP stroke
-2 1 5747 1010 2 MP stroke
-3 0 5747 1134 2 MP stroke
-15 -5 5747 1259 2 MP stroke
40 9 5747 1383 2 MP stroke
1 3 5747 1631 2 MP stroke
-1 1 5747 1756 2 MP stroke
-1 -3 5747 1880 2 MP stroke
-1 0 5747 2004 2 MP stroke
-3 -2 5747 2129 2 MP stroke
-3 -1 5747 2253 2 MP stroke
-1 -3 5747 2377 2 MP stroke
-1 1 5747 2502 2 MP stroke
-2 -2 5747 2626 2 MP stroke
-2 -1 5747 2750 2 MP stroke
-3 -1 5747 2874 2 MP stroke
-3 -1 5747 2999 2 MP stroke
-2 -1 5747 3123 2 MP stroke
-3 2 5747 3247 2 MP stroke
-4 -2 5747 3372 2 MP stroke
-5 -2 5747 3496 2 MP stroke
-4 -1 5747 3620 2 MP stroke
-4 -1 5747 3744 2 MP stroke
-5 -3 5747 3869 2 MP stroke
-4 0 5747 3993 2 MP stroke
-5 -2 5747 4117 2 MP stroke
-5 -1 5747 4242 2 MP stroke
-4 0 5854 1010 2 MP stroke
-3 -1 5854 1134 2 MP stroke
-2 -1 5854 1259 2 MP stroke
-2 0 5854 1383 2 MP stroke
-3 0 5854 1631 2 MP stroke
12 -15 5854 1756 2 MP stroke
-1 -2 5854 1880 2 MP stroke
-2 -1 5854 2004 2 MP stroke
-2 -2 5854 2129 2 MP stroke
-3 -1 5854 2253 2 MP stroke
-3 -1 5854 2377 2 MP stroke
-3 0 5854 2502 2 MP stroke
-3 -3 5854 2626 2 MP stroke
-3 -1 5854 2750 2 MP stroke
-3 0 5854 2874 2 MP stroke
-4 -1 5854 2999 2 MP stroke
-4 -2 5854 3123 2 MP stroke
-4 0 5854 3247 2 MP stroke
-5 -3 5854 3372 2 MP stroke
-5 -1 5854 3496 2 MP stroke
-5 -2 5854 3620 2 MP stroke
-5 -1 5854 3744 2 MP stroke
-5 -3 5854 3869 2 MP stroke
-6 -1 5854 3993 2 MP stroke
-5 -2 5854 4117 2 MP stroke
-5 0 5854 4242 2 MP stroke
-6 -2 5854 4366 2 MP stroke
-2 0 5962 1134 2 MP stroke
-2 1 5962 1259 2 MP stroke
-3 -3 5962 1383 2 MP stroke
-2 0 5962 1631 2 MP stroke
12 -5 5962 1756 2 MP stroke
-2 -1 5962 1880 2 MP stroke
-1 1 5962 2004 2 MP stroke
-1 -1 5962 2129 2 MP stroke
-1 -1 5962 2253 2 MP stroke
-1 -1 5962 2377 2 MP stroke
-3 -2 5962 2502 2 MP stroke
-2 -1 5962 2626 2 MP stroke
-2 1 5962 2750 2 MP stroke
-2 0 5962 2874 2 MP stroke
-3 -1 5962 2999 2 MP stroke
-2 -2 5962 3123 2 MP stroke
-4 -1 5962 3247 2 MP stroke
-4 -2 5962 3372 2 MP stroke
-4 0 5962 3496 2 MP stroke
-3 -1 5962 3620 2 MP stroke
-4 -1 5962 3744 2 MP stroke
-3 -3 5962 3869 2 MP stroke
-4 -1 5962 3993 2 MP stroke
-4 -2 5962 4117 2 MP stroke
-5 -2 5962 4242 2 MP stroke
-4 -3 5962 4366 2 MP stroke
-3 -1 6070 513 2 MP stroke
-3 0 6070 1010 2 MP stroke
-3 -3 6070 1134 2 MP stroke
-3 0 6070 1259 2 MP stroke
-42 -14 6070 1383 2 MP stroke
-4 0 6070 1507 2 MP stroke
-3 0 6070 1631 2 MP stroke
-2 0 6070 1880 2 MP stroke
-3 1 6070 2004 2 MP stroke
-3 0 6070 2129 2 MP stroke
-3 0 6070 2253 2 MP stroke
-4 -1 6070 2377 2 MP stroke
-3 -1 6070 2502 2 MP stroke
-3 -3 6070 2626 2 MP stroke
-3 1 6070 2750 2 MP stroke
-4 -2 6070 2874 2 MP stroke
-4 -1 6070 2999 2 MP stroke
-4 -3 6070 3123 2 MP stroke
-6 0 6070 3247 2 MP stroke
-6 -2 6070 3372 2 MP stroke
-5 0 6070 3496 2 MP stroke
-5 -3 6070 3620 2 MP stroke
-5 0 6070 3744 2 MP stroke
-6 -3 6070 3869 2 MP stroke
-6 0 6070 3993 2 MP stroke
-5 -2 6070 4117 2 MP stroke
-6 -1 6070 4242 2 MP stroke
0 -3 6178 886 2 MP stroke
-2 -1 6178 1010 2 MP stroke
-2 0 6178 1134 2 MP stroke
-1 -2 6178 1259 2 MP stroke
-2 -3 6178 1383 2 MP stroke
-2 -1 6178 1631 2 MP stroke
-2 -1 6178 1756 2 MP stroke
-21 4 6178 1880 2 MP stroke
-2 1 6178 2004 2 MP stroke
-2 -3 6178 2129 2 MP stroke
-2 0 6178 2253 2 MP stroke
-2 -3 6178 2377 2 MP stroke
-2 -1 6178 2502 2 MP stroke
-2 -3 6178 2626 2 MP stroke
-2 0 6178 2750 2 MP stroke
-2 -2 6178 2874 2 MP stroke
-3 -2 6178 2999 2 MP stroke
-3 0 6178 3123 2 MP stroke
-4 2 6178 3247 2 MP stroke
-5 -3 6178 3372 2 MP stroke
-3 -1 6178 3496 2 MP stroke
-4 -2 6178 3620 2 MP stroke
-4 0 6178 3744 2 MP stroke
-4 -3 6178 3869 2 MP stroke
-5 0 6178 3993 2 MP stroke
-4 -2 6178 4117 2 MP stroke
-5 1 6178 4242 2 MP stroke
gr

c8

end %%Color Dict

eplot
%%EndObject

epage
end

showpage

%%Trailer
%%EOF
