%!PS-Adobe-2.0 EPSF-1.2
%%Creator: MATLAB, The MathWorks, Inc. Version 8.3.0.532 (R2014a). Operating System: Linux 3.19.0-31-generic #36~14.04.1-Ubuntu SMP Thu Oct 8 10:21:08 UTC 2015 x86_64.
%%Title: ../../data/output/p4/win_size5n_level4n_iter3min_eig0.0001.eps
%%CreationDate: 11/22/2015  18:50:03
%%DocumentNeededFonts: Helvetica
%%DocumentProcessColors: Cyan Magenta Yellow Black
%%Extensions: CMYK
%%Pages: 1
%%BoundingBox:    78   215   548   583
%%EndComments

%%BeginProlog
% MathWorks dictionary
/MathWorks 160 dict begin
% definition operators
/bdef {bind def} bind def
/ldef {load def} bind def
/xdef {exch def} bdef
/xstore {exch store} bdef
% operator abbreviations
/c  /clip ldef
/cc /concat ldef
/cp /closepath ldef
/gr /grestore ldef
/gs /gsave ldef
/mt /moveto ldef
/np /newpath ldef
/cm /currentmatrix ldef
/sm /setmatrix ldef
/rm /rmoveto ldef
/rl /rlineto ldef
/s {show newpath} bdef
/sc {setcmykcolor} bdef
/sr /setrgbcolor ldef
/sg /setgray ldef
/w /setlinewidth ldef
/j /setlinejoin ldef
/cap /setlinecap ldef
/rc {rectclip} bdef
/rf {rectfill} bdef
% page state control
/pgsv () def
/bpage {/pgsv save def} bdef
/epage {pgsv restore} bdef
/bplot /gsave ldef
/eplot {stroke grestore} bdef
% orientation switch
/portraitMode 0 def /landscapeMode 1 def /rotateMode 2 def
% coordinate system mappings
/dpi2point 0 def
% font control
/FontSize 0 def
/FMS {/FontSize xstore findfont [FontSize 0 0 FontSize neg 0 0]
  makefont setfont} bdef
/reencode {exch dup where {pop load} {pop StandardEncoding} ifelse
  exch dup 3 1 roll findfont dup length dict begin
  { 1 index /FID ne {def}{pop pop} ifelse } forall
  /Encoding exch def currentdict end definefont pop} bdef
/isroman {findfont /CharStrings get /Agrave known} bdef
/FMSR {3 1 roll 1 index dup isroman {reencode} {pop pop} ifelse
  exch FMS} bdef
/csm {1 dpi2point div -1 dpi2point div scale neg translate
 dup landscapeMode eq {pop -90 rotate}
  {rotateMode eq {90 rotate} if} ifelse} bdef
% line types: solid, dotted, dashed, dotdash
/SO { [] 0 setdash } bdef
/DO { [.5 dpi2point mul 4 dpi2point mul] 0 setdash } bdef
/DA { [6 dpi2point mul] 0 setdash } bdef
/DD { [.5 dpi2point mul 4 dpi2point mul 6 dpi2point mul 4
  dpi2point mul] 0 setdash } bdef
% macros for lines and objects
/L {lineto stroke} bdef
/MP {3 1 roll moveto 1 sub {rlineto} repeat} bdef
/AP {{rlineto} repeat} bdef
/PDlw -1 def
/W {/PDlw currentlinewidth def setlinewidth} def
/PP {closepath eofill} bdef
/DP {closepath stroke} bdef
/MR {4 -2 roll moveto dup  0 exch rlineto exch 0 rlineto
  neg 0 exch rlineto closepath} bdef
/FR {MR stroke} bdef
/PR {MR fill} bdef
/L1i {{currentfile picstr readhexstring pop} image} bdef
/tMatrix matrix def
/MakeOval {newpath tMatrix currentmatrix pop translate scale
0 0 1 0 360 arc tMatrix setmatrix} bdef
/FO {MakeOval stroke} bdef
/PO {MakeOval fill} bdef
/PD {currentlinewidth 2 div 0 360 arc fill
   PDlw -1 eq not {PDlw w /PDlw -1 def} if} def
/FA {newpath tMatrix currentmatrix pop translate scale
  0 0 1 5 -2 roll arc tMatrix setmatrix stroke} bdef
/PA {newpath tMatrix currentmatrix pop	translate 0 0 moveto scale
  0 0 1 5 -2 roll arc closepath tMatrix setmatrix fill} bdef
/FAn {newpath tMatrix currentmatrix pop translate scale
  0 0 1 5 -2 roll arcn tMatrix setmatrix stroke} bdef
/PAn {newpath tMatrix currentmatrix pop translate 0 0 moveto scale
  0 0 1 5 -2 roll arcn closepath tMatrix setmatrix fill} bdef
/vradius 0 def /hradius 0 def /lry 0 def
/lrx 0 def /uly 0 def /ulx 0 def /rad 0 def
/MRR {/vradius xdef /hradius xdef /lry xdef /lrx xdef /uly xdef
  /ulx xdef newpath tMatrix currentmatrix pop ulx hradius add uly
  vradius add translate hradius vradius scale 0 0 1 180 270 arc 
  tMatrix setmatrix lrx hradius sub uly vradius add translate
  hradius vradius scale 0 0 1 270 360 arc tMatrix setmatrix
  lrx hradius sub lry vradius sub translate hradius vradius scale
  0 0 1 0 90 arc tMatrix setmatrix ulx hradius add lry vradius sub
  translate hradius vradius scale 0 0 1 90 180 arc tMatrix setmatrix
  closepath} bdef
/FRR {MRR stroke } bdef
/PRR {MRR fill } bdef
/MlrRR {/lry xdef /lrx xdef /uly xdef /ulx xdef /rad lry uly sub 2 div def
  newpath tMatrix currentmatrix pop ulx rad add uly rad add translate
  rad rad scale 0 0 1 90 270 arc tMatrix setmatrix lrx rad sub lry rad
  sub translate rad rad scale 0 0 1 270 90 arc tMatrix setmatrix
  closepath} bdef
/FlrRR {MlrRR stroke } bdef
/PlrRR {MlrRR fill } bdef
/MtbRR {/lry xdef /lrx xdef /uly xdef /ulx xdef /rad lrx ulx sub 2 div def
  newpath tMatrix currentmatrix pop ulx rad add uly rad add translate
  rad rad scale 0 0 1 180 360 arc tMatrix setmatrix lrx rad sub lry rad
  sub translate rad rad scale 0 0 1 0 180 arc tMatrix setmatrix
  closepath} bdef
/FtbRR {MtbRR stroke } bdef
/PtbRR {MtbRR fill } bdef
/stri 6 array def /dtri 6 array def
/smat 6 array def /dmat 6 array def
/tmat1 6 array def /tmat2 6 array def /dif 3 array def
/asub {/ind2 exch def /ind1 exch def dup dup
  ind1 get exch ind2 get sub exch } bdef
/tri_to_matrix {
  2 0 asub 3 1 asub 4 0 asub 5 1 asub
  dup 0 get exch 1 get 7 -1 roll astore } bdef
/compute_transform {
  dmat dtri tri_to_matrix tmat1 invertmatrix 
  smat stri tri_to_matrix tmat2 concatmatrix } bdef
/ds {stri astore pop} bdef
/dt {dtri astore pop} bdef
/db {2 copy /cols xdef /rows xdef mul dup 3 mul string
  currentfile exch readhexstring pop
  dup 0 3 index getinterval /rbmap xdef
  dup 2 index dup getinterval /gbmap xdef
  1 index dup 2 mul exch getinterval /bbmap xdef pop pop}bdef
/it {gs np dtri aload pop moveto lineto lineto cp c
  cols rows 8 compute_transform 
  rbmap gbmap bbmap true 3 colorimage gr}bdef
/il {newpath moveto lineto stroke}bdef
currentdict end def
%%EndProlog

%%BeginSetup
MathWorks begin

0 cap

end
%%EndSetup

%%Page: 1 1
%%BeginPageSetup
%%PageBoundingBox:    78   215   548   583
MathWorks begin
bpage
%%EndPageSetup

%%BeginObject: obj1
bplot

/dpi2point 12 def
portraitMode 0216 7344 csm

  731   341  5640  4420 MR c np
85 dict begin %Colortable dictionary
/c0 { 0.000000 0.000000 0.000000 sr} bdef
/c1 { 1.000000 1.000000 1.000000 sr} bdef
/c2 { 0.900000 0.000000 0.000000 sr} bdef
/c3 { 0.000000 0.820000 0.000000 sr} bdef
/c4 { 0.000000 0.000000 0.800000 sr} bdef
/c5 { 0.910000 0.820000 0.320000 sr} bdef
/c6 { 1.000000 0.260000 0.820000 sr} bdef
/c7 { 0.000000 0.820000 0.820000 sr} bdef
c0
1 j
1 sg
   0    0 6913 5186 PR
6 w
0 -4226 5356 0 0 4226 899 389 4 MP
PP
-5356 0 0 -4226 5356 0 0 4226 899 389 5 MP stroke
4 w
DO
SO
6 w
0 sg
 899  389 mt 6255  389 L
 899 4615 mt 6255 4615 L
 899  389 mt  899 4615 L
6255  389 mt 6255 4615 L
 899 4615 mt 6255 4615 L
 899  389 mt  899 4615 L
1406 4615 mt 1406 4561 L
1406  389 mt 1406  442 L
%%IncludeResource: font Helvetica
/Helvetica /ISOLatin1Encoding 120 FMSR

1373 4760 mt 
(5) s
1945 4615 mt 1945 4561 L
1945  389 mt 1945  442 L
1879 4760 mt 
(10) s
2484 4615 mt 2484 4561 L
2484  389 mt 2484  442 L
2418 4760 mt 
(15) s
3022 4615 mt 3022 4561 L
3022  389 mt 3022  442 L
2956 4760 mt 
(20) s
3561 4615 mt 3561 4561 L
3561  389 mt 3561  442 L
3495 4760 mt 
(25) s
4100 4615 mt 4100 4561 L
4100  389 mt 4100  442 L
4034 4760 mt 
(30) s
4638 4615 mt 4638 4561 L
4638  389 mt 4638  442 L
4572 4760 mt 
(35) s
5177 4615 mt 5177 4561 L
5177  389 mt 5177  442 L
5111 4760 mt 
(40) s
5716 4615 mt 5716 4561 L
5716  389 mt 5716  442 L
5650 4760 mt 
(45) s
6255 4615 mt 6255 4561 L
6255  389 mt 6255  442 L
6189 4760 mt 
(50) s
 899  974 mt  952  974 L
6255  974 mt 6201  974 L
 798 1018 mt 
(5) s
 899 1596 mt  952 1596 L
6255 1596 mt 6201 1596 L
 731 1640 mt 
(10) s
 899 2217 mt  952 2217 L
6255 2217 mt 6201 2217 L
 731 2261 mt 
(15) s
 899 2839 mt  952 2839 L
6255 2839 mt 6201 2839 L
 731 2883 mt 
(20) s
 899 3460 mt  952 3460 L
6255 3460 mt 6201 3460 L
 731 3504 mt 
(25) s
 899 4082 mt  952 4082 L
6255 4082 mt 6201 4082 L
 731 4126 mt 
(30) s
 899  389 mt 6255  389 L
 899 4615 mt 6255 4615 L
 899  389 mt  899 4615 L
6255  389 mt 6255 4615 L
gs 899 389 5357 4227 MR c np
/c8 { 0.000000 0.000000 1.000000 sr} bdef
c8
6 -2 -5 5 995 518 3 MP stroke
7 3 -7 1 991 633 3 MP stroke
2 7 -5 -5 999 872 3 MP stroke
7 4 -8 0 991 1004 3 MP stroke
7 7 -9 -2 991 1122 3 MP stroke
1 1 -2 0 1003 2375 3 MP stroke
5 1 -5 1 997 2501 3 MP stroke
5 5 -6 -2 997 2619 3 MP stroke
4 6 -6 -3 998 2740 3 MP stroke
3 8 -6 -5 998 2860 3 MP stroke
4 1 -3 2 998 2999 3 MP stroke
1 6 -3 -5 1004 3113 3 MP stroke
2 5 -4 -3 1001 3238 3 MP stroke
1 7 -4 -6 1002 3358 3 MP stroke
-1 1 1 -2 1008 3493 3 MP stroke
2 6 -4 -5 1002 3608 3 MP stroke
2 2 -3 -1 1001 3742 3 MP stroke
3 6 -6 -4 999 3857 3 MP stroke
5 3 -6 0 995 3989 3 MP stroke
9 5 -9 0 989 4111 3 MP stroke
7 0 -6 4 992 4243 3 MP stroke
9 -1 -7 6 989 4494 3 MP stroke
4 6 -6 -3 997 4603 3 MP stroke
12 2 -12 4 1091 511 3 MP stroke
19 5 -19 6 1075 633 3 MP stroke
11 5 -11 1 1091 880 3 MP stroke
12 1 -11 5 1091 1011 3 MP stroke
9 6 -10 0 1094 1126 3 MP stroke
8 3 -8 1 1098 2372 3 MP stroke
8 2 -8 2 1099 2501 3 MP stroke
4 6 -6 -3 1104 2614 3 MP stroke
6 6 -8 -2 1101 2739 3 MP stroke
6 6 -8 -3 1102 2864 3 MP stroke
6 4 -7 -1 1102 2992 3 MP stroke
6 6 -8 -2 1101 3111 3 MP stroke
6 4 -7 -1 1101 3240 3 MP stroke
4 5 -6 -2 1105 3362 3 MP stroke
4 3 -5 0 1105 3493 3 MP stroke
5 8 -8 -4 1102 3606 3 MP stroke
8 3 -9 2 1097 3740 3 MP stroke
6 6 -8 -2 1100 3857 3 MP stroke
9 5 -10 1 1096 3987 3 MP stroke
10 8 -12 -1 1093 4105 3 MP stroke
10 4 -11 2 1094 4236 3 MP stroke
13 3 -12 4 1089 4489 3 MP stroke
10 4 -11 2 1094 4609 3 MP stroke
16 -8 -10 16 1193 409 3 MP stroke
18 1 -16 9 1185 516 3 MP stroke
24 3 -22 10 1175 637 3 MP stroke
11 -2 -9 8 1200 767 3 MP stroke
10 2 -10 4 1202 885 3 MP stroke
11 0 -10 6 1200 1012 3 MP stroke
7 6 -9 -1 1207 1124 3 MP stroke
7 4 -8 0 1208 2497 3 MP stroke
5 10 -8 -6 1210 2609 3 MP stroke
8 4 -9 1 1205 2744 3 MP stroke
7 6 -8 -2 1206 2864 3 MP stroke
4 -1 -3 3 1215 3002 3 MP stroke
2 5 -4 -4 1217 3114 3 MP stroke
3 4 -5 -2 1214 3240 3 MP stroke
2 7 -5 -5 1216 3359 3 MP stroke
7 1 -7 3 1209 3495 3 MP stroke
5 7 -8 -3 1210 3608 3 MP stroke
5 1 -5 2 1211 3743 3 MP stroke
5 5 -6 -2 1211 3859 3 MP stroke
5 5 -6 -1 1210 3985 3 MP stroke
7 4 -8 0 1208 4111 3 MP stroke
7 0 -6 3 1209 4242 3 MP stroke
6 4 -7 0 1208 4360 3 MP stroke
10 0 -9 5 1203 4493 3 MP stroke
7 4 -8 0 1207 4608 3 MP stroke
12 3 -12 4 1306 510 3 MP stroke
9 9 -11 -3 1310 623 3 MP stroke
11 4 -11 2 1308 756 3 MP stroke
11 6 -12 1 1307 877 3 MP stroke
12 2 -11 5 1306 1010 3 MP stroke
13 10 -16 -2 1301 1117 3 MP stroke
8 3 -8 2 1314 2498 3 MP stroke
5 7 -8 -4 1318 2613 3 MP stroke
2 3 -3 -2 1325 2744 3 MP stroke
5 9 -8 -5 1318 2859 3 MP stroke
1 3 -3 -2 1327 2991 3 MP stroke
4 3 -5 0 1321 3118 3 MP stroke
3 3 -4 -1 1322 3242 3 MP stroke
3 7 -5 -4 1321 3359 3 MP stroke
5 3 -6 0 1319 3491 3 MP stroke
4 6 -6 -3 1319 3609 3 MP stroke
5 3 -6 0 1318 3741 3 MP stroke
7 7 -9 -2 1314 3857 3 MP stroke
8 1 -7 4 1313 3994 3 MP stroke
8 7 -10 -2 1312 4105 3 MP stroke
9 6 -11 0 1310 4233 3 MP stroke
8 8 -10 -2 1312 4352 3 MP stroke
6 3 -6 1 1316 4487 3 MP stroke
9 8 -12 -3 1311 4601 3 MP stroke
9 0 -8 4 1420 514 3 MP stroke
8 7 -10 -2 1421 625 3 MP stroke
8 1 -8 4 1421 761 3 MP stroke
8 4 -9 1 1422 880 3 MP stroke
9 4 -10 2 1418 1004 3 MP stroke
9 4 -10 2 1418 1129 3 MP stroke
7 2 -7 2 1423 1255 3 MP stroke
-1 4 -1 -4 1438 1375 3 MP stroke
2 3 -3 -2 1432 2496 3 MP stroke
2 7 -4 -5 1432 2613 3 MP stroke
-1 2 0 -3 1439 3118 3 MP stroke
2 4 -3 -2 1432 3240 3 MP stroke
2 5 -4 -3 1432 3361 3 MP stroke
3 2 -3 0 1431 3493 3 MP stroke
3 5 -5 -2 1429 3611 3 MP stroke
5 5 -6 -2 1428 3737 3 MP stroke
3 5 -5 -3 1430 3859 3 MP stroke
8 3 -8 2 1422 3991 3 MP stroke
6 7 -8 -3 1424 4106 3 MP stroke
6 5 -8 -1 1424 4233 3 MP stroke
5 8 -7 -4 1425 4352 3 MP stroke
7 0 -6 4 1424 4493 3 MP stroke
5 7 -7 -4 1426 4603 3 MP stroke
9 2 1512 389 2 MP stroke
13 0 -12 7 1520 515 3 MP stroke
10 3 -10 3 1524 633 3 MP stroke
12 3 -12 4 1521 759 3 MP stroke
11 5 -12 1 1522 879 3 MP stroke
14 1 -12 7 1518 1012 3 MP stroke
10 5 -11 1 1525 1128 3 MP stroke
12 3 -12 4 1521 1255 3 MP stroke
12 5 -13 2 1521 1375 3 MP stroke
11 7 -12 0 1522 1496 3 MP stroke
5 5 -6 -1 1534 3116 3 MP stroke
7 5 -8 -1 1531 3240 3 MP stroke
5 6 -7 -2 1534 3362 3 MP stroke
6 2 -7 1 1533 3493 3 MP stroke
6 5 -7 -2 1533 3612 3 MP stroke
7 4 -7 1 1530 3738 3 MP stroke
8 7 -10 -2 1528 3858 3 MP stroke
9 4 -10 2 1526 3989 3 MP stroke
10 8 -12 -1 1524 4104 3 MP stroke
11 3 -11 3 1524 4238 3 MP stroke
11 4 -11 2 1522 4361 3 MP stroke
10 1 -9 4 1526 4491 3 MP stroke
8 6 -10 -1 1528 4605 3 MP stroke
9 1 -8 4 1633 514 3 MP stroke
9 6 -10 0 1633 627 3 MP stroke
7 0 -7 4 1637 762 3 MP stroke
7 1 -7 3 1639 885 3 MP stroke
11 -2 -9 7 1632 1016 3 MP stroke
8 6 -9 -1 1636 1125 3 MP stroke
9 3 -9 2 1636 1256 3 MP stroke
8 5 -9 0 1634 1376 3 MP stroke
9 1 -8 4 1635 1507 3 MP stroke
13 -11 -7 16 1631 2526 3 MP stroke
2 1 -2 0 1648 2624 3 MP stroke
5 3 -5 0 1642 2745 3 MP stroke
6 4 -7 0 1640 3116 3 MP stroke
7 5 -8 -1 1638 3239 3 MP stroke
5 5 -6 -1 1641 3364 3 MP stroke
5 4 -6 -1 1642 3489 3 MP stroke
4 3 -5 -1 1644 3615 3 MP stroke
6 5 -7 -1 1641 3737 3 MP stroke
7 5 -8 -1 1638 3861 3 MP stroke
7 4 -8 0 1638 3987 3 MP stroke
7 6 -8 -1 1638 4109 3 MP stroke
5 3 -6 1 1641 4237 3 MP stroke
6 5 -7 -1 1639 4359 3 MP stroke
8 0 -7 4 1636 4493 3 MP stroke
11 2 -10 4 1738 511 3 MP stroke
9 8 -11 -2 1740 625 3 MP stroke
11 2 -11 4 1739 761 3 MP stroke
15 5 -15 4 1730 879 3 MP stroke
7 3 -8 1 1745 1005 3 MP stroke
11 5 -12 1 1737 1126 3 MP stroke
11 -1 -9 7 1739 1263 3 MP stroke
9 2 -9 3 1742 1380 3 MP stroke
4 2 -4 0 1752 1504 3 MP stroke
7 7 -9 -2 1746 1620 3 MP stroke
6 -2 -5 5 1749 2506 3 MP stroke
7 4 -7 0 1747 2621 3 MP stroke
7 0 -6 4 1747 2752 3 MP stroke
5 -3 -3 6 1750 2881 3 MP stroke
4 3 -5 0 1751 2993 3 MP stroke
5 5 -6 -1 1749 3115 3 MP stroke
7 5 -8 -1 1747 3240 3 MP stroke
4 5 -6 -2 1752 3364 3 MP stroke
6 5 -7 0 1746 3488 3 MP stroke
7 5 -8 0 1746 3613 3 MP stroke
7 4 -8 0 1745 3737 3 MP stroke
7 4 -8 0 1748 3862 3 MP stroke
6 2 -6 1 1749 3991 3 MP stroke
8 8 -10 -3 1743 4103 3 MP stroke
9 5 -10 0 1743 4236 3 MP stroke
11 6 -11 0 1739 4359 3 MP stroke
11 3 -11 3 1739 4487 3 MP stroke
3 0 -3 2 1861 513 3 MP stroke
19 16 -24 -4 1828 609 3 MP stroke
7 2 -7 2 1853 759 3 MP stroke
7 0 -6 4 1854 889 3 MP stroke
11 -1 -9 7 1846 1016 3 MP stroke
9 3 -9 2 1851 1132 3 MP stroke
8 0 -7 5 1852 1261 3 MP stroke
10 2 -10 4 1847 1380 3 MP stroke
3 2 -3 0 1862 1503 3 MP stroke
2 4 -3 -3 1864 1625 3 MP stroke
3 4 -4 -2 1861 2619 3 MP stroke
4 2 -4 1 1859 2747 3 MP stroke
1 3 -2 -2 1865 2869 3 MP stroke
2 -1 -1 2 1864 3001 3 MP stroke
2 4 -4 -2 1864 3115 3 MP stroke
3 3 -3 -1 1863 3242 3 MP stroke
2 6 -4 -4 1864 3359 3 MP stroke
6 3 -7 1 1855 3492 3 MP stroke
4 4 -5 -2 1861 3613 3 MP stroke
5 0 -4 3 1859 3745 3 MP stroke
5 6 -6 -3 1858 3860 3 MP stroke
8 1 -7 3 1852 3993 3 MP stroke
5 7 -7 -3 1858 4106 3 MP stroke
7 3 -8 1 1854 4237 3 MP stroke
6 6 -7 -1 1854 4356 3 MP stroke
9 3 -9 2 1851 4486 3 MP stroke
11 0 -10 6 1955 515 3 MP stroke
19 14 -22 -3 1936 615 3 MP stroke
11 1 -10 5 1953 762 3 MP stroke
13 4 -13 3 1951 881 3 MP stroke
10 2 -10 4 1957 1008 3 MP stroke
9 8 -11 -2 1957 1121 3 MP stroke
12 1 -11 5 1953 1261 3 MP stroke
11 4 -11 3 1953 1378 3 MP stroke
8 5 -10 0 1958 1500 3 MP stroke
6 6 -8 -2 1962 1620 3 MP stroke
10 3 -10 3 1954 2498 3 MP stroke
8 8 -10 -3 1959 2612 3 MP stroke
7 4 -8 0 1962 2744 3 MP stroke
6 4 -7 0 1962 2867 3 MP stroke
5 1 -5 2 1966 2998 3 MP stroke
5 4 -6 0 1964 3117 3 MP stroke
5 3 -6 0 1964 3243 3 MP stroke
5 6 -7 -3 1964 3362 3 MP stroke
8 5 -9 0 1959 3489 3 MP stroke
9 5 -10 1 1956 3612 3 MP stroke
9 4 -10 1 1957 3739 3 MP stroke
9 4 -9 2 1956 3863 3 MP stroke
11 3 -11 3 1953 3990 3 MP stroke
9 7 -11 -2 1958 4106 3 MP stroke
9 5 -10 1 1956 4236 3 MP stroke
8 7 -10 -2 1958 4356 3 MP stroke
10 3 -10 3 1954 4488 3 MP stroke
2067 389 PD
10 0 -9 6 2063 516 3 MP stroke
5 7 -8 -4 2072 624 3 MP stroke
7 1 -6 3 2070 762 3 MP stroke
11 2 -11 4 2062 885 3 MP stroke
10 4 -10 2 2063 1006 3 MP stroke
10 1 -9 4 2065 1134 3 MP stroke
7 0 -6 4 2070 1261 3 MP stroke
7 4 -8 0 2069 1376 3 MP stroke
6 5 -7 -1 2071 1500 3 MP stroke
5 5 -7 -2 2073 1621 3 MP stroke
2 2 -3 0 2079 2373 3 MP stroke
4 3 -5 -1 2076 2497 3 MP stroke
4 3 -5 -1 2076 2621 3 MP stroke
2 2 -3 -1 2080 2747 3 MP stroke
1 5 -3 -4 2082 2865 3 MP stroke
2 0 -2 1 2081 2999 3 MP stroke
2 4 -3 -2 2079 3115 3 MP stroke
4 3 -4 -1 2076 3244 3 MP stroke
4 4 -6 -1 2074 3365 3 MP stroke
3 3 -4 -1 2076 3491 3 MP stroke
3 3 -4 -1 2075 3615 3 MP stroke
7 5 -8 -1 2069 3737 3 MP stroke
7 4 -8 0 2069 3861 3 MP stroke
6 5 -7 -1 2072 3984 3 MP stroke
6 7 -9 -3 2071 4103 3 MP stroke
7 3 -7 1 2068 4237 3 MP stroke
7 3 -7 1 2070 4362 3 MP stroke
8 0 -7 4 2069 4491 3 MP stroke
2 0 2168 389 2 MP stroke
12 1 -11 6 2166 514 3 MP stroke
13 27 -22 -17 2160 588 3 MP stroke
12 2 -12 4 2167 760 3 MP stroke
13 2 -13 5 2165 885 3 MP stroke
12 2 -12 5 2167 1010 3 MP stroke
14 5 -14 3 2163 1129 3 MP stroke
11 1 -10 5 2168 1260 3 MP stroke
6 5 -7 -1 2178 1376 3 MP stroke
11 6 -12 0 2169 1622 3 MP stroke
6 3 -7 1 2178 2372 3 MP stroke
7 2 -7 2 2176 2499 3 MP stroke
5 7 -8 -3 2179 2613 3 MP stroke
5 3 -6 0 2181 2744 3 MP stroke
5 5 -7 -1 2179 2866 3 MP stroke
7 4 -8 0 2178 2992 3 MP stroke
6 6 -7 -2 2178 3114 3 MP stroke
7 3 -8 1 2177 3242 3 MP stroke
5 5 -6 -2 2181 3365 3 MP stroke
6 4 -7 -1 2179 3490 3 MP stroke
5 4 -6 -1 2179 3614 3 MP stroke
7 5 -8 0 2177 3737 3 MP stroke
6 6 -8 -3 2180 3858 3 MP stroke
6 4 -7 0 2178 3986 3 MP stroke
7 6 -9 -2 2176 4108 3 MP stroke
8 6 -9 -1 2174 4233 3 MP stroke
9 3 -9 2 2173 4363 3 MP stroke
11 0 -10 6 2171 4492 3 MP stroke
10 1 -9 4 2281 514 3 MP stroke
9 4 -10 2 2279 632 3 MP stroke
7 0 -6 4 2285 763 3 MP stroke
8 5 -9 0 2281 879 3 MP stroke
9 -2 -7 7 2281 1015 3 MP stroke
10 7 -12 -1 2280 1122 3 MP stroke
9 2 -9 3 2281 1257 3 MP stroke
4 3 -4 -1 2290 1378 3 MP stroke
1 -1 0 2 2297 1510 3 MP stroke
1 2 -2 -1 2297 1628 3 MP stroke
2 4 -3 -2 2294 1748 3 MP stroke
2 4 -3 -2 2295 1873 3 MP stroke
3 1 -3 1 2293 2252 3 MP stroke
1 2 -2 -1 2296 2373 3 MP stroke
3 0 -3 2 2292 2503 3 MP stroke
3 7 -6 -5 2291 2612 3 MP stroke
2 2 -2 -1 2295 2748 3 MP stroke
0 7 -3 -7 2298 2861 3 MP stroke
1 2 -2 -1 2296 2994 3 MP stroke
2 4 -4 -2 2293 3116 3 MP stroke
4 4 -5 -1 2291 3240 3 MP stroke
3 3 -3 -1 2292 3367 3 MP stroke
4 0 -4 3 2291 3497 3 MP stroke
2 7 -4 -5 2295 3608 3 MP stroke
3 4 -4 -1 2291 3738 3 MP stroke
3 4 -4 -2 2293 3862 3 MP stroke
5 2 -5 1 2290 3990 3 MP stroke
8 5 -9 0 2282 4109 3 MP stroke
6 3 -7 1 2287 4237 3 MP stroke
7 4 -8 0 2285 4361 3 MP stroke
6 1 -6 2 2287 4489 3 MP stroke
3 1 2371 389 2 MP stroke
18 2 -17 7 2372 513 3 MP stroke
14 6 -15 3 2377 630 3 MP stroke
11 5 -12 1 2385 755 3 MP stroke
9 4 -10 2 2388 881 3 MP stroke
11 1 -10 5 2383 1012 3 MP stroke
8 9 -11 -4 2389 1120 3 MP stroke
8 2 -8 3 2391 1505 3 MP stroke
6 6 -7 -2 2393 1622 3 MP stroke
8 5 -9 0 2389 1748 3 MP stroke
8 10 -11 -5 2389 1861 3 MP stroke
8 0 -7 5 2391 2007 3 MP stroke
6 2 -7 2 2394 2126 3 MP stroke
6 4 -7 0 2394 2248 3 MP stroke
8 4 -9 0 2392 2371 3 MP stroke
7 -1 -6 5 2393 2505 3 MP stroke
9 8 -11 -2 2387 2613 3 MP stroke
6 3 -7 1 2393 2746 3 MP stroke
3 7 -6 -5 2398 2861 3 MP stroke
5 0 -5 3 2396 2998 3 MP stroke
7 3 -7 0 2393 3119 3 MP stroke
7 5 -8 -1 2392 3240 3 MP stroke
8 4 -9 1 2389 3366 3 MP stroke
5 3 -6 0 2397 3491 3 MP stroke
5 3 -6 0 2395 3615 3 MP stroke
9 2 -9 3 2390 3743 3 MP stroke
7 5 -8 -1 2392 3861 3 MP stroke
11 2 -10 4 2385 3992 3 MP stroke
9 6 -10 0 2388 4108 3 MP stroke
12 2 -11 4 2383 4241 3 MP stroke
11 6 -13 0 2385 4356 3 MP stroke
9 2 -9 3 2388 4488 3 MP stroke
3 1 2485 389 2 MP stroke
19 2 -17 8 2477 514 3 MP stroke
15 5 -15 3 2484 632 3 MP stroke
6 7 -8 -4 2502 873 3 MP stroke
10 2 -9 4 2495 1008 3 MP stroke
8 8 -10 -3 2498 1121 3 MP stroke
12 -1 -10 7 2492 1263 3 MP stroke
6 3 -6 1 2501 1378 3 MP stroke
7 1 -7 3 2500 1508 3 MP stroke
4 1 -4 2 2505 1631 3 MP stroke
5 -2 -4 4 2505 1761 3 MP stroke
4 -11 1 13 2507 1903 3 MP stroke
3 4 -4 -1 2506 1998 3 MP stroke
2 6 -5 -4 2510 2117 3 MP stroke
2 1 -2 1 2511 2252 3 MP stroke
3 5 -4 -2 2506 2370 3 MP stroke
3 5 -4 -3 2507 2494 3 MP stroke
2 8 -5 -6 2509 2612 3 MP stroke
4 -2 -2 4 2507 2755 3 MP stroke
4 4 -5 -2 2507 2867 3 MP stroke
2 4 -3 -3 2510 2992 3 MP stroke
2 4 -3 -3 2511 3116 3 MP stroke
1 4 -3 -3 2510 3240 3 MP stroke
4 4 -5 -1 2504 3365 3 MP stroke
6 3 -6 1 2503 3492 3 MP stroke
6 4 -7 0 2502 3613 3 MP stroke
6 3 -6 1 2502 3741 3 MP stroke
6 4 -6 0 2502 3863 3 MP stroke
6 2 -7 2 2502 3990 3 MP stroke
6 7 -8 -3 2501 4106 3 MP stroke
9 2 -8 3 2497 4241 3 MP stroke
8 5 -9 1 2497 4358 3 MP stroke
6 3 -6 1 2501 4486 3 MP stroke
14 3 -9 3 2589 389 3 MP stroke
14 2 -13 6 2594 513 3 MP stroke
9 8 -11 -2 2603 625 3 MP stroke
10 14 -14 -7 2601 738 3 MP stroke
11 1 -10 5 2601 886 3 MP stroke
9 2 -9 3 2604 1008 3 MP stroke
10 8 -13 -1 2601 1120 3 MP stroke
12 3 -12 4 2598 1258 3 MP stroke
11 4 -12 2 2601 1377 3 MP stroke
11 0 -9 6 2600 1511 3 MP stroke
12 6 -13 1 2597 1621 3 MP stroke
3 0 -2 2 2616 1758 3 MP stroke
6 3 -6 1 2611 1876 3 MP stroke
4 1 -5 1 2614 2003 3 MP stroke
5 2 -5 1 2613 2127 3 MP stroke
5 -3 -3 6 2613 2260 3 MP stroke
6 3 -6 0 2610 2373 3 MP stroke
7 0 -6 4 2609 2503 3 MP stroke
6 6 -8 -2 2610 2615 3 MP stroke
7 3 -7 2 2607 2747 3 MP stroke
7 2 -7 2 2609 2872 3 MP stroke
4 4 -6 -1 2613 2991 3 MP stroke
5 4 -6 -1 2613 3116 3 MP stroke
6 4 -7 0 2609 3241 3 MP stroke
4 2 -5 1 2613 3368 3 MP stroke
8 2 -8 3 2607 3494 3 MP stroke
7 7 -9 -3 2607 3608 3 MP stroke
9 1 -8 4 2606 3745 3 MP stroke
9 5 -10 1 2603 3862 3 MP stroke
9 4 -10 1 2605 3987 3 MP stroke
7 5 -8 -1 2608 4108 3 MP stroke
8 6 -9 -1 2605 4232 3 MP stroke
5 3 -6 0 2612 4362 3 MP stroke
11 0 -10 6 2601 4491 3 MP stroke
9 -1 -8 6 2711 517 3 MP stroke
6 6 -8 -2 2717 627 3 MP stroke
8 0 -7 4 2715 763 3 MP stroke
8 2 -8 2 2713 883 3 MP stroke
6 2 -6 1 2718 1007 3 MP stroke
2 9 -6 -7 2724 1117 3 MP stroke
2 4 -3 -2 2725 1376 3 MP stroke
6 1 -5 3 2718 1508 3 MP stroke
2 6 -4 -4 2724 1621 3 MP stroke
-1 6 -1 -6 2730 1869 3 MP stroke
1 3 -2 -2 2727 2373 3 MP stroke
0 3 -1 -2 2728 2496 3 MP stroke
0 7 -3 -6 2728 2614 3 MP stroke
3 3 -4 -1 2725 2746 3 MP stroke
2 2 -3 -1 2726 2872 3 MP stroke
3 3 -4 -1 2722 2994 3 MP stroke
1 3 -3 -2 2726 3116 3 MP stroke
2 2 -2 -1 2726 3244 3 MP stroke
4 1 -4 1 2722 3370 3 MP stroke
5 1 -5 2 2721 3494 3 MP stroke
2 4 -3 -3 2725 3611 3 MP stroke
6 1 -5 2 2719 3744 3 MP stroke
5 4 -7 -1 2719 3862 3 MP stroke
7 3 -7 1 2715 3990 3 MP stroke
6 5 -7 -1 2716 4110 3 MP stroke
7 5 -8 -1 2715 4234 3 MP stroke
7 5 -8 -1 2716 4357 3 MP stroke
8 4 -9 1 2712 4485 3 MP stroke
12 3 -5 1 2806 389 3 MP stroke
9 0 -8 5 2820 517 3 MP stroke
11 2 -10 4 2815 635 3 MP stroke
11 6 -13 1 2815 752 3 MP stroke
9 6 -10 -1 2818 1249 3 MP stroke
2 4 -4 -3 2832 1375 3 MP stroke
6 1 -6 3 2825 1506 3 MP stroke
4 4 -5 -1 2828 1625 3 MP stroke
3 7 -6 -4 2830 2366 3 MP stroke
6 3 -6 0 2826 2498 3 MP stroke
4 18 -11 -13 2824 2591 3 MP stroke
5 3 -5 0 2827 2746 3 MP stroke
6 6 -8 -2 2824 2866 3 MP stroke
7 3 -7 1 2824 2997 3 MP stroke
6 7 -8 -3 2824 3111 3 MP stroke
9 1 -9 4 2820 3247 3 MP stroke
5 4 -5 -1 2827 3366 3 MP stroke
10 2 -9 4 2819 3494 3 MP stroke
7 8 -9 -4 2823 3607 3 MP stroke
10 1 -9 4 2819 3746 3 MP stroke
9 6 -11 0 2817 3859 3 MP stroke
10 0 -9 5 2817 3995 3 MP stroke
9 7 -11 -1 2817 4106 3 MP stroke
11 2 -11 5 2815 4241 3 MP stroke
10 6 -11 0 2817 4357 3 MP stroke
8 4 -9 1 2821 4486 3 MP stroke
13 4 -5 1 2910 389 3 MP stroke
16 4 -16 5 2913 510 3 MP stroke
15 4 -14 5 2915 634 3 MP stroke
8 -1 -7 6 2929 890 3 MP stroke
8 4 -9 1 2928 1253 3 MP stroke
10 5 -10 1 2925 1376 3 MP stroke
11 2 -11 4 2923 1505 3 MP stroke
5 3 -5 1 2934 2498 3 MP stroke
7 11 -11 -5 2929 2607 3 MP stroke
2 1 -3 0 2942 2749 3 MP stroke
4 4 -5 -2 2937 2866 3 MP stroke
2 2 -3 -1 2941 2995 3 MP stroke
5 5 -6 -2 2935 3114 3 MP stroke
2 0 -2 1 2941 3246 3 MP stroke
3 6 -5 -3 2938 3361 3 MP stroke
7 1 -6 3 2931 3495 3 MP stroke
3 5 -5 -2 2937 3610 3 MP stroke
7 2 -7 2 2931 3744 3 MP stroke
7 3 -7 1 2930 3865 3 MP stroke
5 2 -5 2 2934 3990 3 MP stroke
7 9 -10 -4 2930 4102 3 MP stroke
8 1 -7 3 2931 4242 3 MP stroke
8 6 -9 -1 2928 4357 3 MP stroke
7 2 -7 2 2932 4489 3 MP stroke
17 1 -16 8 3019 515 3 MP stroke
3053 636 PD
9 4 -10 1 3035 1254 3 MP stroke
9 5 -10 1 3035 1376 3 MP stroke
6 0 -5 3 3040 1508 3 MP stroke
6 7 -8 -3 3041 1619 3 MP stroke
5 6 -7 -3 3041 1746 3 MP stroke
8 4 -9 1 3037 1874 3 MP stroke
3 5 -4 -3 3046 2493 3 MP stroke
3 7 -6 -4 3045 2612 3 MP stroke
4 5 -6 -2 3044 2743 3 MP stroke
4 4 -5 -1 3044 2868 3 MP stroke
6 3 -6 0 3041 2994 3 MP stroke
6 7 -8 -3 3040 3112 3 MP stroke
6 1 -6 2 3042 3246 3 MP stroke
7 4 -7 1 3038 3366 3 MP stroke
7 0 -7 4 3038 3498 3 MP stroke
4 7 -7 -4 3044 3607 3 MP stroke
6 2 -6 2 3040 3744 3 MP stroke
7 2 -7 2 3038 3866 3 MP stroke
6 0 -6 4 3040 3994 3 MP stroke
8 7 -10 -1 3035 4107 3 MP stroke
8 3 -8 1 3037 4237 3 MP stroke
8 7 -10 -1 3034 4354 3 MP stroke
12 4 -12 3 3030 4485 3 MP stroke
11 3 -2 0 3129 389 3 MP stroke
11 0 -10 6 3139 517 3 MP stroke
7 3 -7 1 3146 635 3 MP stroke
1 5 -3 -4 3158 1125 3 MP stroke
5 0 -5 2 3152 1260 3 MP stroke
2 2 -3 0 3156 1380 3 MP stroke
5 -5 -3 8 3152 1519 3 MP stroke
1 5 -3 -4 3157 1622 3 MP stroke
3 -1 -2 3 3155 1759 3 MP stroke
4 -6 -1 7 3156 1894 3 MP stroke
6 -23 4 23 3156 2051 3 MP stroke
5 -18 3 18 3155 2166 3 MP stroke
1 12 -6 -9 3155 2229 3 MP stroke
3 3 -4 -1 3154 2372 3 MP stroke
3 -1 -2 2 3156 2504 3 MP stroke
1 5 -3 -4 3157 2616 3 MP stroke
4 4 -5 -2 3154 2744 3 MP stroke
2 4 -3 -3 3157 2868 3 MP stroke
3 3 -4 -1 3154 2994 3 MP stroke
2 6 -4 -4 3155 3111 3 MP stroke
3 -1 -2 3 3155 3250 3 MP stroke
3 4 -5 -2 3154 3364 3 MP stroke
3 -1 -2 3 3155 3499 3 MP stroke
3 5 -4 -3 3155 3612 3 MP stroke
6 1 -5 2 3149 3744 3 MP stroke
4 3 -5 0 3153 3864 3 MP stroke
8 2 -8 2 3146 3991 3 MP stroke
7 8 -9 -3 3146 4104 3 MP stroke
8 4 -9 0 3145 4235 3 MP stroke
7 5 -8 -1 3147 4359 3 MP stroke
7 5 -8 0 3146 4482 3 MP stroke
4 1 3236 389 2 MP stroke
16 3 -16 6 3236 511 3 MP stroke
15 5 -15 3 3237 631 3 MP stroke
11 5 -11 2 3245 880 3 MP stroke
13 1 -12 6 3243 1011 3 MP stroke
7 -1 -6 4 3257 1262 3 MP stroke
6 3 -6 1 3257 1378 3 MP stroke
8 -2 -6 5 3254 1512 3 MP stroke
5 7 -7 -3 3257 1619 3 MP stroke
7 4 -8 1 3255 1751 3 MP stroke
6 -1 -5 4 3257 1885 3 MP stroke
6 -8 -2 11 3258 2022 3 MP stroke
6 4 -7 -1 3257 2121 3 MP stroke
7 1 -7 3 3254 2253 3 MP stroke
5 4 -7 -1 3258 2370 3 MP stroke
7 2 -7 2 3255 2499 3 MP stroke
5 7 -7 -3 3257 2614 3 MP stroke
6 1 -6 2 3257 2749 3 MP stroke
7 4 -8 0 3253 2868 3 MP stroke
4 2 -4 1 3260 2997 3 MP stroke
6 8 -9 -4 3255 3109 3 MP stroke
8 2 -8 2 3251 3246 3 MP stroke
8 4 -9 1 3252 3366 3 MP stroke
7 0 -6 3 3256 3497 3 MP stroke
4 7 -6 -4 3259 3608 3 MP stroke
9 2 -9 4 3249 3743 3 MP stroke
9 5 -11 0 3250 3861 3 MP stroke
9 3 -9 2 3251 3990 3 MP stroke
9 8 -11 -2 3249 4104 3 MP stroke
9 3 -9 2 3251 4238 3 MP stroke
10 4 -10 1 3249 4360 3 MP stroke
12 1 -11 6 3245 4491 3 MP stroke
6 2 3337 389 2 MP stroke
11 2 -11 4 3354 513 3 MP stroke
12 6 -13 1 3352 630 3 MP stroke
8 3 -8 2 3358 759 3 MP stroke
8 6 -10 -1 3359 876 3 MP stroke
15 4 -15 4 3346 1007 3 MP stroke
9 4 -9 1 3357 1129 3 MP stroke
5 0 -4 3 3368 1508 3 MP stroke
1 5 -3 -4 3372 1622 3 MP stroke
2 3 -3 -2 3372 1751 3 MP stroke
1 1 -2 0 3373 1878 3 MP stroke
4 -3 -2 5 3370 2012 3 MP stroke
3 4 -4 -2 3370 2121 3 MP stroke
3 2 -3 0 3370 2252 3 MP stroke
2 5 -4 -3 3372 2368 3 MP stroke
3 2 -3 -1 3371 2499 3 MP stroke
4 5 -5 -3 3368 2617 3 MP stroke
4 3 -5 0 3368 2745 3 MP stroke
3 4 -4 -2 3371 2869 3 MP stroke
4 3 -5 0 3367 2995 3 MP stroke
4 1 -5 1 3368 3121 3 MP stroke
4 2 -4 0 3369 3244 3 MP stroke
3 2 -4 0 3370 3367 3 MP stroke
7 0 -7 4 3362 3496 3 MP stroke
5 6 -7 -2 3365 3609 3 MP stroke
7 2 -7 2 3361 3742 3 MP stroke
7 4 -7 0 3363 3864 3 MP stroke
5 4 -6 -1 3364 3988 3 MP stroke
8 5 -10 0 3360 4110 3 MP stroke
7 4 -8 0 3361 4236 3 MP stroke
7 5 -8 -1 3361 4358 3 MP stroke
10 3 -10 3 3355 4487 3 MP stroke
12 3 -12 4 3460 510 3 MP stroke
15 6 -15 3 3454 630 3 MP stroke
14 0 -13 7 3457 765 3 MP stroke
10 3 -10 3 3463 883 3 MP stroke
13 -1 -11 8 3460 1015 3 MP stroke
6 10 -10 -5 3469 1117 3 MP stroke
3484 1507 PD
-9 2 8 -6 3501 1626 3 MP stroke
7 5 -8 -1 3470 1872 3 MP stroke
5 0 -5 3 3473 2007 3 MP stroke
5 4 -6 -1 3473 2122 3 MP stroke
4 4 -5 -1 3475 2246 3 MP stroke
3 7 -5 -5 3478 2365 3 MP stroke
4 2 -4 1 3475 2498 3 MP stroke
6 6 -8 -2 3472 2614 3 MP stroke
5 3 -6 0 3474 2746 3 MP stroke
6 3 -6 0 3473 2870 3 MP stroke
4 1 -4 1 3474 2997 3 MP stroke
5 6 -7 -2 3473 3113 3 MP stroke
7 3 -8 1 3469 3243 3 MP stroke
5 2 -5 1 3473 3369 3 MP stroke
7 1 -7 3 3470 3495 3 MP stroke
6 7 -8 -4 3472 3607 3 MP stroke
8 2 -8 2 3468 3742 3 MP stroke
9 3 -10 2 3466 3865 3 MP stroke
11 6 -12 0 3461 3984 3 MP stroke
8 5 -9 0 3467 4109 3 MP stroke
10 6 -11 0 3463 4233 3 MP stroke
10 7 -11 -1 3463 4356 3 MP stroke
11 3 -11 3 3462 4487 3 MP stroke
12 2 -11 5 3568 512 3 MP stroke
7 5 -8 0 3575 631 3 MP stroke
2 2 -2 0 3586 1754 3 MP stroke
2 3 -3 -1 3586 2124 3 MP stroke
3 2 -4 1 3585 2251 3 MP stroke
3 2 -3 0 3586 2374 3 MP stroke
4 -1 -3 3 3583 2505 3 MP stroke
1 4 -2 -3 3589 2620 3 MP stroke
1 0 -1 0 3589 2750 3 MP stroke
3 3 -4 -1 3585 2870 3 MP stroke
4 0 -3 2 3584 2999 3 MP stroke
3 6 -6 -4 3585 3111 3 MP stroke
4 4 -6 -1 3583 3239 3 MP stroke
3 3 -4 -1 3585 3368 3 MP stroke
5 -1 -4 3 3584 3500 3 MP stroke
3 5 -4 -3 3585 3611 3 MP stroke
1 2 -2 -1 3589 3741 3 MP stroke
5 4 -6 -1 3580 3862 3 MP stroke
5 2 -5 1 3582 3990 3 MP stroke
6 7 -8 -3 3579 4104 3 MP stroke
5 4 -6 -1 3582 4235 3 MP stroke
7 8 -9 -3 3577 4352 3 MP stroke
13 4 -13 4 3565 4485 3 MP stroke
23 6 -1 0 3632 389 3 MP stroke
17 2 -16 8 3666 514 3 MP stroke
19 4 -18 6 3662 634 3 MP stroke
17 4 -17 5 3667 1378 3 MP stroke
8 1 -8 3 3683 1507 3 MP stroke
6 6 -8 -2 3687 1621 3 MP stroke
7 3 -8 1 3686 1750 3 MP stroke
4 8 -7 -5 3690 1867 3 MP stroke
7 2 -7 2 3686 2002 3 MP stroke
7 6 -9 -2 3684 2118 3 MP stroke
4 4 -5 -1 3689 2247 3 MP stroke
6 4 -7 0 3688 2372 3 MP stroke
6 1 -6 3 3687 2502 3 MP stroke
5 8 -8 -4 3687 2610 3 MP stroke
7 3 -7 1 3685 2747 3 MP stroke
8 4 -9 1 3684 2868 3 MP stroke
6 3 -7 1 3686 2996 3 MP stroke
8 7 -10 -2 3682 3112 3 MP stroke
7 5 -8 -1 3684 3238 3 MP stroke
8 4 -9 0 3684 3365 3 MP stroke
8 1 -7 3 3685 3495 3 MP stroke
7 8 -9 -3 3684 3606 3 MP stroke
10 3 -10 3 3680 3742 3 MP stroke
10 9 -13 -3 3678 3854 3 MP stroke
10 4 -10 2 3679 3989 3 MP stroke
9 8 -11 -2 3680 4105 3 MP stroke
11 5 -12 1 3677 4234 3 MP stroke
13 9 -15 -1 3672 4353 3 MP stroke
21 5 -20 7 3657 4487 3 MP stroke
17 2 -16 7 3772 513 3 MP stroke
16 5 -16 5 3774 633 3 MP stroke
5 3 -6 0 3798 1378 3 MP stroke
8 5 -9 -1 3792 1623 3 MP stroke
2 5 -4 -4 3802 1871 3 MP stroke
4 0 -3 2 3799 2005 3 MP stroke
2 3 -3 -2 3803 2124 3 MP stroke
1 9 -5 -8 3803 2234 3 MP stroke
0 6 -3 -6 3806 2364 3 MP stroke
3 1 -3 1 3800 2502 3 MP stroke
3 4 -4 -2 3801 2618 3 MP stroke
3 0 -3 2 3803 2750 3 MP stroke
4 3 -5 -1 3800 2870 3 MP stroke
5 1 -5 2 3796 2998 3 MP stroke
3 5 -5 -2 3799 3113 3 MP stroke
4 1 -4 1 3800 3246 3 MP stroke
6 4 -7 0 3795 3365 3 MP stroke
7 3 -7 1 3793 3494 3 MP stroke
7 8 -9 -4 3792 3606 3 MP stroke
9 3 -9 2 3790 3740 3 MP stroke
6 4 -7 0 3795 3862 3 MP stroke
8 3 -8 2 3790 3989 3 MP stroke
8 3 -9 1 3792 4112 3 MP stroke
8 4 -9 1 3791 4236 3 MP stroke
10 7 -12 0 3786 4354 3 MP stroke
17 3 -16 6 3774 4489 3 MP stroke
4 1 3876 389 2 MP stroke
18 2 -16 8 3879 515 3 MP stroke
17 4 -17 6 3880 635 3 MP stroke
15 1 -14 8 3884 1012 3 MP stroke
9 4 -10 1 3896 1253 3 MP stroke
6 2 -6 2 3903 1382 3 MP stroke
1 -3 1 3 3914 1515 3 MP stroke
6 4 -7 -1 3903 1624 3 MP stroke
7 4 -7 0 3900 1751 3 MP stroke
10 0 -9 6 3895 1883 3 MP stroke
7 3 -8 1 3901 2002 3 MP stroke
8 2 -7 2 3900 2128 3 MP stroke
5 4 -5 -1 3905 2248 3 MP stroke
1 5 -3 -4 3913 2367 3 MP stroke
7 -1 -6 5 3901 2506 3 MP stroke
6 9 -9 -5 3900 2610 3 MP stroke
7 3 -8 1 3901 2745 3 MP stroke
6 6 -7 -2 3902 2865 3 MP stroke
6 1 -6 2 3902 2999 3 MP stroke
6 7 -8 -2 3900 3112 3 MP stroke
9 6 -10 -1 3897 3238 3 MP stroke
23 -18 -13 28 3873 3413 3 MP stroke
6 1 -6 2 3904 3495 3 MP stroke
7 7 -9 -2 3900 3610 3 MP stroke
5 5 -6 -2 3905 3737 3 MP stroke
8 7 -10 -2 3898 3858 3 MP stroke
10 4 -11 2 3894 3988 3 MP stroke
8 8 -11 -3 3897 4103 3 MP stroke
10 4 -10 2 3894 4236 3 MP stroke
12 7 -13 0 3891 4356 3 MP stroke
18 2 -16 8 3880 4491 3 MP stroke
18 9 -19 1 3879 4602 3 MP stroke
9 2 3992 389 2 MP stroke
14 -1 -12 8 3996 518 3 MP stroke
15 3 -15 6 3992 635 3 MP stroke
13 0 -12 7 3996 765 3 MP stroke
15 1 -13 7 3993 887 3 MP stroke
5 2 -6 1 4012 1131 3 MP stroke
4 0 -3 2 4015 1259 3 MP stroke
4 -4 -2 5 4016 1392 3 MP stroke
8 -10 -3 13 4008 1529 3 MP stroke
5 4 -6 -1 4012 1626 3 MP stroke
3 2 -4 0 4017 1752 3 MP stroke
9 -5 -5 10 4006 1892 3 MP stroke
4 -1 -3 3 4015 2008 3 MP stroke
3 0 -3 2 4018 2129 3 MP stroke
2 1 -3 0 4019 2251 3 MP stroke
4 2 -4 1 4014 2374 3 MP stroke
4 4 -5 -1 4015 2495 3 MP stroke
3 8 -6 -6 4016 2610 3 MP stroke
3 2 -4 0 4017 2746 3 MP stroke
1 4 -3 -3 4020 2866 3 MP stroke
16 0 -14 9 3991 3002 3 MP stroke
12 4 -12 3 3998 3119 3 MP stroke
12 3 -12 4 3997 3246 3 MP stroke
13 9 -15 -1 3996 3358 3 MP stroke
16 -5 -12 13 3991 3510 3 MP stroke
8 4 -9 1 4005 3615 3 MP stroke
9 -1 -8 5 4007 3748 3 MP stroke
6 6 -8 -2 4008 3858 3 MP stroke
11 7 -12 0 4000 3983 3 MP stroke
12 9 -14 -2 3997 4103 3 MP stroke
12 2 -12 5 3999 4241 3 MP stroke
20 3 -19 8 3984 4365 3 MP stroke
16 4 -16 6 3990 4488 3 MP stroke
15 10 -17 0 3991 4599 3 MP stroke
6 2 4087 389 2 MP stroke
17 2 -16 7 4095 513 3 MP stroke
16 6 -16 3 4097 630 3 MP stroke
17 2 -16 7 4096 763 3 MP stroke
17 6 -17 4 4096 878 3 MP stroke
19 5 -19 6 4091 1005 3 MP stroke
17 5 -17 5 4095 1130 3 MP stroke
18 -8 -13 17 4095 1279 3 MP stroke
18 3 -18 7 4095 1382 3 MP stroke
15 6 -15 2 4100 1499 3 MP stroke
16 1 -14 8 4098 1635 3 MP stroke
16 3 -16 6 4097 1754 3 MP stroke
8 -1 -7 6 4114 1885 3 MP stroke
18 -3 -15 13 4095 2016 3 MP stroke
24 -16 -15 27 4086 2166 3 MP stroke
15 -2 -13 10 4101 2261 3 MP stroke
17 3 -16 6 4096 2376 3 MP stroke
16 3 -16 6 4099 2499 3 MP stroke
11 16 -17 -8 4105 2596 3 MP stroke
4 3 -5 0 4120 2744 3 MP stroke
4 3 -5 -1 4124 2869 3 MP stroke
19 4 -19 7 4092 2997 3 MP stroke
20 8 -21 3 4091 3113 3 MP stroke
19 -9 -12 18 4095 3272 3 MP stroke
21 8 -21 4 4088 3363 3 MP stroke
24 -5 -19 18 4085 3512 3 MP stroke
20 4 -19 8 4089 3618 3 MP stroke
19 1 -17 9 4094 3747 3 MP stroke
19 9 -20 2 4093 3857 3 MP stroke
18 0 -16 10 4096 3998 3 MP stroke
19 4 -19 7 4092 4113 3 MP stroke
22 0 -20 12 4086 4248 3 MP stroke
21 9 -23 3 4087 4354 3 MP stroke
21 6 -21 6 4088 4482 3 MP stroke
17 12 -20 -1 4093 4596 3 MP stroke
19 4 -14 5 4196 389 3 MP stroke
16 0 -14 9 4205 518 3 MP stroke
14 4 -14 4 4210 634 3 MP stroke
18 1 -17 9 4203 765 3 MP stroke
14 5 -15 4 4210 880 3 MP stroke
15 2 -14 6 4208 1009 3 MP stroke
14 6 -15 3 4210 1127 3 MP stroke
16 -19 -7 25 4210 1300 3 MP stroke
13 2 -13 5 4212 1382 3 MP stroke
15 -1 -13 9 4208 1513 3 MP stroke
16 3 -15 6 4207 1629 3 MP stroke
13 6 -14 2 4210 1747 3 MP stroke
19 4 -19 7 4200 1877 3 MP stroke
21 -1 -18 12 4198 2012 3 MP stroke
16 7 -17 2 4205 2119 3 MP stroke
11 -7 -7 12 4219 2268 3 MP stroke
17 5 -17 4 4205 2371 3 MP stroke
16 5 -16 4 4205 2496 3 MP stroke
8 24 -16 -17 4218 2582 3 MP stroke
4 8 -7 -5 4227 2736 3 MP stroke
14 3 -14 5 4210 2872 3 MP stroke
14 2 -14 6 4210 2998 3 MP stroke
16 7 -18 3 4204 3112 3 MP stroke
20 -12 -12 21 4202 3278 3 MP stroke
17 2 -16 7 4204 3373 3 MP stroke
20 4 -19 7 4200 3495 3 MP stroke
16 5 -16 4 4205 3614 3 MP stroke
19 3 -18 7 4200 3743 3 MP stroke
18 6 -18 4 4203 3862 3 MP stroke
18 3 -17 7 4202 3992 3 MP stroke
17 11 -20 0 4202 4100 3 MP stroke
18 5 -18 6 4201 4237 3 MP stroke
18 9 -20 2 4201 4354 3 MP stroke
17 10 -19 0 4202 4599 3 MP stroke
8 2 4300 389 2 MP stroke
18 -1 -16 10 4311 518 3 MP stroke
25 26 -33 -10 4290 593 3 MP stroke
18 1 -17 9 4311 764 3 MP stroke
19 6 -19 5 4308 880 3 MP stroke
15 -2 -13 10 4317 1018 3 MP stroke
17 3 -17 7 4311 1131 3 MP stroke
19 3 -18 7 4309 1258 3 MP stroke
17 5 -17 5 4311 1379 3 MP stroke
17 -3 -14 12 4313 1518 3 MP stroke
16 3 -16 6 4313 1629 3 MP stroke
16 9 -18 2 4311 1743 3 MP stroke
18 5 -18 5 4310 1875 3 MP stroke
20 3 -19 8 4308 2004 3 MP stroke
17 5 -17 5 4312 2125 3 MP stroke
15 1 -14 8 4317 2255 3 MP stroke
15 8 -16 1 4315 2367 3 MP stroke
12 1 -11 5 4324 2503 3 MP stroke
19 9 -20 2 4307 2614 3 MP stroke
22 3 -20 9 4302 2751 3 MP stroke
20 7 -20 5 4306 2867 3 MP stroke
18 3 -17 7 4310 2996 3 MP stroke
17 7 -18 3 4312 3115 3 MP stroke
19 6 -20 5 4307 3240 3 MP stroke
18 7 -19 4 4308 3364 3 MP stroke
19 3 -18 8 4309 3496 3 MP stroke
17 9 -19 1 4311 3607 3 MP stroke
21 7 -22 5 4302 3735 3 MP stroke
17 8 -18 2 4310 3858 3 MP stroke
19 3 -18 8 4308 3994 3 MP stroke
21 12 -23 0 4303 4100 3 MP stroke
20 7 -20 5 4305 4234 3 MP stroke
19 8 -20 3 4307 4355 3 MP stroke
18 5 -18 6 4309 4484 3 MP stroke
15 1 -13 7 4424 514 3 MP stroke
40 36 -50 -10 4367 577 3 MP stroke
14 0 -13 8 4426 764 3 MP stroke
13 2 -12 5 4428 885 3 MP stroke
16 0 -14 9 4421 1014 3 MP stroke
16 6 -16 3 4421 1127 3 MP stroke
16 1 -14 8 4422 1261 3 MP stroke
15 3 -15 6 4423 1381 3 MP stroke
15 0 -13 9 4424 1511 3 MP stroke
15 3 -14 6 4423 1630 3 MP stroke
15 -1 -13 9 4424 1761 3 MP stroke
14 1 -13 7 4425 1881 3 MP stroke
16 1 -15 8 4422 2008 3 MP stroke
15 5 -15 3 4424 2122 3 MP stroke
15 3 -14 5 4425 2250 3 MP stroke
15 4 -15 5 4423 2373 3 MP stroke
17 -1 -15 10 4420 2508 3 MP stroke
10 16 -16 -8 4430 2596 3 MP stroke
15 7 -16 2 4424 2742 3 MP stroke
14 4 -14 4 4425 2871 3 MP stroke
20 2 -18 9 4415 3000 3 MP stroke
17 10 -19 0 4419 3109 3 MP stroke
19 1 -17 9 4416 3249 3 MP stroke
17 5 -17 5 4419 3367 3 MP stroke
19 4 -19 6 4417 3493 3 MP stroke
14 6 -14 3 4424 3613 3 MP stroke
17 3 -16 6 4419 3743 3 MP stroke
18 7 -19 4 4417 3861 3 MP stroke
18 3 -17 7 4416 3992 3 MP stroke
15 4 -15 4 4423 4113 3 MP stroke
16 7 -17 2 4421 4232 3 MP stroke
18 7 -19 4 4417 4356 3 MP stroke
16 7 -17 2 4421 4480 3 MP stroke
20 4 -11 4 4512 389 3 MP stroke
21 2 -20 10 4519 514 3 MP stroke
21 17 -25 -4 4517 610 3 MP stroke
21 2 -19 10 4519 764 3 MP stroke
20 7 -21 5 4520 878 3 MP stroke
22 3 -20 9 4518 1010 3 MP stroke
19 7 -20 4 4522 1126 3 MP stroke
21 1 -19 11 4520 1262 3 MP stroke
19 4 -18 7 4522 1380 3 MP stroke
24 0 -21 13 4515 1513 3 MP stroke
20 7 -21 5 4521 1623 3 MP stroke
20 2 -18 9 4522 1757 3 MP stroke
21 6 -21 7 4518 1874 3 MP stroke
23 5 -22 8 4515 2000 3 MP stroke
20 8 -21 4 4520 2120 3 MP stroke
21 4 -21 8 4519 2249 3 MP stroke
19 5 -19 6 4523 2374 3 MP stroke
23 1 -21 11 4517 2505 3 MP stroke
18 21 -25 -9 4521 2590 3 MP stroke
25 7 -25 8 4511 2743 3 MP stroke
20 6 -20 6 4520 2867 3 MP stroke
22 2 -20 10 4518 3001 3 MP stroke
21 7 -22 5 4519 3116 3 MP stroke
23 4 -22 9 4516 3244 3 MP stroke
19 3 -18 8 4523 3371 3 MP stroke
20 6 -20 6 4521 3491 3 MP stroke
19 11 -21 1 4521 3604 3 MP stroke
21 8 -22 4 4519 3734 3 MP stroke
20 8 -21 5 4519 3859 3 MP stroke
23 4 -22 8 4516 3991 3 MP stroke
21 7 -22 5 4518 4108 3 MP stroke
22 6 -22 7 4517 4236 3 MP stroke
21 10 -23 3 4519 4352 3 MP stroke
24 9 -25 5 4512 4478 3 MP stroke
15 4 4617 389 2 MP stroke
20 1 -18 10 4630 515 3 MP stroke
16 5 -16 5 4635 631 3 MP stroke
18 -1 -16 11 4634 767 3 MP stroke
18 5 -18 6 4633 882 3 MP stroke
20 1 -19 10 4630 1012 3 MP stroke
17 4 -16 6 4634 1133 3 MP stroke
18 4 -17 6 4634 1256 3 MP stroke
17 5 -17 5 4635 1379 3 MP stroke
18 2 -16 8 4634 1509 3 MP stroke
18 4 -17 6 4634 1627 3 MP stroke
19 3 -19 8 4631 1754 3 MP stroke
18 3 -17 7 4633 1879 3 MP stroke
19 3 -18 7 4633 2003 3 MP stroke
19 5 -19 6 4632 2124 3 MP stroke
19 4 -19 7 4631 2250 3 MP stroke
20 4 -19 7 4630 2375 3 MP stroke
19 1 -17 9 4632 2505 3 MP stroke
19 7 -19 5 4630 2617 3 MP stroke
19 5 -19 6 4631 2744 3 MP stroke
16 6 -17 3 4636 2866 3 MP stroke
19 3 -18 7 4632 2998 3 MP stroke
20 6 -20 5 4629 3116 3 MP stroke
19 5 -19 5 4632 3242 3 MP stroke
20 5 -20 6 4630 3366 3 MP stroke
19 2 -18 8 4631 3496 3 MP stroke
19 9 -20 2 4631 3609 3 MP stroke
12 19 -18 -10 4640 3711 3 MP stroke
18 8 -19 2 4634 3859 3 MP stroke
18 5 -18 5 4632 3987 3 MP stroke
19 7 -20 4 4630 4108 3 MP stroke
18 9 -19 2 4631 4229 3 MP stroke
18 6 -18 5 4632 4359 3 MP stroke
18 6 -18 5 4633 4483 3 MP stroke
12 3 4726 389 2 MP stroke
19 3 -19 8 4739 511 3 MP stroke
20 4 -20 7 4737 635 3 MP stroke
21 1 -19 10 4736 764 3 MP stroke
18 4 -17 6 4740 883 3 MP stroke
18 3 -17 7 4740 1009 3 MP stroke
19 6 -19 5 4737 1127 3 MP stroke
21 7 -21 6 4734 1252 3 MP stroke
18 7 -19 3 4740 1374 3 MP stroke
19 0 -17 10 4739 1512 3 MP stroke
19 5 -19 6 4738 1626 3 MP stroke
20 2 -18 9 4737 1759 3 MP stroke
19 2 -18 8 4740 1881 3 MP stroke
17 2 -15 7 4743 2006 3 MP stroke
16 2 -15 7 4746 2128 3 MP stroke
17 4 -17 6 4742 2250 3 MP stroke
11 25 -20 -16 4750 2331 3 MP stroke
18 7 -19 3 4742 2491 3 MP stroke
17 5 -17 5 4744 2622 3 MP stroke
19 1 -17 9 4740 2753 3 MP stroke
21 3 -20 9 4735 2873 3 MP stroke
19 1 -17 9 4739 3002 3 MP stroke
16 5 -17 4 4743 3117 3 MP stroke
21 -16 -12 26 4738 3285 3 MP stroke
21 1 -19 10 4737 3375 3 MP stroke
20 8 -21 4 4736 3486 3 MP stroke
16 17 -21 -7 4743 3591 3 MP stroke
10 18 -16 -10 4753 3711 3 MP stroke
11 9 -14 -2 4754 3853 3 MP stroke
17 6 -18 4 4743 3987 3 MP stroke
16 6 -17 3 4744 4109 3 MP stroke
11 6 -12 1 4752 4234 3 MP stroke
11 7 -13 0 4754 4356 3 MP stroke
18 8 -20 3 4739 4478 3 MP stroke
11 3 4838 389 2 MP stroke
17 1 -15 8 4851 515 3 MP stroke
19 5 -19 6 4848 632 3 MP stroke
20 2 -19 10 4845 764 3 MP stroke
16 5 -16 5 4850 880 3 MP stroke
21 0 -18 11 4843 1016 3 MP stroke
14 30 -24 -19 4851 1081 3 MP stroke
13 37 -27 -26 4851 1189 3 MP stroke
26 7 -26 8 4833 1376 3 MP stroke
18 -2 -15 12 4850 1517 3 MP stroke
15 12 -18 -3 4853 1612 3 MP stroke
8 7 -10 -1 4867 1745 3 MP stroke
6 16 -12 -11 4871 1849 3 MP stroke
7 9 -9 -4 4870 1990 3 MP stroke
9 5 -10 0 4866 2121 3 MP stroke
3 -4 -1 5 4879 2262 3 MP stroke
5 9 -8 -5 4872 2362 3 MP stroke
8 -1 -7 5 4869 2506 3 MP stroke
11 19 -18 -10 4859 2592 3 MP stroke
11 5 -11 2 4862 2743 3 MP stroke
15 3 -14 6 4853 2872 3 MP stroke
14 2 -14 5 4857 2998 3 MP stroke
8 2 -8 2 4868 3120 3 MP stroke
20 -20 -10 28 4849 3292 3 MP stroke
14 -9 -8 16 4860 3393 3 MP stroke
13 -16 -5 22 4861 3531 3 MP stroke
8 3 -9 2 4869 3617 3 MP stroke
5 4 -5 -1 4874 3740 3 MP stroke
8 5 -9 0 4867 3862 3 MP stroke
9 3 -9 2 4867 3990 3 MP stroke
7 5 -8 -1 4871 4110 3 MP stroke
10 3 -10 2 4866 4238 3 MP stroke
7 6 -8 -2 4871 4357 3 MP stroke
9 5 -10 1 4864 4483 3 MP stroke
22 4 -21 8 4950 512 3 MP stroke
16 8 -18 2 4959 627 3 MP stroke
16 7 -17 3 4960 752 3 MP stroke
8 27 -18 -20 4971 834 3 MP stroke
10 24 -19 -16 4967 965 3 MP stroke
9 39 -24 -30 4966 1061 3 MP stroke
10 47 -28 -36 4961 1169 3 MP stroke
17 39 -31 -25 4950 1312 3 MP stroke
21 13 -24 0 4948 1487 3 MP stroke
12 32 -23 -22 4963 1572 3 MP stroke
6 33 -19 -25 4974 1693 3 MP stroke
5 26 -15 -21 4978 1831 3 MP stroke
3 15 -9 -11 4984 1975 3 MP stroke
8 9 -11 -4 4975 2114 3 MP stroke
7 5 -8 0 4976 2245 3 MP stroke
7 2 -7 2 4979 2374 3 MP stroke
10 1 -9 4 4973 2503 3 MP stroke
7 12 -11 -7 4978 2604 3 MP stroke
12 7 -14 0 4968 2739 3 MP stroke
12 5 -13 2 4968 2868 3 MP stroke
14 3 -13 5 4965 2998 3 MP stroke
8 3 -8 2 4975 3120 3 MP stroke
20 -4 -16 14 4953 3259 3 MP stroke
8 3 -8 1 4977 3368 3 MP stroke
11 1 -10 6 4970 3497 3 MP stroke
11 6 -12 0 4970 3612 3 MP stroke
10 5 -11 1 4972 3737 3 MP stroke
9 4 -9 1 4973 3863 3 MP stroke
10 1 -9 5 4972 3994 3 MP stroke
10 5 -11 1 4972 4109 3 MP stroke
11 4 -12 2 4970 4235 3 MP stroke
9 10 -12 -4 4973 4349 3 MP stroke
11 2 -10 4 4970 4488 3 MP stroke
12 5 -12 1 5076 506 3 MP stroke
0 16 -6 -14 5097 605 3 MP stroke
5 6 -7 -3 5090 752 3 MP stroke
3 11 -7 -8 5093 866 3 MP stroke
0 30 -12 -27 5094 950 3 MP stroke
1 31 -13 -27 5092 1074 3 MP stroke
0 21 -8 -19 5096 1216 3 MP stroke
6 8 -8 -3 5086 1369 3 MP stroke
5 -1 -4 3 5090 1510 3 MP stroke
4 6 -6 -3 5092 1621 3 MP stroke
4 3 -5 -1 5093 1750 3 MP stroke
2 2 -3 -1 5095 1876 3 MP stroke
1 13 -6 -11 5097 1979 3 MP stroke
0 9 -4 -8 5097 2111 3 MP stroke
2 2 -3 0 5094 2249 3 MP stroke
2 5 -4 -3 5094 2369 3 MP stroke
4 2 -4 0 5092 2499 3 MP stroke
1 8 -4 -7 5097 2610 3 MP stroke
2 3 -3 -2 5094 2745 3 MP stroke
6 4 -7 0 5089 2868 3 MP stroke
7 0 -6 4 5086 3000 3 MP stroke
3 2 -4 0 5094 3120 3 MP stroke
8 0 -7 4 5086 3248 3 MP stroke
5 2 -5 1 5090 3370 3 MP stroke
8 -1 -7 5 5085 3500 3 MP stroke
7 5 -9 0 5085 3612 3 MP stroke
6 2 -6 2 5088 3742 3 MP stroke
7 7 -9 -2 5085 3857 3 MP stroke
9 1 -9 4 5082 3993 3 MP stroke
8 6 -9 -2 5084 4108 3 MP stroke
8 5 -9 0 5083 4234 3 MP stroke
7 6 -9 -2 5087 4355 3 MP stroke
9 3 -9 2 5081 4486 3 MP stroke
18 3 -13 5 5168 389 3 MP stroke
2 13 -6 -11 5201 489 3 MP stroke
3 20 -11 -17 5199 599 3 MP stroke
3 9 -6 -6 5199 745 3 MP stroke
6 4 -7 0 5194 880 3 MP stroke
7 1 -6 3 5194 1011 3 MP stroke
6 6 -8 -3 5195 1124 3 MP stroke
5 6 -7 -3 5198 1248 3 MP stroke
7 3 -8 1 5194 1380 3 MP stroke
5 -1 -4 4 5198 1512 3 MP stroke
6 5 -7 -2 5196 1623 3 MP stroke
7 3 -7 1 5193 1752 3 MP stroke
4 21 -12 -17 5195 1839 3 MP stroke
0 3 -1 -3 5206 1999 3 MP stroke
2 4 -4 -3 5203 2121 3 MP stroke
7 4 -8 0 5194 2246 3 MP stroke
7 5 -8 -1 5194 2369 3 MP stroke
6 4 -7 0 5194 2496 3 MP stroke
6 7 -8 -3 5194 2614 3 MP stroke
6 5 -7 -1 5193 2743 3 MP stroke
6 3 -6 1 5195 2870 3 MP stroke
7 0 -6 4 5194 3001 3 MP stroke
7 3 -7 2 5193 3119 3 MP stroke
7 0 -6 4 5193 3249 3 MP stroke
7 -1 -6 4 5195 3376 3 MP stroke
8 -1 -7 5 5192 3499 3 MP stroke
9 7 -11 -1 5189 3610 3 MP stroke
8 6 -9 -1 5190 3736 3 MP stroke
10 5 -11 1 5188 3863 3 MP stroke
10 2 -9 4 5187 3992 3 MP stroke
11 4 -11 2 5185 4111 3 MP stroke
12 4 -12 3 5184 4236 3 MP stroke
11 8 -13 -1 5183 4355 3 MP stroke
11 4 -11 3 5186 4485 3 MP stroke
4 4 -5 -1 5307 879 3 MP stroke
6 -1 -5 4 5306 1013 3 MP stroke
2 2 -2 -1 5312 1255 3 MP stroke
1 4 -3 -3 5313 1374 3 MP stroke
3 -3 -2 4 5311 1513 3 MP stroke
2 3 -3 -1 5309 1625 3 MP stroke
3 6 -5 -4 5308 1746 3 MP stroke
4 17 -10 -13 5305 1848 3 MP stroke
8 1 -7 3 5300 2005 3 MP stroke
1 4 -3 -3 5313 2122 3 MP stroke
2 0 -2 1 5312 2252 3 MP stroke
2 0 -2 1 5310 2377 3 MP stroke
4 -2 -2 4 5308 2507 3 MP stroke
2 6 -5 -4 5310 2613 3 MP stroke
3 2 -3 -1 5310 2747 3 MP stroke
1 3 -2 -2 5312 2868 3 MP stroke
5 -1 -4 4 5305 3001 3 MP stroke
3 3 -4 -1 5309 3118 3 MP stroke
6 3 -7 0 5303 3242 3 MP stroke
2 2 -3 0 5311 3369 3 MP stroke
6 -1 -5 4 5303 3500 3 MP stroke
8 5 -9 0 5297 3612 3 MP stroke
9 5 -10 0 5298 3737 3 MP stroke
5 4 -6 -1 5305 3863 3 MP stroke
8 0 -7 4 5301 3995 3 MP stroke
9 6 -10 0 5296 4108 3 MP stroke
8 2 -7 3 5299 4241 3 MP stroke
11 4 -11 2 5294 4360 3 MP stroke
10 1 -9 4 5296 4492 3 MP stroke
6 8 -8 -4 5410 1121 3 MP stroke
4 4 -5 -1 5413 1253 3 MP stroke
5 4 -6 -1 5414 1378 3 MP stroke
5 -4 -3 6 5415 1518 3 MP stroke
7 5 -8 -1 5410 1623 3 MP stroke
10 13 -14 -6 5401 1732 3 MP stroke
7 8 -9 -3 5409 1867 3 MP stroke
4 2 -4 0 5415 2001 3 MP stroke
7 3 -7 1 5409 2124 3 MP stroke
5 1 -5 2 5413 2253 3 MP stroke
7 4 -8 0 5409 2372 3 MP stroke
7 0 -6 4 5409 2504 3 MP stroke
10 8 -12 -2 5402 2612 3 MP stroke
6 5 -7 -1 5411 2743 3 MP stroke
10 6 -11 0 5403 2866 3 MP stroke
9 2 -9 3 5405 2996 3 MP stroke
6 3 -6 1 5410 3120 3 MP stroke
8 4 -8 1 5407 3242 3 MP stroke
7 3 -7 1 5410 3368 3 MP stroke
6 0 -6 3 5411 3496 3 MP stroke
10 6 -11 0 5403 3613 3 MP stroke
9 6 -11 -1 5404 3736 3 MP stroke
10 6 -11 1 5402 3861 3 MP stroke
12 3 -11 4 5399 3991 3 MP stroke
11 9 -14 -2 5400 4103 3 MP stroke
12 4 -12 3 5398 4238 3 MP stroke
11 5 -12 2 5400 4359 3 MP stroke
13 5 -14 3 5397 4484 3 MP stroke
2 6 -4 -4 5525 1124 3 MP stroke
4 1 -4 1 5522 1258 3 MP stroke
3 3 -4 -1 5523 1377 3 MP stroke
31 -23 -18 37 5475 1560 3 MP stroke
4 1 -4 0 5525 1630 3 MP stroke
7 4 -9 0 5517 1748 3 MP stroke
5 6 -7 -2 5518 1869 3 MP stroke
2 1 -2 1 5525 2004 3 MP stroke
4 6 -6 -3 5522 2119 3 MP stroke
4 1 -4 2 5523 2253 3 MP stroke
7 -5 -5 9 5517 2389 3 MP stroke
4 -4 -2 5 5525 2510 3 MP stroke
3 7 -6 -5 5524 2613 3 MP stroke
5 4 -5 -1 5521 2745 3 MP stroke
5 3 -5 0 5520 2872 3 MP stroke
6 -2 -4 5 5520 3003 3 MP stroke
5 2 -5 1 5519 3121 3 MP stroke
8 3 -8 1 5515 3243 3 MP stroke
10 5 -11 1 5510 3365 3 MP stroke
7 0 -6 4 5516 3498 3 MP stroke
7 9 -10 -4 5516 3606 3 MP stroke
10 3 -9 3 5512 3742 3 MP stroke
9 4 -10 1 5513 3864 3 MP stroke
10 2 -9 4 5511 3992 3 MP stroke
8 4 -8 1 5514 4112 3 MP stroke
10 2 -9 4 5512 4241 3 MP stroke
11 4 -11 2 5508 4361 3 MP stroke
12 3 -12 4 5507 4489 3 MP stroke
5 6 -7 -3 5628 1123 3 MP stroke
4 3 -5 0 5630 1255 3 MP stroke
7 3 -7 2 5623 1378 3 MP stroke
1 -14 5 12 5641 1535 3 MP stroke
6 2 -6 2 5627 1630 3 MP stroke
5 -1 -4 4 5627 1759 3 MP stroke
6 2 -6 1 5627 1877 3 MP stroke
5 5 -7 -1 5627 1997 3 MP stroke
5 3 -6 0 5629 2125 3 MP stroke
4 3 -5 0 5630 2248 3 MP stroke
4 4 -5 -1 5630 2372 3 MP stroke
7 -1 -6 5 5626 2507 3 MP stroke
3 6 -5 -3 5632 2615 3 MP stroke
7 0 -6 4 5624 2751 3 MP stroke
5 5 -6 -2 5629 2867 3 MP stroke
6 1 -6 3 5627 2998 3 MP stroke
7 4 -8 1 5624 3118 3 MP stroke
8 0 -7 4 5624 3250 3 MP stroke
6 3 -7 1 5627 3367 3 MP stroke
11 2 -11 5 5617 3495 3 MP stroke
10 9 -13 -2 5616 3604 3 MP stroke
10 1 -9 5 5618 3745 3 MP stroke
10 5 -11 1 5618 3861 3 MP stroke
12 0 -11 6 5616 3995 3 MP stroke
11 10 -13 -3 5615 4102 3 MP stroke
11 3 -11 3 5616 4237 3 MP stroke
11 6 -12 0 5616 4358 3 MP stroke
12 1 -11 5 5615 4490 3 MP stroke
5 1 -5 2 5736 513 3 MP stroke
3 -1 -2 3 5741 1013 3 MP stroke
2 2 -2 0 5742 1131 3 MP stroke
3 1 -3 1 5740 1256 3 MP stroke
3 1 -3 0 5742 1382 3 MP stroke
-25 -21 31 5 5802 1542 3 MP stroke
1 -3 0 3 5744 1638 3 MP stroke
5 0 -4 2 5737 1756 3 MP stroke
4 6 -6 -3 5739 1869 3 MP stroke
4 2 -5 1 5737 2000 3 MP stroke
7 7 -9 -2 5731 2118 3 MP stroke
7 5 -8 -1 5733 2245 3 MP stroke
-2 6 -1 -6 5750 2364 3 MP stroke
4 0 -3 1 5740 2503 3 MP stroke
2 4 -4 -2 5742 2618 3 MP stroke
5 2 -5 1 5736 2749 3 MP stroke
2 3 -3 -2 5742 2869 3 MP stroke
5 0 -5 3 5738 3000 3 MP stroke
4 5 -6 -2 5737 3114 3 MP stroke
6 0 -5 3 5734 3249 3 MP stroke
3 5 -4 -2 5739 3363 3 MP stroke
8 5 -9 0 5729 3489 3 MP stroke
0 6 -3 -5 5745 3607 3 MP stroke
9 6 -10 0 5727 3736 3 MP stroke
8 4 -9 0 5732 3862 3 MP stroke
10 2 -9 4 5726 3992 3 MP stroke
6 7 -9 -3 5733 4104 3 MP stroke
9 6 -10 -1 5727 4233 3 MP stroke
9 3 -10 2 5727 4363 3 MP stroke
9 2 -9 4 5728 4490 3 MP stroke
8 3 -8 1 5838 1006 3 MP stroke
6 2 -6 2 5842 1131 3 MP stroke
6 1 -6 2 5844 1257 3 MP stroke
7 3 -7 1 5839 1380 3 MP stroke
9 1 -9 4 5837 1507 3 MP stroke
7 3 -8 1 5840 1626 3 MP stroke
5 3 -5 0 5844 1751 3 MP stroke
5 4 -7 -1 5844 1872 3 MP stroke
8 3 -8 2 5837 2001 3 MP stroke
4 8 -6 -5 5844 2115 3 MP stroke
6 4 -7 0 5842 2247 3 MP stroke
8 3 -8 1 5839 2374 3 MP stroke
12 0 -11 6 5830 2505 3 MP stroke
6 4 -7 0 5842 2620 3 MP stroke
8 4 -9 1 5837 2744 3 MP stroke
9 6 -10 -1 5835 2865 3 MP stroke
11 2 -11 4 5832 2998 3 MP stroke
8 7 -9 -2 5837 3113 3 MP stroke
9 0 -8 5 5836 3249 3 MP stroke
8 5 -9 0 5837 3365 3 MP stroke
11 3 -11 4 5832 3493 3 MP stroke
10 8 -12 -2 5834 3608 3 MP stroke
10 3 -10 2 5835 3741 3 MP stroke
11 5 -11 1 5832 3862 3 MP stroke
13 2 -12 5 5828 3993 3 MP stroke
9 6 -11 0 5835 4108 3 MP stroke
11 5 -12 2 5830 4235 3 MP stroke
13 5 -13 3 5828 4360 3 MP stroke
15 3 -15 6 5824 4489 3 MP stroke
14 3 -14 5 5934 511 3 MP stroke
2 4 -3 -3 5957 1127 3 MP stroke
5 4 -6 -1 5951 1253 3 MP stroke
5 5 -6 -2 5950 1374 3 MP stroke
4 2 -4 1 5953 1505 3 MP stroke
5 2 -6 1 5951 1628 3 MP stroke
3 1 -4 1 5955 1754 3 MP stroke
3 4 -4 -2 5956 1873 3 MP stroke
3 -1 -3 2 5957 2007 3 MP stroke
3 5 -5 -3 5953 2119 3 MP stroke
2 3 -3 -1 5958 2247 3 MP stroke
4 2 -5 0 5954 2373 3 MP stroke
7 3 -8 1 5948 2497 3 MP stroke
5 5 -7 -1 5951 2618 3 MP stroke
4 3 -5 0 5953 2746 3 MP stroke
4 4 -6 -1 5953 2867 3 MP stroke
6 4 -7 0 5950 2992 3 MP stroke
6 4 -7 0 5949 3117 3 MP stroke
8 4 -8 0 5946 3241 3 MP stroke
6 3 -7 0 5949 3367 3 MP stroke
7 1 -7 3 5948 3496 3 MP stroke
8 8 -10 -3 5946 3606 3 MP stroke
9 3 -9 2 5945 3742 3 MP stroke
9 3 -10 2 5943 3865 3 MP stroke
9 2 -8 2 5945 3992 3 MP stroke
10 5 -11 1 5941 4110 3 MP stroke
10 5 -11 1 5941 4236 3 MP stroke
8 4 -9 0 5946 4360 3 MP stroke
23 5 -22 8 5915 4488 3 MP stroke
7 6 -9 -2 6055 503 3 MP stroke
6 2 -6 2 6059 1008 3 MP stroke
5 5 -7 -2 6059 1127 3 MP stroke
6 3 -7 1 6056 1253 3 MP stroke
6 5 -7 -2 6057 1374 3 MP stroke
7 -1 -6 4 6055 1511 3 MP stroke
6 6 -8 -2 6056 1622 3 MP stroke
3 3 -4 -1 6061 1749 3 MP stroke
4 3 -5 0 6061 1877 3 MP stroke
7 0 -7 3 6056 2006 3 MP stroke
7 0 -6 3 6056 2130 3 MP stroke
7 5 -8 -1 6056 2246 3 MP stroke
4 4 -5 -2 6061 2371 3 MP stroke
7 0 -6 4 6056 2504 3 MP stroke
6 8 -9 -4 6056 2611 3 MP stroke
5 2 -5 1 6059 2747 3 MP stroke
7 4 -8 1 6054 2868 3 MP stroke
5 0 -5 3 6058 2999 3 MP stroke
5 7 -8 -3 6058 3109 3 MP stroke
8 4 -9 1 6054 3241 3 MP stroke
7 4 -8 0 6057 3366 3 MP stroke
8 1 -7 4 6053 3497 3 MP stroke
8 9 -11 -4 6053 3605 3 MP stroke
9 4 -9 2 6051 3739 3 MP stroke
11 3 -11 3 6046 3865 3 MP stroke
12 2 -11 4 6047 3992 3 MP stroke
12 9 -14 -1 6045 4104 3 MP stroke
13 5 -14 2 6043 4235 3 MP stroke
11 7 -12 0 6047 4356 3 MP stroke
22 6 -22 6 6026 4485 3 MP stroke
2 1 -3 1 6172 1008 3 MP stroke
3 2 -4 0 6170 1131 3 MP stroke
2 3 -3 -2 6173 1253 3 MP stroke
3 7 -5 -4 6169 1372 3 MP stroke
4 -1 -3 3 6169 1510 3 MP stroke
2 5 -4 -3 6171 1621 3 MP stroke
1 4 -2 -3 6176 1749 3 MP stroke
21 2 -19 9 6137 1882 3 MP stroke
5 0 -4 2 6168 2004 3 MP stroke
3 4 -4 -2 6172 2122 3 MP stroke
2 3 -3 -1 6174 2247 3 MP stroke
5 3 -5 0 6168 2372 3 MP stroke
3 1 -3 1 6172 2502 3 MP stroke
3 5 -5 -2 6170 2616 3 MP stroke
3 4 -5 -2 6169 2743 3 MP stroke
2 3 -3 -2 6172 2869 3 MP stroke
5 2 -5 1 6168 2995 3 MP stroke
4 3 -5 -1 6168 3119 3 MP stroke
7 2 -7 2 6162 3246 3 MP stroke
3 4 -5 -2 6170 3364 3 MP stroke
9 0 -8 5 6159 3498 3 MP stroke
7 8 -9 -4 6163 3607 3 MP stroke
9 0 -8 5 6160 3746 3 MP stroke
6 4 -7 -1 6164 3862 3 MP stroke
9 3 -9 3 6159 3990 3 MP stroke
9 4 -10 1 6160 4110 3 MP stroke
10 -1 -9 6 6157 4246 3 MP stroke
11 6 -12 1 6155 4357 3 MP stroke
15 7 -16 2 6145 4481 3 MP stroke
1006 389 PD
-16 10 1006 513 2 MP stroke
-22 -3 1006 637 2 MP stroke
-12 -19 1006 886 2 MP stroke
-23 -6 1006 1010 2 MP stroke
-24 -14 1006 1134 2 MP stroke
-5 -2 1006 2377 2 MP stroke
-14 0 1006 2502 2 MP stroke
-15 -9 1006 2626 2 MP stroke
-14 -13 1006 2750 2 MP stroke
-14 -19 1006 2874 2 MP stroke
-11 2 1006 2999 2 MP stroke
-5 -15 1006 3123 2 MP stroke
-9 -12 1006 3247 2 MP stroke
-8 -20 1006 3372 2 MP stroke
3 -5 1006 3496 2 MP stroke
-8 -17 1006 3620 2 MP stroke
-8 -3 1006 3744 2 MP stroke
-13 -16 1006 3869 2 MP stroke
-17 -4 1006 3993 2 MP stroke
-26 -6 1006 4117 2 MP stroke
-20 5 1006 4242 2 MP stroke
-24 10 1006 4490 2 MP stroke
-15 -15 1006 4615 2 MP stroke
-35 2 1114 513 2 MP stroke
-58 2 1114 637 2 MP stroke
-34 -5 1114 886 2 MP stroke
-34 6 1114 1010 2 MP stroke
-30 -8 1114 1134 2 MP stroke
-24 -4 1114 2377 2 MP stroke
-23 1 1114 2502 2 MP stroke
-16 -15 1114 2626 2 MP stroke
-21 -13 1114 2750 2 MP stroke
-20 -13 1114 2874 2 MP stroke
-19 -8 1114 2999 2 MP stroke
-21 -14 1114 3123 2 MP stroke
-20 -8 1114 3247 2 MP stroke
-15 -12 1114 3372 2 MP stroke
-14 -3 1114 3496 2 MP stroke
-20 -18 1114 3620 2 MP stroke
-26 -2 1114 3744 2 MP stroke
-22 -14 1114 3869 2 MP stroke
-28 -5 1114 3993 2 MP stroke
-33 -13 1114 4117 2 MP stroke
-31 -4 1114 4242 2 MP stroke
-37 3 1114 4490 2 MP stroke
-31 -4 1114 4615 2 MP stroke
-39 36 1222 389 2 MP stroke
-53 12 1222 513 2 MP stroke
-69 10 1222 637 2 MP stroke
-31 14 1222 761 2 MP stroke
-30 3 1222 886 2 MP stroke
-32 8 1222 1010 2 MP stroke
-24 -11 1222 1134 2 MP stroke
-22 -5 1222 2502 2 MP stroke
-20 -23 1222 2626 2 MP stroke
-26 -5 1222 2750 2 MP stroke
-24 -12 1222 2874 2 MP stroke
-10 6 1222 2999 2 MP stroke
-9 -13 1222 3123 2 MP stroke
-13 -9 1222 3247 2 MP stroke
-11 -18 1222 3372 2 MP stroke
-20 2 1222 3496 2 MP stroke
-20 -15 1222 3620 2 MP stroke
-16 1 1222 3744 2 MP stroke
-17 -12 1222 3869 2 MP stroke
-18 -9 1222 3993 2 MP stroke
-22 -6 1222 4117 2 MP stroke
-19 3 1222 4242 2 MP stroke
-21 -6 1222 4366 2 MP stroke
-28 8 1222 4490 2 MP stroke
-23 -7 1222 4615 2 MP stroke
1329 389 PD
-35 1 1329 513 2 MP stroke
-30 -17 1329 637 2 MP stroke
-32 -3 1329 761 2 MP stroke
-34 -8 1329 886 2 MP stroke
-34 5 1329 1010 2 MP stroke
-44 -19 1329 1134 2 MP stroke
-23 -2 1329 2502 2 MP stroke
-19 -17 1329 2626 2 MP stroke
-7 -8 1329 2750 2 MP stroke
-19 -20 1329 2874 2 MP stroke
-5 -10 1329 2999 2 MP stroke
-13 -5 1329 3123 2 MP stroke
-11 -6 1329 3247 2 MP stroke
-13 -17 1329 3372 2 MP stroke
-16 -5 1329 3496 2 MP stroke
-16 -14 1329 3620 2 MP stroke
-17 -3 1329 3744 2 MP stroke
-24 -14 1329 3869 2 MP stroke
-23 5 1329 3993 2 MP stroke
-27 -14 1329 4117 2 MP stroke
-30 -9 1329 4242 2 MP stroke
-27 -16 1329 4366 2 MP stroke
-19 -2 1329 4490 2 MP stroke
-30 -17 1329 4615 2 MP stroke
1437 389 PD
-25 5 1437 513 2 MP stroke
-26 -14 1437 637 2 MP stroke
-24 4 1437 761 2 MP stroke
-24 -5 1437 886 2 MP stroke
-29 -4 1437 1010 2 MP stroke
-29 -3 1437 1134 2 MP stroke
-21 -2 1437 1259 2 MP stroke
0 -12 1437 1383 2 MP stroke
-8 -8 1437 2502 2 MP stroke
-9 -18 1437 2626 2 MP stroke
2 -8 1437 3123 2 MP stroke
-8 -9 1437 3247 2 MP stroke
-9 -14 1437 3372 2 MP stroke
-9 -3 1437 3496 2 MP stroke
-13 -11 1437 3620 2 MP stroke
-15 -9 1437 3744 2 MP stroke
-12 -13 1437 3869 2 MP stroke
-23 0 1437 3993 2 MP stroke
-21 -14 1437 4117 2 MP stroke
-21 -10 1437 4242 2 MP stroke
-19 -18 1437 4366 2 MP stroke
-19 7 1437 4490 2 MP stroke
-18 -16 1437 4615 2 MP stroke
1545 389 PD
-37 9 1545 513 2 MP stroke
-31 -1 1545 637 2 MP stroke
-36 2 1545 761 2 MP stroke
-35 -6 1545 886 2 MP stroke
-39 9 1545 1010 2 MP stroke
-31 -5 1545 1134 2 MP stroke
-36 0 1545 1259 2 MP stroke
-37 -6 1545 1383 2 MP stroke
-35 -11 1545 1507 2 MP stroke
-17 -8 1545 3123 2 MP stroke
-22 -8 1545 3247 2 MP stroke
-18 -12 1545 3372 2 MP stroke
-19 -2 1545 3496 2 MP stroke
-19 -10 1545 3620 2 MP stroke
-22 -5 1545 3744 2 MP stroke
-27 -13 1545 3869 2 MP stroke
-29 -2 1545 3993 2 MP stroke
-33 -14 1545 4117 2 MP stroke
-32 -1 1545 4242 2 MP stroke
-34 -3 1545 4366 2 MP stroke
-28 5 1545 4490 2 MP stroke
-27 -11 1545 4615 2 MP stroke
1653 389 PD
-28 5 1653 513 2 MP stroke
-30 -10 1653 637 2 MP stroke
-23 5 1653 761 2 MP stroke
-21 2 1653 886 2 MP stroke
-30 13 1653 1010 2 MP stroke
-26 -10 1653 1134 2 MP stroke
-26 -1 1653 1259 2 MP stroke
-28 -7 1653 1383 2 MP stroke
-26 4 1653 1507 2 MP stroke
-29 40 1653 2502 2 MP stroke
-7 -2 1653 2626 2 MP stroke
-16 -5 1653 2750 2 MP stroke
-20 -7 1653 3123 2 MP stroke
-23 -9 1653 3247 2 MP stroke
-18 -9 1653 3372 2 MP stroke
-17 -8 1653 3496 2 MP stroke
-14 -6 1653 3620 2 MP stroke
-19 -8 1653 3744 2 MP stroke
-23 -9 1653 3869 2 MP stroke
-23 -6 1653 3993 2 MP stroke
-23 -9 1653 4117 2 MP stroke
-18 -4 1653 4242 2 MP stroke
-21 -8 1653 4366 2 MP stroke
-24 7 1653 4490 2 MP stroke
1760 389 PD
-32 2 1760 513 2 MP stroke
-31 -14 1760 637 2 MP stroke
-32 4 1760 761 2 MP stroke
-45 -3 1760 886 2 MP stroke
-23 -4 1760 1010 2 MP stroke
-35 -7 1760 1134 2 MP stroke
-30 11 1760 1259 2 MP stroke
-27 0 1760 1383 2 MP stroke
-12 -3 1760 1507 2 MP stroke
-23 -13 1760 1631 2 MP stroke
-16 9 1760 2502 2 MP stroke
-20 -5 1760 2626 2 MP stroke
-19 6 1760 2750 2 MP stroke
-13 13 1760 2874 2 MP stroke
-14 -6 1760 2999 2 MP stroke
-17 -9 1760 3123 2 MP stroke
-21 -8 1760 3247 2 MP stroke
-14 -10 1760 3372 2 MP stroke
-21 -8 1760 3496 2 MP stroke
-22 -7 1760 3620 2 MP stroke
-23 -7 1760 3744 2 MP stroke
-20 -7 1760 3869 2 MP stroke
-17 -1 1760 3993 2 MP stroke
-27 -17 1760 4117 2 MP stroke
-27 -6 1760 4242 2 MP stroke
-32 -7 1760 4366 2 MP stroke
-32 0 1760 4490 2 MP stroke
1868 389 PD
-10 2 1868 513 2 MP stroke
-64 -32 1868 637 2 MP stroke
-22 0 1868 761 2 MP stroke
-20 7 1868 886 2 MP stroke
-31 13 1868 1010 2 MP stroke
-26 0 1868 1134 2 MP stroke
-23 7 1868 1259 2 MP stroke
-31 1 1868 1383 2 MP stroke
-9 -4 1868 1507 2 MP stroke
-7 -9 1868 1631 2 MP stroke
-11 -9 1868 2626 2 MP stroke
-13 -2 1868 2750 2 MP stroke
-5 -7 1868 2874 2 MP stroke
-5 4 1868 2999 2 MP stroke
-8 -10 1868 3123 2 MP stroke
-8 -6 1868 3247 2 MP stroke
-8 -17 1868 3372 2 MP stroke
-20 -3 1868 3496 2 MP stroke
-12 -9 1868 3620 2 MP stroke
-13 4 1868 3744 2 MP stroke
-16 -12 1868 3869 2 MP stroke
-23 3 1868 3993 2 MP stroke
-17 -14 1868 4117 2 MP stroke
-22 -4 1868 4242 2 MP stroke
-21 -11 1868 4366 2 MP stroke
-26 -2 1868 4490 2 MP stroke
1976 389 PD
-31 8 1976 513 2 MP stroke
-62 -25 1976 637 2 MP stroke
-33 6 1976 761 2 MP stroke
-38 -2 1976 886 2 MP stroke
-29 2 1976 1010 2 MP stroke
-30 -15 1976 1134 2 MP stroke
-34 7 1976 1259 2 MP stroke
-34 -2 1976 1383 2 MP stroke
-28 -7 1976 1507 2 MP stroke
-22 -13 1976 1631 2 MP stroke
-32 -1 1976 2502 2 MP stroke
-27 -17 1976 2626 2 MP stroke
-22 -6 1976 2750 2 MP stroke
-21 -7 1976 2874 2 MP stroke
-15 1 1976 2999 2 MP stroke
-18 -6 1976 3123 2 MP stroke
-18 -4 1976 3247 2 MP stroke
-19 -13 1976 3372 2 MP stroke
-26 -7 1976 3496 2 MP stroke
-30 -7 1976 3620 2 MP stroke
-29 -4 1976 3744 2 MP stroke
-29 -4 1976 3869 2 MP stroke
-34 0 1976 3993 2 MP stroke
-29 -13 1976 4117 2 MP stroke
-30 -5 1976 4242 2 MP stroke
-28 -12 1976 4366 2 MP stroke
-32 1 1976 4490 2 MP stroke
2084 389 PD
-30 9 2084 513 2 MP stroke
-20 -17 2084 637 2 MP stroke
-20 4 2084 761 2 MP stroke
-33 3 2084 886 2 MP stroke
-31 -2 2084 1010 2 MP stroke
-28 4 2084 1134 2 MP stroke
-20 6 2084 1259 2 MP stroke
-23 -7 2084 1383 2 MP stroke
-20 -8 2084 1507 2 MP stroke
-18 -12 2084 1631 2 MP stroke
-8 -4 2084 2377 2 MP stroke
-13 -6 2084 2502 2 MP stroke
-13 -6 2084 2626 2 MP stroke
-7 -4 2084 2750 2 MP stroke
-5 -13 2084 2874 2 MP stroke
-5 1 2084 2999 2 MP stroke
-8 -10 2084 3123 2 MP stroke
-12 -4 2084 3247 2 MP stroke
-16 -8 2084 3372 2 MP stroke
-12 -6 2084 3496 2 MP stroke
-13 -6 2084 3620 2 MP stroke
-23 -8 2084 3744 2 MP stroke
-23 -8 2084 3869 2 MP stroke
-19 -10 2084 3993 2 MP stroke
-22 -17 2084 4117 2 MP stroke
-23 -4 2084 4242 2 MP stroke
-21 -3 2084 4366 2 MP stroke
-22 5 2084 4490 2 MP stroke
2191 389 PD
-36 7 2191 513 2 MP stroke
-53 -66 2191 637 2 MP stroke
-36 3 2191 761 2 MP stroke
-39 4 2191 886 2 MP stroke
-36 5 2191 1010 2 MP stroke
-42 -2 2191 1134 2 MP stroke
-33 6 2191 1259 2 MP stroke
-20 -8 2191 1383 2 MP stroke
-34 -9 2191 1631 2 MP stroke
-20 -4 2191 2377 2 MP stroke
-22 -1 2191 2502 2 MP stroke
-20 -16 2191 2626 2 MP stroke
-16 -6 2191 2750 2 MP stroke
-19 -9 2191 2874 2 MP stroke
-21 -7 2191 2999 2 MP stroke
-20 -11 2191 3123 2 MP stroke
-22 -4 2191 3247 2 MP stroke
-16 -9 2191 3372 2 MP stroke
-19 -7 2191 3496 2 MP stroke
-18 -7 2191 3620 2 MP stroke
-22 -7 2191 3744 2 MP stroke
-19 -14 2191 3869 2 MP stroke
-20 -7 2191 3993 2 MP stroke
-24 -11 2191 4117 2 MP stroke
-26 -10 2191 4242 2 MP stroke
-27 -1 2191 4366 2 MP stroke
-30 8 2191 4490 2 MP stroke
-27 5 2299 513 2 MP stroke
-30 -3 2299 637 2 MP stroke
-20 6 2299 761 2 MP stroke
-27 -7 2299 886 2 MP stroke
-25 12 2299 1010 2 MP stroke
-31 -13 2299 1134 2 MP stroke
-27 1 2299 1259 2 MP stroke
-13 -6 2299 1383 2 MP stroke
-2 5 2299 1507 2 MP stroke
-4 -4 2299 1631 2 MP stroke
-8 -10 2299 1756 2 MP stroke
-7 -9 2299 1880 2 MP stroke
-9 0 2299 2253 2 MP stroke
-5 -5 2299 2377 2 MP stroke
-10 3 2299 2502 2 MP stroke
-14 -19 2299 2626 2 MP stroke
-6 -3 2299 2750 2 MP stroke
-4 -20 2299 2874 2 MP stroke
-5 -6 2299 2999 2 MP stroke
-10 -9 2299 3123 2 MP stroke
-13 -8 2299 3247 2 MP stroke
-10 -6 2299 3372 2 MP stroke
-12 4 2299 3496 2 MP stroke
-8 -17 2299 3620 2 MP stroke
-12 -7 2299 3744 2 MP stroke
-10 -9 2299 3869 2 MP stroke
-14 -2 2299 3993 2 MP stroke
-26 -8 2299 4117 2 MP stroke
-19 -4 2299 4242 2 MP stroke
-22 -5 2299 4366 2 MP stroke
-18 1 2299 4490 2 MP stroke
2407 389 PD
-52 7 2407 513 2 MP stroke
-45 -4 2407 637 2 MP stroke
-34 -5 2407 761 2 MP stroke
-29 -3 2407 886 2 MP stroke
-34 7 2407 1010 2 MP stroke
-29 -18 2407 1134 2 MP stroke
-24 1 2407 1507 2 MP stroke
-21 -11 2407 1631 2 MP stroke
-27 -8 2407 1756 2 MP stroke
-29 -24 2407 1880 2 MP stroke
-23 8 2407 2004 2 MP stroke
-20 -1 2407 2129 2 MP stroke
-20 -5 2407 2253 2 MP stroke
-24 -6 2407 2377 2 MP stroke
-20 8 2407 2502 2 MP stroke
-31 -15 2407 2626 2 MP stroke
-21 -3 2407 2750 2 MP stroke
-15 -18 2407 2874 2 MP stroke
-16 2 2407 2999 2 MP stroke
-21 -4 2407 3123 2 MP stroke
-23 -8 2407 3247 2 MP stroke
-27 -5 2407 3372 2 MP stroke
-16 -5 2407 3496 2 MP stroke
-18 -5 2407 3620 2 MP stroke
-26 2 2407 3744 2 MP stroke
-23 -9 2407 3869 2 MP stroke
-32 3 2407 3993 2 MP stroke
-29 -9 2407 4117 2 MP stroke
-35 3 2407 4242 2 MP stroke
-35 -10 2407 4366 2 MP stroke
-28 1 2407 4490 2 MP stroke
2515 389 PD
-55 9 2515 513 2 MP stroke
-46 -2 2515 637 2 MP stroke
-21 -17 2515 886 2 MP stroke
-29 2 2515 1010 2 MP stroke
-27 -16 2515 1134 2 MP stroke
-33 11 2515 1259 2 MP stroke
-20 -4 2515 1383 2 MP stroke
-22 4 2515 1507 2 MP stroke
-14 2 2515 1631 2 MP stroke
-14 9 2515 1756 2 MP stroke
-7 36 2515 1880 2 MP stroke
-13 -7 2515 2004 2 MP stroke
-10 -16 2515 2129 2 MP stroke
-6 0 2515 2253 2 MP stroke
-13 -9 2515 2377 2 MP stroke
-12 -11 2515 2502 2 MP stroke
-11 -20 2515 2626 2 MP stroke
-10 9 2515 2750 2 MP stroke
-13 -9 2515 2874 2 MP stroke
-8 -10 2515 2999 2 MP stroke
-7 -10 2515 3123 2 MP stroke
-8 -10 2515 3247 2 MP stroke
-16 -8 2515 3372 2 MP stroke
-18 -3 2515 3496 2 MP stroke
-20 -7 2515 3620 2 MP stroke
-19 -2 2515 3744 2 MP stroke
-19 -6 2515 3869 2 MP stroke
-20 -1 2515 3993 2 MP stroke
-22 -14 2515 4117 2 MP stroke
-26 2 2515 4242 2 MP stroke
-27 -7 2515 4366 2 MP stroke
-20 -3 2515 4490 2 MP stroke
-42 3 2622 389 2 MP stroke
-41 6 2622 513 2 MP stroke
-30 -14 2622 637 2 MP stroke
-35 -30 2622 761 2 MP stroke
-31 5 2622 886 2 MP stroke
-27 1 2622 1010 2 MP stroke
-34 -15 2622 1134 2 MP stroke
-36 3 2622 1259 2 MP stroke
-33 -4 2622 1383 2 MP stroke
-31 10 2622 1507 2 MP stroke
-38 -9 2622 1631 2 MP stroke
-8 4 2622 1756 2 MP stroke
-17 -3 2622 1880 2 MP stroke
-13 0 2622 2004 2 MP stroke
-14 -1 2622 2129 2 MP stroke
-12 13 2622 2253 2 MP stroke
-18 -4 2622 2377 2 MP stroke
-19 5 2622 2502 2 MP stroke
-20 -13 2622 2626 2 MP stroke
-22 -1 2622 2750 2 MP stroke
-20 0 2622 2874 2 MP stroke
-15 -9 2622 2999 2 MP stroke
-15 -8 2622 3123 2 MP stroke
-20 -6 2622 3247 2 MP stroke
-14 -3 2622 3372 2 MP stroke
-23 1 2622 3496 2 MP stroke
-24 -15 2622 3620 2 MP stroke
-24 5 2622 3744 2 MP stroke
-29 -6 2622 3869 2 MP stroke
-27 -5 2622 3993 2 MP stroke
-22 -10 2622 4117 2 MP stroke
-26 -11 2622 4242 2 MP stroke
-16 -4 2622 4366 2 MP stroke
-31 7 2622 4490 2 MP stroke
2730 389 PD
-27 10 2730 513 2 MP stroke
-21 -12 2730 637 2 MP stroke
-22 6 2730 761 2 MP stroke
-25 -1 2730 886 2 MP stroke
-18 -2 2730 1010 2 MP stroke
-12 -24 2730 1134 2 MP stroke
-8 -9 2730 1383 2 MP stroke
-17 4 2730 1507 2 MP stroke
-10 -14 2730 1631 2 MP stroke
-1 -17 2730 1880 2 MP stroke
-5 -6 2730 2377 2 MP stroke
-3 -8 2730 2502 2 MP stroke
-5 -18 2730 2626 2 MP stroke
-9 -5 2730 2750 2 MP stroke
-7 -3 2730 2874 2 MP stroke
-12 -6 2730 2999 2 MP stroke
-7 -9 2730 3123 2 MP stroke
-6 -4 2730 3247 2 MP stroke
-12 -1 2730 3372 2 MP stroke
-14 0 2730 3496 2 MP stroke
-8 -12 2730 3620 2 MP stroke
-16 2 2730 3744 2 MP stroke
-18 -8 2730 3869 2 MP stroke
-22 -2 2730 3993 2 MP stroke
-21 -8 2730 4117 2 MP stroke
-23 -9 2730 4242 2 MP stroke
-22 -10 2730 4366 2 MP stroke
-27 -4 2730 4490 2 MP stroke
-37 1 2838 389 2 MP stroke
-26 9 2838 513 2 MP stroke
-33 2 2838 637 2 MP stroke
-36 -8 2838 761 2 MP stroke
-30 -11 2838 1259 2 MP stroke
-10 -11 2838 1383 2 MP stroke
-19 2 2838 1507 2 MP stroke
-15 -7 2838 1631 2 MP stroke
-14 -15 2838 2377 2 MP stroke
-18 -4 2838 2502 2 MP stroke
-25 -48 2838 2626 2 MP stroke
-16 -4 2838 2750 2 MP stroke
-22 -10 2838 2874 2 MP stroke
-21 -1 2838 2999 2 MP stroke
-22 -15 2838 3123 2 MP stroke
-27 4 2838 3247 2 MP stroke
-16 -7 2838 3372 2 MP stroke
-28 2 2838 3496 2 MP stroke
-24 -17 2838 3620 2 MP stroke
-28 6 2838 3744 2 MP stroke
-32 -10 2838 3869 2 MP stroke
-30 7 2838 3993 2 MP stroke
-32 -12 2838 4117 2 MP stroke
-34 4 2838 4242 2 MP stroke
-32 -9 2838 4366 2 MP stroke
-26 -3 2838 4490 2 MP stroke
-40 1 2945 389 2 MP stroke
-48 2 2945 513 2 MP stroke
-44 2 2945 637 2 MP stroke
-23 10 2945 886 2 MP stroke
-26 -5 2945 1259 2 MP stroke
-30 -6 2945 1383 2 MP stroke
-33 2 2945 1507 2 MP stroke
-16 -3 2945 2502 2 MP stroke
-27 -24 2945 2626 2 MP stroke
-6 -1 2945 2750 2 MP stroke
-13 -10 2945 2874 2 MP stroke
-7 -5 2945 2999 2 MP stroke
-16 -11 2945 3123 2 MP stroke
-6 0 2945 3247 2 MP stroke
-12 -14 2945 3372 2 MP stroke
-20 2 2945 3496 2 MP stroke
-13 -12 2945 3620 2 MP stroke
-21 2 2945 3744 2 MP stroke
-22 -3 2945 3869 2 MP stroke
-16 -1 2945 3993 2 MP stroke
-25 -19 2945 4117 2 MP stroke
-21 3 2945 4242 2 MP stroke
-26 -10 2945 4366 2 MP stroke
-20 1 2945 4490 2 MP stroke
3053 389 PD
-50 10 3053 513 2 MP stroke
0 -1 3053 637 2 MP stroke
-28 -4 3053 1259 2 MP stroke
-28 -6 3053 1383 2 MP stroke
-18 4 3053 1507 2 MP stroke
-20 -15 3053 1631 2 MP stroke
-19 -13 3053 1756 2 MP stroke
-25 -5 3053 1880 2 MP stroke
-11 -12 3053 2502 2 MP stroke
-14 -18 3053 2626 2 MP stroke
-15 -9 3053 2750 2 MP stroke
-14 -7 3053 2874 2 MP stroke
-18 -5 3053 2999 2 MP stroke
-21 -14 3053 3123 2 MP stroke
-17 1 3053 3247 2 MP stroke
-22 -5 3053 3372 2 MP stroke
-22 6 3053 3496 2 MP stroke
-16 -17 3053 3620 2 MP stroke
-19 2 3053 3744 2 MP stroke
-22 -1 3053 3869 2 MP stroke
-19 5 3053 3993 2 MP stroke
-28 -11 3053 4117 2 MP stroke
-24 -4 3053 4242 2 MP stroke
-29 -13 3053 4366 2 MP stroke
-35 -2 3053 4490 2 MP stroke
-34 0 3161 389 2 MP stroke
-32 10 3161 513 2 MP stroke
-22 -1 3161 637 2 MP stroke
-6 -13 3161 1134 2 MP stroke
-14 3 3161 1259 2 MP stroke
-8 -3 3161 1383 2 MP stroke
-12 20 3161 1507 2 MP stroke
-7 -13 3161 1631 2 MP stroke
-8 6 3161 1756 2 MP stroke
-6 21 3161 1880 2 MP stroke
-1 70 3161 2004 2 MP stroke
-3 55 3161 2129 2 MP stroke
-12 -33 3161 2253 2 MP stroke
-11 -6 3161 2377 2 MP stroke
-7 4 3161 2502 2 MP stroke
-7 -14 3161 2626 2 MP stroke
-12 -8 3161 2750 2 MP stroke
-7 -9 3161 2874 2 MP stroke
-11 -6 3161 2999 2 MP stroke
-10 -16 3161 3123 2 MP stroke
-8 6 3161 3247 2 MP stroke
-12 -10 3161 3372 2 MP stroke
-8 6 3161 3496 2 MP stroke
-10 -11 3161 3620 2 MP stroke
-17 2 3161 3744 2 MP stroke
-13 -5 3161 3869 2 MP stroke
-23 0 3161 3993 2 MP stroke
-24 -16 3161 4117 2 MP stroke
-25 -7 3161 4242 2 MP stroke
-22 -8 3161 4366 2 MP stroke
-23 -8 3161 4490 2 MP stroke
3269 389 PD
-49 4 3269 513 2 MP stroke
-47 -3 3269 637 2 MP stroke
-35 -4 3269 886 2 MP stroke
-38 7 3269 1010 2 MP stroke
-18 7 3269 1259 2 MP stroke
-18 -4 3269 1383 2 MP stroke
-21 10 3269 1507 2 MP stroke
-19 -15 3269 1631 2 MP stroke
-22 -4 3269 1756 2 MP stroke
-17 9 3269 1880 2 MP stroke
-13 29 3269 2004 2 MP stroke
-19 -9 3269 2129 2 MP stroke
-22 3 3269 2253 2 MP stroke
-18 -8 3269 2377 2 MP stroke
-21 -1 3269 2502 2 MP stroke
-19 -15 3269 2626 2 MP stroke
-18 1 3269 2750 2 MP stroke
-24 -6 3269 2874 2 MP stroke
-13 -1 3269 2999 2 MP stroke
-23 -18 3269 3123 2 MP stroke
-26 1 3269 3247 2 MP stroke
-26 -5 3269 3372 2 MP stroke
-19 4 3269 3496 2 MP stroke
-16 -16 3269 3620 2 MP stroke
-29 3 3269 3744 2 MP stroke
-30 -8 3269 3869 2 MP stroke
-27 -1 3269 3993 2 MP stroke
-31 -15 3269 4117 2 MP stroke
-27 -2 3269 4242 2 MP stroke
-30 -5 3269 4366 2 MP stroke
-35 7 3269 4490 2 MP stroke
3376 389 PD
-33 4 3376 513 2 MP stroke
-37 -6 3376 637 2 MP stroke
-26 0 3376 761 2 MP stroke
-27 -11 3376 886 2 MP stroke
-45 1 3376 1010 2 MP stroke
-28 -4 3376 1134 2 MP stroke
-12 4 3376 1507 2 MP stroke
-7 -13 3376 1631 2 MP stroke
-7 -7 3376 1756 2 MP stroke
-5 -2 3376 1880 2 MP stroke
-8 13 3376 2004 2 MP stroke
-10 -10 3376 2129 2 MP stroke
-9 -1 3376 2253 2 MP stroke
-8 -12 3376 2377 2 MP stroke
-8 -4 3376 2502 2 MP stroke
-13 -12 3376 2626 2 MP stroke
-13 -5 3376 2750 2 MP stroke
-9 -7 3376 2874 2 MP stroke
-14 -4 3376 2999 2 MP stroke
-13 -1 3376 3123 2 MP stroke
-11 -3 3376 3247 2 MP stroke
-10 -5 3376 3372 2 MP stroke
-21 4 3376 3496 2 MP stroke
-18 -13 3376 3620 2 MP stroke
-22 0 3376 3744 2 MP stroke
-20 -5 3376 3869 2 MP stroke
-18 -6 3376 3993 2 MP stroke
-26 -7 3376 4117 2 MP stroke
-23 -6 3376 4242 2 MP stroke
-23 -9 3376 4366 2 MP stroke
-31 0 3376 4490 2 MP stroke
3484 389 PD
-36 1 3484 513 2 MP stroke
-45 -4 3484 637 2 MP stroke
-40 11 3484 761 2 MP stroke
-31 0 3484 886 2 MP stroke
-35 13 3484 1010 2 MP stroke
-25 -22 3484 1134 2 MP stroke
3484 1507 PD
25 -11 3484 1631 2 MP stroke
-22 -9 3484 1880 2 MP stroke
-16 6 3484 2004 2 MP stroke
-17 -8 3484 2129 2 MP stroke
-14 -8 3484 2253 2 MP stroke
-11 -17 3484 2377 2 MP stroke
-13 -3 3484 2502 2 MP stroke
-20 -14 3484 2626 2 MP stroke
-16 -4 3484 2750 2 MP stroke
-17 -4 3484 2874 2 MP stroke
-14 -1 3484 2999 2 MP stroke
-18 -12 3484 3123 2 MP stroke
-23 -3 3484 3247 2 MP stroke
-16 -2 3484 3372 2 MP stroke
-21 2 3484 3496 2 MP stroke
-20 -17 3484 3620 2 MP stroke
-24 0 3484 3744 2 MP stroke
-28 -2 3484 3869 2 MP stroke
-35 -9 3484 3993 2 MP stroke
-26 -8 3484 4117 2 MP stroke
-32 -9 3484 4242 2 MP stroke
-32 -11 3484 4366 2 MP stroke
-33 0 3484 4490 2 MP stroke
3592 389 PD
-35 4 3592 513 2 MP stroke
-25 -6 3592 637 2 MP stroke
-8 -2 3592 1756 2 MP stroke
-9 -6 3592 2129 2 MP stroke
-11 -1 3592 2253 2 MP stroke
-9 -3 3592 2377 2 MP stroke
-12 6 3592 2502 2 MP stroke
-5 -9 3592 2626 2 MP stroke
-4 0 3592 2750 2 MP stroke
-11 -5 3592 2874 2 MP stroke
-11 2 3592 2999 2 MP stroke
-13 -16 3592 3123 2 MP stroke
-15 -9 3592 3247 2 MP stroke
-11 -5 3592 3372 2 MP stroke
-12 7 3592 3496 2 MP stroke
-11 -12 3592 3620 2 MP stroke
-5 -4 3592 3744 2 MP stroke
-18 -8 3592 3869 2 MP stroke
-15 -2 3592 3993 2 MP stroke
-21 -16 3592 4117 2 MP stroke
-16 -8 3592 4242 2 MP stroke
-24 -17 3592 4366 2 MP stroke
-40 -1 3592 4490 2 MP stroke
-69 0 3700 389 2 MP stroke
-50 9 3700 513 2 MP stroke
-56 3 3700 637 2 MP stroke
-50 0 3700 1383 2 MP stroke
-25 3 3700 1507 2 MP stroke
-21 -12 3700 1631 2 MP stroke
-22 -5 3700 1756 2 MP stroke
-17 -18 3700 1880 2 MP stroke
-21 0 3700 2004 2 MP stroke
-25 -13 3700 2129 2 MP stroke
-16 -7 3700 2253 2 MP stroke
-19 -5 3700 2377 2 MP stroke
-19 3 3700 2502 2 MP stroke
-21 -20 3700 2626 2 MP stroke
-22 -2 3700 2750 2 MP stroke
-25 -5 3700 2874 2 MP stroke
-21 -2 3700 2999 2 MP stroke
-28 -13 3700 3123 2 MP stroke
-24 -10 3700 3247 2 MP stroke
-25 -7 3700 3372 2 MP stroke
-22 2 3700 3496 2 MP stroke
-25 -17 3700 3620 2 MP stroke
-30 1 3700 3744 2 MP stroke
-35 -18 3700 3869 2 MP stroke
-31 -2 3700 3993 2 MP stroke
-31 -14 3700 4117 2 MP stroke
-35 -7 3700 4242 2 MP stroke
-43 -14 3700 4366 2 MP stroke
-63 4 3700 4490 2 MP stroke
3807 389 PD
-51 7 3807 513 2 MP stroke
-49 1 3807 637 2 MP stroke
-15 -5 3807 1383 2 MP stroke
-24 -9 3807 1631 2 MP stroke
-9 -13 3807 1880 2 MP stroke
-11 3 3807 2004 2 MP stroke
-7 -7 3807 2129 2 MP stroke
-9 -27 3807 2253 2 MP stroke
-4 -19 3807 2377 2 MP stroke
-10 1 3807 2502 2 MP stroke
-10 -10 3807 2626 2 MP stroke
-7 2 3807 2750 2 MP stroke
-12 -5 3807 2874 2 MP stroke
-16 1 3807 2999 2 MP stroke
-13 -12 3807 3123 2 MP stroke
-11 0 3807 3247 2 MP stroke
-19 -7 3807 3372 2 MP stroke
-21 -1 3807 3496 2 MP stroke
-24 -18 3807 3620 2 MP stroke
-26 -2 3807 3744 2 MP stroke
-19 -7 3807 3869 2 MP stroke
-25 -2 3807 3993 2 MP stroke
-24 -4 3807 4117 2 MP stroke
-25 -5 3807 4242 2 MP stroke
-33 -12 3807 4366 2 MP stroke
-49 5 3807 4490 2 MP stroke
3915 389 PD
-52 10 3915 513 2 MP stroke
-52 4 3915 637 2 MP stroke
-45 10 3915 1010 2 MP stroke
-29 -5 3915 1259 2 MP stroke
-18 1 3915 1383 2 MP stroke
0 11 3915 1507 2 MP stroke
-19 -8 3915 1631 2 MP stroke
-22 -5 3915 1756 2 MP stroke
-29 9 3915 1880 2 MP stroke
-22 -1 3915 2004 2 MP stroke
-22 1 3915 2129 2 MP stroke
-15 -6 3915 2253 2 MP stroke
-5 -14 3915 2377 2 MP stroke
-20 9 3915 2502 2 MP stroke
-24 -21 3915 2626 2 MP stroke
-22 -4 3915 2750 2 MP stroke
-20 -11 3915 2874 2 MP stroke
-19 2 3915 2999 2 MP stroke
-23 -13 3915 3123 2 MP stroke
-28 -10 3915 3247 2 MP stroke
-55 69 3915 3372 2 MP stroke
-17 1 3915 3496 2 MP stroke
-24 -12 3915 3620 2 MP stroke
-16 -9 3915 3744 2 MP stroke
-27 -13 3915 3869 2 MP stroke
-32 -3 3915 3993 2 MP stroke
-29 -17 3915 4117 2 MP stroke
-31 -4 3915 4242 2 MP stroke
-37 -10 3915 4366 2 MP stroke
-51 9 3915 4490 2 MP stroke
-55 -12 3915 4615 2 MP stroke
4023 389 PD
-39 13 4023 513 2 MP stroke
-46 4 4023 637 2 MP stroke
-39 11 4023 761 2 MP stroke
-43 8 4023 886 2 MP stroke
-17 -2 4023 1134 2 MP stroke
-11 2 4023 1259 2 MP stroke
-9 14 4023 1383 2 MP stroke
-18 35 4023 1507 2 MP stroke
-17 -6 4023 1631 2 MP stroke
-10 -4 4023 1756 2 MP stroke
-22 22 4023 1880 2 MP stroke
-11 7 4023 2004 2 MP stroke
-8 2 4023 2129 2 MP stroke
-7 -2 4023 2253 2 MP stroke
-13 -2 4023 2377 2 MP stroke
-13 -8 4023 2502 2 MP stroke
-13 -22 4023 2626 2 MP stroke
-10 -4 4023 2750 2 MP stroke
-6 -11 4023 2874 2 MP stroke
-46 12 4023 2999 2 MP stroke
-37 -1 4023 3123 2 MP stroke
-38 3 4023 3247 2 MP stroke
-42 -15 4023 3372 2 MP stroke
-44 27 4023 3496 2 MP stroke
-27 -4 4023 3620 2 MP stroke
-24 9 4023 3744 2 MP stroke
-23 -13 4023 3869 2 MP stroke
-35 -10 4023 3993 2 MP stroke
-40 -16 4023 4117 2 MP stroke
-36 4 4023 4242 2 MP stroke
-58 7 4023 4366 2 MP stroke
-49 4 4023 4490 2 MP stroke
-49 -16 4023 4615 2 MP stroke
4131 389 PD
-52 7 4131 513 2 MP stroke
-50 -4 4131 637 2 MP stroke
-51 9 4131 761 2 MP stroke
-52 -4 4131 886 2 MP stroke
-59 1 4131 1010 2 MP stroke
-53 1 4131 1134 2 MP stroke
-49 37 4131 1259 2 MP stroke
-54 6 4131 1383 2 MP stroke
-46 -6 4131 1507 2 MP stroke
-47 12 4131 1631 2 MP stroke
-50 4 4131 1756 2 MP stroke
-24 11 4131 1880 2 MP stroke
-51 25 4131 2004 2 MP stroke
-60 64 4131 2129 2 MP stroke
-43 18 4131 2253 2 MP stroke
-51 5 4131 2377 2 MP stroke
-48 3 4131 2502 2 MP stroke
-43 -38 4131 2626 2 MP stroke
-16 -6 4131 2750 2 MP stroke
-12 -6 4131 2874 2 MP stroke
-58 5 4131 2999 2 MP stroke
-61 -7 4131 3123 2 MP stroke
-48 43 4131 3247 2 MP stroke
-64 -5 4131 3372 2 MP stroke
-65 34 4131 3496 2 MP stroke
-61 6 4131 3620 2 MP stroke
-54 12 4131 3744 2 MP stroke
-58 -10 4131 3869 2 MP stroke
-51 15 4131 3993 2 MP stroke
-58 3 4131 4117 2 MP stroke
-65 18 4131 4242 2 MP stroke
-67 -9 4131 4366 2 MP stroke
-64 -2 4131 4490 2 MP stroke
-58 -20 4131 4615 2 MP stroke
-56 5 4238 389 2 MP stroke
-47 14 4238 513 2 MP stroke
-42 1 4238 637 2 MP stroke
-52 13 4238 761 2 MP stroke
-43 -2 4238 886 2 MP stroke
-44 5 4238 1010 2 MP stroke
-43 -4 4238 1134 2 MP stroke
-35 66 4238 1259 2 MP stroke
-39 4 4238 1383 2 MP stroke
-43 15 4238 1507 2 MP stroke
-46 4 4238 1631 2 MP stroke
-42 -7 4238 1756 2 MP stroke
-57 4 4238 1880 2 MP stroke
-58 20 4238 2004 2 MP stroke
-50 -8 4238 2129 2 MP stroke
-26 27 4238 2253 2 MP stroke
-50 -2 4238 2377 2 MP stroke
-49 -2 4238 2502 2 MP stroke
-36 -61 4238 2626 2 MP stroke
-18 -19 4238 2750 2 MP stroke
-42 3 4238 2874 2 MP stroke
-42 5 4238 2999 2 MP stroke
-52 -8 4238 3123 2 MP stroke
-48 52 4238 3247 2 MP stroke
-50 8 4238 3372 2 MP stroke
-57 6 4238 3496 2 MP stroke
-49 -2 4238 3620 2 MP stroke
-56 6 4238 3744 2 MP stroke
-53 -3 4238 3869 2 MP stroke
-53 6 4238 3993 2 MP stroke
-56 -17 4238 4117 2 MP stroke
-55 1 4238 4242 2 MP stroke
-57 -10 4238 4366 2 MP stroke
-55 -16 4238 4615 2 MP stroke
4346 389 PD
-51 15 4346 513 2 MP stroke
-89 -54 4346 637 2 MP stroke
-52 12 4346 761 2 MP stroke
-57 -1 4346 886 2 MP stroke
-42 18 4346 1010 2 MP stroke
-52 4 4346 1134 2 MP stroke
-55 6 4346 1259 2 MP stroke
-52 1 4346 1383 2 MP stroke
-47 23 4346 1507 2 MP stroke
-49 4 4346 1631 2 MP stroke
-53 -11 4346 1756 2 MP stroke
-54 0 4346 1880 2 MP stroke
-57 8 4346 2004 2 MP stroke
-51 1 4346 2129 2 MP stroke
-43 10 4346 2253 2 MP stroke
-47 -9 4346 2377 2 MP stroke
-33 6 4346 2502 2 MP stroke
-59 -10 4346 2626 2 MP stroke
-64 10 4346 2750 2 MP stroke
-60 -2 4346 2874 2 MP stroke
-53 4 4346 2999 2 MP stroke
-52 -5 4346 3123 2 MP stroke
-59 -2 4346 3247 2 MP stroke
-57 -4 4346 3372 2 MP stroke
-55 8 4346 3496 2 MP stroke
-54 -12 4346 3620 2 MP stroke
-66 -4 4346 3744 2 MP stroke
-54 -9 4346 3869 2 MP stroke
-56 9 4346 3993 2 MP stroke
-66 -17 4346 4117 2 MP stroke
-61 -3 4346 4242 2 MP stroke
-59 -8 4346 4366 2 MP stroke
-55 0 4346 4490 2 MP stroke
4454 389 PD
-43 8 4454 513 2 MP stroke
-137 -70 4454 637 2 MP stroke
-41 11 4454 761 2 MP stroke
-38 4 4454 886 2 MP stroke
-47 13 4454 1010 2 MP stroke
-49 -4 4454 1134 2 MP stroke
-46 10 4454 1259 2 MP stroke
-46 4 4454 1383 2 MP stroke
-43 13 4454 1507 2 MP stroke
-45 5 4454 1631 2 MP stroke
-43 14 4454 1756 2 MP stroke
-42 8 4454 1880 2 MP stroke
-47 12 4454 2004 2 MP stroke
-45 -4 4454 2129 2 MP stroke
-43 2 4454 2253 2 MP stroke
-46 1 4454 2377 2 MP stroke
-49 16 4454 2502 2 MP stroke
-40 -38 4454 2626 2 MP stroke
-46 -6 4454 2750 2 MP stroke
-43 1 4454 2874 2 MP stroke
-57 10 4454 2999 2 MP stroke
-54 -14 4454 3123 2 MP stroke
-55 11 4454 3247 2 MP stroke
-52 0 4454 3372 2 MP stroke
-56 3 4454 3496 2 MP stroke
-44 -4 4454 3620 2 MP stroke
-51 5 4454 3744 2 MP stroke
-56 -4 4454 3869 2 MP stroke
-55 6 4454 3993 2 MP stroke
-46 0 4454 4117 2 MP stroke
-50 -8 4454 4242 2 MP stroke
-56 -6 4454 4366 2 MP stroke
-50 -8 4454 4490 2 MP stroke
-61 4 4562 389 2 MP stroke
-63 11 4562 513 2 MP stroke
-70 -31 4562 637 2 MP stroke
-62 13 4562 761 2 MP stroke
-63 -3 4562 886 2 MP stroke
-64 9 4562 1010 2 MP stroke
-60 -4 4562 1134 2 MP stroke
-61 14 4562 1259 2 MP stroke
-58 4 4562 1383 2 MP stroke
-68 19 4562 1507 2 MP stroke
-62 -3 4562 1631 2 MP stroke
-58 10 4562 1756 2 MP stroke
-65 1 4562 1880 2 MP stroke
-69 4 4562 2004 2 MP stroke
-63 -5 4562 2129 2 MP stroke
-64 4 4562 2253 2 MP stroke
-58 3 4562 2377 2 MP stroke
-66 14 4562 2502 2 MP stroke
-66 -45 4562 2626 2 MP stroke
-76 1 4562 2750 2 MP stroke
-62 -1 4562 2874 2 MP stroke
-64 12 4562 2999 2 MP stroke
-65 -2 4562 3123 2 MP stroke
-68 6 4562 3247 2 MP stroke
-57 7 4562 3372 2 MP stroke
-61 1 4562 3496 2 MP stroke
-62 -15 4562 3620 2 MP stroke
-65 -6 4562 3744 2 MP stroke
-64 -5 4562 3869 2 MP stroke
-68 6 4562 3993 2 MP stroke
-66 -4 4562 4117 2 MP stroke
-67 1 4562 4242 2 MP stroke
-66 -11 4562 4366 2 MP stroke
-75 -7 4562 4490 2 MP stroke
4669 389 PD
-57 12 4669 513 2 MP stroke
-50 -1 4669 637 2 MP stroke
-51 17 4669 761 2 MP stroke
-54 2 4669 886 2 MP stroke
-58 12 4669 1010 2 MP stroke
-51 5 4669 1134 2 MP stroke
-52 3 4669 1259 2 MP stroke
-51 1 4669 1383 2 MP stroke
-51 10 4669 1507 2 MP stroke
-52 2 4669 1631 2 MP stroke
-57 6 4669 1756 2 MP stroke
-53 6 4669 1880 2 MP stroke
-54 6 4669 2004 2 MP stroke
-56 1 4669 2129 2 MP stroke
-57 4 4669 2253 2 MP stroke
-58 5 4669 2377 2 MP stroke
-54 12 4669 2502 2 MP stroke
-58 -4 4669 2626 2 MP stroke
-57 0 4669 2750 2 MP stroke
-50 -5 4669 2874 2 MP stroke
-55 6 4669 2999 2 MP stroke
-60 -2 4669 3123 2 MP stroke
-56 0 4669 3247 2 MP stroke
-59 0 4669 3372 2 MP stroke
-56 8 4669 3496 2 MP stroke
-58 -9 4669 3620 2 MP stroke
-47 -43 4669 3744 2 MP stroke
-54 -8 4669 3869 2 MP stroke
-55 -1 4669 3993 2 MP stroke
-59 -5 4669 4117 2 MP stroke
-57 -11 4669 4242 2 MP stroke
-55 -2 4669 4366 2 MP stroke
-54 -2 4669 4490 2 MP stroke
4777 389 PD
-57 6 4777 513 2 MP stroke
-60 5 4777 637 2 MP stroke
-60 13 4777 761 2 MP stroke
-54 3 4777 886 2 MP stroke
-54 6 4777 1010 2 MP stroke
-59 -2 4777 1134 2 MP stroke
-64 -1 4777 1259 2 MP stroke
-56 -6 4777 1383 2 MP stroke
-55 15 4777 1507 2 MP stroke
-58 1 4777 1631 2 MP stroke
-58 12 4777 1756 2 MP stroke
-55 9 4777 1880 2 MP stroke
-49 9 4777 2004 2 MP stroke
-46 6 4777 2129 2 MP stroke
-52 3 4777 2253 2 MP stroke
-47 -62 4777 2377 2 MP stroke
-54 -8 4777 2502 2 MP stroke
-50 1 4777 2626 2 MP stroke
-54 12 4777 2750 2 MP stroke
-62 8 4777 2874 2 MP stroke
-55 12 4777 2999 2 MP stroke
-51 -2 4777 3123 2 MP stroke
-51 64 4777 3247 2 MP stroke
-59 13 4777 3372 2 MP stroke
-62 -6 4777 3496 2 MP stroke
-55 -36 4777 3620 2 MP stroke
-40 -43 4777 3744 2 MP stroke
-37 -18 4777 3869 2 MP stroke
-52 -2 4777 3993 2 MP stroke
-50 -5 4777 4117 2 MP stroke
-37 -7 4777 4242 2 MP stroke
-36 -10 4777 4366 2 MP stroke
-58 -9 4777 4490 2 MP stroke
4885 389 PD
-49 10 4885 513 2 MP stroke
-56 1 4885 637 2 MP stroke
-59 13 4885 761 2 MP stroke
-51 -1 4885 886 2 MP stroke
-60 17 4885 1010 2 MP stroke
-58 -72 4885 1134 2 MP stroke
-61 -96 4885 1259 2 MP stroke
-78 1 4885 1383 2 MP stroke
-50 22 4885 1507 2 MP stroke
-50 -22 4885 1631 2 MP stroke
-28 -12 4885 1756 2 MP stroke
-26 -42 4885 1880 2 MP stroke
-24 -18 4885 2004 2 MP stroke
-29 -8 4885 2129 2 MP stroke
-7 14 4885 2253 2 MP stroke
-21 -20 4885 2377 2 MP stroke
-23 9 4885 2502 2 MP stroke
-44 -44 4885 2626 2 MP stroke
-34 -5 4885 2750 2 MP stroke
-46 4 4885 2874 2 MP stroke
-42 4 4885 2999 2 MP stroke
-25 -1 4885 3123 2 MP stroke
-46 73 4885 3247 2 MP stroke
-33 37 4885 3372 2 MP stroke
-29 57 4885 3496 2 MP stroke
-25 -1 4885 3620 2 MP stroke
-16 -5 4885 3744 2 MP stroke
-27 -7 4885 3869 2 MP stroke
-27 -1 4885 3993 2 MP stroke
-22 -8 4885 4117 2 MP stroke
-29 -2 4885 4242 2 MP stroke
-22 -11 4885 4366 2 MP stroke
-31 -6 4885 4490 2 MP stroke
4992 389 PD
-63 7 4992 513 2 MP stroke
-51 -8 4992 637 2 MP stroke
-49 -6 4992 761 2 MP stroke
-39 -72 4992 886 2 MP stroke
-44 -61 4992 1010 2 MP stroke
-50 -103 4992 1134 2 MP stroke
-59 -126 4992 1259 2 MP stroke
-73 -96 4992 1383 2 MP stroke
-68 -20 4992 1507 2 MP stroke
-52 -81 4992 1631 2 MP stroke
-37 -88 4992 1756 2 MP stroke
-29 -70 4992 1880 2 MP stroke
-17 -40 4992 2004 2 MP stroke
-28 -19 4992 2129 2 MP stroke
-24 -8 4992 2253 2 MP stroke
-20 -1 4992 2377 2 MP stroke
-28 5 4992 2502 2 MP stroke
-25 -29 4992 2626 2 MP stroke
-38 -11 4992 2750 2 MP stroke
-37 -4 4992 2874 2 MP stroke
-40 4 4992 2999 2 MP stroke
-25 -1 4992 3123 2 MP stroke
-55 26 4992 3247 2 MP stroke
-23 -3 4992 3372 2 MP stroke
-32 7 4992 3496 2 MP stroke
-34 -8 4992 3620 2 MP stroke
-31 -6 4992 3744 2 MP stroke
-28 -5 4992 3869 2 MP stroke
-29 6 4992 3993 2 MP stroke
-31 -7 4992 4117 2 MP stroke
-34 -5 4992 4242 2 MP stroke
-31 -21 4992 4366 2 MP stroke
-32 2 4992 4490 2 MP stroke
-36 -6 5100 513 2 MP stroke
-9 -46 5100 637 2 MP stroke
-17 -12 5100 761 2 MP stroke
-14 -28 5100 886 2 MP stroke
-18 -87 5100 1010 2 MP stroke
-21 -87 5100 1134 2 MP stroke
-12 -62 5100 1259 2 MP stroke
-22 -17 5100 1383 2 MP stroke
-14 6 5100 1507 2 MP stroke
-14 -13 5100 1631 2 MP stroke
-12 -7 5100 1756 2 MP stroke
-8 -5 5100 1880 2 MP stroke
-9 -36 5100 2004 2 MP stroke
-7 -26 5100 2129 2 MP stroke
-9 -4 5100 2253 2 MP stroke
-10 -11 5100 2377 2 MP stroke
-12 -3 5100 2502 2 MP stroke
-7 -23 5100 2626 2 MP stroke
-9 -7 5100 2750 2 MP stroke
-18 -6 5100 2874 2 MP stroke
-20 5 5100 2999 2 MP stroke
-10 -3 5100 3123 2 MP stroke
-21 5 5100 3247 2 MP stroke
-15 -1 5100 3372 2 MP stroke
-22 9 5100 3496 2 MP stroke
-24 -8 5100 3620 2 MP stroke
-18 0 5100 3744 2 MP stroke
-24 -14 5100 3869 2 MP stroke
-27 4 5100 3993 2 MP stroke
-25 -11 5100 4117 2 MP stroke
-26 -8 5100 4242 2 MP stroke
-22 -13 5100 4366 2 MP stroke
-28 -2 5100 4490 2 MP stroke
-53 5 5208 389 2 MP stroke
-13 -35 5208 513 2 MP stroke
-20 -55 5208 637 2 MP stroke
-15 -22 5208 761 2 MP stroke
-21 -6 5208 886 2 MP stroke
-20 4 5208 1010 2 MP stroke
-21 -13 5208 1134 2 MP stroke
-17 -14 5208 1259 2 MP stroke
-22 -2 5208 1383 2 MP stroke
-14 9 5208 1507 2 MP stroke
-19 -10 5208 1631 2 MP stroke
-22 -3 5208 1756 2 MP stroke
-25 -58 5208 1880 2 MP stroke
-3 -8 5208 2004 2 MP stroke
-9 -11 5208 2129 2 MP stroke
-22 -7 5208 2253 2 MP stroke
-22 -9 5208 2377 2 MP stroke
-21 -6 5208 2502 2 MP stroke
-22 -15 5208 2626 2 MP stroke
-22 -8 5208 2750 2 MP stroke
-19 -3 5208 2874 2 MP stroke
-20 6 5208 2999 2 MP stroke
-22 -2 5208 3123 2 MP stroke
-21 6 5208 3247 2 MP stroke
-19 8 5208 3372 2 MP stroke
-23 8 5208 3496 2 MP stroke
-30 -11 5208 3620 2 MP stroke
-27 -9 5208 3744 2 MP stroke
-31 -5 5208 3869 2 MP stroke
-30 3 5208 3993 2 MP stroke
-34 -4 5208 4117 2 MP stroke
-36 -3 5208 4242 2 MP stroke
-38 -12 5208 4366 2 MP stroke
-33 -2 5208 4490 2 MP stroke
-14 -8 5316 886 2 MP stroke
-15 7 5316 1010 2 MP stroke
-6 -5 5316 1259 2 MP stroke
-6 -12 5316 1383 2 MP stroke
-7 10 5316 1507 2 MP stroke
-10 -7 5316 1631 2 MP stroke
-13 -14 5316 1756 2 MP stroke
-21 -45 5316 1880 2 MP stroke
-23 4 5316 2004 2 MP stroke
-6 -10 5316 2129 2 MP stroke
-6 0 5316 2253 2 MP stroke
-8 1 5316 2377 2 MP stroke
-10 9 5316 2502 2 MP stroke
-11 -17 5316 2626 2 MP stroke
-9 -4 5316 2750 2 MP stroke
-6 -8 5316 2874 2 MP stroke
-15 6 5316 2999 2 MP stroke
-11 -6 5316 3123 2 MP stroke
-20 -5 5316 3247 2 MP stroke
-8 -3 5316 3372 2 MP stroke
-18 8 5316 3496 2 MP stroke
-28 -8 5316 3620 2 MP stroke
-28 -7 5316 3744 2 MP stroke
-17 -7 5316 3869 2 MP stroke
-22 6 5316 3993 2 MP stroke
-30 -9 5316 4117 2 MP stroke
-24 2 5316 4242 2 MP stroke
-33 -4 5316 4366 2 MP stroke
-29 6 5316 4490 2 MP stroke
-21 -17 5423 1134 2 MP stroke
-15 -7 5423 1259 2 MP stroke
-15 -6 5423 1383 2 MP stroke
-11 17 5423 1507 2 MP stroke
-21 -9 5423 1631 2 MP stroke
-36 -30 5423 1756 2 MP stroke
-23 -16 5423 1880 2 MP stroke
-12 -3 5423 2004 2 MP stroke
-21 -4 5423 2129 2 MP stroke
-15 2 5423 2253 2 MP stroke
-22 -5 5423 2377 2 MP stroke
-20 6 5423 2502 2 MP stroke
-33 -16 5423 2626 2 MP stroke
-19 -8 5423 2750 2 MP stroke
-31 -8 5423 2874 2 MP stroke
-27 0 5423 2999 2 MP stroke
-19 -2 5423 3123 2 MP stroke
-24 -4 5423 3247 2 MP stroke
-20 -3 5423 3372 2 MP stroke
-18 3 5423 3496 2 MP stroke
-31 -7 5423 3620 2 MP stroke
-30 -9 5423 3744 2 MP stroke
-32 -7 5423 3869 2 MP stroke
-35 2 5423 3993 2 MP stroke
-37 -16 5423 4117 2 MP stroke
-37 -1 5423 4242 2 MP stroke
-35 -5 5423 4366 2 MP stroke
-40 -3 5423 4490 2 MP stroke
-10 -14 5531 1134 2 MP stroke
-13 0 5531 1259 2 MP stroke
-12 -7 5531 1383 2 MP stroke
-74 90 5531 1507 2 MP stroke
-10 -1 5531 1631 2 MP stroke
-23 -8 5531 1756 2 MP stroke
-20 -13 5531 1880 2 MP stroke
-8 1 5531 2004 2 MP stroke
-15 -13 5531 2129 2 MP stroke
-12 2 5531 2253 2 MP stroke
-19 21 5531 2377 2 MP stroke
-8 13 5531 2502 2 MP stroke
-13 -18 5531 2626 2 MP stroke
-15 -6 5531 2750 2 MP stroke
-16 -2 5531 2874 2 MP stroke
-15 9 5531 2999 2 MP stroke
-17 -1 5531 3123 2 MP stroke
-24 -3 5531 3247 2 MP stroke
-32 -6 5531 3372 2 MP stroke
-21 6 5531 3496 2 MP stroke
-25 -18 5531 3620 2 MP stroke
-28 1 5531 3744 2 MP stroke
-28 -4 5531 3869 2 MP stroke
-29 3 5531 3993 2 MP stroke
-25 -4 5531 4117 2 MP stroke
-28 3 5531 4242 2 MP stroke
-34 -3 5531 4366 2 MP stroke
-36 3 5531 4490 2 MP stroke
-18 -14 5639 1134 2 MP stroke
-14 -4 5639 1259 2 MP stroke
-23 -3 5639 1383 2 MP stroke
7 40 5639 1507 2 MP stroke
-18 1 5639 1631 2 MP stroke
-16 7 5639 1756 2 MP stroke
-18 -2 5639 1880 2 MP stroke
-19 -8 5639 2004 2 MP stroke
-16 -4 5639 2129 2 MP stroke
-14 -5 5639 2253 2 MP stroke
-14 -6 5639 2377 2 MP stroke
-19 10 5639 2502 2 MP stroke
-12 -14 5639 2626 2 MP stroke
-21 5 5639 2750 2 MP stroke
-16 -9 5639 2874 2 MP stroke
-18 2 5639 2999 2 MP stroke
-23 -4 5639 3123 2 MP stroke
-22 7 5639 3247 2 MP stroke
-19 -4 5639 3372 2 MP stroke
-33 4 5639 3496 2 MP stroke
-36 -18 5639 3620 2 MP stroke
-30 6 5639 3744 2 MP stroke
-32 -7 5639 3869 2 MP stroke
-34 8 5639 3993 2 MP stroke
-37 -18 5639 4117 2 MP stroke
-34 -2 5639 4242 2 MP stroke
-35 -8 5639 4366 2 MP stroke
-35 5 5639 4490 2 MP stroke
-16 2 5747 513 2 MP stroke
-8 6 5747 1010 2 MP stroke
-7 -3 5747 1134 2 MP stroke
-10 -2 5747 1259 2 MP stroke
-8 -1 5747 1383 2 MP stroke
86 40 5747 1507 2 MP stroke
-3 10 5747 1631 2 MP stroke
-14 2 5747 1756 2 MP stroke
-14 -14 5747 1880 2 MP stroke
-15 -3 5747 2004 2 MP stroke
-25 -13 5747 2129 2 MP stroke
-22 -9 5747 2253 2 MP stroke
2 -19 5747 2377 2 MP stroke
-10 2 5747 2502 2 MP stroke
-9 -10 5747 2626 2 MP stroke
-16 0 5747 2750 2 MP stroke
-8 -7 5747 2874 2 MP stroke
-14 4 5747 2999 2 MP stroke
-16 -11 5747 3123 2 MP stroke
-18 5 5747 3247 2 MP stroke
-12 -11 5747 3372 2 MP stroke
-27 -7 5747 3496 2 MP stroke
-5 -18 5747 3620 2 MP stroke
-30 -8 5747 3744 2 MP stroke
-24 -7 5747 3869 2 MP stroke
-30 3 5747 3993 2 MP stroke
-23 -16 5747 4117 2 MP stroke
-30 -10 5747 4242 2 MP stroke
-30 -1 5747 4366 2 MP stroke
-28 4 5747 4490 2 MP stroke
-24 -3 5854 1010 2 MP stroke
-18 -1 5854 1134 2 MP stroke
-16 0 5854 1259 2 MP stroke
-22 -2 5854 1383 2 MP stroke
-26 4 5854 1507 2 MP stroke
-22 -4 5854 1631 2 MP stroke
-15 -5 5854 1756 2 MP stroke
-17 -9 5854 1880 2 MP stroke
-25 -1 5854 2004 2 MP stroke
-16 -19 5854 2129 2 MP stroke
-19 -6 5854 2253 2 MP stroke
-23 -2 5854 2377 2 MP stroke
-35 9 5854 2502 2 MP stroke
-19 -6 5854 2626 2 MP stroke
-26 -5 5854 2750 2 MP stroke
-29 -10 5854 2874 2 MP stroke
-33 3 5854 2999 2 MP stroke
-26 -12 5854 3123 2 MP stroke
-26 7 5854 3247 2 MP stroke
-26 -7 5854 3372 2 MP stroke
-33 1 5854 3496 2 MP stroke
-32 -14 5854 3620 2 MP stroke
-29 -1 5854 3744 2 MP stroke
-33 -6 5854 3869 2 MP stroke
-38 5 5854 3993 2 MP stroke
-30 -9 5854 4117 2 MP stroke
-36 -5 5854 4242 2 MP stroke
-39 -3 5854 4366 2 MP stroke
-45 5 5854 4490 2 MP stroke
-42 3 5962 513 2 MP stroke
-8 -10 5962 1134 2 MP stroke
-17 -7 5962 1259 2 MP stroke
-18 -11 5962 1383 2 MP stroke
-13 -1 5962 1507 2 MP stroke
-17 -2 5962 1631 2 MP stroke
-11 -1 5962 1756 2 MP stroke
-10 -9 5962 1880 2 MP stroke
-8 5 5962 2004 2 MP stroke
-14 -13 5962 2129 2 MP stroke
-7 -7 5962 2253 2 MP stroke
-13 -4 5962 2377 2 MP stroke
-22 -4 5962 2502 2 MP stroke
-18 -9 5962 2626 2 MP stroke
-14 -4 5962 2750 2 MP stroke
-15 -8 5962 2874 2 MP stroke
-19 -7 5962 2999 2 MP stroke
-20 -6 5962 3123 2 MP stroke
-24 -6 5962 3247 2 MP stroke
-20 -5 5962 3372 2 MP stroke
-21 3 5962 3496 2 MP stroke
-26 -17 5962 3620 2 MP stroke
-26 0 5962 3744 2 MP stroke
-29 -2 5962 3869 2 MP stroke
-25 1 5962 3993 2 MP stroke
-32 -6 5962 4117 2 MP stroke
-32 -5 5962 4242 2 MP stroke
-25 -6 5962 4366 2 MP stroke
-69 6 5962 4490 2 MP stroke
-24 -12 6070 513 2 MP stroke
-17 0 6070 1010 2 MP stroke
-18 -9 6070 1134 2 MP stroke
-21 -5 6070 1259 2 MP stroke
-20 -11 6070 1383 2 MP stroke
-21 8 6070 1507 2 MP stroke
-22 -11 6070 1631 2 MP stroke
-13 -8 6070 1756 2 MP stroke
-14 -3 6070 1880 2 MP stroke
-21 5 6070 2004 2 MP stroke
-20 4 6070 2129 2 MP stroke
-22 -8 6070 2253 2 MP stroke
-14 -8 6070 2377 2 MP stroke
-20 6 6070 2502 2 MP stroke
-23 -19 6070 2626 2 MP stroke
-16 -2 6070 2750 2 MP stroke
-24 -5 6070 2874 2 MP stroke
-17 3 6070 2999 2 MP stroke
-20 -17 6070 3123 2 MP stroke
-25 -5 6070 3247 2 MP stroke
-21 -6 6070 3372 2 MP stroke
-24 5 6070 3496 2 MP stroke
-28 -19 6070 3620 2 MP stroke
-28 -3 6070 3744 2 MP stroke
-35 -1 6070 3869 2 MP stroke
-34 3 6070 3993 2 MP stroke
-39 -14 6070 4117 2 MP stroke
-41 -5 6070 4242 2 MP stroke
-35 -10 6070 4366 2 MP stroke
-66 1 6070 4490 2 MP stroke
-9 -1 6178 1010 2 MP stroke
-12 -3 6178 1134 2 MP stroke
-8 -8 6178 1259 2 MP stroke
-14 -15 6178 1383 2 MP stroke
-12 6 6178 1507 2 MP stroke
-11 -13 6178 1631 2 MP stroke
-4 -10 6178 1756 2 MP stroke
-60 11 6178 1880 2 MP stroke
-14 2 6178 2004 2 MP stroke
-10 -9 6178 2129 2 MP stroke
-7 -7 6178 2253 2 MP stroke
-15 -5 6178 2377 2 MP stroke
-9 1 6178 2502 2 MP stroke
-13 -12 6178 2626 2 MP stroke
-14 -9 6178 2750 2 MP stroke
-9 -7 6178 2874 2 MP stroke
-15 -3 6178 2999 2 MP stroke
-15 -5 6178 3123 2 MP stroke
-23 1 6178 3247 2 MP stroke
-13 -10 6178 3372 2 MP stroke
-27 7 6178 3496 2 MP stroke
-24 -17 6178 3620 2 MP stroke
-26 7 6178 3744 2 MP stroke
-21 -8 6178 3869 2 MP stroke
-28 0 6178 3993 2 MP stroke
-28 -6 6178 4117 2 MP stroke
-30 10 6178 4242 2 MP stroke
-35 -8 6178 4366 2 MP stroke
-49 -7 6178 4490 2 MP stroke
gr

c8

end %%Color Dict

eplot
%%EndObject

epage
end

showpage

%%Trailer
%%EOF
