%!PS-Adobe-2.0 EPSF-1.2
%%Creator: MATLAB, The MathWorks, Inc. Version 8.3.0.532 (R2014a). Operating System: Linux 3.19.0-31-generic #36~14.04.1-Ubuntu SMP Thu Oct 8 10:21:08 UTC 2015 x86_64.
%%Title: ../../data/output/p4/win_size5n_level2n_iter3min_eig0.0001.eps
%%CreationDate: 11/22/2015  18:49:57
%%DocumentNeededFonts: Helvetica
%%DocumentProcessColors: Cyan Magenta Yellow Black
%%Extensions: CMYK
%%Pages: 1
%%BoundingBox:    78   215   548   583
%%EndComments

%%BeginProlog
% MathWorks dictionary
/MathWorks 160 dict begin
% definition operators
/bdef {bind def} bind def
/ldef {load def} bind def
/xdef {exch def} bdef
/xstore {exch store} bdef
% operator abbreviations
/c  /clip ldef
/cc /concat ldef
/cp /closepath ldef
/gr /grestore ldef
/gs /gsave ldef
/mt /moveto ldef
/np /newpath ldef
/cm /currentmatrix ldef
/sm /setmatrix ldef
/rm /rmoveto ldef
/rl /rlineto ldef
/s {show newpath} bdef
/sc {setcmykcolor} bdef
/sr /setrgbcolor ldef
/sg /setgray ldef
/w /setlinewidth ldef
/j /setlinejoin ldef
/cap /setlinecap ldef
/rc {rectclip} bdef
/rf {rectfill} bdef
% page state control
/pgsv () def
/bpage {/pgsv save def} bdef
/epage {pgsv restore} bdef
/bplot /gsave ldef
/eplot {stroke grestore} bdef
% orientation switch
/portraitMode 0 def /landscapeMode 1 def /rotateMode 2 def
% coordinate system mappings
/dpi2point 0 def
% font control
/FontSize 0 def
/FMS {/FontSize xstore findfont [FontSize 0 0 FontSize neg 0 0]
  makefont setfont} bdef
/reencode {exch dup where {pop load} {pop StandardEncoding} ifelse
  exch dup 3 1 roll findfont dup length dict begin
  { 1 index /FID ne {def}{pop pop} ifelse } forall
  /Encoding exch def currentdict end definefont pop} bdef
/isroman {findfont /CharStrings get /Agrave known} bdef
/FMSR {3 1 roll 1 index dup isroman {reencode} {pop pop} ifelse
  exch FMS} bdef
/csm {1 dpi2point div -1 dpi2point div scale neg translate
 dup landscapeMode eq {pop -90 rotate}
  {rotateMode eq {90 rotate} if} ifelse} bdef
% line types: solid, dotted, dashed, dotdash
/SO { [] 0 setdash } bdef
/DO { [.5 dpi2point mul 4 dpi2point mul] 0 setdash } bdef
/DA { [6 dpi2point mul] 0 setdash } bdef
/DD { [.5 dpi2point mul 4 dpi2point mul 6 dpi2point mul 4
  dpi2point mul] 0 setdash } bdef
% macros for lines and objects
/L {lineto stroke} bdef
/MP {3 1 roll moveto 1 sub {rlineto} repeat} bdef
/AP {{rlineto} repeat} bdef
/PDlw -1 def
/W {/PDlw currentlinewidth def setlinewidth} def
/PP {closepath eofill} bdef
/DP {closepath stroke} bdef
/MR {4 -2 roll moveto dup  0 exch rlineto exch 0 rlineto
  neg 0 exch rlineto closepath} bdef
/FR {MR stroke} bdef
/PR {MR fill} bdef
/L1i {{currentfile picstr readhexstring pop} image} bdef
/tMatrix matrix def
/MakeOval {newpath tMatrix currentmatrix pop translate scale
0 0 1 0 360 arc tMatrix setmatrix} bdef
/FO {MakeOval stroke} bdef
/PO {MakeOval fill} bdef
/PD {currentlinewidth 2 div 0 360 arc fill
   PDlw -1 eq not {PDlw w /PDlw -1 def} if} def
/FA {newpath tMatrix currentmatrix pop translate scale
  0 0 1 5 -2 roll arc tMatrix setmatrix stroke} bdef
/PA {newpath tMatrix currentmatrix pop	translate 0 0 moveto scale
  0 0 1 5 -2 roll arc closepath tMatrix setmatrix fill} bdef
/FAn {newpath tMatrix currentmatrix pop translate scale
  0 0 1 5 -2 roll arcn tMatrix setmatrix stroke} bdef
/PAn {newpath tMatrix currentmatrix pop translate 0 0 moveto scale
  0 0 1 5 -2 roll arcn closepath tMatrix setmatrix fill} bdef
/vradius 0 def /hradius 0 def /lry 0 def
/lrx 0 def /uly 0 def /ulx 0 def /rad 0 def
/MRR {/vradius xdef /hradius xdef /lry xdef /lrx xdef /uly xdef
  /ulx xdef newpath tMatrix currentmatrix pop ulx hradius add uly
  vradius add translate hradius vradius scale 0 0 1 180 270 arc 
  tMatrix setmatrix lrx hradius sub uly vradius add translate
  hradius vradius scale 0 0 1 270 360 arc tMatrix setmatrix
  lrx hradius sub lry vradius sub translate hradius vradius scale
  0 0 1 0 90 arc tMatrix setmatrix ulx hradius add lry vradius sub
  translate hradius vradius scale 0 0 1 90 180 arc tMatrix setmatrix
  closepath} bdef
/FRR {MRR stroke } bdef
/PRR {MRR fill } bdef
/MlrRR {/lry xdef /lrx xdef /uly xdef /ulx xdef /rad lry uly sub 2 div def
  newpath tMatrix currentmatrix pop ulx rad add uly rad add translate
  rad rad scale 0 0 1 90 270 arc tMatrix setmatrix lrx rad sub lry rad
  sub translate rad rad scale 0 0 1 270 90 arc tMatrix setmatrix
  closepath} bdef
/FlrRR {MlrRR stroke } bdef
/PlrRR {MlrRR fill } bdef
/MtbRR {/lry xdef /lrx xdef /uly xdef /ulx xdef /rad lrx ulx sub 2 div def
  newpath tMatrix currentmatrix pop ulx rad add uly rad add translate
  rad rad scale 0 0 1 180 360 arc tMatrix setmatrix lrx rad sub lry rad
  sub translate rad rad scale 0 0 1 0 180 arc tMatrix setmatrix
  closepath} bdef
/FtbRR {MtbRR stroke } bdef
/PtbRR {MtbRR fill } bdef
/stri 6 array def /dtri 6 array def
/smat 6 array def /dmat 6 array def
/tmat1 6 array def /tmat2 6 array def /dif 3 array def
/asub {/ind2 exch def /ind1 exch def dup dup
  ind1 get exch ind2 get sub exch } bdef
/tri_to_matrix {
  2 0 asub 3 1 asub 4 0 asub 5 1 asub
  dup 0 get exch 1 get 7 -1 roll astore } bdef
/compute_transform {
  dmat dtri tri_to_matrix tmat1 invertmatrix 
  smat stri tri_to_matrix tmat2 concatmatrix } bdef
/ds {stri astore pop} bdef
/dt {dtri astore pop} bdef
/db {2 copy /cols xdef /rows xdef mul dup 3 mul string
  currentfile exch readhexstring pop
  dup 0 3 index getinterval /rbmap xdef
  dup 2 index dup getinterval /gbmap xdef
  1 index dup 2 mul exch getinterval /bbmap xdef pop pop}bdef
/it {gs np dtri aload pop moveto lineto lineto cp c
  cols rows 8 compute_transform 
  rbmap gbmap bbmap true 3 colorimage gr}bdef
/il {newpath moveto lineto stroke}bdef
currentdict end def
%%EndProlog

%%BeginSetup
MathWorks begin

0 cap

end
%%EndSetup

%%Page: 1 1
%%BeginPageSetup
%%PageBoundingBox:    78   215   548   583
MathWorks begin
bpage
%%EndPageSetup

%%BeginObject: obj1
bplot

/dpi2point 12 def
portraitMode 0216 7344 csm

  731   341  5640  4420 MR c np
85 dict begin %Colortable dictionary
/c0 { 0.000000 0.000000 0.000000 sr} bdef
/c1 { 1.000000 1.000000 1.000000 sr} bdef
/c2 { 0.900000 0.000000 0.000000 sr} bdef
/c3 { 0.000000 0.820000 0.000000 sr} bdef
/c4 { 0.000000 0.000000 0.800000 sr} bdef
/c5 { 0.910000 0.820000 0.320000 sr} bdef
/c6 { 1.000000 0.260000 0.820000 sr} bdef
/c7 { 0.000000 0.820000 0.820000 sr} bdef
c0
1 j
1 sg
   0    0 6913 5186 PR
6 w
0 -4226 5356 0 0 4226 899 389 4 MP
PP
-5356 0 0 -4226 5356 0 0 4226 899 389 5 MP stroke
4 w
DO
SO
6 w
0 sg
 899  389 mt 6255  389 L
 899 4615 mt 6255 4615 L
 899  389 mt  899 4615 L
6255  389 mt 6255 4615 L
 899 4615 mt 6255 4615 L
 899  389 mt  899 4615 L
1406 4615 mt 1406 4561 L
1406  389 mt 1406  442 L
%%IncludeResource: font Helvetica
/Helvetica /ISOLatin1Encoding 120 FMSR

1373 4760 mt 
(5) s
1945 4615 mt 1945 4561 L
1945  389 mt 1945  442 L
1879 4760 mt 
(10) s
2484 4615 mt 2484 4561 L
2484  389 mt 2484  442 L
2418 4760 mt 
(15) s
3022 4615 mt 3022 4561 L
3022  389 mt 3022  442 L
2956 4760 mt 
(20) s
3561 4615 mt 3561 4561 L
3561  389 mt 3561  442 L
3495 4760 mt 
(25) s
4100 4615 mt 4100 4561 L
4100  389 mt 4100  442 L
4034 4760 mt 
(30) s
4638 4615 mt 4638 4561 L
4638  389 mt 4638  442 L
4572 4760 mt 
(35) s
5177 4615 mt 5177 4561 L
5177  389 mt 5177  442 L
5111 4760 mt 
(40) s
5716 4615 mt 5716 4561 L
5716  389 mt 5716  442 L
5650 4760 mt 
(45) s
6255 4615 mt 6255 4561 L
6255  389 mt 6255  442 L
6189 4760 mt 
(50) s
 899  974 mt  952  974 L
6255  974 mt 6201  974 L
 798 1018 mt 
(5) s
 899 1596 mt  952 1596 L
6255 1596 mt 6201 1596 L
 731 1640 mt 
(10) s
 899 2217 mt  952 2217 L
6255 2217 mt 6201 2217 L
 731 2261 mt 
(15) s
 899 2839 mt  952 2839 L
6255 2839 mt 6201 2839 L
 731 2883 mt 
(20) s
 899 3460 mt  952 3460 L
6255 3460 mt 6201 3460 L
 731 3504 mt 
(25) s
 899 4082 mt  952 4082 L
6255 4082 mt 6201 4082 L
 731 4126 mt 
(30) s
 899  389 mt 6255  389 L
 899 4615 mt 6255 4615 L
 899  389 mt  899 4615 L
6255  389 mt 6255 4615 L
gs 899 389 5357 4227 MR c np
/c8 { 0.000000 0.000000 1.000000 sr} bdef
c8
9 0 -8 5 988 515 3 MP stroke
3 8 -6 -5 999 622 3 MP stroke
0 11 -5 -10 1004 864 3 MP stroke
9 4 -10 1 988 1003 3 MP stroke
10 3 -10 2 986 1130 3 MP stroke
8 6 -9 -1 989 1249 3 MP stroke
2 4 -3 -3 1001 1376 3 MP stroke
9 4 -10 2 987 1502 3 MP stroke
12 11 -15 -3 980 1613 3 MP stroke
4 6 -6 -3 998 2365 3 MP stroke
5 3 -6 1 996 2497 3 MP stroke
6 2 -6 1 995 2623 3 MP stroke
4 7 -6 -4 998 2737 3 MP stroke
3 7 -5 -4 999 2862 3 MP stroke
5 2 -5 1 996 2997 3 MP stroke
4 3 -5 0 997 3118 3 MP stroke
3 4 -4 -2 999 3241 3 MP stroke
2 6 -4 -4 1000 3362 3 MP stroke
4 5 -5 -2 997 3488 3 MP stroke
6 4 -7 -1 995 3613 3 MP stroke
6 4 -7 0 994 3739 3 MP stroke
3 3 -4 -1 999 3865 3 MP stroke
9 3 -9 2 990 3991 3 MP stroke
5 8 -8 -4 995 4102 3 MP stroke
8 3 -8 2 991 4238 3 MP stroke
6 6 -8 -2 992 4357 3 MP stroke
9 0 -9 4 989 4492 3 MP stroke
11 3 1071 389 2 MP stroke
13 3 -13 4 1087 510 3 MP stroke
19 6 -19 5 1074 631 3 MP stroke
11 8 -13 -1 1089 873 3 MP stroke
15 -1 -12 9 1086 1017 3 MP stroke
9 12 -13 -5 1093 1114 3 MP stroke
14 6 -15 3 1085 1252 3 MP stroke
10 11 -13 -4 1091 1366 3 MP stroke
13 5 -14 3 1086 1501 3 MP stroke
11 8 -13 -1 1089 1618 3 MP stroke
8 3 -9 1 1098 2374 3 MP stroke
5 5 -6 -1 1103 2494 3 MP stroke
8 5 -9 0 1098 2618 3 MP stroke
7 7 -9 -3 1099 2738 3 MP stroke
8 8 -10 -3 1097 2861 3 MP stroke
6 5 -7 -2 1102 2991 3 MP stroke
5 6 -6 -3 1103 3114 3 MP stroke
6 4 -7 -1 1101 3240 3 MP stroke
5 4 -6 -1 1103 3365 3 MP stroke
5 4 -6 -1 1104 3487 3 MP stroke
9 5 -10 0 1096 3612 3 MP stroke
11 4 -11 3 1091 3740 3 MP stroke
12 6 -13 1 1091 3859 3 MP stroke
12 4 -12 3 1090 3989 3 MP stroke
14 8 -15 1 1084 4105 3 MP stroke
15 4 -15 4 1085 4237 3 MP stroke
12 7 -13 1 1089 4356 3 MP stroke
15 2 -14 6 1085 4489 3 MP stroke
17 -1 -15 10 1189 519 3 MP stroke
11 4 -11 3 1199 633 3 MP stroke
13 -2 -11 9 1195 767 3 MP stroke
12 5 -13 2 1197 879 3 MP stroke
11 1 -11 5 1200 1011 3 MP stroke
8 8 -11 -3 1205 1121 3 MP stroke
6 7 -8 -3 1208 1370 3 MP stroke
8 6 -9 -1 1205 1498 3 MP stroke
9 8 -11 -2 1203 1618 3 MP stroke
6 6 -8 -2 1207 2490 3 MP stroke
7 8 -10 -3 1207 2611 3 MP stroke
10 6 -11 1 1200 2742 3 MP stroke
6 8 -8 -4 1209 2862 3 MP stroke
5 5 -6 -2 1212 2990 3 MP stroke
3 6 -5 -3 1214 3113 3 MP stroke
1 4 -3 -3 1218 3239 3 MP stroke
3 4 -5 -2 1214 3365 3 MP stroke
4 4 -5 -1 1212 3491 3 MP stroke
7 6 -9 -1 1206 3612 3 MP stroke
7 5 -8 -1 1207 3737 3 MP stroke
10 4 -10 2 1202 3863 3 MP stroke
7 2 -7 2 1207 3991 3 MP stroke
8 7 -10 -2 1205 4104 3 MP stroke
7 2 -7 2 1207 4241 3 MP stroke
8 5 -9 0 1205 4359 3 MP stroke
11 2 -11 4 1199 4488 3 MP stroke
14 2 -13 6 1300 513 3 MP stroke
11 4 -11 2 1306 631 3 MP stroke
9 4 -10 1 1311 757 3 MP stroke
12 9 -14 -1 1303 871 3 MP stroke
13 3 -13 5 1302 1009 3 MP stroke
18 13 -21 -1 1290 1113 3 MP stroke
15 2 -14 6 1301 1258 3 MP stroke
2 1 -2 0 1325 1506 3 MP stroke
6 4 -7 0 1319 2495 3 MP stroke
7 10 -10 -4 1313 2608 3 MP stroke
4 7 -7 -3 1319 2738 3 MP stroke
5 6 -7 -2 1317 2864 3 MP stroke
6 4 -7 0 1316 2992 3 MP stroke
6 6 -8 -2 1316 3111 3 MP stroke
7 3 -8 1 1315 3243 3 MP stroke
5 5 -6 -2 1318 3364 3 MP stroke
5 5 -6 -1 1317 3489 3 MP stroke
6 5 -7 -1 1316 3614 3 MP stroke
9 6 -10 0 1312 3736 3 MP stroke
8 4 -9 1 1312 3862 3 MP stroke
12 4 -12 3 1306 3987 3 MP stroke
12 6 -12 1 1305 4110 3 MP stroke
10 6 -11 0 1308 4233 3 MP stroke
10 10 -13 -3 1308 4350 3 MP stroke
13 2 -12 5 1303 4490 3 MP stroke
14 -1 -12 8 1412 519 3 MP stroke
10 6 -11 0 1418 627 3 MP stroke
12 4 -12 3 1412 756 3 MP stroke
6 4 -7 -1 1425 880 3 MP stroke
10 1 -9 5 1416 1010 3 MP stroke
9 6 -10 0 1418 1125 3 MP stroke
7 0 -6 4 1423 1260 3 MP stroke
-4 0 4 -2 1445 1382 3 MP stroke
4 6 -6 -3 1427 2492 3 MP stroke
4 4 -5 -1 1427 2619 3 MP stroke
2 2 -2 -1 1434 3120 3 MP stroke
5 2 -5 1 1426 3244 3 MP stroke
2 3 -3 -1 1432 3366 3 MP stroke
2 3 -3 -1 1432 3490 3 MP stroke
4 3 -5 0 1427 3615 3 MP stroke
5 5 -7 -2 1427 3735 3 MP stroke
4 5 -5 -2 1428 3861 3 MP stroke
8 5 -9 0 1421 3984 3 MP stroke
8 6 -9 -1 1420 4109 3 MP stroke
9 6 -10 0 1419 4233 3 MP stroke
11 3 -11 3 1416 4361 3 MP stroke
11 4 -11 3 1415 4486 3 MP stroke
6 2 1503 389 2 MP stroke
13 3 -13 5 1519 511 3 MP stroke
13 4 -13 4 1519 633 3 MP stroke
14 1 -13 7 1517 764 3 MP stroke
12 6 -13 2 1519 878 3 MP stroke
13 3 -13 4 1519 1007 3 MP stroke
16 4 -16 5 1514 1131 3 MP stroke
15 4 -15 5 1514 1255 3 MP stroke
16 7 -17 2 1514 1373 3 MP stroke
18 9 -20 1 1508 1494 3 MP stroke
4 9 -7 -6 1534 3108 3 MP stroke
8 3 -8 2 1529 3244 3 MP stroke
6 3 -6 1 1532 3367 3 MP stroke
8 4 -8 0 1530 3491 3 MP stroke
9 4 -10 2 1526 3616 3 MP stroke
8 4 -9 2 1527 3739 3 MP stroke
10 5 -11 1 1524 3862 3 MP stroke
12 5 -12 2 1521 3987 3 MP stroke
12 4 -13 3 1521 4111 3 MP stroke
13 6 -14 1 1519 4234 3 MP stroke
11 3 -11 3 1522 4362 3 MP stroke
12 3 -12 4 1521 4487 3 MP stroke
10 -2 -7 7 1634 521 3 MP stroke
9 7 -10 -2 1634 627 3 MP stroke
10 1 -9 5 1632 764 3 MP stroke
11 3 -11 3 1630 883 3 MP stroke
13 -1 -11 8 1628 1016 3 MP stroke
7 7 -9 -2 1637 1123 3 MP stroke
9 0 -8 5 1634 1261 3 MP stroke
10 3 -11 3 1631 1379 3 MP stroke
8 6 -10 -1 1635 1497 3 MP stroke
16 -15 -7 22 1624 2536 3 MP stroke
3 1 -3 1 1645 2623 3 MP stroke
6 1 -5 2 1640 2750 3 MP stroke
6 2 -6 1 1641 3120 3 MP stroke
9 4 -9 1 1635 3241 3 MP stroke
8 4 -8 1 1636 3367 3 MP stroke
7 2 -7 2 1639 3494 3 MP stroke
9 3 -9 2 1636 3617 3 MP stroke
8 3 -9 2 1636 3739 3 MP stroke
7 5 -9 -1 1637 3861 3 MP stroke
8 5 -9 0 1636 3986 3 MP stroke
7 3 -8 1 1638 4112 3 MP stroke
8 5 -9 0 1638 4235 3 MP stroke
6 7 -9 -3 1638 4353 3 MP stroke
9 5 -10 0 1635 4482 3 MP stroke
8 5 -10 0 1635 4607 3 MP stroke
10 2 -10 4 1739 512 3 MP stroke
14 12 -17 -3 1730 617 3 MP stroke
15 2 -14 6 1732 762 3 MP stroke
18 7 -19 4 1723 877 3 MP stroke
13 0 -11 7 1736 1013 3 MP stroke
14 5 -15 3 1730 1128 3 MP stroke
16 0 -14 8 1730 1263 3 MP stroke
10 0 -9 6 1739 1386 3 MP stroke
6 4 -7 -1 1749 1500 3 MP stroke
9 5 -10 0 1743 1622 3 MP stroke
9 -2 -7 7 1744 2509 3 MP stroke
8 6 -9 -1 1742 2617 3 MP stroke
7 -2 -6 5 1747 2755 3 MP stroke
7 -1 -6 4 1746 2877 3 MP stroke
6 2 -6 1 1748 2996 3 MP stroke
6 4 -6 0 1748 3117 3 MP stroke
7 3 -7 0 1747 3242 3 MP stroke
5 4 -6 -1 1749 3365 3 MP stroke
10 4 -11 2 1741 3490 3 MP stroke
10 4 -10 2 1740 3615 3 MP stroke
6 5 -7 0 1746 3737 3 MP stroke
9 5 -10 0 1743 3862 3 MP stroke
9 6 -10 -1 1743 3984 3 MP stroke
12 11 -15 -3 1736 4100 3 MP stroke
14 3 -14 5 1732 4240 3 MP stroke
10 5 -11 1 1740 4358 3 MP stroke
11 6 -12 1 1737 4482 3 MP stroke
2 0 -2 2 1862 512 3 MP stroke
12 7 -14 0 1843 626 3 MP stroke
7 3 -8 1 1853 758 3 MP stroke
9 3 -9 3 1850 882 3 MP stroke
11 0 -10 6 1846 1012 3 MP stroke
9 5 -10 1 1849 1127 3 MP stroke
12 1 -11 6 1844 1260 3 MP stroke
9 4 -10 2 1848 1376 3 MP stroke
4 4 -5 -1 1861 1501 3 MP stroke
3 3 -4 -1 1862 1627 3 MP stroke
4 9 -8 -6 1858 2609 3 MP stroke
2 0 -2 1 1863 2751 3 MP stroke
4 1 -4 1 1860 2872 3 MP stroke
2 -2 -1 4 1863 3003 3 MP stroke
2 7 -5 -5 1862 3111 3 MP stroke
3 3 -4 -1 1861 3242 3 MP stroke
6 5 -7 -1 1857 3363 3 MP stroke
6 3 -6 0 1857 3491 3 MP stroke
3 3 -3 -1 1862 3616 3 MP stroke
3 4 -4 -1 1861 3737 3 MP stroke
5 5 -6 -2 1858 3860 3 MP stroke
6 6 -8 -2 1855 3984 3 MP stroke
7 7 -9 -2 1852 4107 3 MP stroke
9 5 -10 1 1849 4233 3 MP stroke
9 7 -11 -2 1849 4355 3 MP stroke
7 6 -9 -1 1853 4480 3 MP stroke
7 6 -9 -1 1852 4605 3 MP stroke
11 1 -10 4 1955 513 3 MP stroke
20 7 -20 4 1935 628 3 MP stroke
12 3 -11 4 1952 759 3 MP stroke
14 3 -14 5 1948 884 3 MP stroke
15 4 -15 5 1945 1008 3 MP stroke
12 6 -13 1 1951 1125 3 MP stroke
12 6 -13 2 1949 1251 3 MP stroke
13 5 -13 3 1948 1377 3 MP stroke
11 5 -12 2 1952 1501 3 MP stroke
2 4 -4 -3 1971 1625 3 MP stroke
8 7 -10 -2 1960 2490 3 MP stroke
9 5 -10 0 1958 2619 3 MP stroke
7 3 -8 1 1961 2746 3 MP stroke
5 7 -7 -3 1963 2862 3 MP stroke
6 1 -6 2 1965 2998 3 MP stroke
6 3 -6 1 1963 3119 3 MP stroke
5 5 -7 -1 1965 3239 3 MP stroke
7 4 -8 0 1962 3364 3 MP stroke
9 4 -10 1 1958 3490 3 MP stroke
10 5 -11 1 1956 3613 3 MP stroke
10 6 -11 0 1954 3737 3 MP stroke
12 7 -13 1 1951 3859 3 MP stroke
13 6 -14 2 1949 3985 3 MP stroke
14 6 -15 2 1948 4110 3 MP stroke
12 5 -12 1 1952 4235 3 MP stroke
10 7 -12 0 1953 4355 3 MP stroke
14 4 -14 3 1949 4485 3 MP stroke
10 9 -12 -2 1955 4601 3 MP stroke
10 2 -1 0 2054 389 3 MP stroke
13 0 -11 7 2059 517 3 MP stroke
10 4 -11 2 2063 632 3 MP stroke
12 -1 -10 7 2060 766 3 MP stroke
10 2 -9 4 2063 885 3 MP stroke
15 0 -14 8 2055 1012 3 MP stroke
12 5 -13 2 2059 1127 3 MP stroke
4 -2 -2 4 2075 1265 3 MP stroke
7 2 -7 2 2070 1380 3 MP stroke
4 4 -5 -1 2075 1500 3 MP stroke
6 5 -7 -1 2072 1623 3 MP stroke
4 0 -3 2 2076 2380 3 MP stroke
6 1 -6 2 2072 2502 3 MP stroke
5 7 -7 -3 2072 2614 3 MP stroke
4 2 -4 1 2076 2747 3 MP stroke
2 4 -3 -2 2079 2867 3 MP stroke
1 2 -2 -1 2081 2995 3 MP stroke
2 4 -3 -3 2079 3116 3 MP stroke
4 4 -5 -2 2076 3239 3 MP stroke
7 4 -7 0 2070 3367 3 MP stroke
6 3 -7 1 2071 3490 3 MP stroke
6 4 -7 0 2071 3614 3 MP stroke
7 5 -8 0 2069 3738 3 MP stroke
9 5 -10 0 2066 3861 3 MP stroke
8 4 -8 1 2067 3987 3 MP stroke
8 6 -9 -1 2067 4110 3 MP stroke
10 5 -11 1 2062 4235 3 MP stroke
9 5 -10 1 2064 4358 3 MP stroke
8 4 -9 1 2068 4484 3 MP stroke
10 5 -11 1 2063 4608 3 MP stroke
17 -1 -14 9 2159 519 3 MP stroke
11 7 -12 0 2168 626 3 MP stroke
14 3 -14 5 2163 758 3 MP stroke
13 3 -13 4 2165 884 3 MP stroke
13 8 -15 1 2163 999 3 MP stroke
15 6 -15 3 2161 1128 3 MP stroke
16 2 -15 8 2158 1259 3 MP stroke
9 1 -8 4 2174 1382 3 MP stroke
10 5 -11 1 2170 1625 3 MP stroke
5 4 -5 -1 2181 2371 3 MP stroke
7 0 -6 4 2178 2503 3 MP stroke
8 7 -10 -2 2173 2614 3 MP stroke
6 4 -7 -1 2178 2743 3 MP stroke
7 6 -8 -2 2176 2864 3 MP stroke
5 4 -6 -1 2179 2992 3 MP stroke
6 5 -7 -1 2179 3114 3 MP stroke
6 6 -8 -2 2177 3238 3 MP stroke
5 3 -5 1 2180 3368 3 MP stroke
7 3 -8 1 2178 3492 3 MP stroke
6 3 -7 1 2179 3615 3 MP stroke
10 5 -11 0 2172 3737 3 MP stroke
7 7 -9 -3 2177 3855 3 MP stroke
9 3 -9 2 2173 3988 3 MP stroke
8 10 -11 -4 2172 4100 3 MP stroke
10 3 -10 2 2172 4237 3 MP stroke
12 6 -13 1 2167 4357 3 MP stroke
12 3 -12 4 2166 4486 3 MP stroke
11 -2 -9 8 2278 520 3 MP stroke
13 3 -13 5 2273 634 3 MP stroke
10 -1 -8 6 2279 765 3 MP stroke
8 5 -9 0 2282 878 3 MP stroke
10 2 -9 3 2279 1009 3 MP stroke
9 9 -12 -3 2279 1117 3 MP stroke
9 4 -9 2 2281 1254 3 MP stroke
8 5 -9 0 2282 1376 3 MP stroke
1 -3 1 3 2298 1514 3 MP stroke
3 5 -5 -3 2292 1621 3 MP stroke
3 2 -3 0 2292 1752 3 MP stroke
3 2 -3 -1 2293 1876 3 MP stroke
6 0 -5 3 2287 2253 3 MP stroke
4 4 -5 -2 2291 2370 3 MP stroke
4 2 -4 0 2290 2499 3 MP stroke
4 3 -4 0 2290 2622 3 MP stroke
1 4 -3 -3 2297 2741 3 MP stroke
0 7 -3 -6 2296 2859 3 MP stroke
3 3 -4 -1 2293 2994 3 MP stroke
3 2 -4 -1 2294 3119 3 MP stroke
2 3 -3 -1 2294 3243 3 MP stroke
4 6 -7 -3 2289 3360 3 MP stroke
3 0 -3 2 2292 3495 3 MP stroke
4 10 -8 -6 2289 3602 3 MP stroke
4 5 -5 -2 2290 3737 3 MP stroke
4 7 -6 -4 2290 3856 3 MP stroke
9 5 -10 0 2282 3986 3 MP stroke
9 4 -10 1 2280 4111 3 MP stroke
10 6 -11 0 2278 4232 3 MP stroke
8 7 -10 -2 2281 4355 3 MP stroke
9 2 -9 3 2281 4489 3 MP stroke
15 4 2346 389 2 MP stroke
16 0 -15 9 2375 517 3 MP stroke
13 4 -13 4 2380 633 3 MP stroke
13 2 -12 5 2380 760 3 MP stroke
12 7 -13 1 2381 876 3 MP stroke
12 3 -12 4 2383 1007 3 MP stroke
12 8 -13 0 2381 1122 3 MP stroke
8 2 -8 3 2390 1506 3 MP stroke
4 9 -7 -5 2396 1615 3 MP stroke
5 7 -8 -3 2395 1744 3 MP stroke
7 6 -8 -1 2392 1871 3 MP stroke
8 -1 -7 5 2392 2009 3 MP stroke
6 4 -7 -1 2395 2121 3 MP stroke
8 2 -7 3 2390 2252 3 MP stroke
7 3 -7 1 2392 2373 3 MP stroke
6 4 -7 -1 2394 2496 3 MP stroke
8 3 -9 1 2391 2621 3 MP stroke
5 4 -6 0 2395 2744 3 MP stroke
5 8 -7 -4 2395 2861 3 MP stroke
7 1 -6 3 2394 2999 3 MP stroke
6 7 -9 -3 2394 3109 3 MP stroke
7 3 -8 1 2392 3243 3 MP stroke
10 7 -12 0 2386 3360 3 MP stroke
8 3 -9 2 2389 3493 3 MP stroke
9 3 -10 2 2387 3616 3 MP stroke
11 5 -12 1 2384 3737 3 MP stroke
11 9 -13 -2 2382 3856 3 MP stroke
12 5 -13 3 2381 3988 3 MP stroke
13 5 -13 3 2381 4112 3 MP stroke
11 5 -12 1 2383 4234 3 MP stroke
13 7 -14 0 2380 4356 3 MP stroke
15 5 -15 4 2378 4484 3 MP stroke
15 0 -14 8 2485 516 3 MP stroke
11 7 -12 0 2491 628 3 MP stroke
8 9 -10 -4 2497 869 3 MP stroke
9 5 -10 1 2495 1003 3 MP stroke
15 10 -18 -1 2484 1117 3 MP stroke
12 -1 -11 8 2491 1263 3 MP stroke
9 2 -8 3 2496 1382 3 MP stroke
8 -1 -7 6 2497 1511 3 MP stroke
4 2 -4 0 2507 1628 3 MP stroke
6 0 -5 3 2504 1757 3 MP stroke
3 2 -4 -1 2509 1877 3 MP stroke
4 6 -6 -3 2506 1994 3 MP stroke
3 8 -6 -5 2508 2114 3 MP stroke
4 -1 -3 3 2507 2256 3 MP stroke
4 6 -5 -3 2506 2368 3 MP stroke
5 2 -6 1 2504 2498 3 MP stroke
2 6 -5 -4 2509 2613 3 MP stroke
4 1 -4 1 2504 2749 3 MP stroke
5 1 -5 1 2506 2873 3 MP stroke
3 2 -4 -1 2509 2996 3 MP stroke
3 9 -6 -6 2507 3106 3 MP stroke
4 3 -5 0 2506 3242 3 MP stroke
6 5 -7 -2 2502 3364 3 MP stroke
5 2 -5 1 2505 3493 3 MP stroke
6 4 -7 -1 2504 3613 3 MP stroke
9 5 -10 1 2496 3738 3 MP stroke
7 5 -8 0 2500 3862 3 MP stroke
7 4 -8 0 2499 3987 3 MP stroke
9 4 -9 1 2496 4112 3 MP stroke
10 5 -11 1 2493 4235 3 MP stroke
11 5 -12 1 2493 4359 3 MP stroke
7 3 -8 1 2500 4485 3 MP stroke
9 3 2579 389 2 MP stroke
15 1 -14 7 2592 515 3 MP stroke
14 6 -15 3 2593 629 3 MP stroke
12 -2 -10 8 2599 767 3 MP stroke
15 4 -15 4 2592 882 3 MP stroke
11 7 -13 0 2600 999 3 MP stroke
15 4 -15 4 2592 1130 3 MP stroke
15 1 -14 7 2593 1260 3 MP stroke
14 5 -14 3 2594 1377 3 MP stroke
14 1 -12 7 2595 1510 3 MP stroke
12 10 -15 -2 2597 1616 3 MP stroke
9 1 -9 4 2604 1757 3 MP stroke
9 3 -9 2 2604 1877 3 MP stroke
7 7 -9 -2 2607 1992 3 MP stroke
6 6 -8 -2 2609 2119 3 MP stroke
6 -2 -5 6 2610 2259 3 MP stroke
5 4 -6 -1 2612 2371 3 MP stroke
6 1 -6 2 2609 2501 3 MP stroke
6 4 -7 0 2609 2621 3 MP stroke
7 1 -7 3 2607 2749 3 MP stroke
6 5 -8 -1 2609 2867 3 MP stroke
5 4 -6 -1 2611 2992 3 MP stroke
5 5 -6 -2 2612 3116 3 MP stroke
5 3 -6 0 2611 3243 3 MP stroke
9 5 -10 0 2605 3363 3 MP stroke
7 3 -7 2 2607 3493 3 MP stroke
6 7 -8 -2 2608 3608 3 MP stroke
8 2 -7 3 2607 3743 3 MP stroke
9 4 -9 1 2605 3864 3 MP stroke
8 4 -9 1 2605 3986 3 MP stroke
11 12 -14 -5 2599 4098 3 MP stroke
10 4 -11 2 2601 4235 3 MP stroke
12 6 -13 1 2598 4357 3 MP stroke
11 7 -12 0 2600 4481 3 MP stroke
13 8 -14 0 2596 4603 3 MP stroke
10 2 -9 3 2710 389 3 MP stroke
13 -1 -11 8 2703 519 3 MP stroke
10 4 -10 3 2708 633 3 MP stroke
11 1 -10 4 2709 762 3 MP stroke
13 1 -12 6 2705 886 3 MP stroke
6 2 -7 2 2717 1006 3 MP stroke
6 9 -9 -5 2717 1117 3 MP stroke
2 2 -3 -1 2725 1379 3 MP stroke
10 2 -10 3 2710 1506 3 MP stroke
8 8 -10 -3 2713 1617 3 MP stroke
0 7 -4 -6 2729 1865 3 MP stroke
1 4 -2 -3 2727 2370 3 MP stroke
0 4 -1 -4 2730 2495 3 MP stroke
3 2 -3 0 2725 2623 3 MP stroke
2 2 -3 -1 2725 2745 3 MP stroke
2 1 -3 0 2726 2872 3 MP stroke
5 3 -5 -1 2720 2994 3 MP stroke
2 4 -3 -3 2725 3115 3 MP stroke
3 2 -4 0 2724 3244 3 MP stroke
5 3 -6 0 2720 3366 3 MP stroke
4 2 -4 0 2722 3493 3 MP stroke
6 6 -7 -2 2718 3611 3 MP stroke
4 1 -4 2 2721 3744 3 MP stroke
5 4 -6 -1 2719 3861 3 MP stroke
6 2 -6 2 2717 3991 3 MP stroke
8 10 -11 -5 2713 4099 3 MP stroke
9 5 -9 0 2711 4235 3 MP stroke
8 5 -9 -1 2713 4358 3 MP stroke
10 6 -12 0 2709 4481 3 MP stroke
9 4 -10 2 2712 4609 3 MP stroke
10 3 2800 389 2 MP stroke
18 -1 -15 10 2803 519 3 MP stroke
10 3 -10 3 2817 635 3 MP stroke
14 5 -14 3 2808 755 3 MP stroke
7 5 -8 -1 2824 1252 3 MP stroke
5 3 -6 -1 2829 1377 3 MP stroke
8 -1 -6 5 2823 1512 3 MP stroke
3 6 -5 -3 2830 1621 3 MP stroke
4 7 -6 -4 2828 2365 3 MP stroke
6 3 -7 1 2825 2497 3 MP stroke
7 4 -8 0 2824 2618 3 MP stroke
7 3 -7 1 2825 2746 3 MP stroke
7 3 -7 1 2824 2871 3 MP stroke
7 3 -7 1 2825 2995 3 MP stroke
6 4 -7 0 2824 3119 3 MP stroke
8 2 -8 3 2820 3246 3 MP stroke
6 5 -8 -1 2824 3364 3 MP stroke
8 2 -8 2 2820 3493 3 MP stroke
7 8 -10 -4 2823 3606 3 MP stroke
14 4 -14 4 2810 3740 3 MP stroke
14 5 -14 3 2810 3863 3 MP stroke
12 5 -13 2 2814 3987 3 MP stroke
12 4 -12 3 2813 4111 3 MP stroke
11 5 -12 1 2817 4233 3 MP stroke
12 5 -12 2 2814 4359 3 MP stroke
14 5 -14 4 2809 4484 3 MP stroke
10 4 -10 2 2817 4609 3 MP stroke
10 3 -1 0 2917 389 3 MP stroke
17 0 -15 9 2912 517 3 MP stroke
3 1 -3 1 2940 636 3 MP stroke
8 0 -7 4 2929 888 3 MP stroke
11 5 -12 1 2924 1251 3 MP stroke
11 3 -11 3 2923 1380 3 MP stroke
9 1 -9 4 2926 1507 3 MP stroke
5 5 -6 -2 2935 2494 3 MP stroke
5 5 -6 -2 2935 2616 3 MP stroke
3 3 -4 -1 2940 2746 3 MP stroke
2 5 -4 -3 2940 2865 3 MP stroke
2 1 -3 0 2941 2997 3 MP stroke
2 9 -5 -7 2939 3106 3 MP stroke
3 1 -3 1 2938 3246 3 MP stroke
8 6 -9 -1 2930 3363 3 MP stroke
6 2 -6 1 2934 3493 3 MP stroke
6 3 -6 1 2933 3616 3 MP stroke
8 5 -9 0 2929 3739 3 MP stroke
6 6 -8 -2 2931 3859 3 MP stroke
6 5 -7 -1 2931 3985 3 MP stroke
10 6 -11 0 2925 4109 3 MP stroke
10 3 -10 3 2926 4238 3 MP stroke
11 4 -11 3 2922 4362 3 MP stroke
12 4 -12 3 2922 4485 3 MP stroke
19 3 -18 8 3015 512 3 MP stroke
17 3 -16 6 3020 636 3 MP stroke
10 7 -12 -1 3030 1247 3 MP stroke
11 3 -11 3 3033 1380 3 MP stroke
6 3 -7 1 3041 1503 3 MP stroke
7 3 -8 1 3039 1626 3 MP stroke
7 8 -9 -4 3038 1742 3 MP stroke
7 3 -8 1 3038 1876 3 MP stroke
3 5 -5 -3 3046 2492 3 MP stroke
7 3 -8 1 3039 2622 3 MP stroke
7 4 -8 0 3039 2745 3 MP stroke
7 3 -7 1 3039 2870 3 MP stroke
7 3 -7 1 3038 2995 3 MP stroke
7 3 -7 1 3038 3120 3 MP stroke
6 2 -6 1 3041 3244 3 MP stroke
8 3 -8 2 3037 3368 3 MP stroke
8 4 -9 1 3036 3490 3 MP stroke
9 5 -10 1 3035 3613 3 MP stroke
7 3 -7 1 3040 3740 3 MP stroke
8 3 -9 1 3037 3865 3 MP stroke
9 5 -10 1 3035 3986 3 MP stroke
11 5 -12 2 3030 4111 3 MP stroke
12 4 -12 3 3029 4237 3 MP stroke
14 9 -16 0 3025 4353 3 MP stroke
12 7 -13 0 3028 4480 3 MP stroke
11 9 -13 -3 3031 4599 3 MP stroke
6 2 3123 389 2 MP stroke
15 1 -13 8 3130 516 3 MP stroke
10 1 -10 4 3141 638 3 MP stroke
7 5 -8 -1 3148 1127 3 MP stroke
2 4 -3 -3 3156 1252 3 MP stroke
4 4 -5 -1 3153 1377 3 MP stroke
5 -4 -3 6 3151 1517 3 MP stroke
3 -7 0 8 3155 1645 3 MP stroke
3 -2 -2 3 3155 1761 3 MP stroke
3 -7 0 8 3155 1894 3 MP stroke
6 -10 -1 12 3151 2027 3 MP stroke
4 -3 -3 5 3153 2134 3 MP stroke
5 2 -5 1 3151 2251 3 MP stroke
3 0 -2 1 3156 2379 3 MP stroke
4 2 -4 1 3153 2500 3 MP stroke
2 6 -4 -4 3156 2616 3 MP stroke
3 4 -4 -2 3154 2742 3 MP stroke
1 8 -4 -6 3157 2860 3 MP stroke
3 3 -4 -1 3153 2993 3 MP stroke
2 1 -3 0 3156 3120 3 MP stroke
5 2 -6 1 3151 3245 3 MP stroke
5 3 -5 0 3150 3367 3 MP stroke
5 3 -5 0 3151 3493 3 MP stroke
5 3 -6 0 3150 3616 3 MP stroke
4 4 -5 -1 3152 3738 3 MP stroke
5 3 -6 1 3150 3864 3 MP stroke
8 5 -9 0 3144 3985 3 MP stroke
9 4 -10 1 3142 4112 3 MP stroke
8 4 -9 0 3146 4235 3 MP stroke
9 5 -9 0 3143 4360 3 MP stroke
9 3 -9 2 3142 4487 3 MP stroke
15 3 -15 6 3239 511 3 MP stroke
14 7 -15 2 3240 628 3 MP stroke
14 9 -16 0 3238 872 3 MP stroke
13 4 -13 4 3241 1007 3 MP stroke
5 -3 -3 5 3258 1266 3 MP stroke
7 5 -9 -1 3254 1375 3 MP stroke
8 -1 -7 6 3252 1513 3 MP stroke
7 6 -9 -2 3254 1622 3 MP stroke
9 2 -8 3 3251 1756 3 MP stroke
5 3 -6 0 3259 1876 3 MP stroke
10 -1 -8 6 3250 2010 3 MP stroke
6 4 -7 -1 3257 2121 3 MP stroke
6 2 -7 1 3257 2250 3 MP stroke
6 4 -7 -1 3257 2370 3 MP stroke
6 2 -6 2 3255 2499 3 MP stroke
6 9 -9 -5 3254 2610 3 MP stroke
7 1 -7 3 3255 2748 3 MP stroke
6 3 -7 1 3257 2870 3 MP stroke
5 3 -6 0 3257 2995 3 MP stroke
7 3 -7 1 3254 3120 3 MP stroke
7 2 -7 2 3254 3245 3 MP stroke
8 5 -9 -1 3253 3363 3 MP stroke
9 3 -9 2 3251 3492 3 MP stroke
7 8 -9 -3 3253 3605 3 MP stroke
13 5 -14 2 3243 3738 3 MP stroke
11 7 -12 0 3245 3859 3 MP stroke
13 7 -14 1 3241 3983 3 MP stroke
11 6 -12 1 3246 4109 3 MP stroke
12 7 -14 1 3244 4232 3 MP stroke
12 5 -13 2 3243 4359 3 MP stroke
14 4 -14 4 3239 4486 3 MP stroke
1 0 3336 389 2 MP stroke
18 0 -15 10 3340 519 3 MP stroke
13 5 -13 3 3349 630 3 MP stroke
10 1 -9 5 3358 762 3 MP stroke
9 5 -10 1 3357 879 3 MP stroke
8 1 -7 4 3359 1012 3 MP stroke
10 9 -12 -3 3356 1119 3 MP stroke
3 -1 -2 2 3371 1510 3 MP stroke
1 7 -4 -6 3373 1619 3 MP stroke
2 -1 -2 2 3372 1758 3 MP stroke
4 1 -4 1 3368 1879 3 MP stroke
6 0 -5 3 3366 2007 3 MP stroke
1 4 -3 -2 3372 2121 3 MP stroke
2 0 -2 1 3371 2253 3 MP stroke
1 5 -3 -5 3374 2367 3 MP stroke
1 1 -2 0 3373 2498 3 MP stroke
1 8 -4 -6 3372 2611 3 MP stroke
4 4 -5 -1 3369 2744 3 MP stroke
2 4 -3 -2 3370 2869 3 MP stroke
5 2 -5 1 3365 2996 3 MP stroke
3 8 -6 -5 3369 3108 3 MP stroke
5 2 -5 1 3367 3246 3 MP stroke
3 2 -4 0 3371 3367 3 MP stroke
8 2 -8 3 3360 3493 3 MP stroke
5 8 -8 -4 3364 3605 3 MP stroke
8 4 -9 1 3358 3737 3 MP stroke
7 5 -8 -1 3363 3861 3 MP stroke
9 6 -11 0 3357 3985 3 MP stroke
11 5 -12 1 3355 4110 3 MP stroke
8 3 -8 2 3359 4236 3 MP stroke
10 5 -10 1 3357 4360 3 MP stroke
12 7 -14 0 3351 4479 3 MP stroke
12 2 -11 5 3460 512 3 MP stroke
17 7 -18 3 3448 628 3 MP stroke
16 2 -15 6 3452 761 3 MP stroke
14 4 -14 4 3456 883 3 MP stroke
12 2 -11 5 3459 1009 3 MP stroke
8 12 -12 -6 3465 1113 3 MP stroke
2 2 -3 0 3480 1504 3 MP stroke
3 1 -2 1 3478 1631 3 MP stroke
7 6 -8 -2 3469 1870 3 MP stroke
7 0 -6 4 3471 2006 3 MP stroke
7 4 -8 0 3469 2122 3 MP stroke
5 3 -6 1 3473 2249 3 MP stroke
5 10 -8 -6 3472 2359 3 MP stroke
5 2 -5 1 3473 2498 3 MP stroke
5 9 -8 -5 3472 2611 3 MP stroke
7 3 -7 1 3470 2744 3 MP stroke
5 5 -7 -2 3472 2867 3 MP stroke
6 4 -7 0 3471 2994 3 MP stroke
10 3 -10 2 3464 3119 3 MP stroke
6 3 -7 1 3473 3243 3 MP stroke
6 4 -7 0 3470 3366 3 MP stroke
9 4 -9 1 3467 3491 3 MP stroke
7 3 -8 1 3469 3616 3 MP stroke
9 5 -10 0 3465 3737 3 MP stroke
11 4 -11 2 3462 3864 3 MP stroke
11 6 -13 1 3461 3985 3 MP stroke
11 11 -14 -4 3459 4099 3 MP stroke
12 5 -13 2 3459 4235 3 MP stroke
14 7 -15 1 3456 4356 3 MP stroke
14 8 -16 0 3455 4478 3 MP stroke
21 9 -23 4 3438 4603 3 MP stroke
8 2 -3 1 3570 389 3 MP stroke
13 1 -13 6 3566 514 3 MP stroke
13 4 -13 4 3565 633 3 MP stroke
2 1 -2 0 3587 1754 3 MP stroke
3 5 -5 -3 3585 2119 3 MP stroke
6 0 -5 3 3580 2256 3 MP stroke
4 5 -6 -3 3585 2367 3 MP stroke
2 1 -2 0 3587 2500 3 MP stroke
1 5 -3 -4 3590 2615 3 MP stroke
2 1 -2 0 3587 2748 3 MP stroke
2 4 -4 -2 3587 2867 3 MP stroke
3 4 -4 -2 3585 2992 3 MP stroke
4 4 -5 -2 3583 3117 3 MP stroke
5 4 -6 -1 3581 3241 3 MP stroke
2 4 -3 -2 3586 3363 3 MP stroke
5 3 -6 0 3581 3491 3 MP stroke
6 4 -7 0 3579 3614 3 MP stroke
3 2 -3 0 3586 3742 3 MP stroke
7 6 -9 -2 3577 3859 3 MP stroke
9 5 -11 1 3572 3984 3 MP stroke
8 8 -11 -3 3575 4103 3 MP stroke
8 6 -10 0 3574 4233 3 MP stroke
9 6 -11 -1 3573 4357 3 MP stroke
16 9 -18 1 3557 4477 3 MP stroke
17 5 3637 389 2 MP stroke
21 4 -20 8 3659 511 3 MP stroke
17 5 -17 5 3665 633 3 MP stroke
7 4 -8 0 3684 1376 3 MP stroke
8 5 -9 0 3682 1500 3 MP stroke
7 7 -9 -3 3686 1620 3 MP stroke
3 5 -5 -2 3692 1746 3 MP stroke
5 3 -5 0 3689 1876 3 MP stroke
7 2 -7 2 3686 2002 3 MP stroke
7 8 -10 -4 3684 2115 3 MP stroke
8 4 -8 1 3685 2248 3 MP stroke
6 7 -9 -3 3686 2365 3 MP stroke
5 3 -6 0 3689 2498 3 MP stroke
6 11 -10 -6 3684 2607 3 MP stroke
6 2 -6 1 3688 2749 3 MP stroke
5 3 -6 0 3688 2870 3 MP stroke
8 4 -9 1 3683 2993 3 MP stroke
9 4 -9 1 3682 3118 3 MP stroke
6 4 -7 -1 3688 3241 3 MP stroke
5 5 -7 -1 3688 3362 3 MP stroke
8 4 -8 1 3683 3491 3 MP stroke
12 5 -13 1 3676 3614 3 MP stroke
13 5 -14 3 3673 3738 3 MP stroke
13 4 -13 3 3675 3865 3 MP stroke
13 7 -14 1 3672 3984 3 MP stroke
10 6 -11 0 3679 4110 3 MP stroke
12 6 -13 2 3673 4234 3 MP stroke
10 10 -13 -3 3678 4349 3 MP stroke
23 6 -23 7 3653 4485 3 MP stroke
21 12 -23 0 3656 4596 3 MP stroke
18 4 -18 7 3771 510 3 MP stroke
14 5 -15 4 3778 630 3 MP stroke
6 3 -7 0 3796 1378 3 MP stroke
9 3 -9 2 3789 1628 3 MP stroke
3 5 -4 -2 3800 1871 3 MP stroke
7 -3 -5 6 3795 2012 3 MP stroke
3 5 -5 -3 3802 2119 3 MP stroke
2 5 -4 -3 3802 2244 3 MP stroke
4 3 -5 0 3797 2373 3 MP stroke
5 1 -5 1 3798 2500 3 MP stroke
4 5 -5 -3 3799 2616 3 MP stroke
3 -2 -2 3 3802 2754 3 MP stroke
5 3 -5 0 3797 2869 3 MP stroke
6 4 -7 0 3794 2993 3 MP stroke
6 4 -6 0 3794 3118 3 MP stroke
5 5 -6 -1 3797 3240 3 MP stroke
6 4 -7 -1 3796 3365 3 MP stroke
8 6 -9 0 3789 3488 3 MP stroke
9 5 -10 1 3788 3613 3 MP stroke
8 5 -9 0 3792 3737 3 MP stroke
7 5 -8 0 3792 3860 3 MP stroke
10 3 -10 3 3788 3991 3 MP stroke
9 7 -10 -1 3790 4107 3 MP stroke
10 2 -10 4 3788 4241 3 MP stroke
11 5 -11 1 3785 4359 3 MP stroke
16 9 -18 0 3775 4477 3 MP stroke
17 7 -19 3 3771 4606 3 MP stroke
10 3 3871 389 2 MP stroke
19 3 -18 8 3877 512 3 MP stroke
19 6 -19 5 3877 631 3 MP stroke
19 -5 -15 15 3879 1026 3 MP stroke
10 1 -9 4 3896 1260 3 MP stroke
5 5 -7 -2 3904 1375 3 MP stroke
6 0 -6 4 3902 1509 3 MP stroke
6 13 -10 -8 3902 1608 3 MP stroke
9 2 -9 3 3898 1755 3 MP stroke
11 3 -11 3 3894 1878 3 MP stroke
7 0 -6 4 3901 2006 3 MP stroke
8 3 -8 1 3900 2124 3 MP stroke
7 7 -9 -3 3901 2241 3 MP stroke
8 3 -9 2 3899 2374 3 MP stroke
8 2 -8 3 3899 2500 3 MP stroke
9 5 -10 1 3895 2620 3 MP stroke
6 5 -7 -1 3902 2743 3 MP stroke
8 6 -9 -1 3897 2865 3 MP stroke
7 2 -7 2 3900 2996 3 MP stroke
6 8 -9 -4 3901 3109 3 MP stroke
7 -1 -5 4 3901 3251 3 MP stroke
9 6 -10 0 3895 3362 3 MP stroke
10 6 -11 1 3893 3487 3 MP stroke
9 8 -11 -2 3897 3608 3 MP stroke
7 5 -8 -1 3900 3735 3 MP stroke
11 6 -13 1 3891 3858 3 MP stroke
13 5 -13 2 3888 3987 3 MP stroke
12 5 -13 3 3890 4112 3 MP stroke
14 3 -14 5 3887 4241 3 MP stroke
12 8 -13 0 3889 4354 3 MP stroke
21 5 -20 7 3873 4488 3 MP stroke
12 3 3972 389 2 MP stroke
17 3 -16 7 3987 512 3 MP stroke
18 5 -18 5 3986 631 3 MP stroke
20 0 -18 11 3984 768 3 MP stroke
17 1 -15 8 3989 888 3 MP stroke
21 4 -20 8 3979 1133 3 MP stroke
22 -10 -15 20 3982 1284 3 MP stroke
11 16 -16 -8 3997 1355 3 MP stroke
6 3 -6 0 4011 1503 3 MP stroke
4 7 -6 -4 4014 1618 3 MP stroke
5 0 -4 2 4014 1757 3 MP stroke
4 2 -4 0 4015 1877 3 MP stroke
2 0 -2 0 4020 2004 3 MP stroke
2 -1 -2 3 4018 2131 3 MP stroke
3 1 -3 1 4017 2251 3 MP stroke
5 6 -6 -3 4013 2368 3 MP stroke
2 2 -3 -1 4019 2498 3 MP stroke
3 9 -7 -6 4014 2608 3 MP stroke
2 4 -3 -2 4017 2743 3 MP stroke
2 7 -5 -5 4017 2861 3 MP stroke
10 -2 -8 7 4003 3005 3 MP stroke
10 4 -10 2 4001 3120 3 MP stroke
14 1 -12 6 3995 3249 3 MP stroke
13 13 -17 -4 3993 3350 3 MP stroke
13 4 -13 3 3998 3491 3 MP stroke
10 3 -11 3 4002 3616 3 MP stroke
11 3 -11 3 4002 3742 3 MP stroke
10 0 -9 5 4004 3872 3 MP stroke
9 2 -9 3 4004 3991 3 MP stroke
10 6 -11 1 4002 4109 3 MP stroke
13 0 -12 7 3997 4246 3 MP stroke
22 0 -19 12 3979 4373 3 MP stroke
22 4 -21 9 3978 4488 3 MP stroke
23 0 -20 13 4085 395 3 MP stroke
20 3 -19 9 4090 512 3 MP stroke
22 5 -22 7 4087 634 3 MP stroke
21 3 -19 9 4089 762 3 MP stroke
23 8 -24 5 4084 877 3 MP stroke
23 6 -23 7 4083 1005 3 MP stroke
23 6 -23 7 4083 1129 3 MP stroke
24 -1 -21 14 4084 1266 3 MP stroke
16 32 -27 -20 4094 1325 3 MP stroke
15 22 -22 -11 4095 1468 3 MP stroke
19 9 -20 2 4090 1620 3 MP stroke
20 6 -20 5 4090 1750 3 MP stroke
0 7 -3 -6 4129 1867 3 MP stroke
16 1 -15 8 4099 2007 3 MP stroke
22 -4 -18 16 4089 2144 3 MP stroke
19 -2 -16 12 4093 2263 3 MP stroke
22 3 -21 9 4087 2378 3 MP stroke
17 5 -17 5 4096 2498 3 MP stroke
6 11 -10 -7 4117 2605 3 MP stroke
6 5 -7 -1 4117 2742 3 MP stroke
9 3 -9 2 4114 2871 3 MP stroke
21 6 -21 6 4088 2991 3 MP stroke
18 12 -21 0 4092 3104 3 MP stroke
24 -7 -18 19 4085 3269 3 MP stroke
19 15 -23 -4 4092 3347 3 MP stroke
21 8 -21 5 4088 3487 3 MP stroke
20 6 -20 6 4089 3615 3 MP stroke
20 5 -19 7 4090 3740 3 MP stroke
20 0 -17 11 4092 3874 3 MP stroke
24 1 -22 12 4083 3998 3 MP stroke
21 7 -21 6 4087 4109 3 MP stroke
28 4 -26 11 4076 4243 3 MP stroke
21 13 -24 1 4085 4346 3 MP stroke
24 5 -23 8 4082 4486 3 MP stroke
15 4 4179 389 2 MP stroke
20 1 -18 10 4197 517 3 MP stroke
18 4 -17 6 4203 633 3 MP stroke
17 2 -15 8 4205 763 3 MP stroke
15 8 -16 2 4205 876 3 MP stroke
17 3 -16 7 4204 1009 3 MP stroke
17 5 -17 5 4202 1129 3 MP stroke
17 3 -16 7 4203 1258 3 MP stroke
15 21 -22 -11 4204 1345 3 MP stroke
12 38 -26 -27 4206 1437 3 MP stroke
19 8 -20 3 4199 1620 3 MP stroke
17 6 -18 4 4203 1747 3 MP stroke
16 14 -20 -4 4204 1857 3 MP stroke
18 6 -18 5 4202 1997 3 MP stroke
16 8 -17 2 4204 2117 3 MP stroke
18 5 -18 6 4203 2249 3 MP stroke
19 6 -20 5 4200 2370 3 MP stroke
18 6 -18 5 4202 2495 3 MP stroke
17 6 -18 4 4205 2617 3 MP stroke
-5 0 5 -3 4247 2750 3 MP stroke
16 5 -16 4 4207 2868 3 MP stroke
18 4 -17 7 4201 2997 3 MP stroke
18 9 -19 2 4202 3109 3 MP stroke
21 2 -19 9 4198 3248 3 MP stroke
19 9 -20 2 4199 3359 3 MP stroke
20 4 -19 7 4199 3493 3 MP stroke
20 7 -20 5 4197 3613 3 MP stroke
21 1 -19 10 4197 3747 3 MP stroke
18 8 -19 3 4202 3857 3 MP stroke
20 3 -19 9 4198 3993 3 MP stroke
20 8 -21 3 4199 4108 3 MP stroke
20 5 -20 6 4198 4237 3 MP stroke
18 10 -20 2 4200 4351 3 MP stroke
18 5 -18 5 4201 4485 3 MP stroke
20 5 -5 1 4290 389 3 MP stroke
23 2 -21 11 4300 515 3 MP stroke
21 6 -21 6 4304 631 3 MP stroke
22 2 -20 10 4303 763 3 MP stroke
21 8 -22 4 4303 875 3 MP stroke
19 0 -17 10 4309 1015 3 MP stroke
21 8 -22 4 4302 1125 3 MP stroke
19 3 -18 8 4308 1258 3 MP stroke
11 7 -13 0 4323 1373 3 MP stroke
19 3 -17 8 4308 1507 3 MP stroke
20 4 -19 7 4307 1629 3 MP stroke
23 7 -23 6 4300 1749 3 MP stroke
22 8 -22 5 4300 1870 3 MP stroke
22 3 -21 9 4303 2004 3 MP stroke
15 4 -15 4 4317 2123 3 MP stroke
19 0 -17 10 4308 2258 3 MP stroke
16 1 -15 8 4315 2379 3 MP stroke
2 4 -4 -2 4341 2494 3 MP stroke
7 3 -7 1 4333 2621 3 MP stroke
26 2 -24 12 4294 2752 3 MP stroke
20 7 -21 5 4304 2867 3 MP stroke
20 2 -19 9 4306 3000 3 MP stroke
13 7 -15 1 4319 3112 3 MP stroke
18 3 -17 7 4311 3248 3 MP stroke
23 7 -24 6 4299 3364 3 MP stroke
21 8 -21 4 4303 3487 3 MP stroke
19 9 -21 3 4306 3608 3 MP stroke
23 7 -23 6 4299 3737 3 MP stroke
22 7 -22 6 4301 3861 3 MP stroke
24 3 -23 10 4298 3993 3 MP stroke
14 4 -14 4 4319 4112 3 MP stroke
22 3 -20 9 4303 4242 3 MP stroke
23 10 -25 4 4299 4352 3 MP stroke
13 6 -14 2 4320 4483 3 MP stroke
13 6 -14 2 4321 4606 3 MP stroke
16 4 -1 0 4405 389 3 MP stroke
18 2 -16 8 4418 515 3 MP stroke
18 5 -18 6 4418 632 3 MP stroke
17 -1 -15 10 4419 768 3 MP stroke
19 4 -18 7 4416 883 3 MP stroke
18 2 -17 9 4417 1011 3 MP stroke
18 8 -19 3 4415 1124 3 MP stroke
21 4 -20 8 4413 1256 3 MP stroke
19 4 -18 7 4415 1380 3 MP stroke
21 -1 -18 13 4413 1516 3 MP stroke
20 3 -19 8 4413 1630 3 MP stroke
19 5 -18 6 4416 1753 3 MP stroke
17 3 -17 7 4419 1879 3 MP stroke
17 3 -16 7 4419 2003 3 MP stroke
19 5 -18 6 4416 2125 3 MP stroke
15 2 -14 6 4424 2253 3 MP stroke
18 5 -18 5 4418 2373 3 MP stroke
18 0 -16 10 4418 2508 3 MP stroke
19 6 -19 5 4414 2620 3 MP stroke
18 2 -17 8 4418 2751 3 MP stroke
18 5 -18 5 4417 2871 3 MP stroke
22 4 -21 9 4410 2998 3 MP stroke
20 9 -21 3 4412 3110 3 MP stroke
22 5 -21 7 4410 3244 3 MP stroke
21 9 -22 3 4412 3360 3 MP stroke
23 2 -22 12 4407 3498 3 MP stroke
22 10 -24 3 4409 3605 3 MP stroke
24 9 -25 5 4405 3733 3 MP stroke
25 7 -25 8 4403 3862 3 MP stroke
20 3 -19 8 4415 3991 3 MP stroke
18 5 -18 5 4418 4113 3 MP stroke
24 7 -23 7 4406 4236 3 MP stroke
23 8 -24 5 4407 4357 3 MP stroke
15 9 -17 0 4421 4476 3 MP stroke
15 12 -19 -2 4421 4594 3 MP stroke
19 2 -18 9 4523 515 3 MP stroke
19 8 -20 3 4523 626 3 MP stroke
22 2 -21 11 4517 764 3 MP stroke
22 5 -22 7 4517 882 3 MP stroke
26 2 -24 12 4510 1013 3 MP stroke
24 9 -24 5 4512 1125 3 MP stroke
24 2 -23 11 4514 1260 3 MP stroke
25 5 -24 9 4512 1380 3 MP stroke
28 0 -25 15 4507 1514 3 MP stroke
25 6 -25 8 4512 1626 3 MP stroke
26 3 -24 11 4510 1758 3 MP stroke
28 7 -27 9 4506 1875 3 MP stroke
24 3 -22 11 4513 2006 3 MP stroke
22 6 -22 7 4517 2124 3 MP stroke
25 2 -23 12 4510 2256 3 MP stroke
26 7 -26 8 4509 2370 3 MP stroke
27 2 -25 13 4509 2505 3 MP stroke
26 10 -27 5 4508 2613 3 MP stroke
26 5 -25 10 4509 2747 3 MP stroke
27 8 -27 7 4507 2867 3 MP stroke
27 4 -25 11 4508 2998 3 MP stroke
24 10 -25 5 4513 3111 3 MP stroke
25 3 -24 11 4510 3247 3 MP stroke
25 8 -25 7 4510 3364 3 MP stroke
27 7 -26 9 4506 3491 3 MP stroke
24 14 -27 1 4511 3600 3 MP stroke
26 7 -26 8 4509 3738 3 MP stroke
26 7 -26 7 4509 3861 3 MP stroke
25 4 -24 9 4513 3991 3 MP stroke
25 10 -26 5 4511 4105 3 MP stroke
25 11 -26 4 4510 4227 3 MP stroke
26 11 -27 5 4507 4353 3 MP stroke
27 13 -29 3 4507 4474 3 MP stroke
22 0 -19 12 4626 519 3 MP stroke
21 6 -21 6 4627 630 3 MP stroke
22 0 -19 12 4626 769 3 MP stroke
22 6 -22 7 4623 880 3 MP stroke
21 4 -20 9 4626 1008 3 MP stroke
21 10 -23 3 4625 1122 3 MP stroke
22 3 -21 8 4627 1258 3 MP stroke
21 7 -21 6 4625 1376 3 MP stroke
19 2 -18 8 4631 1508 3 MP stroke
20 8 -21 4 4627 1621 3 MP stroke
19 2 -18 9 4631 1757 3 MP stroke
21 6 -21 6 4627 1874 3 MP stroke
22 4 -21 8 4625 2003 3 MP stroke
20 9 -21 3 4628 2118 3 MP stroke
20 4 -19 8 4628 2251 3 MP stroke
21 8 -21 4 4627 2368 3 MP stroke
24 0 -21 13 4623 2509 3 MP stroke
23 6 -23 7 4622 2620 3 MP stroke
22 3 -21 9 4625 2749 3 MP stroke
17 7 -18 4 4634 2865 3 MP stroke
25 -1 -21 14 4621 3008 3 MP stroke
22 8 -23 5 4624 3113 3 MP stroke
22 4 -21 9 4624 3245 3 MP stroke
23 6 -23 7 4623 3365 3 MP stroke
24 6 -23 8 4620 3490 3 MP stroke
22 10 -24 3 4624 3607 3 MP stroke
22 8 -23 5 4623 3736 3 MP stroke
24 6 -23 8 4621 3863 3 MP stroke
22 3 -20 9 4625 3993 3 MP stroke
21 8 -22 5 4627 4108 3 MP stroke
22 10 -23 3 4624 4227 3 MP stroke
18 12 -21 -1 4630 4346 3 MP stroke
21 7 -21 5 4626 4482 3 MP stroke
23 15 -26 -1 4621 4590 3 MP stroke
21 6 -2 0 4716 389 3 MP stroke
25 2 -22 11 4727 516 3 MP stroke
24 6 -24 7 4730 632 3 MP stroke
21 1 -19 11 4734 765 3 MP stroke
21 5 -21 7 4733 882 3 MP stroke
25 3 -23 10 4728 1010 3 MP stroke
15 30 -26 -19 4741 1079 3 MP stroke
20 13 -23 -1 4735 1239 3 MP stroke
26 11 -27 4 4723 1369 3 MP stroke
20 21 -26 -8 4734 1471 3 MP stroke
21 15 -24 -2 4732 1607 3 MP stroke
24 1 -22 12 4729 1760 3 MP stroke
23 6 -23 7 4731 1875 3 MP stroke
19 4 -19 7 4738 2002 3 MP stroke
18 1 -16 9 4742 2131 3 MP stroke
18 1 -16 9 4741 2255 3 MP stroke
7 35 -21 -26 4755 2311 3 MP stroke
22 5 -22 8 4732 2498 3 MP stroke
22 5 -21 7 4733 2621 3 MP stroke
21 5 -20 7 4734 2746 3 MP stroke
21 8 -22 4 4733 2864 3 MP stroke
22 5 -21 8 4732 2996 3 MP stroke
21 8 -22 5 4734 3113 3 MP stroke
21 7 -21 5 4734 3240 3 MP stroke
21 7 -22 6 4733 3364 3 MP stroke
20 10 -22 2 4734 3481 3 MP stroke
17 20 -23 -8 4740 3587 3 MP stroke
13 8 -15 0 4749 3732 3 MP stroke
12 9 -14 -1 4751 3855 3 MP stroke
16 6 -17 3 4745 3985 3 MP stroke
13 12 -16 -4 4749 4097 3 MP stroke
12 4 -12 3 4753 4238 3 MP stroke
12 9 -14 -1 4752 4351 3 MP stroke
21 14 -24 -1 4733 4469 3 MP stroke
22 15 -26 -1 4730 4591 3 MP stroke
20 5 -5 1 4830 389 3 MP stroke
21 0 -19 11 4844 519 3 MP stroke
20 7 -21 5 4843 628 3 MP stroke
23 1 -21 11 4841 765 3 MP stroke
18 12 -21 0 4846 868 3 MP stroke
16 16 -21 -6 4850 982 3 MP stroke
12 42 -27 -31 4852 1055 3 MP stroke
18 54 -38 -38 4839 1156 3 MP stroke
27 23 -33 -6 4828 1344 3 MP stroke
15 27 -24 -16 4850 1458 3 MP stroke
16 17 -21 -6 4849 1604 3 MP stroke
9 9 -11 -3 4865 1741 3 MP stroke
6 23 -14 -17 4868 1837 3 MP stroke
9 17 -15 -10 4865 1974 3 MP stroke
12 6 -13 1 4858 2121 3 MP stroke
5 3 -6 0 4874 2249 3 MP stroke
7 8 -9 -3 4870 2363 3 MP stroke
7 0 -6 5 4869 2503 3 MP stroke
10 8 -13 -2 4864 2611 3 MP stroke
17 3 -16 7 4851 2750 3 MP stroke
15 4 -16 4 4855 2869 3 MP stroke
9 3 -9 2 4867 2997 3 MP stroke
3 2 -4 0 4877 3120 3 MP stroke
6 -2 -4 5 4874 3254 3 MP stroke
13 -6 -9 12 4859 3387 3 MP stroke
9 -1 -8 6 4867 3499 3 MP stroke
8 7 -10 -2 4866 3608 3 MP stroke
6 3 -6 1 4872 3741 3 MP stroke
9 7 -11 -1 4866 3858 3 MP stroke
7 3 -7 1 4869 3989 3 MP stroke
7 4 -8 0 4872 4112 3 MP stroke
9 4 -9 1 4867 4235 3 MP stroke
9 9 -11 -3 4865 4352 3 MP stroke
9 4 -9 1 4866 4484 3 MP stroke
15 8 -17 1 4853 4603 3 MP stroke
16 4 4943 389 2 MP stroke
26 2 -24 12 4942 518 3 MP stroke
22 5 -22 7 4949 633 3 MP stroke
18 8 -19 3 4955 751 3 MP stroke
9 32 -21 -23 4968 824 3 MP stroke
6 42 -22 -33 4971 930 3 MP stroke
7 54 -28 -44 4968 1030 3 MP stroke
15 48 -33 -34 4954 1168 3 MP stroke
28 33 -38 -14 4932 1326 3 MP stroke
22 28 -32 -13 4943 1457 3 MP stroke
10 14 -14 -7 4971 1608 3 MP stroke
7 12 -11 -6 4976 1735 3 MP stroke
4 11 -8 -8 4982 1860 3 MP stroke
7 5 -9 -1 4978 1996 3 MP stroke
8 7 -11 -2 4975 2116 3 MP stroke
10 -2 -8 7 4972 2259 3 MP stroke
8 5 -9 0 4976 2370 3 MP stroke
9 2 -9 3 4974 2500 3 MP stroke
6 7 -8 -3 4979 2614 3 MP stroke
9 2 -9 3 4975 2748 3 MP stroke
9 7 -11 -1 4973 2863 3 MP stroke
10 3 -10 3 4972 2997 3 MP stroke
11 9 -13 -2 4968 3108 3 MP stroke
9 3 -9 3 4973 3245 3 MP stroke
12 5 -13 2 4968 3364 3 MP stroke
13 1 -12 6 4968 3497 3 MP stroke
10 9 -13 -2 4971 3605 3 MP stroke
14 2 -13 6 4964 3746 3 MP stroke
11 7 -13 0 4969 3858 3 MP stroke
14 5 -15 3 4964 3986 3 MP stroke
14 7 -15 2 4962 4106 3 MP stroke
11 6 -12 1 4968 4233 3 MP stroke
15 9 -17 0 4963 4353 3 MP stroke
15 5 -16 3 4962 4483 3 MP stroke
22 9 -23 4 4949 4602 3 MP stroke
21 5 -9 3 5046 389 3 MP stroke
19 3 -18 7 5063 513 3 MP stroke
5 17 -11 -12 5086 605 3 MP stroke
6 5 -8 0 5086 753 3 MP stroke
5 10 -9 -6 5089 868 3 MP stroke
0 28 -11 -24 5094 956 3 MP stroke
7 13 -11 -8 5085 1110 3 MP stroke
6 0 -5 3 5089 1261 3 MP stroke
8 6 -9 -1 5083 1374 3 MP stroke
5 1 -4 2 5091 1506 3 MP stroke
6 3 -6 1 5087 1628 3 MP stroke
4 4 -5 -2 5093 1749 3 MP stroke
3 -1 -3 2 5094 1882 3 MP stroke
5 4 -6 -1 5089 1998 3 MP stroke
5 3 -6 0 5091 2123 3 MP stroke
4 3 -5 0 5091 2247 3 MP stroke
4 3 -4 0 5092 2374 3 MP stroke
5 2 -5 1 5090 2499 3 MP stroke
5 4 -6 -1 5090 2619 3 MP stroke
5 2 -6 1 5090 2747 3 MP stroke
5 3 -6 1 5089 2871 3 MP stroke
6 3 -6 0 5088 2995 3 MP stroke
6 3 -7 1 5087 3120 3 MP stroke
9 0 -8 4 5083 3249 3 MP stroke
8 2 -8 3 5084 3370 3 MP stroke
10 1 -9 4 5081 3496 3 MP stroke
10 9 -12 -3 5080 3606 3 MP stroke
11 3 -11 3 5078 3742 3 MP stroke
11 4 -11 3 5079 3864 3 MP stroke
10 4 -10 2 5080 3987 3 MP stroke
9 7 -11 -1 5080 4106 3 MP stroke
10 6 -11 0 5078 4233 3 MP stroke
9 7 -11 -1 5080 4355 3 MP stroke
11 6 -12 1 5078 4482 3 MP stroke
13 4 5150 389 2 MP stroke
5 12 -10 -7 5195 490 3 MP stroke
3 22 -12 -17 5197 595 3 MP stroke
6 11 -9 -7 5194 743 3 MP stroke
7 4 -8 1 5194 880 3 MP stroke
8 2 -8 2 5193 1009 3 MP stroke
5 7 -7 -3 5195 1123 3 MP stroke
8 1 -7 3 5192 1258 3 MP stroke
7 4 -8 1 5194 1377 3 MP stroke
7 -3 -5 6 5194 1515 3 MP stroke
5 8 -8 -4 5197 1617 3 MP stroke
6 5 -7 -1 5196 1748 3 MP stroke
6 4 -7 0 5194 1874 3 MP stroke
7 5 -8 -1 5193 1997 3 MP stroke
7 4 -8 0 5193 2123 3 MP stroke
7 4 -8 0 5193 2247 3 MP stroke
8 3 -8 1 5192 2373 3 MP stroke
7 1 -6 3 5195 2502 3 MP stroke
7 8 -9 -3 5193 2613 3 MP stroke
6 2 -6 1 5195 2748 3 MP stroke
8 2 -8 2 5192 2871 3 MP stroke
9 4 -10 1 5189 2992 3 MP stroke
7 4 -8 1 5193 3117 3 MP stroke
8 3 -8 2 5191 3243 3 MP stroke
7 2 -7 2 5193 3369 3 MP stroke
10 3 -11 3 5187 3492 3 MP stroke
7 10 -11 -4 5191 3602 3 MP stroke
12 3 -11 3 5185 3742 3 MP stroke
12 4 -12 3 5183 3864 3 MP stroke
13 6 -14 2 5181 3984 3 MP stroke
15 5 -15 4 5178 4111 3 MP stroke
15 6 -16 3 5176 4234 3 MP stroke
15 7 -16 1 5177 4355 3 MP stroke
13 5 -14 2 5181 4483 3 MP stroke
13 6 -14 2 5181 4607 3 MP stroke
5 7 -7 -4 5306 874 3 MP stroke
5 -1 -4 3 5306 1013 3 MP stroke
3 4 -4 -1 5307 1252 3 MP stroke
2 2 -3 -1 5312 1378 3 MP stroke
5 0 -5 3 5306 1508 3 MP stroke
3 3 -3 -1 5309 1628 3 MP stroke
3 2 -4 0 5309 1752 3 MP stroke
5 5 -6 -2 5305 1873 3 MP stroke
4 3 -4 -1 5307 2000 3 MP stroke
3 2 -3 0 5310 2127 3 MP stroke
3 1 -3 0 5311 2252 3 MP stroke
3 5 -5 -3 5308 2369 3 MP stroke
7 -2 -5 6 5302 2508 3 MP stroke
2 7 -5 -5 5310 2614 3 MP stroke
4 1 -4 1 5307 2749 3 MP stroke
3 6 -5 -4 5309 2864 3 MP stroke
5 2 -5 0 5306 2995 3 MP stroke
3 2 -4 1 5308 3120 3 MP stroke
7 4 -8 0 5302 3242 3 MP stroke
6 2 -6 1 5303 3369 3 MP stroke
9 2 -9 3 5297 3493 3 MP stroke
6 10 -9 -6 5302 3603 3 MP stroke
10 1 -10 4 5296 3744 3 MP stroke
8 2 -8 2 5298 3866 3 MP stroke
9 5 -10 1 5295 3987 3 MP stroke
7 11 -10 -6 5300 4098 3 MP stroke
9 4 -10 1 5297 4235 3 MP stroke
12 5 -12 2 5292 4359 3 MP stroke
11 7 -12 0 5291 4480 3 MP stroke
9 7 -11 -2 5297 4604 3 MP stroke
8 6 -10 -1 5407 1126 3 MP stroke
7 1 -7 3 5409 1259 3 MP stroke
6 4 -7 0 5411 1377 3 MP stroke
6 1 -6 3 5410 1507 3 MP stroke
6 7 -8 -3 5410 1621 3 MP stroke
11 5 -12 2 5402 1749 3 MP stroke
9 6 -10 -1 5406 1872 3 MP stroke
6 2 -6 1 5411 2003 3 MP stroke
5 9 -8 -5 5412 2112 3 MP stroke
8 0 -7 4 5407 2254 3 MP stroke
5 2 -5 1 5412 2374 3 MP stroke
5 2 -5 1 5412 2500 3 MP stroke
4 7 -6 -4 5413 2614 3 MP stroke
9 2 -9 3 5405 2748 3 MP stroke
9 5 -10 0 5403 2867 3 MP stroke
11 2 -11 4 5402 2999 3 MP stroke
8 8 -11 -3 5406 3110 3 MP stroke
11 4 -11 2 5400 3243 3 MP stroke
12 5 -12 2 5398 3367 3 MP stroke
12 2 -12 5 5399 3495 3 MP stroke
10 7 -11 -1 5402 3609 3 MP stroke
13 3 -13 4 5397 3742 3 MP stroke
11 5 -12 2 5401 3862 3 MP stroke
12 4 -12 2 5400 3988 3 MP stroke
12 4 -13 3 5399 4111 3 MP stroke
15 5 -15 4 5393 4235 3 MP stroke
14 7 -15 2 5394 4356 3 MP stroke
12 4 -12 3 5398 4485 3 MP stroke
0 4 -2 -3 5529 1125 3 MP stroke
4 0 -4 2 5523 1259 3 MP stroke
-9 -7 11 1 5551 1394 3 MP stroke
5 -2 -3 4 5522 1512 3 MP stroke
2 7 -4 -5 5526 1619 3 MP stroke
5 -1 -4 4 5522 1761 3 MP stroke
8 8 -10 -3 5514 1868 3 MP stroke
5 -1 -4 3 5522 2007 3 MP stroke
3 7 -5 -5 5523 2116 3 MP stroke
6 0 -6 3 5519 2254 3 MP stroke
4 4 -6 -2 5523 2370 3 MP stroke
7 -2 -5 5 5519 2507 3 MP stroke
2 7 -4 -6 5526 2612 3 MP stroke
6 0 -5 3 5519 2753 3 MP stroke
8 4 -8 1 5514 2869 3 MP stroke
7 -1 -6 5 5518 3003 3 MP stroke
6 8 -9 -4 5518 3110 3 MP stroke
10 1 -9 4 5512 3248 3 MP stroke
9 3 -9 2 5513 3369 3 MP stroke
10 3 -10 3 5511 3493 3 MP stroke
11 4 -11 2 5510 3615 3 MP stroke
8 3 -9 2 5515 3741 3 MP stroke
8 7 -10 -2 5514 3858 3 MP stroke
10 4 -11 2 5511 3987 3 MP stroke
10 5 -11 1 5509 4110 3 MP stroke
10 4 -11 2 5511 4236 3 MP stroke
11 4 -12 3 5508 4360 3 MP stroke
11 6 -12 1 5506 4482 3 MP stroke
0 7 -3 -6 5638 1120 3 MP stroke
7 1 -6 3 5625 1260 3 MP stroke
1 0 -1 1 5638 1382 3 MP stroke
8 3 -8 2 5621 1503 3 MP stroke
4 1 -4 1 5631 1631 3 MP stroke
7 -3 -5 7 5626 1763 3 MP stroke
7 7 -9 -2 5623 1870 3 MP stroke
8 2 -8 2 5624 2003 3 MP stroke
6 4 -7 0 5627 2122 3 MP stroke
7 0 -6 4 5626 2255 3 MP stroke
7 4 -8 1 5625 2371 3 MP stroke
7 -2 -6 6 5625 2507 3 MP stroke
4 8 -7 -4 5628 2612 3 MP stroke
9 1 -8 4 5621 2751 3 MP stroke
9 6 -10 -1 5621 2866 3 MP stroke
10 2 -9 4 5619 2998 3 MP stroke
7 9 -10 -4 5624 3107 3 MP stroke
8 1 -7 3 5624 3247 3 MP stroke
8 5 -9 0 5621 3365 3 MP stroke
11 4 -12 2 5616 3491 3 MP stroke
11 5 -11 1 5616 3613 3 MP stroke
13 4 -13 3 5613 3739 3 MP stroke
14 5 -14 3 5611 3862 3 MP stroke
16 4 -16 4 5608 3989 3 MP stroke
10 9 -13 -2 5616 4103 3 MP stroke
14 7 -15 2 5610 4232 3 MP stroke
13 7 -15 1 5612 4355 3 MP stroke
14 8 -16 1 5610 4478 3 MP stroke
12 8 -14 0 5613 4602 3 MP stroke
6 -2 -4 5 5735 518 3 MP stroke
4 -3 -3 5 5740 1017 3 MP stroke
5 5 -7 -2 5735 1125 3 MP stroke
7 2 -7 2 5733 1258 3 MP stroke
2 1 -3 0 5742 1381 3 MP stroke
4 0 -3 2 5738 1510 3 MP stroke
2 -5 0 6 5743 1642 3 MP stroke
5 -3 -3 6 5737 1762 3 MP stroke
2 3 -3 -1 5741 1874 3 MP stroke
3 5 -5 -3 5740 1996 3 MP stroke
4 6 -6 -3 5737 2117 3 MP stroke
7 3 -8 1 5732 2249 3 MP stroke
-1 7 -2 -6 5746 2364 3 MP stroke
4 -1 -3 3 5738 2505 3 MP stroke
1 5 -3 -4 5743 2617 3 MP stroke
6 3 -6 1 5734 2747 3 MP stroke
3 1 -3 1 5740 2873 3 MP stroke
4 2 -4 1 5738 2996 3 MP stroke
4 8 -7 -5 5738 3108 3 MP stroke
5 0 -5 3 5736 3248 3 MP stroke
6 5 -7 -2 5734 3363 3 MP stroke
10 6 -11 0 5725 3488 3 MP stroke
8 4 -8 1 5730 3615 3 MP stroke
10 6 -11 0 5726 3736 3 MP stroke
8 3 -8 2 5730 3865 3 MP stroke
9 5 -10 1 5727 3986 3 MP stroke
10 7 -11 -1 5727 4106 3 MP stroke
10 5 -11 2 5725 4234 3 MP stroke
10 4 -11 2 5726 4361 3 MP stroke
13 6 -14 2 5721 4482 3 MP stroke
16 3 -16 6 5823 511 3 MP stroke
10 0 -9 6 5833 1012 3 MP stroke
7 7 -9 -3 5840 1122 3 MP stroke
6 0 -5 3 5842 1260 3 MP stroke
8 7 -10 -1 5837 1372 3 MP stroke
8 1 -7 4 5837 1508 3 MP stroke
6 5 -8 -2 5842 1623 3 MP stroke
8 1 -7 4 5838 1756 3 MP stroke
5 4 -6 -1 5844 1873 3 MP stroke
9 3 -9 2 5837 2000 3 MP stroke
7 6 -8 -2 5840 2120 3 MP stroke
8 2 -8 3 5838 2251 3 MP stroke
7 4 -8 0 5841 2372 3 MP stroke
8 -1 -7 5 5839 2505 3 MP stroke
7 6 -9 -2 5839 2616 3 MP stroke
9 5 -10 1 5836 2744 3 MP stroke
11 4 -11 3 5831 2869 3 MP stroke
12 4 -12 3 5830 2995 3 MP stroke
9 10 -12 -4 5835 3105 3 MP stroke
12 3 -12 4 5831 3244 3 MP stroke
10 4 -11 2 5833 3366 3 MP stroke
11 5 -12 1 5833 3489 3 MP stroke
12 6 -13 2 5828 3613 3 MP stroke
14 8 -16 0 5825 3732 3 MP stroke
13 6 -14 2 5828 3861 3 MP stroke
14 7 -15 2 5825 3982 3 MP stroke
10 11 -13 -4 5831 4099 3 MP stroke
15 5 -15 4 5823 4238 3 MP stroke
14 7 -16 1 5825 4356 3 MP stroke
15 7 -16 2 5823 4481 3 MP stroke
14 7 -15 1 5826 4605 3 MP stroke
11 2 -10 4 5938 389 3 MP stroke
16 -1 -14 10 5931 519 3 MP stroke
4 7 -7 -5 5954 1121 3 MP stroke
8 2 -8 2 5947 1258 3 MP stroke
9 4 -9 1 5943 1377 3 MP stroke
5 0 -5 3 5952 1509 3 MP stroke
2 2 -3 0 5957 1627 3 MP stroke
2 -1 -2 2 5957 1757 3 MP stroke
4 6 -6 -3 5953 1869 3 MP stroke
5 -1 -4 3 5953 2008 3 MP stroke
5 9 -8 -5 5950 2113 3 MP stroke
5 -1 -4 3 5952 2255 3 MP stroke
6 3 -7 0 5950 2373 3 MP stroke
8 3 -8 1 5947 2498 3 MP stroke
6 8 -9 -3 5949 2613 3 MP stroke
9 2 -8 3 5945 2748 3 MP stroke
6 4 -7 1 5948 2868 3 MP stroke
8 2 -8 2 5948 2997 3 MP stroke
9 10 -12 -4 5944 3105 3 MP stroke
10 5 -11 1 5942 3241 3 MP stroke
9 6 -11 -1 5944 3362 3 MP stroke
10 1 -9 4 5943 3497 3 MP stroke
10 10 -12 -3 5940 3604 3 MP stroke
10 3 -11 3 5942 3740 3 MP stroke
9 3 -9 2 5942 3865 3 MP stroke
10 5 -11 1 5940 3986 3 MP stroke
9 4 -10 2 5943 4112 3 MP stroke
10 8 -12 -1 5940 4229 3 MP stroke
14 9 -16 0 5933 4352 3 MP stroke
19 4 -18 7 5923 4487 3 MP stroke
7 -7 -3 10 6056 404 3 MP stroke
6 5 -7 -1 6055 506 3 MP stroke
9 3 -9 2 6052 1008 3 MP stroke
6 3 -7 0 6059 1129 3 MP stroke
9 2 -8 3 6053 1258 3 MP stroke
8 4 -9 1 6054 1377 3 MP stroke
8 4 -8 1 6054 1502 3 MP stroke
8 2 -8 3 6054 1629 3 MP stroke
8 2 -8 3 6054 1753 3 MP stroke
8 5 -9 0 6054 1872 3 MP stroke
9 -1 -8 6 6051 2007 3 MP stroke
8 7 -10 -2 6054 2117 3 MP stroke
9 2 -8 3 6052 2253 3 MP stroke
8 5 -9 0 6053 2369 3 MP stroke
8 3 -9 2 6053 2497 3 MP stroke
8 3 -9 2 6053 2622 3 MP stroke
6 2 -6 2 6056 2748 3 MP stroke
6 4 -7 0 6057 2870 3 MP stroke
8 4 -9 1 6054 2992 3 MP stroke
9 4 -10 1 6051 3117 3 MP stroke
11 3 -12 3 6048 3243 3 MP stroke
10 4 -10 2 6050 3368 3 MP stroke
12 3 -11 4 6046 3493 3 MP stroke
12 12 -15 -4 6045 3601 3 MP stroke
11 4 -11 3 6047 3740 3 MP stroke
13 7 -14 1 6042 3857 3 MP stroke
14 5 -14 4 6040 3988 3 MP stroke
13 9 -14 -1 6042 4105 3 MP stroke
14 5 -14 3 6041 4236 3 MP stroke
13 10 -16 -2 6042 4349 3 MP stroke
23 11 -25 3 6021 4475 3 MP stroke
-1 7 -2 -7 6177 748 3 MP stroke
-4 5 1 -7 6185 874 3 MP stroke
1 1 -1 0 6176 1009 3 MP stroke
3 4 -4 -2 6170 1128 3 MP stroke
1 5 -3 -3 6173 1249 3 MP stroke
2 3 -3 -1 6172 1377 3 MP stroke
4 3 -5 -1 6170 1502 3 MP stroke
5 3 -6 0 6167 1626 3 MP stroke
1 2 -2 0 6174 1753 3 MP stroke
24 4 -23 10 6129 1879 3 MP stroke
6 -1 -5 4 6166 2008 3 MP stroke
1 5 -3 -4 6174 2118 3 MP stroke
4 2 -4 0 6170 2249 3 MP stroke
2 2 -3 -1 6172 2374 3 MP stroke
3 1 -4 1 6171 2499 3 MP stroke
5 5 -7 -2 6167 2616 3 MP stroke
4 3 -4 -1 6170 2746 3 MP stroke
4 4 -5 -2 6170 2866 3 MP stroke
7 2 -7 2 6164 2996 3 MP stroke
6 3 -6 1 6166 3119 3 MP stroke
8 1 -8 3 6162 3249 3 MP stroke
8 10 -11 -4 6160 3355 3 MP stroke
8 1 -8 4 6160 3496 3 MP stroke
10 10 -13 -3 6156 3604 3 MP stroke
13 3 -12 4 6153 3742 3 MP stroke
8 8 -10 -3 6160 3854 3 MP stroke
10 5 -11 1 6156 3988 3 MP stroke
10 6 -11 0 6155 4108 3 MP stroke
11 -1 -10 7 6156 4245 3 MP stroke
12 7 -13 1 6152 4356 3 MP stroke
18 12 -21 -1 6140 4472 3 MP stroke
1006 389 PD
-26 7 1006 513 2 MP stroke
-13 -20 1006 637 2 MP stroke
-7 -32 1006 886 2 MP stroke
-28 -6 1006 1010 2 MP stroke
-30 -2 1006 1134 2 MP stroke
-26 -11 1006 1259 2 MP stroke
-8 -10 1006 1383 2 MP stroke
-29 -3 1006 1507 2 MP stroke
-41 -21 1006 1631 2 MP stroke
-14 -15 1006 2377 2 MP stroke
-16 -4 1006 2502 2 MP stroke
-17 -2 1006 2626 2 MP stroke
-14 -17 1006 2750 2 MP stroke
-12 -16 1006 2874 2 MP stroke
-15 -1 1006 2999 2 MP stroke
-14 -5 1006 3123 2 MP stroke
-11 -8 1006 3247 2 MP stroke
-10 -14 1006 3372 2 MP stroke
-14 -10 1006 3496 2 MP stroke
-18 -8 1006 3620 2 MP stroke
-19 -5 1006 3744 2 MP stroke
-11 -5 1006 3869 2 MP stroke
-25 0 1006 3993 2 MP stroke
-19 -19 1006 4117 2 MP stroke
-23 -2 1006 4242 2 MP stroke
-22 -11 1006 4366 2 MP stroke
-26 6 1006 4490 2 MP stroke
1114 389 PD
-40 1 1114 513 2 MP stroke
-59 -1 1114 637 2 MP stroke
-38 -14 1114 886 2 MP stroke
-40 16 1114 1010 2 MP stroke
-34 -25 1114 1134 2 MP stroke
-44 -4 1114 1259 2 MP stroke
-36 -21 1114 1383 2 MP stroke
-42 -3 1114 1507 2 MP stroke
-38 -14 1114 1631 2 MP stroke
-25 -2 1114 2377 2 MP stroke
-17 -9 1114 2502 2 MP stroke
-25 -8 1114 2626 2 MP stroke
-24 -15 1114 2750 2 MP stroke
-27 -16 1114 2874 2 MP stroke
-19 -10 1114 2999 2 MP stroke
-17 -12 1114 3123 2 MP stroke
-20 -8 1114 3247 2 MP stroke
-17 -8 1114 3372 2 MP stroke
-16 -10 1114 3496 2 MP stroke
-28 -8 1114 3620 2 MP stroke
-34 -1 1114 3744 2 MP stroke
-36 -9 1114 3869 2 MP stroke
-36 -1 1114 3993 2 MP stroke
-45 -11 1114 4117 2 MP stroke
-44 -1 1114 4242 2 MP stroke
-38 -9 1114 4366 2 MP stroke
-43 5 1114 4490 2 MP stroke
-48 16 1222 513 2 MP stroke
-34 -1 1222 637 2 MP stroke
-38 15 1222 761 2 MP stroke
-38 -5 1222 886 2 MP stroke
-33 6 1222 1010 2 MP stroke
-28 -16 1222 1134 2 MP stroke
-22 -16 1222 1383 2 MP stroke
-26 -10 1222 1507 2 MP stroke
-30 -15 1222 1631 2 MP stroke
-23 -14 1222 2502 2 MP stroke
-25 -18 1222 2626 2 MP stroke
-33 -7 1222 2750 2 MP stroke
-21 -16 1222 2874 2 MP stroke
-16 -11 1222 2999 2 MP stroke
-13 -13 1222 3123 2 MP stroke
-7 -11 1222 3247 2 MP stroke
-13 -9 1222 3372 2 MP stroke
-15 -6 1222 3496 2 MP stroke
-25 -9 1222 3620 2 MP stroke
-23 -8 1222 3744 2 MP stroke
-30 -4 1222 3869 2 MP stroke
-22 0 1222 3993 2 MP stroke
-27 -15 1222 4117 2 MP stroke
-22 1 1222 4242 2 MP stroke
-26 -7 1222 4366 2 MP stroke
-34 2 1222 4490 2 MP stroke
1329 389 PD
-42 6 1329 513 2 MP stroke
-34 -4 1329 637 2 MP stroke
-28 -3 1329 761 2 MP stroke
-40 -16 1329 886 2 MP stroke
-40 4 1329 1010 2 MP stroke
-60 -22 1329 1134 2 MP stroke
-42 5 1329 1259 2 MP stroke
-6 -1 1329 1507 2 MP stroke
-17 -7 1329 2502 2 MP stroke
-26 -22 1329 2626 2 MP stroke
-17 -15 1329 2750 2 MP stroke
-19 -12 1329 2874 2 MP stroke
-20 -7 1329 2999 2 MP stroke
-21 -14 1329 3123 2 MP stroke
-22 -3 1329 3247 2 MP stroke
-17 -10 1329 3372 2 MP stroke
-18 -8 1329 3496 2 MP stroke
-20 -7 1329 3620 2 MP stroke
-27 -8 1329 3744 2 MP stroke
-26 -6 1329 3869 2 MP stroke
-35 -3 1329 3993 2 MP stroke
-36 -6 1329 4117 2 MP stroke
-32 -9 1329 4242 2 MP stroke
-34 -19 1329 4366 2 MP stroke
-38 5 1329 4490 2 MP stroke
1437 389 PD
-37 14 1437 513 2 MP stroke
-30 -10 1437 637 2 MP stroke
-37 -2 1437 761 2 MP stroke
-19 -7 1437 886 2 MP stroke
-30 5 1437 1010 2 MP stroke
-29 -9 1437 1134 2 MP stroke
-20 5 1437 1259 2 MP stroke
12 -3 1437 1383 2 MP stroke
-16 -13 1437 2502 2 MP stroke
-15 -8 1437 2626 2 MP stroke
-5 -4 1437 3123 2 MP stroke
-16 -2 1437 3247 2 MP stroke
-8 -7 1437 3372 2 MP stroke
-8 -7 1437 3496 2 MP stroke
-15 -5 1437 3620 2 MP stroke
-17 -11 1437 3744 2 MP stroke
-14 -10 1437 3869 2 MP stroke
-25 -9 1437 3993 2 MP stroke
-26 -9 1437 4117 2 MP stroke
-28 -9 1437 4242 2 MP stroke
-32 -2 1437 4366 2 MP stroke
-33 -1 1437 4490 2 MP stroke
1545 389 PD
-39 3 1545 513 2 MP stroke
-39 0 1545 637 2 MP stroke
-41 10 1545 761 2 MP stroke
-39 -6 1545 886 2 MP stroke
-39 1 1545 1010 2 MP stroke
-47 2 1545 1134 2 MP stroke
-46 1 1545 1259 2 MP stroke
-48 -8 1545 1383 2 MP stroke
-57 -12 1545 1507 2 MP stroke
-18 -21 1545 3123 2 MP stroke
-24 -1 1545 3247 2 MP stroke
-19 -4 1545 3372 2 MP stroke
-23 -5 1545 3496 2 MP stroke
-29 -2 1545 3620 2 MP stroke
-27 -3 1545 3744 2 MP stroke
-32 -6 1545 3869 2 MP stroke
-36 -4 1545 3993 2 MP stroke
-37 -3 1545 4117 2 MP stroke
-40 -7 1545 4242 2 MP stroke
-34 -1 1545 4366 2 MP stroke
-36 1 1545 4490 2 MP stroke
1653 389 PD
-26 15 1653 513 2 MP stroke
-29 -12 1653 637 2 MP stroke
-30 8 1653 761 2 MP stroke
-34 0 1653 886 2 MP stroke
-36 14 1653 1010 2 MP stroke
-25 -13 1653 1134 2 MP stroke
-27 7 1653 1259 2 MP stroke
-33 -1 1653 1383 2 MP stroke
-28 -11 1653 1507 2 MP stroke
-36 56 1653 2502 2 MP stroke
-11 -2 1653 2626 2 MP stroke
-18 2 1653 2750 2 MP stroke
-18 -2 1653 3123 2 MP stroke
-27 -5 1653 3247 2 MP stroke
-25 -4 1653 3372 2 MP stroke
-21 0 1653 3496 2 MP stroke
-26 -1 1653 3620 2 MP stroke
-26 -3 1653 3744 2 MP stroke
-25 -9 1653 3869 2 MP stroke
-26 -7 1653 3993 2 MP stroke
-23 -4 1653 4117 2 MP stroke
-24 -7 1653 4242 2 MP stroke
-24 -16 1653 4366 2 MP stroke
-28 -8 1653 4490 2 MP stroke
-28 -8 1653 4615 2 MP stroke
1760 389 PD
-31 3 1760 513 2 MP stroke
-47 -23 1760 637 2 MP stroke
-42 7 1760 761 2 MP stroke
-56 -5 1760 886 2 MP stroke
-35 10 1760 1010 2 MP stroke
-45 -3 1760 1134 2 MP stroke
-44 12 1760 1259 2 MP stroke
-30 9 1760 1383 2 MP stroke
-18 -8 1760 1507 2 MP stroke
-27 -9 1760 1631 2 MP stroke
-23 14 1760 2502 2 MP stroke
-27 -10 1760 2626 2 MP stroke
-19 10 1760 2750 2 MP stroke
-20 7 1760 2874 2 MP stroke
-18 -2 1760 2999 2 MP stroke
-18 -6 1760 3123 2 MP stroke
-20 -5 1760 3247 2 MP stroke
-17 -8 1760 3372 2 MP stroke
-30 -4 1760 3496 2 MP stroke
-30 -3 1760 3620 2 MP stroke
-21 -7 1760 3744 2 MP stroke
-27 -7 1760 3869 2 MP stroke
-27 -10 1760 3993 2 MP stroke
-39 -20 1760 4117 2 MP stroke
-42 3 1760 4242 2 MP stroke
-31 -7 1760 4366 2 MP stroke
-35 -7 1760 4490 2 MP stroke
1868 389 PD
-8 1 1868 513 2 MP stroke
-39 -11 1868 637 2 MP stroke
-23 -2 1868 761 2 MP stroke
-27 -1 1868 886 2 MP stroke
-32 8 1868 1010 2 MP stroke
-29 -6 1868 1134 2 MP stroke
-35 7 1868 1259 2 MP stroke
-30 -5 1868 1383 2 MP stroke
-12 -7 1868 1507 2 MP stroke
-10 -5 1868 1631 2 MP stroke
-18 -23 1868 2626 2 MP stroke
-7 2 1868 2750 2 MP stroke
-12 -1 1868 2874 2 MP stroke
-6 8 1868 2999 2 MP stroke
-11 -17 1868 3123 2 MP stroke
-11 -6 1868 3247 2 MP stroke
-18 -10 1868 3372 2 MP stroke
-17 -5 1868 3496 2 MP stroke
-9 -5 1868 3620 2 MP stroke
-11 -8 1868 3744 2 MP stroke
-16 -11 1868 3869 2 MP stroke
-21 -11 1868 3993 2 MP stroke
-25 -12 1868 4117 2 MP stroke
-29 -8 1868 4242 2 MP stroke
-30 -13 1868 4366 2 MP stroke
-24 -11 1868 4490 2 MP stroke
-25 -11 1868 4615 2 MP stroke
1976 389 PD
-31 4 1976 513 2 MP stroke
-61 -5 1976 637 2 MP stroke
-35 2 1976 761 2 MP stroke
-42 3 1976 886 2 MP stroke
-46 3 1976 1010 2 MP stroke
-38 -8 1976 1134 2 MP stroke
-40 -6 1976 1259 2 MP stroke
-41 -3 1976 1383 2 MP stroke
-36 -4 1976 1507 2 MP stroke
-9 -9 1976 1631 2 MP stroke
-26 -14 1976 2502 2 MP stroke
-28 -7 1976 2626 2 MP stroke
-23 -3 1976 2750 2 MP stroke
-20 -15 1976 2874 2 MP stroke
-17 1 1976 2999 2 MP stroke
-19 -3 1976 3123 2 MP stroke
-18 -9 1976 3247 2 MP stroke
-22 -8 1976 3372 2 MP stroke
-28 -5 1976 3496 2 MP stroke
-31 -6 1976 3620 2 MP stroke
-33 -7 1976 3744 2 MP stroke
-38 -9 1976 3869 2 MP stroke
-41 -6 1976 3993 2 MP stroke
-43 -5 1976 4117 2 MP stroke
-36 -6 1976 4242 2 MP stroke
-35 -11 1976 4366 2 MP stroke
-41 -2 1976 4490 2 MP stroke
-33 -16 1976 4615 2 MP stroke
-31 0 2084 389 2 MP stroke
-36 11 2084 513 2 MP stroke
-32 -3 2084 637 2 MP stroke
-34 12 2084 761 2 MP stroke
-30 3 2084 886 2 MP stroke
-43 10 2084 1010 2 MP stroke
-38 -5 2084 1134 2 MP stroke
-11 10 2084 1259 2 MP stroke
-21 -1 2084 1383 2 MP stroke
-14 -8 2084 1507 2 MP stroke
-19 -9 2084 1631 2 MP stroke
-11 5 2084 2377 2 MP stroke
-18 2 2084 2502 2 MP stroke
-19 -15 2084 2626 2 MP stroke
-12 -2 2084 2750 2 MP stroke
-8 -9 2084 2874 2 MP stroke
-5 -5 2084 2999 2 MP stroke
-8 -10 2084 3123 2 MP stroke
-13 -10 2084 3247 2 MP stroke
-21 -5 2084 3372 2 MP stroke
-20 -5 2084 3496 2 MP stroke
-20 -6 2084 3620 2 MP stroke
-23 -6 2084 3744 2 MP stroke
-28 -8 2084 3869 2 MP stroke
-25 -5 2084 3993 2 MP stroke
-26 -8 2084 4117 2 MP stroke
-33 -6 2084 4242 2 MP stroke
-30 -7 2084 4366 2 MP stroke
-25 -5 2084 4490 2 MP stroke
-32 -6 2084 4615 2 MP stroke
2191 389 PD
-46 15 2191 513 2 MP stroke
-35 -11 2191 637 2 MP stroke
-42 2 2191 761 2 MP stroke
-39 2 2191 886 2 MP stroke
-43 -10 2191 1010 2 MP stroke
-45 -3 2191 1134 2 MP stroke
-48 8 2191 1259 2 MP stroke
-25 3 2191 1383 2 MP stroke
-32 -5 2191 1631 2 MP stroke
-15 -7 2191 2377 2 MP stroke
-19 5 2191 2502 2 MP stroke
-28 -14 2191 2626 2 MP stroke
-20 -8 2191 2750 2 MP stroke
-23 -12 2191 2874 2 MP stroke
-18 -8 2191 2999 2 MP stroke
-19 -10 2191 3123 2 MP stroke
-22 -11 2191 3247 2 MP stroke
-16 -3 2191 3372 2 MP stroke
-21 -3 2191 3496 2 MP stroke
-19 -4 2191 3620 2 MP stroke
-30 -7 2191 3744 2 MP stroke
-23 -17 2191 3869 2 MP stroke
-27 -3 2191 3993 2 MP stroke
-30 -21 2191 4117 2 MP stroke
-29 -3 2191 4242 2 MP stroke
-37 -8 2191 4366 2 MP stroke
-37 0 2191 4490 2 MP stroke
-30 15 2299 513 2 MP stroke
-39 2 2299 637 2 MP stroke
-28 10 2299 761 2 MP stroke
-26 -8 2299 886 2 MP stroke
-29 2 2299 1010 2 MP stroke
-32 -20 2299 1134 2 MP stroke
-27 -3 2299 1259 2 MP stroke
-26 -7 2299 1383 2 MP stroke
0 10 2299 1507 2 MP stroke
-12 -13 2299 1631 2 MP stroke
-10 -4 2299 1756 2 MP stroke
-9 -5 2299 1880 2 MP stroke
-17 3 2299 2253 2 MP stroke
-13 -9 2299 2377 2 MP stroke
-13 -3 2299 2502 2 MP stroke
-13 -4 2299 2626 2 MP stroke
-5 -12 2299 2750 2 MP stroke
-6 -21 2299 2874 2 MP stroke
-10 -6 2299 2999 2 MP stroke
-9 -5 2299 3123 2 MP stroke
-8 -5 2299 3247 2 MP stroke
-17 -15 2299 3372 2 MP stroke
-10 1 2299 3496 2 MP stroke
-18 -24 2299 3620 2 MP stroke
-14 -9 2299 3744 2 MP stroke
-15 -17 2299 3869 2 MP stroke
-27 -7 2299 3993 2 MP stroke
-29 -5 2299 4117 2 MP stroke
-32 -10 2299 4242 2 MP stroke
-28 -13 2299 4366 2 MP stroke
-27 2 2299 4490 2 MP stroke
2407 389 PD
-47 13 2407 513 2 MP stroke
-40 0 2407 637 2 MP stroke
-39 4 2407 761 2 MP stroke
-39 -9 2407 886 2 MP stroke
-36 1 2407 1010 2 MP stroke
-39 -12 2407 1134 2 MP stroke
-25 2 2407 1507 2 MP stroke
-18 -21 2407 1631 2 MP stroke
-20 -15 2407 1756 2 MP stroke
-23 -10 2407 1880 2 MP stroke
-22 10 2407 2004 2 MP stroke
-19 -9 2407 2129 2 MP stroke
-24 2 2407 2253 2 MP stroke
-22 -3 2407 2377 2 MP stroke
-20 -7 2407 2502 2 MP stroke
-25 -4 2407 2626 2 MP stroke
-18 -6 2407 2750 2 MP stroke
-19 -17 2407 2874 2 MP stroke
-19 3 2407 2999 2 MP stroke
-22 -17 2407 3123 2 MP stroke
-23 -3 2407 3247 2 MP stroke
-33 -12 2407 3372 2 MP stroke
-27 -1 2407 3496 2 MP stroke
-30 -2 2407 3620 2 MP stroke
-35 -6 2407 3744 2 MP stroke
-38 -15 2407 3869 2 MP stroke
-39 -2 2407 3993 2 MP stroke
-39 -2 2407 4117 2 MP stroke
-36 -7 2407 4242 2 MP stroke
-41 -10 2407 4366 2 MP stroke
-44 -2 2407 4490 2 MP stroke
2515 389 PD
-44 11 2515 513 2 MP stroke
-36 -9 2515 637 2 MP stroke
-28 -21 2515 886 2 MP stroke
-30 -6 2515 1010 2 MP stroke
-49 -18 2515 1134 2 MP stroke
-35 12 2515 1259 2 MP stroke
-27 2 2515 1383 2 MP stroke
-25 10 2515 1507 2 MP stroke
-12 -3 2515 1631 2 MP stroke
-16 4 2515 1756 2 MP stroke
-10 -4 2515 1880 2 MP stroke
-15 -13 2515 2004 2 MP stroke
-13 -20 2515 2129 2 MP stroke
-11 6 2515 2253 2 MP stroke
-14 -12 2515 2377 2 MP stroke
-17 -3 2515 2502 2 MP stroke
-11 -17 2515 2626 2 MP stroke
-15 0 2515 2750 2 MP stroke
-14 0 2515 2874 2 MP stroke
-10 -4 2515 2999 2 MP stroke
-14 -23 2515 3123 2 MP stroke
-14 -5 2515 3247 2 MP stroke
-20 -10 2515 3372 2 MP stroke
-15 -2 2515 3496 2 MP stroke
-18 -8 2515 3620 2 MP stroke
-29 -5 2515 3744 2 MP stroke
-23 -7 2515 3869 2 MP stroke
-24 -6 2515 3993 2 MP stroke
-28 -4 2515 4117 2 MP stroke
-33 -6 2515 4242 2 MP stroke
-34 -6 2515 4366 2 MP stroke
-23 -4 2515 4490 2 MP stroke
2622 389 PD
-44 9 2622 513 2 MP stroke
-44 -5 2622 637 2 MP stroke
-33 14 2622 761 2 MP stroke
-45 0 2622 886 2 MP stroke
-35 -11 2622 1010 2 MP stroke
-45 0 2622 1134 2 MP stroke
-43 8 2622 1259 2 MP stroke
-42 -3 2622 1383 2 MP stroke
-39 10 2622 1507 2 MP stroke
-40 -17 2622 1631 2 MP stroke
-27 5 2622 1756 2 MP stroke
-27 -1 2622 1880 2 MP stroke
-24 -14 2622 2004 2 MP stroke
-21 -12 2622 2129 2 MP stroke
-17 12 2622 2253 2 MP stroke
-16 -7 2622 2377 2 MP stroke
-19 1 2622 2502 2 MP stroke
-20 -5 2622 2626 2 MP stroke
-22 2 2622 2750 2 MP stroke
-21 -8 2622 2874 2 MP stroke
-17 -8 2622 2999 2 MP stroke
-16 -9 2622 3123 2 MP stroke
-17 -4 2622 3247 2 MP stroke
-27 -9 2622 3372 2 MP stroke
-22 -1 2622 3496 2 MP stroke
-22 -14 2622 3620 2 MP stroke
-22 2 2622 3744 2 MP stroke
-26 -4 2622 3869 2 MP stroke
-26 -6 2622 3993 2 MP stroke
-37 -24 2622 4117 2 MP stroke
-32 -5 2622 4242 2 MP stroke
-37 -8 2622 4366 2 MP stroke
-34 -9 2622 4490 2 MP stroke
-40 -12 2622 4615 2 MP stroke
-29 3 2730 389 2 MP stroke
-38 14 2730 513 2 MP stroke
-32 -1 2730 637 2 MP stroke
-31 5 2730 761 2 MP stroke
-37 6 2730 886 2 MP stroke
-20 -2 2730 1010 2 MP stroke
-22 -22 2730 1134 2 MP stroke
-8 -5 2730 1383 2 MP stroke
-30 2 2730 1507 2 MP stroke
-27 -17 2730 1631 2 MP stroke
-5 -21 2730 1880 2 MP stroke
-5 -10 2730 2377 2 MP stroke
-1 -11 2730 2502 2 MP stroke
-8 -3 2730 2626 2 MP stroke
-8 -6 2730 2750 2 MP stroke
-7 -2 2730 2874 2 MP stroke
-15 -6 2730 2999 2 MP stroke
-8 -11 2730 3123 2 MP stroke
-10 -3 2730 3247 2 MP stroke
-16 -6 2730 3372 2 MP stroke
-12 -3 2730 3496 2 MP stroke
-19 -11 2730 3620 2 MP stroke
-13 2 2730 3744 2 MP stroke
-17 -9 2730 3869 2 MP stroke
-19 0 2730 3993 2 MP stroke
-28 -23 2730 4117 2 MP stroke
-28 -7 2730 4242 2 MP stroke
-26 -9 2730 4366 2 MP stroke
-33 -9 2730 4490 2 MP stroke
-28 -4 2730 4615 2 MP stroke
2838 389 PD
-50 16 2838 513 2 MP stroke
-31 1 2838 637 2 MP stroke
-44 -3 2838 761 2 MP stroke
-22 -8 2838 1259 2 MP stroke
-15 -7 2838 1383 2 MP stroke
-21 10 2838 1507 2 MP stroke
-13 -13 2838 1631 2 MP stroke
-16 -16 2838 2377 2 MP stroke
-20 -4 2838 2502 2 MP stroke
-22 -8 2838 2626 2 MP stroke
-20 -3 2838 2750 2 MP stroke
-21 -2 2838 2874 2 MP stroke
-20 -3 2838 2999 2 MP stroke
-21 -4 2838 3123 2 MP stroke
-26 2 2838 3247 2 MP stroke
-22 -9 2838 3372 2 MP stroke
-26 -1 2838 3496 2 MP stroke
-25 -18 2838 3620 2 MP stroke
-42 0 2838 3744 2 MP stroke
-42 -3 2838 3869 2 MP stroke
-37 -4 2838 3993 2 MP stroke
-37 -3 2838 4117 2 MP stroke
-33 -8 2838 4242 2 MP stroke
-36 -5 2838 4366 2 MP stroke
-43 -2 2838 4490 2 MP stroke
-31 -4 2838 4615 2 MP stroke
-29 0 2945 389 2 MP stroke
-48 13 2945 513 2 MP stroke
-8 0 2945 637 2 MP stroke
-23 6 2945 886 2 MP stroke
-33 -7 2945 1259 2 MP stroke
-33 0 2945 1383 2 MP stroke
-28 4 2945 1507 2 MP stroke
-16 -10 2945 2502 2 MP stroke
-16 -12 2945 2626 2 MP stroke
-9 -5 2945 2750 2 MP stroke
-9 -12 2945 2874 2 MP stroke
-7 -2 2945 2999 2 MP stroke
-11 -24 2945 3123 2 MP stroke
-10 0 2945 3247 2 MP stroke
-24 -10 2945 3372 2 MP stroke
-17 -2 2945 3496 2 MP stroke
-18 -3 2945 3620 2 MP stroke
-25 -5 2945 3744 2 MP stroke
-22 -12 2945 3869 2 MP stroke
-21 -9 2945 3993 2 MP stroke
-31 -8 2945 4117 2 MP stroke
-29 -1 2945 4242 2 MP stroke
-34 -1 2945 4366 2 MP stroke
-35 -2 2945 4490 2 MP stroke
3053 389 PD
-56 7 3053 513 2 MP stroke
-49 5 3053 637 2 MP stroke
-35 -13 3053 1259 2 MP stroke
-31 0 3053 1383 2 MP stroke
-19 -3 3053 1507 2 MP stroke
-22 -4 3053 1631 2 MP stroke
-24 -18 3053 1756 2 MP stroke
-23 -3 3053 1880 2 MP stroke
-12 -13 3053 2502 2 MP stroke
-22 -3 3053 2626 2 MP stroke
-22 -5 3053 2750 2 MP stroke
-21 -3 3053 2874 2 MP stroke
-22 -3 3053 2999 2 MP stroke
-22 -2 3053 3123 2 MP stroke
-18 -2 3053 3247 2 MP stroke
-24 -2 3053 3372 2 MP stroke
-26 -5 3053 3496 2 MP stroke
-28 -6 3053 3620 2 MP stroke
-20 -3 3053 3744 2 MP stroke
-25 -3 3053 3869 2 MP stroke
-28 -6 3053 3993 2 MP stroke
-35 -4 3053 4117 2 MP stroke
-36 -2 3053 4242 2 MP stroke
-44 -13 3053 4366 2 MP stroke
-38 -10 3053 4490 2 MP stroke
-35 -19 3053 4615 2 MP stroke
3161 389 PD
-44 11 3161 513 2 MP stroke
-30 5 3161 637 2 MP stroke
-21 -8 3161 1134 2 MP stroke
-8 -10 3161 1259 2 MP stroke
-13 -7 3161 1383 2 MP stroke
-13 16 3161 1507 2 MP stroke
-6 22 3161 1631 2 MP stroke
-8 8 3161 1756 2 MP stroke
-6 22 3161 1880 2 MP stroke
-11 35 3161 2004 2 MP stroke
-11 10 3161 2129 2 MP stroke
-15 -1 3161 2253 2 MP stroke
-7 3 3161 2377 2 MP stroke
-12 -1 3161 2502 2 MP stroke
-9 -14 3161 2626 2 MP stroke
-11 -10 3161 2750 2 MP stroke
-8 -20 3161 2874 2 MP stroke
-12 -7 3161 2999 2 MP stroke
-8 -3 3161 3123 2 MP stroke
-16 -1 3161 3247 2 MP stroke
-16 -5 3161 3372 2 MP stroke
-15 -3 3161 3496 2 MP stroke
-17 -4 3161 3620 2 MP stroke
-14 -7 3161 3744 2 MP stroke
-17 -4 3161 3869 2 MP stroke
-26 -8 3161 3993 2 MP stroke
-29 -4 3161 4117 2 MP stroke
-24 -7 3161 4242 2 MP stroke
-27 -6 3161 4366 2 MP stroke
-28 -1 3161 4490 2 MP stroke
3269 389 PD
-45 4 3269 513 2 MP stroke
-44 -7 3269 637 2 MP stroke
-47 -14 3269 886 2 MP stroke
-41 1 3269 1010 2 MP stroke
-14 12 3269 1259 2 MP stroke
-24 -9 3269 1383 2 MP stroke
-24 12 3269 1507 2 MP stroke
-24 -11 3269 1631 2 MP stroke
-26 3 3269 1756 2 MP stroke
-16 -4 3269 1880 2 MP stroke
-27 12 3269 2004 2 MP stroke
-19 -9 3269 2129 2 MP stroke
-19 -2 3269 2253 2 MP stroke
-19 -8 3269 2377 2 MP stroke
-20 -1 3269 2502 2 MP stroke
-24 -21 3269 2626 2 MP stroke
-21 1 3269 2750 2 MP stroke
-19 -3 3269 2874 2 MP stroke
-18 -4 3269 2999 2 MP stroke
-22 -2 3269 3123 2 MP stroke
-22 0 3269 3247 2 MP stroke
-25 -10 3269 3372 2 MP stroke
-27 -2 3269 3496 2 MP stroke
-25 -18 3269 3620 2 MP stroke
-40 -4 3269 3744 2 MP stroke
-36 -10 3269 3869 2 MP stroke
-42 -9 3269 3993 2 MP stroke
-35 -7 3269 4117 2 MP stroke
-39 -9 3269 4242 2 MP stroke
-39 -5 3269 4366 2 MP stroke
-44 0 3269 4490 2 MP stroke
3376 389 PD
-51 16 3376 513 2 MP stroke
-40 -4 3376 637 2 MP stroke
-27 6 3376 761 2 MP stroke
-29 -6 3376 886 2 MP stroke
-24 6 3376 1010 2 MP stroke
-32 -18 3376 1134 2 MP stroke
-7 5 3376 1507 2 MP stroke
-7 -18 3376 1631 2 MP stroke
-6 4 3376 1756 2 MP stroke
-12 0 3376 1880 2 MP stroke
-15 6 3376 2004 2 MP stroke
-7 -10 3376 2129 2 MP stroke
-7 1 3376 2253 2 MP stroke
-5 -15 3376 2377 2 MP stroke
-5 -4 3376 2502 2 MP stroke
-8 -21 3376 2626 2 MP stroke
-12 -7 3376 2750 2 MP stroke
-9 -7 3376 2874 2 MP stroke
-16 -2 3376 2999 2 MP stroke
-13 -20 3376 3123 2 MP stroke
-14 0 3376 3247 2 MP stroke
-9 -5 3376 3372 2 MP stroke
-24 0 3376 3496 2 MP stroke
-20 -19 3376 3620 2 MP stroke
-27 -6 3376 3744 2 MP stroke
-21 -9 3376 3869 2 MP stroke
-30 -8 3376 3993 2 MP stroke
-33 -6 3376 4117 2 MP stroke
-25 -4 3376 4242 2 MP stroke
-29 -5 3376 4366 2 MP stroke
-39 -11 3376 4490 2 MP stroke
3484 389 PD
-35 4 3484 513 2 MP stroke
-54 -6 3484 637 2 MP stroke
-47 6 3484 761 2 MP stroke
-42 1 3484 886 2 MP stroke
-36 4 3484 1010 2 MP stroke
-31 -27 3484 1134 2 MP stroke
-7 -3 3484 1507 2 MP stroke
-8 1 3484 1631 2 MP stroke
-23 -12 3484 1880 2 MP stroke
-19 6 3484 2004 2 MP stroke
-23 -7 3484 2129 2 MP stroke
-17 -3 3484 2253 2 MP stroke
-20 -24 3484 2377 2 MP stroke
-16 -3 3484 2502 2 MP stroke
-20 -20 3484 2626 2 MP stroke
-21 -5 3484 2750 2 MP stroke
-19 -9 3484 2874 2 MP stroke
-20 -5 3484 2999 2 MP stroke
-30 -2 3484 3123 2 MP stroke
-18 -3 3484 3247 2 MP stroke
-21 -6 3484 3372 2 MP stroke
-26 -4 3484 3496 2 MP stroke
-23 -3 3484 3620 2 MP stroke
-29 -7 3484 3744 2 MP stroke
-33 -3 3484 3869 2 MP stroke
-36 -7 3484 3993 2 MP stroke
-39 -22 3484 4117 2 MP stroke
-38 -5 3484 4242 2 MP stroke
-43 -9 3484 4366 2 MP stroke
-45 -12 3484 4490 2 MP stroke
-69 -8 3484 4615 2 MP stroke
-25 1 3592 389 2 MP stroke
-39 7 3592 513 2 MP stroke
-40 0 3592 637 2 MP stroke
-7 -2 3592 1756 2 MP stroke
-12 -13 3592 2129 2 MP stroke
-17 6 3592 2253 2 MP stroke
-13 -13 3592 2377 2 MP stroke
-7 -2 3592 2502 2 MP stroke
-5 -15 3592 2626 2 MP stroke
-7 -2 3592 2750 2 MP stroke
-9 -9 3592 2874 2 MP stroke
-11 -9 3592 2999 2 MP stroke
-14 -8 3592 3123 2 MP stroke
-17 -7 3592 3247 2 MP stroke
-9 -11 3592 3372 2 MP stroke
-17 -5 3592 3496 2 MP stroke
-20 -6 3592 3620 2 MP stroke
-9 -2 3592 3744 2 MP stroke
-24 -12 3592 3869 2 MP stroke
-31 -8 3592 3993 2 MP stroke
-28 -17 3592 4117 2 MP stroke
-28 -9 3592 4242 2 MP stroke
-30 -10 3592 4366 2 MP stroke
-53 -12 3592 4490 2 MP stroke
3700 389 PD
-61 6 3700 513 2 MP stroke
-52 1 3700 637 2 MP stroke
-24 -7 3700 1383 2 MP stroke
-27 -7 3700 1507 2 MP stroke
-23 -14 3700 1631 2 MP stroke
-13 -12 3700 1756 2 MP stroke
-16 -4 3700 1880 2 MP stroke
-21 0 3700 2004 2 MP stroke
-26 -18 3700 2129 2 MP stroke
-23 -4 3700 2253 2 MP stroke
-23 -15 3700 2377 2 MP stroke
-17 -4 3700 2502 2 MP stroke
-26 -25 3700 2626 2 MP stroke
-18 0 3700 2750 2 MP stroke
-18 -4 3700 2874 2 MP stroke
-26 -5 3700 2999 2 MP stroke
-27 -4 3700 3123 2 MP stroke
-19 -7 3700 3247 2 MP stroke
-19 -11 3700 3372 2 MP stroke
-25 -4 3700 3496 2 MP stroke
-37 -5 3700 3620 2 MP stroke
-41 -3 3700 3744 2 MP stroke
-38 -1 3700 3869 2 MP stroke
-42 -8 3700 3993 2 MP stroke
-32 -7 3700 4117 2 MP stroke
-40 -6 3700 4242 2 MP stroke
-35 -20 3700 4366 2 MP stroke
-70 2 3700 4490 2 MP stroke
-67 -19 3700 4615 2 MP stroke
3807 389 PD
-54 4 3807 513 2 MP stroke
-44 -3 3807 637 2 MP stroke
-18 -5 3807 1383 2 MP stroke
-27 -1 3807 1631 2 MP stroke
-11 -11 3807 1880 2 MP stroke
-17 14 3807 2004 2 MP stroke
-10 -13 3807 2129 2 MP stroke
-9 -12 3807 2253 2 MP stroke
-15 -4 3807 2377 2 MP stroke
-14 -1 3807 2502 2 MP stroke
-13 -13 3807 2626 2 MP stroke
-7 7 3807 2750 2 MP stroke
-15 -5 3807 2874 2 MP stroke
-20 -6 3807 2999 2 MP stroke
-19 -5 3807 3123 2 MP stroke
-16 -8 3807 3247 2 MP stroke
-18 -8 3807 3372 2 MP stroke
-27 -8 3807 3496 2 MP stroke
-29 -6 3807 3620 2 MP stroke
-24 -7 3807 3744 2 MP stroke
-23 -9 3807 3869 2 MP stroke
-29 1 3807 3993 2 MP stroke
-27 -11 3807 4117 2 MP stroke
-29 3 3807 4242 2 MP stroke
-33 -6 3807 4366 2 MP stroke
-50 -13 3807 4490 2 MP stroke
-55 -6 3807 4615 2 MP stroke
3915 389 PD
-56 7 3915 513 2 MP stroke
-57 -1 3915 637 2 MP stroke
-51 31 3915 1010 2 MP stroke
-28 5 3915 1259 2 MP stroke
-18 -10 3915 1383 2 MP stroke
-19 6 3915 1507 2 MP stroke
-23 -31 3915 1631 2 MP stroke
-26 2 3915 1756 2 MP stroke
-32 1 3915 1880 2 MP stroke
-20 6 3915 2004 2 MP stroke
-23 -4 3915 2129 2 MP stroke
-23 -15 3915 2253 2 MP stroke
-25 -1 3915 2377 2 MP stroke
-24 1 3915 2502 2 MP stroke
-30 -5 3915 2626 2 MP stroke
-20 -8 3915 2750 2 MP stroke
-27 -10 3915 2874 2 MP stroke
-22 -1 3915 2999 2 MP stroke
-23 -18 3915 3123 2 MP stroke
-19 8 3915 3247 2 MP stroke
-30 -10 3915 3372 2 MP stroke
-33 -8 3915 3496 2 MP stroke
-29 -14 3915 3620 2 MP stroke
-23 -10 3915 3744 2 MP stroke
-37 -10 3915 3869 2 MP stroke
-40 -4 3915 3993 2 MP stroke
-38 -2 3915 4117 2 MP stroke
-42 4 3915 4242 2 MP stroke
-39 -12 3915 4366 2 MP stroke
-62 5 3915 4490 2 MP stroke
4023 389 PD
-52 6 4023 513 2 MP stroke
-55 -1 4023 637 2 MP stroke
-57 18 4023 761 2 MP stroke
-49 10 4023 886 2 MP stroke
-64 7 4023 1134 2 MP stroke
-56 45 4023 1259 2 MP stroke
-42 -36 4023 1383 2 MP stroke
-18 -4 4023 1507 2 MP stroke
-15 -17 4023 1631 2 MP stroke
-13 3 4023 1756 2 MP stroke
-12 -3 4023 1880 2 MP stroke
-5 0 4023 2004 2 MP stroke
-7 5 4023 2129 2 MP stroke
-9 -1 4023 2253 2 MP stroke
-16 -12 4023 2377 2 MP stroke
-7 -5 4023 2502 2 MP stroke
-16 -24 4023 2626 2 MP stroke
-9 -9 4023 2750 2 MP stroke
-11 -18 4023 2874 2 MP stroke
-28 13 4023 2999 2 MP stroke
-32 -1 4023 3123 2 MP stroke
-40 8 4023 3247 2 MP stroke
-47 -26 4023 3372 2 MP stroke
-38 -2 4023 3496 2 MP stroke
-32 -1 4023 3620 2 MP stroke
-32 1 4023 3744 2 MP stroke
-28 8 4023 3869 2 MP stroke
-28 1 4023 3993 2 MP stroke
-32 -7 4023 4117 2 MP stroke
-38 11 4023 4242 2 MP stroke
-63 19 4023 4366 2 MP stroke
-66 7 4023 4490 2 MP stroke
-66 19 4131 389 2 MP stroke
-60 8 4131 513 2 MP stroke
-66 4 4131 637 2 MP stroke
-61 10 4131 761 2 MP stroke
-71 -4 4131 886 2 MP stroke
-71 2 4131 1010 2 MP stroke
-71 2 4131 1134 2 MP stroke
-68 21 4131 1259 2 MP stroke
-64 -78 4131 1383 2 MP stroke
-58 -50 4131 1507 2 MP stroke
-61 -9 4131 1631 2 MP stroke
-61 -1 4131 1756 2 MP stroke
-5 -19 4131 1880 2 MP stroke
-47 11 4131 2004 2 MP stroke
-60 31 4131 2129 2 MP stroke
-54 22 4131 2253 2 MP stroke
-65 10 4131 2377 2 MP stroke
-52 1 4131 2502 2 MP stroke
-24 -28 4131 2626 2 MP stroke
-21 -9 4131 2750 2 MP stroke
-26 -1 4131 2874 2 MP stroke
-64 -2 4131 2999 2 MP stroke
-60 -19 4131 3123 2 MP stroke
-64 41 4131 3247 2 MP stroke
-62 -29 4131 3372 2 MP stroke
-64 -4 4131 3496 2 MP stroke
-62 1 4131 3620 2 MP stroke
-60 3 4131 3744 2 MP stroke
-56 16 4131 3869 2 MP stroke
-70 17 4131 3993 2 MP stroke
-65 -2 4131 4117 2 MP stroke
-81 12 4131 4242 2 MP stroke
-70 -19 4131 4366 2 MP stroke
-72 4 4131 4490 2 MP stroke
4238 389 PD
-59 14 4238 513 2 MP stroke
-52 2 4238 637 2 MP stroke
-48 10 4238 761 2 MP stroke
-49 -8 4238 886 2 MP stroke
-50 6 4238 1010 2 MP stroke
-53 0 4238 1134 2 MP stroke
-51 6 4238 1259 2 MP stroke
-56 -49 4238 1383 2 MP stroke
-58 -97 4238 1507 2 MP stroke
-59 -8 4238 1631 2 MP stroke
-53 -5 4238 1756 2 MP stroke
-54 -27 4238 1880 2 MP stroke
-54 -2 4238 2004 2 MP stroke
-51 -10 4238 2129 2 MP stroke
-53 2 4238 2253 2 MP stroke
-58 -2 4238 2377 2 MP stroke
-54 -2 4238 2502 2 MP stroke
-51 -5 4238 2626 2 MP stroke
14 -3 4238 2750 2 MP stroke
-47 -2 4238 2874 2 MP stroke
-54 5 4238 2999 2 MP stroke
-55 -12 4238 3123 2 MP stroke
-59 10 4238 3247 2 MP stroke
-59 -11 4238 3372 2 MP stroke
-58 4 4238 3496 2 MP stroke
-61 -2 4238 3620 2 MP stroke
-60 13 4238 3744 2 MP stroke
-55 -9 4238 3869 2 MP stroke
-59 9 4238 3993 2 MP stroke
-60 -6 4238 4117 2 MP stroke
-60 1 4238 4242 2 MP stroke
-58 -13 4238 4366 2 MP stroke
-55 0 4238 4490 2 MP stroke
-61 1 4346 389 2 MP stroke
-67 13 4346 513 2 MP stroke
-63 0 4346 637 2 MP stroke
-63 12 4346 761 2 MP stroke
-65 -7 4346 886 2 MP stroke
-54 15 4346 1010 2 MP stroke
-66 -5 4346 1134 2 MP stroke
-56 7 4346 1259 2 MP stroke
-36 -10 4346 1383 2 MP stroke
-55 8 4346 1507 2 MP stroke
-58 5 4346 1631 2 MP stroke
-69 -1 4346 1756 2 MP stroke
-68 -5 4346 1880 2 MP stroke
-64 9 4346 2004 2 MP stroke
-44 -2 4346 2129 2 MP stroke
-55 15 4346 2253 2 MP stroke
-46 10 4346 2377 2 MP stroke
-9 -10 4346 2502 2 MP stroke
-20 -4 4346 2626 2 MP stroke
-76 14 4346 2750 2 MP stroke
-63 -2 4346 2874 2 MP stroke
-59 10 4346 2999 2 MP stroke
-42 -10 4346 3123 2 MP stroke
-52 8 4346 3247 2 MP stroke
-71 -2 4346 3372 2 MP stroke
-64 -5 4346 3496 2 MP stroke
-61 -9 4346 3620 2 MP stroke
-70 -1 4346 3744 2 MP stroke
-67 -2 4346 3869 2 MP stroke
-71 10 4346 3993 2 MP stroke
-41 -1 4346 4117 2 MP stroke
-63 9 4346 4242 2 MP stroke
-72 -10 4346 4366 2 MP stroke
-40 -5 4346 4490 2 MP stroke
-39 -7 4346 4615 2 MP stroke
-50 0 4454 389 2 MP stroke
-52 10 4454 513 2 MP stroke
-54 1 4454 637 2 MP stroke
-50 17 4454 761 2 MP stroke
-56 4 4454 886 2 MP stroke
-54 10 4454 1010 2 MP stroke
-58 -7 4454 1134 2 MP stroke
-61 5 4454 1259 2 MP stroke
-57 4 4454 1383 2 MP stroke
-59 22 4454 1507 2 MP stroke
-60 7 4454 1631 2 MP stroke
-56 3 4454 1756 2 MP stroke
-52 6 4454 1880 2 MP stroke
-51 6 4454 2004 2 MP stroke
-56 2 4454 2129 2 MP stroke
-44 6 4454 2253 2 MP stroke
-54 1 4454 2377 2 MP stroke
-52 16 4454 2502 2 MP stroke
-59 -1 4454 2626 2 MP stroke
-53 9 4454 2750 2 MP stroke
-55 2 4454 2874 2 MP stroke
-65 8 4454 2999 2 MP stroke
-63 -10 4454 3123 2 MP stroke
-65 4 4454 3247 2 MP stroke
-64 -9 4454 3372 2 MP stroke
-69 14 4454 3496 2 MP stroke
-69 -12 4454 3620 2 MP stroke
-74 -6 4454 3744 2 MP stroke
-76 1 4454 3869 2 MP stroke
-58 6 4454 3993 2 MP stroke
-54 1 4454 4117 2 MP stroke
-71 1 4454 4242 2 MP stroke
-71 -4 4454 4366 2 MP stroke
-50 -14 4454 4490 2 MP stroke
-52 -23 4454 4615 2 MP stroke
-57 11 4562 513 2 MP stroke
-59 -8 4562 637 2 MP stroke
-66 14 4562 761 2 MP stroke
-67 3 4562 886 2 MP stroke
-76 15 4562 1010 2 MP stroke
-74 -4 4562 1134 2 MP stroke
-71 12 4562 1259 2 MP stroke
-74 6 4562 1383 2 MP stroke
-80 22 4562 1507 2 MP stroke
-75 3 4562 1631 2 MP stroke
-76 13 4562 1756 2 MP stroke
-83 4 4562 1880 2 MP stroke
-71 13 4562 2004 2 MP stroke
-67 2 4562 2129 2 MP stroke
-75 15 4562 2253 2 MP stroke
-79 1 4562 2377 2 MP stroke
-78 16 4562 2502 2 MP stroke
-81 -8 4562 2626 2 MP stroke
-78 7 4562 2750 2 MP stroke
-82 0 4562 2874 2 MP stroke
-79 10 4562 2999 2 MP stroke
-74 -7 4562 3123 2 MP stroke
-76 11 4562 3247 2 MP stroke
-77 -1 4562 3372 2 MP stroke
-82 4 4562 3496 2 MP stroke
-78 -19 4562 3620 2 MP stroke
-79 2 4562 3744 2 MP stroke
-79 -1 4562 3869 2 MP stroke
-73 7 4562 3993 2 MP stroke
-77 -7 4562 4117 2 MP stroke
-78 -11 4562 4242 2 MP stroke
-82 -8 4562 4366 2 MP stroke
-84 -13 4562 4490 2 MP stroke
-62 18 4669 513 2 MP stroke
-63 -1 4669 637 2 MP stroke
-62 20 4669 761 2 MP stroke
-68 1 4669 886 2 MP stroke
-63 7 4669 1010 2 MP stroke
-67 -9 4669 1134 2 MP stroke
-63 7 4669 1259 2 MP stroke
-65 -1 4669 1383 2 MP stroke
-56 9 4669 1507 2 MP stroke
-63 -6 4669 1631 2 MP stroke
-56 10 4669 1756 2 MP stroke
-63 0 4669 1880 2 MP stroke
-65 7 4669 2004 2 MP stroke
-62 -8 4669 2129 2 MP stroke
-60 6 4669 2253 2 MP stroke
-63 -5 4669 2377 2 MP stroke
-67 20 4669 2502 2 MP stroke
-70 1 4669 2626 2 MP stroke
-65 8 4669 2750 2 MP stroke
-53 -5 4669 2874 2 MP stroke
-69 23 4669 2999 2 MP stroke
-68 -5 4669 3123 2 MP stroke
-66 7 4669 3247 2 MP stroke
-69 0 4669 3372 2 MP stroke
-72 2 4669 3496 2 MP stroke
-69 -10 4669 3620 2 MP stroke
-69 -3 4669 3744 2 MP stroke
-71 2 4669 3869 2 MP stroke
-64 9 4669 3993 2 MP stroke
-64 -4 4669 4117 2 MP stroke
-68 -12 4669 4242 2 MP stroke
-60 -21 4669 4366 2 MP stroke
-64 -3 4669 4490 2 MP stroke
-74 -26 4669 4615 2 MP stroke
-63 0 4777 389 2 MP stroke
-72 14 4777 513 2 MP stroke
-71 2 4777 637 2 MP stroke
-62 15 4777 761 2 MP stroke
-65 3 4777 886 2 MP stroke
-72 10 4777 1010 2 MP stroke
-62 -74 4777 1134 2 MP stroke
-65 -21 4777 1259 2 MP stroke
-81 -10 4777 1383 2 MP stroke
-69 -44 4777 1507 2 MP stroke
-69 -26 4777 1631 2 MP stroke
-70 16 4777 1756 2 MP stroke
-69 2 4777 1880 2 MP stroke
-58 5 4777 2004 2 MP stroke
-51 11 4777 2129 2 MP stroke
-52 11 4777 2253 2 MP stroke
-43 -92 4777 2377 2 MP stroke
-67 4 4777 2502 2 MP stroke
-65 2 4777 2626 2 MP stroke
-63 3 4777 2750 2 MP stroke
-66 -6 4777 2874 2 MP stroke
-66 5 4777 2999 2 MP stroke
-65 -5 4777 3123 2 MP stroke
-64 -2 4777 3247 2 MP stroke
-66 -2 4777 3372 2 MP stroke
-65 -13 4777 3496 2 MP stroke
-60 -41 4777 3620 2 MP stroke
-43 -12 4777 3744 2 MP stroke
-40 -15 4777 3869 2 MP stroke
-49 -5 4777 3993 2 MP stroke
-44 -24 4777 4117 2 MP stroke
-36 -1 4777 4242 2 MP stroke
-39 -16 4777 4366 2 MP stroke
-68 -22 4777 4490 2 MP stroke
-73 -25 4777 4615 2 MP stroke
-60 1 4885 389 2 MP stroke
-60 17 4885 513 2 MP stroke
-63 -4 4885 637 2 MP stroke
-65 15 4885 761 2 MP stroke
-60 -18 4885 886 2 MP stroke
-56 -34 4885 1010 2 MP stroke
-60 -110 4885 1134 2 MP stroke
-84 -141 4885 1259 2 MP stroke
-90 -45 4885 1383 2 MP stroke
-59 -65 4885 1507 2 MP stroke
-57 -33 4885 1631 2 MP stroke
-31 -18 4885 1756 2 MP stroke
-31 -60 4885 1880 2 MP stroke
-35 -40 4885 2004 2 MP stroke
-40 -7 4885 2129 2 MP stroke
-17 -4 4885 2253 2 MP stroke
-24 -17 4885 2377 2 MP stroke
-22 6 4885 2502 2 MP stroke
-34 -17 4885 2626 2 MP stroke
-50 7 4885 2750 2 MP stroke
-46 -1 4885 2874 2 MP stroke
-27 0 4885 2999 2 MP stroke
-12 -3 4885 3123 2 MP stroke
-15 12 4885 3247 2 MP stroke
-35 27 4885 3372 2 MP stroke
-26 9 4885 3496 2 MP stroke
-29 -14 4885 3620 2 MP stroke
-19 -2 4885 3744 2 MP stroke
-30 -12 4885 3869 2 MP stroke
-23 -3 4885 3993 2 MP stroke
-21 -5 4885 4117 2 MP stroke
-27 -6 4885 4242 2 MP stroke
-31 -17 4885 4366 2 MP stroke
-28 -5 4885 4490 2 MP stroke
-49 -11 4885 4615 2 MP stroke
-49 0 4992 389 2 MP stroke
-74 17 4992 513 2 MP stroke
-65 3 4992 637 2 MP stroke
-56 -7 4992 761 2 MP stroke
-45 -85 4992 886 2 MP stroke
-43 -113 4992 1010 2 MP stroke
-52 -148 4992 1134 2 MP stroke
-71 -125 4992 1259 2 MP stroke
-98 -71 4992 1383 2 MP stroke
-81 -63 4992 1507 2 MP stroke
-35 -30 4992 1631 2 MP stroke
-27 -27 4992 1756 2 MP stroke
-18 -28 4992 1880 2 MP stroke
-23 -9 4992 2004 2 MP stroke
-28 -15 4992 2129 2 MP stroke
-28 13 4992 2253 2 MP stroke
-25 -7 4992 2377 2 MP stroke
-27 1 4992 2502 2 MP stroke
-21 -15 4992 2626 2 MP stroke
-26 1 4992 2750 2 MP stroke
-30 -12 4992 2874 2 MP stroke
-30 1 4992 2999 2 MP stroke
-37 -17 4992 3123 2 MP stroke
-28 1 4992 3247 2 MP stroke
-37 -6 4992 3372 2 MP stroke
-36 7 4992 3496 2 MP stroke
-34 -17 4992 3620 2 MP stroke
-41 8 4992 3744 2 MP stroke
-36 -11 4992 3869 2 MP stroke
-43 -4 4992 3993 2 MP stroke
-45 -9 4992 4117 2 MP stroke
-36 -8 4992 4242 2 MP stroke
-46 -13 4992 4366 2 MP stroke
-46 -4 4992 4490 2 MP stroke
-66 -9 4992 4615 2 MP stroke
-63 3 5100 389 2 MP stroke
-55 7 5100 513 2 MP stroke
-25 -44 5100 637 2 MP stroke
-22 -8 5100 761 2 MP stroke
-20 -24 5100 886 2 MP stroke
-17 -78 5100 1010 2 MP stroke
-26 -32 5100 1134 2 MP stroke
-16 5 5100 1259 2 MP stroke
-26 -10 5100 1383 2 MP stroke
-13 1 5100 1507 2 MP stroke
-19 -2 5100 1631 2 MP stroke
-12 -9 5100 1756 2 MP stroke
-9 4 5100 1880 2 MP stroke
-17 -7 5100 2004 2 MP stroke
-15 -6 5100 2129 2 MP stroke
-14 -6 5100 2253 2 MP stroke
-12 -3 5100 2377 2 MP stroke
-15 -2 5100 2502 2 MP stroke
-16 -8 5100 2626 2 MP stroke
-16 -2 5100 2750 2 MP stroke
-17 -2 5100 2874 2 MP stroke
-18 -4 5100 2999 2 MP stroke
-20 -2 5100 3123 2 MP stroke
-25 6 5100 3247 2 MP stroke
-24 1 5100 3372 2 MP stroke
-28 4 5100 3496 2 MP stroke
-32 -17 5100 3620 2 MP stroke
-33 1 5100 3744 2 MP stroke
-32 -2 5100 3869 2 MP stroke
-30 -4 5100 3993 2 MP stroke
-31 -12 5100 4117 2 MP stroke
-33 -9 5100 4242 2 MP stroke
-31 -12 5100 4366 2 MP stroke
-34 -7 5100 4490 2 MP stroke
5208 389 PD
-23 -30 5208 513 2 MP stroke
-23 -59 5208 637 2 MP stroke
-23 -25 5208 761 2 MP stroke
-22 -5 5208 886 2 MP stroke
-23 1 5208 1010 2 MP stroke
-20 -14 5208 1134 2 MP stroke
-23 2 5208 1259 2 MP stroke
-22 -5 5208 1383 2 MP stroke
-19 14 5208 1507 2 MP stroke
-19 -18 5208 1631 2 MP stroke
-19 -9 5208 1756 2 MP stroke
-21 -6 5208 1880 2 MP stroke
-23 -8 5208 2004 2 MP stroke
-23 -6 5208 2129 2 MP stroke
-23 -6 5208 2253 2 MP stroke
-24 -3 5208 2377 2 MP stroke
-19 3 5208 2502 2 MP stroke
-24 -16 5208 2626 2 MP stroke
-19 -1 5208 2750 2 MP stroke
-24 -1 5208 2874 2 MP stroke
-29 -6 5208 2999 2 MP stroke
-23 -5 5208 3123 2 MP stroke
-25 -2 5208 3247 2 MP stroke
-22 -1 5208 3372 2 MP stroke
-32 -1 5208 3496 2 MP stroke
-28 -22 5208 3620 2 MP stroke
-34 1 5208 3744 2 MP stroke
-37 -2 5208 3869 2 MP stroke
-41 -7 5208 3993 2 MP stroke
-45 -2 5208 4117 2 MP stroke
-48 -5 5208 4242 2 MP stroke
-47 -10 5208 4366 2 MP stroke
-41 -5 5208 4490 2 MP stroke
-41 -6 5208 4615 2 MP stroke
5316 389 PD
-17 -16 5316 886 2 MP stroke
-14 6 5316 1010 2 MP stroke
-13 -8 5316 1259 2 MP stroke
-7 -6 5316 1383 2 MP stroke
-15 4 5316 1507 2 MP stroke
-10 -4 5316 1631 2 MP stroke
-11 -4 5316 1756 2 MP stroke
-17 -9 5316 1880 2 MP stroke
-13 -5 5316 2004 2 MP stroke
-9 -2 5316 2129 2 MP stroke
-8 -1 5316 2253 2 MP stroke
-13 -11 5316 2377 2 MP stroke
-19 12 5316 2502 2 MP stroke
-11 -17 5316 2626 2 MP stroke
-13 0 5316 2750 2 MP stroke
-12 -14 5316 2874 2 MP stroke
-15 -4 5316 2999 2 MP stroke
-12 -2 5316 3123 2 MP stroke
-22 -5 5316 3247 2 MP stroke
-19 -2 5316 3372 2 MP stroke
-28 0 5316 3496 2 MP stroke
-23 -23 5316 3620 2 MP stroke
-30 4 5316 3744 2 MP stroke
-26 -1 5316 3869 2 MP stroke
-31 -5 5316 3993 2 MP stroke
-26 -25 5316 4117 2 MP stroke
-29 -6 5316 4242 2 MP stroke
-36 -5 5316 4366 2 MP stroke
-37 -10 5316 4490 2 MP stroke
-30 -13 5316 4615 2 MP stroke
-26 -9 5423 1134 2 MP stroke
-21 3 5423 1259 2 MP stroke
-19 -6 5423 1383 2 MP stroke
-19 3 5423 1507 2 MP stroke
-21 -13 5423 1631 2 MP stroke
-33 -5 5423 1756 2 MP stroke
-27 -9 5423 1880 2 MP stroke
-18 0 5423 2004 2 MP stroke
-19 -22 5423 2129 2 MP stroke
-23 5 5423 2253 2 MP stroke
-16 -2 5423 2377 2 MP stroke
-16 -1 5423 2502 2 MP stroke
-16 -16 5423 2626 2 MP stroke
-27 1 5423 2750 2 MP stroke
-30 -7 5423 2874 2 MP stroke
-32 4 5423 2999 2 MP stroke
-28 -16 5423 3123 2 MP stroke
-34 -2 5423 3247 2 MP stroke
-37 -3 5423 3372 2 MP stroke
-36 4 5423 3496 2 MP stroke
-32 -12 5423 3620 2 MP stroke
-39 2 5423 3744 2 MP stroke
-34 -5 5423 3869 2 MP stroke
-35 -3 5423 3993 2 MP stroke
-37 -3 5423 4117 2 MP stroke
-45 -3 5423 4242 2 MP stroke
-44 -8 5423 4366 2 MP stroke
-37 -2 5423 4490 2 MP stroke
-4 -12 5531 1134 2 MP stroke
-12 2 5531 1259 2 MP stroke
31 12 5531 1383 2 MP stroke
-12 9 5531 1507 2 MP stroke
-9 -17 5531 1631 2 MP stroke
-13 9 5531 1756 2 MP stroke
-27 -15 5531 1880 2 MP stroke
-13 6 5531 2004 2 MP stroke
-13 -18 5531 2129 2 MP stroke
-18 4 5531 2253 2 MP stroke
-14 -9 5531 2377 2 MP stroke
-17 10 5531 2502 2 MP stroke
-9 -20 5531 2626 2 MP stroke
-17 6 5531 2750 2 MP stroke
-25 -4 5531 2874 2 MP stroke
-19 9 5531 2999 2 MP stroke
-22 -17 5531 3123 2 MP stroke
-28 5 5531 3247 2 MP stroke
-27 -1 5531 3372 2 MP stroke
-30 0 5531 3496 2 MP stroke
-32 -3 5531 3620 2 MP stroke
-25 -1 5531 3744 2 MP stroke
-27 -13 5531 3869 2 MP stroke
-31 -4 5531 3993 2 MP stroke
-33 -6 5531 4117 2 MP stroke
-31 -4 5531 4242 2 MP stroke
-35 -3 5531 4366 2 MP stroke
-37 -7 5531 4490 2 MP stroke
-4 -20 5639 1134 2 MP stroke
-20 4 5639 1259 2 MP stroke
-2 0 5639 1383 2 MP stroke
-26 -2 5639 1507 2 MP stroke
-12 1 5639 1631 2 MP stroke
-18 14 5639 1756 2 MP stroke
-25 -12 5639 1880 2 MP stroke
-23 1 5639 2004 2 MP stroke
-19 -7 5639 2129 2 MP stroke
-19 6 5639 2253 2 MP stroke
-22 -5 5639 2377 2 MP stroke
-20 11 5639 2502 2 MP stroke
-18 -18 5639 2626 2 MP stroke
-26 5 5639 2750 2 MP stroke
-28 -9 5639 2874 2 MP stroke
-29 3 5639 2999 2 MP stroke
-25 -20 5639 3123 2 MP stroke
-22 3 5639 3247 2 MP stroke
-27 -7 5639 3372 2 MP stroke
-35 -3 5639 3496 2 MP stroke
-34 -6 5639 3620 2 MP stroke
-39 -2 5639 3744 2 MP stroke
-42 -4 5639 3869 2 MP stroke
-47 0 5639 3993 2 MP stroke
-36 -16 5639 4117 2 MP stroke
-44 -8 5639 4242 2 MP stroke
-42 -10 5639 4366 2 MP stroke
-45 -11 5639 4490 2 MP stroke
-40 -13 5639 4615 2 MP stroke
-16 10 5747 513 2 MP stroke
-10 12 5747 1010 2 MP stroke
-19 -11 5747 1134 2 MP stroke
-21 1 5747 1259 2 MP stroke
-8 -2 5747 1383 2 MP stroke
-12 5 5747 1507 2 MP stroke
-4 17 5747 1631 2 MP stroke
-13 12 5747 1756 2 MP stroke
-9 -7 5747 1880 2 MP stroke
-12 -11 5747 2004 2 MP stroke
-16 -15 5747 2129 2 MP stroke
-23 -3 5747 2253 2 MP stroke
-3 -19 5747 2377 2 MP stroke
-12 6 5747 2502 2 MP stroke
-7 -13 5747 2626 2 MP stroke
-19 -2 5747 2750 2 MP stroke
-10 0 5747 2874 2 MP stroke
-13 -2 5747 2999 2 MP stroke
-16 -20 5747 3123 2 MP stroke
-16 4 5747 3247 2 MP stroke
-20 -11 5747 3372 2 MP stroke
-33 -8 5747 3496 2 MP stroke
-25 -4 5747 3620 2 MP stroke
-32 -8 5747 3744 2 MP stroke
-25 -2 5747 3869 2 MP stroke
-30 -6 5747 3993 2 MP stroke
-31 -12 5747 4117 2 MP stroke
-33 -6 5747 4242 2 MP stroke
-32 -3 5747 4366 2 MP stroke
-40 -6 5747 4490 2 MP stroke
5854 389 PD
-47 4 5854 513 2 MP stroke
-30 8 5854 1010 2 MP stroke
-23 -15 5854 1134 2 MP stroke
-17 4 5854 1259 2 MP stroke
-27 -12 5854 1383 2 MP stroke
-24 5 5854 1507 2 MP stroke
-20 -10 5854 1631 2 MP stroke
-23 4 5854 1756 2 MP stroke
-16 -8 5854 1880 2 MP stroke
-26 -2 5854 2004 2 MP stroke
-22 -11 5854 2129 2 MP stroke
-24 1 5854 2253 2 MP stroke
-21 -5 5854 2377 2 MP stroke
-22 8 5854 2502 2 MP stroke
-24 -12 5854 2626 2 MP stroke
-28 -5 5854 2750 2 MP stroke
-34 -2 5854 2874 2 MP stroke
-36 -1 5854 2999 2 MP stroke
-31 -22 5854 3123 2 MP stroke
-35 1 5854 3247 2 MP stroke
-32 -4 5854 3372 2 MP stroke
-33 -6 5854 3496 2 MP stroke
-39 -5 5854 3620 2 MP stroke
-45 -12 5854 3744 2 MP stroke
-40 -6 5854 3869 2 MP stroke
-44 -9 5854 3993 2 MP stroke
-36 -22 5854 4117 2 MP stroke
-46 0 5854 4242 2 MP stroke
-45 -9 5854 4366 2 MP stroke
-47 -7 5854 4490 2 MP stroke
-43 -9 5854 4615 2 MP stroke
-34 4 5962 389 2 MP stroke
-45 16 5962 513 2 MP stroke
-15 -18 5962 1134 2 MP stroke
-23 1 5962 1259 2 MP stroke
-28 -5 5962 1383 2 MP stroke
-15 5 5962 1507 2 MP stroke
-8 -4 5962 1631 2 MP stroke
-7 3 5962 1756 2 MP stroke
-15 -14 5962 1880 2 MP stroke
-13 7 5962 2004 2 MP stroke
-20 -21 5962 2129 2 MP stroke
-14 5 5962 2253 2 MP stroke
-19 -4 5962 2377 2 MP stroke
-23 -3 5962 2502 2 MP stroke
-22 -16 5962 2626 2 MP stroke
-25 1 5962 2750 2 MP stroke
-21 -5 5962 2874 2 MP stroke
-22 0 5962 2999 2 MP stroke
-30 -22 5962 3123 2 MP stroke
-31 -5 5962 3247 2 MP stroke
-29 -11 5962 3372 2 MP stroke
-28 5 5962 3496 2 MP stroke
-34 -19 5962 3620 2 MP stroke
-31 -1 5962 3744 2 MP stroke
-29 -2 5962 3869 2 MP stroke
-33 -6 5962 3993 2 MP stroke
-29 -3 5962 4117 2 MP stroke
-34 -14 5962 4242 2 MP stroke
-45 -14 5962 4366 2 MP stroke
-57 4 5962 4490 2 MP stroke
-17 25 6070 389 2 MP stroke
-22 -8 6070 513 2 MP stroke
-27 0 6070 1010 2 MP stroke
-18 -5 6070 1134 2 MP stroke
-25 2 6070 1259 2 MP stroke
-25 -5 6070 1383 2 MP stroke
-24 -4 6070 1507 2 MP stroke
-24 1 6070 1631 2 MP stroke
-24 0 6070 1756 2 MP stroke
-25 -8 6070 1880 2 MP stroke
-27 9 6070 2004 2 MP stroke
-26 -14 6070 2129 2 MP stroke
-26 3 6070 2253 2 MP stroke
-26 -8 6070 2377 2 MP stroke
-26 -3 6070 2502 2 MP stroke
-26 -2 6070 2626 2 MP stroke
-20 0 6070 2750 2 MP stroke
-20 -4 6070 2874 2 MP stroke
-25 -6 6070 2999 2 MP stroke
-29 -5 6070 3123 2 MP stroke
-34 -1 6070 3247 2 MP stroke
-30 -2 6070 3372 2 MP stroke
-35 1 6070 3496 2 MP stroke
-40 -23 6070 3620 2 MP stroke
-34 -1 6070 3744 2 MP stroke
-42 -11 6070 3869 2 MP stroke
-44 -1 6070 3993 2 MP stroke
-42 -13 6070 4117 2 MP stroke
-43 -3 6070 4242 2 MP stroke
-44 -19 6070 4366 2 MP stroke
-74 -12 6070 4490 2 MP stroke
-3 -20 6178 761 2 MP stroke
8 -19 6178 886 2 MP stroke
-3 -1 6178 1010 2 MP stroke
-12 -8 6178 1134 2 MP stroke
-8 -13 6178 1259 2 MP stroke
-9 -7 6178 1383 2 MP stroke
-13 -6 6178 1507 2 MP stroke
-17 -5 6178 1631 2 MP stroke
-6 -3 6178 1756 2 MP stroke
-72 9 6178 1880 2 MP stroke
-17 8 6178 2004 2 MP stroke
-7 -15 6178 2129 2 MP stroke
-12 -4 6178 2253 2 MP stroke
-9 -4 6178 2377 2 MP stroke
-11 -2 6178 2502 2 MP stroke
-18 -12 6178 2626 2 MP stroke
-12 -5 6178 2750 2 MP stroke
-13 -10 6178 2874 2 MP stroke
-21 -1 6178 2999 2 MP stroke
-18 -3 6178 3123 2 MP stroke
-24 5 6178 3247 2 MP stroke
-29 -21 6178 3372 2 MP stroke
-26 4 6178 3496 2 MP stroke
-35 -19 6178 3620 2 MP stroke
-37 2 6178 3744 2 MP stroke
-28 -18 6178 3869 2 MP stroke
-33 -4 6178 3993 2 MP stroke
-34 -9 6178 4117 2 MP stroke
-32 10 6178 4242 2 MP stroke
-39 -9 6178 4366 2 MP stroke
-59 -19 6178 4490 2 MP stroke
gr

c8

end %%Color Dict

eplot
%%EndObject

epage
end

showpage

%%Trailer
%%EOF
