%!PS-Adobe-2.0 EPSF-1.2
%%Creator: MATLAB, The MathWorks, Inc. Version 8.3.0.532 (R2014a). Operating System: Linux 3.19.0-31-generic #36~14.04.1-Ubuntu SMP Thu Oct 8 10:21:08 UTC 2015 x86_64.
%%Title: ../../data/output/p4/win_size5n_level1n_iter1min_eig0.0001.eps
%%CreationDate: 11/22/2015  18:44:39
%%DocumentNeededFonts: Helvetica
%%DocumentProcessColors: Cyan Magenta Yellow Black
%%Extensions: CMYK
%%Pages: 1
%%BoundingBox:    78   215   548   583
%%EndComments

%%BeginProlog
% MathWorks dictionary
/MathWorks 160 dict begin
% definition operators
/bdef {bind def} bind def
/ldef {load def} bind def
/xdef {exch def} bdef
/xstore {exch store} bdef
% operator abbreviations
/c  /clip ldef
/cc /concat ldef
/cp /closepath ldef
/gr /grestore ldef
/gs /gsave ldef
/mt /moveto ldef
/np /newpath ldef
/cm /currentmatrix ldef
/sm /setmatrix ldef
/rm /rmoveto ldef
/rl /rlineto ldef
/s {show newpath} bdef
/sc {setcmykcolor} bdef
/sr /setrgbcolor ldef
/sg /setgray ldef
/w /setlinewidth ldef
/j /setlinejoin ldef
/cap /setlinecap ldef
/rc {rectclip} bdef
/rf {rectfill} bdef
% page state control
/pgsv () def
/bpage {/pgsv save def} bdef
/epage {pgsv restore} bdef
/bplot /gsave ldef
/eplot {stroke grestore} bdef
% orientation switch
/portraitMode 0 def /landscapeMode 1 def /rotateMode 2 def
% coordinate system mappings
/dpi2point 0 def
% font control
/FontSize 0 def
/FMS {/FontSize xstore findfont [FontSize 0 0 FontSize neg 0 0]
  makefont setfont} bdef
/reencode {exch dup where {pop load} {pop StandardEncoding} ifelse
  exch dup 3 1 roll findfont dup length dict begin
  { 1 index /FID ne {def}{pop pop} ifelse } forall
  /Encoding exch def currentdict end definefont pop} bdef
/isroman {findfont /CharStrings get /Agrave known} bdef
/FMSR {3 1 roll 1 index dup isroman {reencode} {pop pop} ifelse
  exch FMS} bdef
/csm {1 dpi2point div -1 dpi2point div scale neg translate
 dup landscapeMode eq {pop -90 rotate}
  {rotateMode eq {90 rotate} if} ifelse} bdef
% line types: solid, dotted, dashed, dotdash
/SO { [] 0 setdash } bdef
/DO { [.5 dpi2point mul 4 dpi2point mul] 0 setdash } bdef
/DA { [6 dpi2point mul] 0 setdash } bdef
/DD { [.5 dpi2point mul 4 dpi2point mul 6 dpi2point mul 4
  dpi2point mul] 0 setdash } bdef
% macros for lines and objects
/L {lineto stroke} bdef
/MP {3 1 roll moveto 1 sub {rlineto} repeat} bdef
/AP {{rlineto} repeat} bdef
/PDlw -1 def
/W {/PDlw currentlinewidth def setlinewidth} def
/PP {closepath eofill} bdef
/DP {closepath stroke} bdef
/MR {4 -2 roll moveto dup  0 exch rlineto exch 0 rlineto
  neg 0 exch rlineto closepath} bdef
/FR {MR stroke} bdef
/PR {MR fill} bdef
/L1i {{currentfile picstr readhexstring pop} image} bdef
/tMatrix matrix def
/MakeOval {newpath tMatrix currentmatrix pop translate scale
0 0 1 0 360 arc tMatrix setmatrix} bdef
/FO {MakeOval stroke} bdef
/PO {MakeOval fill} bdef
/PD {currentlinewidth 2 div 0 360 arc fill
   PDlw -1 eq not {PDlw w /PDlw -1 def} if} def
/FA {newpath tMatrix currentmatrix pop translate scale
  0 0 1 5 -2 roll arc tMatrix setmatrix stroke} bdef
/PA {newpath tMatrix currentmatrix pop	translate 0 0 moveto scale
  0 0 1 5 -2 roll arc closepath tMatrix setmatrix fill} bdef
/FAn {newpath tMatrix currentmatrix pop translate scale
  0 0 1 5 -2 roll arcn tMatrix setmatrix stroke} bdef
/PAn {newpath tMatrix currentmatrix pop translate 0 0 moveto scale
  0 0 1 5 -2 roll arcn closepath tMatrix setmatrix fill} bdef
/vradius 0 def /hradius 0 def /lry 0 def
/lrx 0 def /uly 0 def /ulx 0 def /rad 0 def
/MRR {/vradius xdef /hradius xdef /lry xdef /lrx xdef /uly xdef
  /ulx xdef newpath tMatrix currentmatrix pop ulx hradius add uly
  vradius add translate hradius vradius scale 0 0 1 180 270 arc 
  tMatrix setmatrix lrx hradius sub uly vradius add translate
  hradius vradius scale 0 0 1 270 360 arc tMatrix setmatrix
  lrx hradius sub lry vradius sub translate hradius vradius scale
  0 0 1 0 90 arc tMatrix setmatrix ulx hradius add lry vradius sub
  translate hradius vradius scale 0 0 1 90 180 arc tMatrix setmatrix
  closepath} bdef
/FRR {MRR stroke } bdef
/PRR {MRR fill } bdef
/MlrRR {/lry xdef /lrx xdef /uly xdef /ulx xdef /rad lry uly sub 2 div def
  newpath tMatrix currentmatrix pop ulx rad add uly rad add translate
  rad rad scale 0 0 1 90 270 arc tMatrix setmatrix lrx rad sub lry rad
  sub translate rad rad scale 0 0 1 270 90 arc tMatrix setmatrix
  closepath} bdef
/FlrRR {MlrRR stroke } bdef
/PlrRR {MlrRR fill } bdef
/MtbRR {/lry xdef /lrx xdef /uly xdef /ulx xdef /rad lrx ulx sub 2 div def
  newpath tMatrix currentmatrix pop ulx rad add uly rad add translate
  rad rad scale 0 0 1 180 360 arc tMatrix setmatrix lrx rad sub lry rad
  sub translate rad rad scale 0 0 1 0 180 arc tMatrix setmatrix
  closepath} bdef
/FtbRR {MtbRR stroke } bdef
/PtbRR {MtbRR fill } bdef
/stri 6 array def /dtri 6 array def
/smat 6 array def /dmat 6 array def
/tmat1 6 array def /tmat2 6 array def /dif 3 array def
/asub {/ind2 exch def /ind1 exch def dup dup
  ind1 get exch ind2 get sub exch } bdef
/tri_to_matrix {
  2 0 asub 3 1 asub 4 0 asub 5 1 asub
  dup 0 get exch 1 get 7 -1 roll astore } bdef
/compute_transform {
  dmat dtri tri_to_matrix tmat1 invertmatrix 
  smat stri tri_to_matrix tmat2 concatmatrix } bdef
/ds {stri astore pop} bdef
/dt {dtri astore pop} bdef
/db {2 copy /cols xdef /rows xdef mul dup 3 mul string
  currentfile exch readhexstring pop
  dup 0 3 index getinterval /rbmap xdef
  dup 2 index dup getinterval /gbmap xdef
  1 index dup 2 mul exch getinterval /bbmap xdef pop pop}bdef
/it {gs np dtri aload pop moveto lineto lineto cp c
  cols rows 8 compute_transform 
  rbmap gbmap bbmap true 3 colorimage gr}bdef
/il {newpath moveto lineto stroke}bdef
currentdict end def
%%EndProlog

%%BeginSetup
MathWorks begin

0 cap

end
%%EndSetup

%%Page: 1 1
%%BeginPageSetup
%%PageBoundingBox:    78   215   548   583
MathWorks begin
bpage
%%EndPageSetup

%%BeginObject: obj1
bplot

/dpi2point 12 def
portraitMode 0216 7344 csm

  731   341  5640  4420 MR c np
85 dict begin %Colortable dictionary
/c0 { 0.000000 0.000000 0.000000 sr} bdef
/c1 { 1.000000 1.000000 1.000000 sr} bdef
/c2 { 0.900000 0.000000 0.000000 sr} bdef
/c3 { 0.000000 0.820000 0.000000 sr} bdef
/c4 { 0.000000 0.000000 0.800000 sr} bdef
/c5 { 0.910000 0.820000 0.320000 sr} bdef
/c6 { 1.000000 0.260000 0.820000 sr} bdef
/c7 { 0.000000 0.820000 0.820000 sr} bdef
c0
1 j
1 sg
   0    0 6913 5186 PR
6 w
0 -4226 5356 0 0 4226 899 389 4 MP
PP
-5356 0 0 -4226 5356 0 0 4226 899 389 5 MP stroke
4 w
DO
SO
6 w
0 sg
 899  389 mt 6255  389 L
 899 4615 mt 6255 4615 L
 899  389 mt  899 4615 L
6255  389 mt 6255 4615 L
 899 4615 mt 6255 4615 L
 899  389 mt  899 4615 L
1406 4615 mt 1406 4561 L
1406  389 mt 1406  442 L
%%IncludeResource: font Helvetica
/Helvetica /ISOLatin1Encoding 120 FMSR

1373 4760 mt 
(5) s
1945 4615 mt 1945 4561 L
1945  389 mt 1945  442 L
1879 4760 mt 
(10) s
2484 4615 mt 2484 4561 L
2484  389 mt 2484  442 L
2418 4760 mt 
(15) s
3022 4615 mt 3022 4561 L
3022  389 mt 3022  442 L
2956 4760 mt 
(20) s
3561 4615 mt 3561 4561 L
3561  389 mt 3561  442 L
3495 4760 mt 
(25) s
4100 4615 mt 4100 4561 L
4100  389 mt 4100  442 L
4034 4760 mt 
(30) s
4638 4615 mt 4638 4561 L
4638  389 mt 4638  442 L
4572 4760 mt 
(35) s
5177 4615 mt 5177 4561 L
5177  389 mt 5177  442 L
5111 4760 mt 
(40) s
5716 4615 mt 5716 4561 L
5716  389 mt 5716  442 L
5650 4760 mt 
(45) s
6255 4615 mt 6255 4561 L
6255  389 mt 6255  442 L
6189 4760 mt 
(50) s
 899  974 mt  952  974 L
6255  974 mt 6201  974 L
 798 1018 mt 
(5) s
 899 1596 mt  952 1596 L
6255 1596 mt 6201 1596 L
 731 1640 mt 
(10) s
 899 2217 mt  952 2217 L
6255 2217 mt 6201 2217 L
 731 2261 mt 
(15) s
 899 2839 mt  952 2839 L
6255 2839 mt 6201 2839 L
 731 2883 mt 
(20) s
 899 3460 mt  952 3460 L
6255 3460 mt 6201 3460 L
 731 3504 mt 
(25) s
 899 4082 mt  952 4082 L
6255 4082 mt 6201 4082 L
 731 4126 mt 
(30) s
 899  389 mt 6255  389 L
 899 4615 mt 6255 4615 L
 899  389 mt  899 4615 L
6255  389 mt 6255 4615 L
gs 899 389 5357 4227 MR c np
/c8 { 0.000000 0.000000 1.000000 sr} bdef
c8
-2 -2 3 1 903 391 3 MP stroke
-1 -1 1 0 901 1383 3 MP stroke
-3 -3 4 1 904 1512 3 MP stroke
3 0 995 389 2 MP stroke
4 0 -4 2 997 513 3 MP stroke
3 1 -3 0 1001 635 3 MP stroke
-7 9 2 -12 1017 866 3 MP stroke
2 3 -3 -1 1003 1004 3 MP stroke
6 0 -5 4 994 1136 3 MP stroke
4 -1 -3 3 998 1261 3 MP stroke
1 -1 0 1 1005 1385 3 MP stroke
5 2 -5 1 995 1504 3 MP stroke
10 8 -12 -2 985 1618 3 MP stroke
6 1 -6 2 994 2377 3 MP stroke
4 1 -4 1 998 2500 3 MP stroke
4 2 -4 1 998 2624 3 MP stroke
3 5 -5 -3 1000 2741 3 MP stroke
3 5 -5 -3 1000 2865 3 MP stroke
4 1 -4 1 999 2998 3 MP stroke
3 1 -3 2 998 3122 3 MP stroke
3 2 -4 0 1000 3244 3 MP stroke
3 2 -3 0 1000 3368 3 MP stroke
3 1 -4 0 1001 3494 3 MP stroke
4 1 -4 1 999 3618 3 MP stroke
4 2 -5 1 997 3742 3 MP stroke
4 2 -5 1 998 3866 3 MP stroke
5 0 -4 2 996 3993 3 MP stroke
5 1 -6 2 996 4115 3 MP stroke
5 1 -5 2 994 4240 3 MP stroke
5 2 -5 1 995 4364 3 MP stroke
5 1 -5 2 996 4489 3 MP stroke
7 1 -6 2 1100 389 3 MP stroke
-1 1 1113 510 2 MP stroke
10 1 -9 5 1093 638 3 MP stroke
7 -1 -6 5 1100 891 3 MP stroke
8 -3 -6 6 1100 1017 3 MP stroke
2 3 -4 -2 1109 1128 3 MP stroke
4 0 -3 2 1105 1260 3 MP stroke
2 1 -2 1 1109 1381 3 MP stroke
5 2 -5 0 1105 1504 3 MP stroke
3 3 -4 -2 1109 1627 3 MP stroke
4 1 -4 1 1106 2376 3 MP stroke
4 2 -4 0 1107 2500 3 MP stroke
3 1 -3 1 1108 2624 3 MP stroke
2 5 -4 -3 1109 2742 3 MP stroke
3 5 -5 -2 1107 2865 3 MP stroke
2 3 -3 -1 1108 2994 3 MP stroke
2 3 -3 -1 1109 3119 3 MP stroke
1 3 -2 -1 1110 3243 3 MP stroke
1 2 -2 -1 1111 3369 3 MP stroke
2 1 -2 0 1109 3494 3 MP stroke
4 2 -4 0 1107 3618 3 MP stroke
4 2 -4 0 1105 3743 3 MP stroke
5 3 -6 0 1104 3866 3 MP stroke
6 2 -6 1 1103 3990 3 MP stroke
5 2 -5 1 1103 4116 3 MP stroke
5 2 -5 1 1104 4241 3 MP stroke
6 2 -6 2 1102 4364 3 MP stroke
6 1 -6 2 1103 4489 3 MP stroke
2 0 -2 1 1218 389 3 MP stroke
7 0 -6 3 1208 515 3 MP stroke
4 3 -4 0 1214 633 3 MP stroke
7 -1 -6 5 1208 766 3 MP stroke
4 -1 -3 3 1214 888 3 MP stroke
6 -2 -5 5 1211 1015 3 MP stroke
2 0 -2 1 1218 1134 3 MP stroke
1 1 -1 0 1221 1382 3 MP stroke
1 0 -1 0 1221 1507 3 MP stroke
1222 1631 PD
2 1 -2 0 1218 2499 3 MP stroke
1 2 -1 -1 1219 2623 3 MP stroke
0 1 -1 -1 1222 2747 3 MP stroke
2 1 -2 0 1217 2873 3 MP stroke
3 0 -3 2 1215 2998 3 MP stroke
4 1 -4 1 1215 3122 3 MP stroke
3 2 -4 0 1214 3244 3 MP stroke
3 2 -4 0 1215 3369 3 MP stroke
4 2 -4 1 1212 3493 3 MP stroke
4 2 -4 0 1214 3618 3 MP stroke
3 2 -4 0 1214 3742 3 MP stroke
4 1 -5 1 1213 3867 3 MP stroke
4 1 -5 1 1213 3992 3 MP stroke
4 1 -4 2 1213 4118 3 MP stroke
5 1 -4 2 1211 4241 3 MP stroke
5 2 -6 1 1212 4363 3 MP stroke
6 2 -6 1 1210 4489 3 MP stroke
7 1 -6 3 1317 512 3 MP stroke
3 3 -4 -1 1324 633 3 MP stroke
6 -1 -5 4 1318 765 3 MP stroke
0 5 -2 -4 1327 875 3 MP stroke
5 3 -6 0 1320 1006 3 MP stroke
8 6 -10 -1 1313 1126 3 MP stroke
7 2 -7 1 1317 1257 3 MP stroke
1329 1507 PD
3 3 -4 -1 1322 2497 3 MP stroke
4 3 -5 0 1321 2620 3 MP stroke
0 3 -1 -2 1328 2745 3 MP stroke
3 2 -3 0 1324 2872 3 MP stroke
0 1 -1 -1 1329 2996 3 MP stroke
1 1 -1 -1 1328 3121 3 MP stroke
4 1 -4 1 1323 3245 3 MP stroke
2 1 -2 0 1326 3369 3 MP stroke
3 1 -3 1 1323 3493 3 MP stroke
5 1 -4 2 1320 3619 3 MP stroke
3 2 -3 0 1322 3741 3 MP stroke
5 2 -6 1 1319 3866 3 MP stroke
6 2 -6 1 1318 3990 3 MP stroke
6 2 -6 1 1319 4116 3 MP stroke
5 2 -5 1 1319 4239 3 MP stroke
5 4 -5 -1 1320 4361 3 MP stroke
6 2 -6 1 1318 4487 3 MP stroke
7 -1 -6 5 1423 392 3 MP stroke
6 1 -6 2 1425 513 3 MP stroke
3 0 -3 2 1431 637 3 MP stroke
7 4 -8 0 1424 757 3 MP stroke
3 2 -4 0 1430 882 3 MP stroke
8 0 -7 5 1422 1012 3 MP stroke
5 0 -5 4 1426 1136 3 MP stroke
2 1 -2 -1 1434 1257 3 MP stroke
-3 -1 3 0 1442 1383 3 MP stroke
5 2 -6 1 1427 2499 3 MP stroke
4 1 -4 2 1429 2625 3 MP stroke
0 -1 0 0 1437 3123 3 MP stroke
3 1 -3 1 1430 3246 3 MP stroke
3 1 -3 1 1431 3369 3 MP stroke
3 1 -3 1 1430 3494 3 MP stroke
4 1 -4 2 1429 3619 3 MP stroke
4 2 -4 0 1429 3743 3 MP stroke
4 2 -4 1 1429 3866 3 MP stroke
5 2 -5 1 1427 3990 3 MP stroke
3 3 -4 -1 1430 4113 3 MP stroke
5 2 -5 0 1428 4238 3 MP stroke
6 2 -6 1 1427 4365 3 MP stroke
5 1 -5 2 1427 4488 3 MP stroke
4 2 -4 0 1428 4612 3 MP stroke
2 0 1535 389 2 MP stroke
6 1 -5 2 1534 513 3 MP stroke
2 -4 0 4 1541 645 3 MP stroke
6 1 -5 3 1532 762 3 MP stroke
6 0 -5 3 1534 888 3 MP stroke
5 1 -5 2 1535 1010 3 MP stroke
6 2 -6 1 1534 1133 3 MP stroke
5 0 -5 2 1535 1259 3 MP stroke
6 0 -5 3 1534 1384 3 MP stroke
0 -1 1546 1507 2 MP stroke
1545 1631 PD
2 2 -3 -1 1540 2499 3 MP stroke
2 0 -2 1 1541 3122 3 MP stroke
2 1 -2 0 1540 3246 3 MP stroke
2 1 -2 1 1541 3370 3 MP stroke
3 1 -3 1 1539 3494 3 MP stroke
3 0 -3 2 1538 3619 3 MP stroke
3 -1 -2 2 1540 3746 3 MP stroke
4 2 -4 1 1536 3867 3 MP stroke
5 1 -5 2 1535 3993 3 MP stroke
5 1 -5 2 1535 4116 3 MP stroke
5 2 -5 0 1535 4239 3 MP stroke
5 1 -5 1 1535 4365 3 MP stroke
4 2 -4 1 1535 4488 3 MP stroke
4 2 -4 0 1537 4612 3 MP stroke
3 0 -3 2 1645 514 3 MP stroke
5 0 -4 3 1643 638 3 MP stroke
6 1 -6 2 1641 761 3 MP stroke
4 1 -4 1 1644 886 3 MP stroke
4 0 -4 3 1643 1011 3 MP stroke
3 2 -3 -1 1647 1131 3 MP stroke
3 -2 -2 3 1647 1263 3 MP stroke
3 1 -3 1 1648 1381 3 MP stroke
2 0 -2 1 1649 1506 3 MP stroke
5 -1 -4 4 1644 2506 3 MP stroke
4 -1 -3 3 1645 2631 3 MP stroke
4 0 -4 2 1646 2751 3 MP stroke
3 2 -3 0 1646 3122 3 MP stroke
4 2 -4 1 1643 3245 3 MP stroke
4 2 -4 1 1643 3369 3 MP stroke
3 1 -3 0 1646 3494 3 MP stroke
4 2 -4 0 1644 3618 3 MP stroke
6 1 -6 2 1642 3743 3 MP stroke
5 2 -5 1 1642 3867 3 MP stroke
5 2 -5 1 1642 3990 3 MP stroke
5 2 -5 1 1644 4115 3 MP stroke
4 3 -5 -1 1645 4237 3 MP stroke
7 2 -7 2 1639 4364 3 MP stroke
6 1 -6 2 1641 4490 3 MP stroke
4 1 -4 1 1753 511 3 MP stroke
6 1 -6 2 1748 636 3 MP stroke
4 -1 -3 2 1754 764 3 MP stroke
3 1 -3 1 1753 884 3 MP stroke
2 4 -4 -2 1755 1003 3 MP stroke
9 0 -8 4 1744 1137 3 MP stroke
6 -4 -3 6 1751 1268 3 MP stroke
2 -5 0 6 1757 1394 3 MP stroke
2 0 -2 0 1758 1506 3 MP stroke
4 2 -4 1 1751 1628 3 MP stroke
3 0 -2 2 1754 2504 3 MP stroke
4 0 -3 2 1752 2628 3 MP stroke
4 -2 -3 3 1754 2754 3 MP stroke
4 -2 -3 3 1754 2878 3 MP stroke
-1 1 1760 2997 2 MP stroke
0 -1 0 0 1759 3122 3 MP stroke
4 1 -4 1 1753 3245 3 MP stroke
4 1 -4 1 1753 3369 3 MP stroke
5 2 -6 1 1750 3494 3 MP stroke
6 2 -6 1 1750 3619 3 MP stroke
5 2 -5 0 1752 3742 3 MP stroke
5 2 -5 1 1751 3866 3 MP stroke
4 3 -5 0 1752 3988 3 MP stroke
5 3 -5 0 1750 4113 3 MP stroke
7 1 -7 3 1746 4242 3 MP stroke
6 2 -6 1 1748 4363 3 MP stroke
6 2 -6 1 1750 4489 3 MP stroke
5 1 -5 2 1858 389 3 MP stroke
2 -1 -2 2 1865 514 3 MP stroke
6 2 -6 2 1856 635 3 MP stroke
6 2 -6 1 1856 759 3 MP stroke
9 1 -8 4 1852 887 3 MP stroke
6 1 -5 2 1856 1011 3 MP stroke
1 0 -1 1 1865 1137 3 MP stroke
3 1 -3 0 1863 1258 3 MP stroke
3 2 -3 0 1862 1380 3 MP stroke
3 1 -3 1 1861 1506 3 MP stroke
0 1 1867 1631 2 MP stroke
4 2 -4 0 1860 2622 3 MP stroke
3 1 -3 1 1862 2750 3 MP stroke
2 -1 -1 2 1863 2877 3 MP stroke
3 -1 -2 2 1863 3001 3 MP stroke
3 0 -3 2 1862 3124 3 MP stroke
3 1 -3 1 1862 3245 3 MP stroke
4 2 -4 0 1860 3368 3 MP stroke
4 1 -4 1 1860 3494 3 MP stroke
4 1 -4 1 1860 3619 3 MP stroke
4 1 -4 1 1860 3743 3 MP stroke
5 2 -6 1 1858 3866 3 MP stroke
7 0 -6 4 1854 3995 3 MP stroke
7 1 -6 3 1854 4118 3 MP stroke
5 3 -6 0 1858 4239 3 MP stroke
5 3 -5 0 1858 4362 3 MP stroke
4 2 -4 0 1860 4487 3 MP stroke
5 2 -5 1 1858 4612 3 MP stroke
1 -1 0 2 1974 391 3 MP stroke
2 -2 -1 2 1973 516 3 MP stroke
9 3 -9 2 1958 633 3 MP stroke
7 -1 -6 4 1963 765 3 MP stroke
7 -3 -5 7 1961 892 3 MP stroke
-4 6 0 -7 1982 996 3 MP stroke
1 -1 0 1 1975 1136 3 MP stroke
3 1 -3 0 1970 1258 3 MP stroke
4 1 -4 1 1967 1382 3 MP stroke
4 1 -3 1 1969 1506 3 MP stroke
-3 -1 3 -1 1984 1632 3 MP stroke
6 4 -7 0 1962 2496 3 MP stroke
4 3 -5 -1 1968 2621 3 MP stroke
4 0 -4 2 1969 2749 3 MP stroke
4 2 -4 0 1969 2872 3 MP stroke
3 2 -4 0 1970 2997 3 MP stroke
3 1 -4 1 1970 3121 3 MP stroke
3 2 -3 0 1970 3245 3 MP stroke
4 2 -4 1 1967 3369 3 MP stroke
4 2 -5 1 1967 3493 3 MP stroke
4 2 -5 0 1967 3618 3 MP stroke
5 2 -5 1 1967 3743 3 MP stroke
5 2 -5 1 1966 3867 3 MP stroke
4 3 -5 0 1966 3989 3 MP stroke
5 3 -5 1 1965 4113 3 MP stroke
4 2 -4 0 1967 4238 3 MP stroke
5 2 -5 1 1965 4363 3 MP stroke
6 2 -6 1 1964 4487 3 MP stroke
3 -1 -2 2 2078 390 3 MP stroke
10 1 -9 5 2063 515 3 MP stroke
4 4 -5 -2 2076 629 3 MP stroke
4 1 -4 2 2076 760 3 MP stroke
7 0 -6 3 2071 887 3 MP stroke
2 3 -3 -2 2079 1005 3 MP stroke
2 1 -3 0 2079 1133 3 MP stroke
1 0 -1 0 2082 1260 3 MP stroke
2 1 -2 0 2080 1382 3 MP stroke
-1 3 0 -4 2087 1502 3 MP stroke
3 1 -3 0 2077 1629 3 MP stroke
4 1 -3 1 2076 2378 3 MP stroke
4 2 -4 0 2075 2500 3 MP stroke
4 3 -5 0 2076 2621 3 MP stroke
3 1 -3 1 2076 2750 3 MP stroke
2 2 -3 -1 2080 2871 3 MP stroke
3 -1 -2 2 2079 3001 3 MP stroke
3 2 -3 -1 2078 3120 3 MP stroke
3 1 -3 0 2077 3245 3 MP stroke
5 1 -5 1 2075 3370 3 MP stroke
4 1 -5 1 2076 3494 3 MP stroke
4 2 -4 0 2076 3617 3 MP stroke
4 1 -4 1 2075 3743 3 MP stroke
4 3 -5 0 2076 3865 3 MP stroke
4 1 -4 1 2075 3992 3 MP stroke
4 2 -4 1 2074 4116 3 MP stroke
5 2 -5 1 2072 4239 3 MP stroke
7 1 -7 3 2070 4365 3 MP stroke
4 5 -6 -2 2075 4481 3 MP stroke
3 -1 -2 2 2187 391 3 MP stroke
7 -1 -5 5 2177 518 3 MP stroke
4 1 -4 1 2183 636 3 MP stroke
2 4 -3 -2 2187 755 3 MP stroke
10 1 -9 5 2172 887 3 MP stroke
4 2 -4 1 2182 1008 3 MP stroke
4 2 -4 0 2184 1133 3 MP stroke
9 1 -9 4 2174 1257 3 MP stroke
3 -1 -2 3 2185 1385 3 MP stroke
2 0 -2 1 2187 1630 3 MP stroke
3 1 -3 1 2184 2377 3 MP stroke
3 1 -3 1 2184 2501 3 MP stroke
4 2 -5 1 2182 2624 3 MP stroke
3 2 -3 0 2185 2748 3 MP stroke
3 4 -4 -2 2185 2869 3 MP stroke
4 1 -4 1 2185 2998 3 MP stroke
3 1 -4 1 2185 3120 3 MP stroke
3 1 -4 1 2185 3245 3 MP stroke
4 1 -3 2 2183 3371 3 MP stroke
4 1 -4 1 2183 3495 3 MP stroke
3 1 -3 1 2184 3618 3 MP stroke
5 1 -5 1 2181 3743 3 MP stroke
5 1 -5 2 2181 3867 3 MP stroke
4 1 -5 1 2183 3991 3 MP stroke
4 2 -4 1 2183 4114 3 MP stroke
4 1 -4 2 2182 4240 3 MP stroke
7 1 -6 3 2179 4366 3 MP stroke
5 1 -5 1 2182 4489 3 MP stroke
4 -1 -4 3 2291 515 3 MP stroke
7 0 -6 3 2286 638 3 MP stroke
6 1 -6 2 2288 760 3 MP stroke
6 1 -5 2 2288 886 3 MP stroke
5 1 -5 2 2289 1010 3 MP stroke
3 4 -4 -2 2293 1127 3 MP stroke
5 1 -5 2 2290 1257 3 MP stroke
3 1 -3 1 2292 1381 3 MP stroke
0 -1 0 1 2299 1510 3 MP stroke
2 -1 -1 2 2295 1634 3 MP stroke
3 1 -3 1 2294 1755 3 MP stroke
3 -3 -1 4 2294 1887 3 MP stroke
5 0 -4 3 2289 2253 3 MP stroke
5 0 -4 3 2289 2378 3 MP stroke
3 1 -3 1 2291 2500 3 MP stroke
3 1 -3 1 2291 2624 3 MP stroke
3 2 -3 -1 2294 2747 3 MP stroke
3 3 -4 -2 2294 2868 3 MP stroke
2 3 -3 -2 2295 2995 3 MP stroke
2 1 -2 1 2295 3121 3 MP stroke
2 1 -3 1 2294 3245 3 MP stroke
4 1 -4 1 2291 3370 3 MP stroke
3 2 -3 0 2291 3494 3 MP stroke
4 2 -4 1 2290 3617 3 MP stroke
4 2 -4 0 2291 3742 3 MP stroke
4 1 -4 1 2290 3867 3 MP stroke
5 2 -5 1 2290 3992 3 MP stroke
5 1 -6 2 2289 4115 3 MP stroke
4 2 -5 1 2290 4238 3 MP stroke
4 3 -5 0 2289 4359 3 MP stroke
5 1 -4 2 2290 4489 3 MP stroke
5 2 -5 1 2288 4612 3 MP stroke
8 1 -7 4 2390 389 3 MP stroke
5 0 -5 3 2397 514 3 MP stroke
7 -1 -6 4 2393 640 3 MP stroke
5 1 -5 1 2397 760 3 MP stroke
5 2 -5 1 2397 884 3 MP stroke
4 0 -4 2 2398 1011 3 MP stroke
1 6 -3 -5 2404 1123 3 MP stroke
2 2 -3 0 2402 1503 3 MP stroke
3 -1 -2 2 2401 1634 3 MP stroke
4 1 -4 1 2399 1754 3 MP stroke
3 -1 -2 2 2400 1883 3 MP stroke
4 1 -4 2 2398 2003 3 MP stroke
4 0 -3 2 2399 2131 3 MP stroke
4 0 -4 3 2399 2254 3 MP stroke
5 0 -5 3 2397 2377 3 MP stroke
4 1 -4 1 2400 2499 3 MP stroke
4 1 -4 1 2400 2625 3 MP stroke
3 -1 -2 2 2401 2752 3 MP stroke
4 1 -4 1 2399 2872 3 MP stroke
3 1 -3 1 2402 2998 3 MP stroke
2 1 -2 0 2401 3122 3 MP stroke
4 1 -4 1 2398 3246 3 MP stroke
5 1 -5 2 2396 3371 3 MP stroke
4 1 -5 1 2399 3494 3 MP stroke
5 1 -5 2 2396 3620 3 MP stroke
4 2 -5 0 2399 3742 3 MP stroke
3 3 -4 0 2400 3864 3 MP stroke
5 1 -5 2 2396 3992 3 MP stroke
5 2 -5 1 2397 4114 3 MP stroke
4 2 -5 0 2398 4239 3 MP stroke
4 2 -4 0 2398 4362 3 MP stroke
6 2 -6 1 2396 4488 3 MP stroke
3 2 -3 0 2508 510 3 MP stroke
4 1 -4 1 2506 636 3 MP stroke
2 -2 -1 3 2510 890 3 MP stroke
8 -3 -6 6 2500 1017 3 MP stroke
13 -2 -10 9 2490 1141 3 MP stroke
8 -3 -6 7 2500 1266 3 MP stroke
5 -2 -4 5 2505 1387 3 MP stroke
5 0 -5 3 2505 1509 3 MP stroke
3 -2 -2 3 2510 1636 3 MP stroke
4 -1 -3 3 2507 1758 3 MP stroke
4 -5 -2 6 2509 1891 3 MP stroke
3 2 -4 0 2508 2000 3 MP stroke
4 2 -4 0 2508 2126 3 MP stroke
3 -1 -2 2 2508 2256 3 MP stroke
3 0 -3 2 2508 2379 3 MP stroke
3 1 -3 1 2508 2500 3 MP stroke
4 1 -4 1 2508 2624 3 MP stroke
3 2 -3 0 2508 2749 3 MP stroke
2 2 -3 0 2509 2872 3 MP stroke
2 2 -3 0 2509 2996 3 MP stroke
3 2 -3 0 2509 3120 3 MP stroke
3 2 -3 0 2508 3245 3 MP stroke
4 1 -4 1 2507 3370 3 MP stroke
3 2 -3 0 2508 3493 3 MP stroke
4 0 -4 2 2507 3621 3 MP stroke
4 3 -5 0 2505 3741 3 MP stroke
4 2 -4 0 2506 3865 3 MP stroke
6 1 -6 2 2503 3992 3 MP stroke
4 1 -5 2 2505 4115 3 MP stroke
6 2 -6 1 2503 4240 3 MP stroke
5 3 -6 0 2504 4361 3 MP stroke
4 1 -4 1 2507 4489 3 MP stroke
6 -3 -4 6 2612 396 3 MP stroke
5 0 -5 3 2612 514 3 MP stroke
7 -1 -6 4 2610 641 3 MP stroke
5 3 -6 0 2610 756 3 MP stroke
7 -3 -5 7 2609 895 3 MP stroke
4 3 -5 -1 2614 1005 3 MP stroke
5 3 -5 0 2612 1131 3 MP stroke
6 -3 -4 5 2612 1265 3 MP stroke
4 -1 -3 3 2615 1387 3 MP stroke
5 1 -5 1 2612 1507 3 MP stroke
4 1 -4 1 2614 1630 3 MP stroke
2623 1756 PD
1 1 -2 0 2619 1878 3 MP stroke
2 0 -2 0 2620 2004 3 MP stroke
2 -1 -1 2 2619 2132 3 MP stroke
2 -2 -1 3 2617 2257 3 MP stroke
3 -2 -2 3 2616 2381 3 MP stroke
3 2 -3 0 2616 2499 3 MP stroke
3 1 -3 0 2616 2625 3 MP stroke
3 1 -3 1 2616 2749 3 MP stroke
3 0 -3 1 2617 2875 3 MP stroke
3 2 -3 0 2617 2996 3 MP stroke
3 2 -3 0 2617 3120 3 MP stroke
2 1 -2 1 2617 3245 3 MP stroke
3 1 -3 1 2615 3370 3 MP stroke
4 1 -4 1 2614 3495 3 MP stroke
5 2 -5 1 2613 3618 3 MP stroke
3 1 -3 1 2614 3744 3 MP stroke
5 1 -5 2 2612 3868 3 MP stroke
5 2 -5 1 2612 3992 3 MP stroke
4 1 -4 1 2614 4116 3 MP stroke
5 2 -5 1 2613 4239 3 MP stroke
3 3 -4 -1 2615 4361 3 MP stroke
7 3 -7 1 2607 4488 3 MP stroke
6 1 -5 2 2718 389 3 MP stroke
5 -1 -4 3 2722 517 3 MP stroke
4 -1 -3 3 2722 639 3 MP stroke
5 1 -5 1 2721 761 3 MP stroke
6 -4 -4 7 2718 895 3 MP stroke
2 1 -2 0 2726 1010 3 MP stroke
2 1 -2 0 2727 1133 3 MP stroke
2 0 -2 1 2727 1258 3 MP stroke
2729 1383 PD
3 1 -3 1 2724 1507 3 MP stroke
5 1 -5 2 2721 1630 3 MP stroke
0 2 -1 -2 2728 1752 3 MP stroke
-1 2 -1 -2 2730 1874 3 MP stroke
1 1 -1 -1 2727 2376 3 MP stroke
0 2 -1 -2 2730 2499 3 MP stroke
1 0 -1 1 2727 2625 3 MP stroke
3 2 -3 0 2724 2747 3 MP stroke
3 1 -3 1 2724 2873 3 MP stroke
3 1 -3 1 2724 2997 3 MP stroke
2 2 -3 0 2725 3120 3 MP stroke
3 1 -3 1 2723 3246 3 MP stroke
3 1 -3 1 2722 3371 3 MP stroke
5 2 -5 0 2721 3493 3 MP stroke
4 2 -5 0 2722 3618 3 MP stroke
4 2 -5 1 2721 3742 3 MP stroke
5 2 -5 1 2719 3865 3 MP stroke
5 1 -5 1 2720 3992 3 MP stroke
6 2 -6 1 2719 4114 3 MP stroke
4 2 -5 1 2721 4239 3 MP stroke
4 3 -5 0 2722 4362 3 MP stroke
4 3 -5 0 2721 4487 3 MP stroke
2 0 2827 389 2 MP stroke
5 -2 -4 4 2828 518 3 MP stroke
3 -3 -1 5 2832 644 3 MP stroke
5 4 -6 -1 2827 754 3 MP stroke
3 2 -3 -1 2833 1256 3 MP stroke
-2 -1 2 0 2843 1384 3 MP stroke
1 -1 0 1 2836 1510 3 MP stroke
1 -1 -1 2 2835 1634 3 MP stroke
2838 2377 PD
3 1 -3 1 2832 2501 3 MP stroke
3 1 -3 1 2832 2624 3 MP stroke
3 1 -3 0 2831 2749 3 MP stroke
3 1 -3 1 2831 2874 3 MP stroke
4 1 -4 1 2831 2998 3 MP stroke
3 1 -3 0 2831 3122 3 MP stroke
3 1 -3 1 2832 3246 3 MP stroke
4 1 -4 1 2830 3371 3 MP stroke
4 2 -4 1 2829 3494 3 MP stroke
3 2 -4 1 2830 3618 3 MP stroke
5 2 -5 1 2828 3743 3 MP stroke
5 2 -5 1 2828 3867 3 MP stroke
5 2 -5 1 2828 3992 3 MP stroke
5 2 -5 1 2828 4116 3 MP stroke
4 3 -5 0 2828 4237 3 MP stroke
5 2 -5 1 2828 4364 3 MP stroke
4 2 -4 0 2830 4488 3 MP stroke
3 1 -3 1 2830 4612 3 MP stroke
8 0 -7 4 2928 515 3 MP stroke
5 -4 -3 6 2936 646 3 MP stroke
2 0 -2 2 2941 887 3 MP stroke
3 1 -3 1 2939 1010 3 MP stroke
3 0 -3 2 2940 1136 3 MP stroke
6 0 -5 3 2934 1259 3 MP stroke
6 0 -5 3 2934 1383 3 MP stroke
2 0 -2 1 2940 1508 3 MP stroke
0 1 2945 1633 2 MP stroke
2 1 -1 0 2942 2502 3 MP stroke
4 2 -4 0 2938 2623 3 MP stroke
3 2 -3 0 2938 2748 3 MP stroke
3 1 -4 1 2939 2872 3 MP stroke
3 1 -3 0 2940 2997 3 MP stroke
4 1 -4 1 2937 3122 3 MP stroke
4 1 -4 1 2938 3246 3 MP stroke
5 2 -5 1 2937 3369 3 MP stroke
4 2 -4 1 2937 3494 3 MP stroke
5 2 -5 1 2936 3618 3 MP stroke
4 2 -4 1 2938 3742 3 MP stroke
4 2 -5 0 2937 3866 3 MP stroke
4 2 -4 0 2937 3990 3 MP stroke
4 2 -5 0 2937 4114 3 MP stroke
6 1 -6 2 2935 4240 3 MP stroke
5 0 -5 3 2934 4366 3 MP stroke
5 1 -4 2 2935 4491 3 MP stroke
5 3 -5 0 2935 4611 3 MP stroke
7 -1 -6 5 3040 516 3 MP stroke
2 -5 0 6 3050 647 3 MP stroke
2 0 -1 1 3050 1134 3 MP stroke
3 0 -3 2 3047 1258 3 MP stroke
3 1 -3 1 3046 1383 3 MP stroke
3 0 -3 2 3046 1506 3 MP stroke
4 1 -4 1 3046 1631 3 MP stroke
2 3 -3 -2 3049 1750 3 MP stroke
7 3 -7 1 3039 1878 3 MP stroke
-1 2 0 -2 3054 2498 3 MP stroke
4 1 -4 1 3046 2624 3 MP stroke
4 2 -4 0 3046 2748 3 MP stroke
4 1 -4 1 3046 2872 3 MP stroke
4 1 -4 1 3046 2997 3 MP stroke
4 1 -4 1 3046 3122 3 MP stroke
4 2 -4 0 3046 3246 3 MP stroke
4 2 -4 1 3045 3370 3 MP stroke
4 1 -4 1 3044 3495 3 MP stroke
4 2 -4 1 3044 3618 3 MP stroke
5 2 -6 1 3043 3742 3 MP stroke
5 1 -5 1 3045 3868 3 MP stroke
5 3 -5 0 3044 3989 3 MP stroke
6 2 -6 1 3043 4116 3 MP stroke
5 1 -5 2 3043 4241 3 MP stroke
5 0 -5 2 3044 4366 3 MP stroke
6 1 -5 3 3041 4490 3 MP stroke
5 2 -5 1 3042 4612 3 MP stroke
5 0 -4 2 3151 390 3 MP stroke
3 -2 -2 3 3155 518 3 MP stroke
2 -3 -1 4 3158 642 3 MP stroke
3 1 -2 1 3155 1134 3 MP stroke
3 0 -3 2 3155 1260 3 MP stroke
3 1 -3 1 3155 1383 3 MP stroke
3 -2 -2 3 3156 1511 3 MP stroke
2 -2 -1 3 3157 1637 3 MP stroke
4 -1 -3 3 3154 1757 3 MP stroke
3 -1 -2 3 3154 1883 3 MP stroke
4 -2 -3 4 3155 2008 3 MP stroke
3 -2 -2 4 3155 2134 3 MP stroke
3 0 -3 2 3155 2255 3 MP stroke
3 -1 -2 3 3154 2379 3 MP stroke
3 1 -4 1 3155 2500 3 MP stroke
2 1 -2 0 3156 2623 3 MP stroke
1 2 -2 -1 3157 2747 3 MP stroke
2 3 -3 -2 3157 2869 3 MP stroke
2 1 -2 0 3156 2997 3 MP stroke
3 1 -3 1 3154 3122 3 MP stroke
3 1 -4 1 3154 3246 3 MP stroke
3 1 -3 1 3153 3372 3 MP stroke
5 2 -5 1 3153 3494 3 MP stroke
4 2 -5 0 3153 3617 3 MP stroke
5 2 -5 1 3151 3743 3 MP stroke
4 1 -4 1 3152 3868 3 MP stroke
5 2 -5 1 3150 3990 3 MP stroke
6 2 -6 1 3149 4115 3 MP stroke
6 3 -6 1 3148 4238 3 MP stroke
6 3 -6 1 3149 4363 3 MP stroke
5 3 -6 1 3150 4486 3 MP stroke
6 -2 -4 5 3258 393 3 MP stroke
8 -1 -6 5 3254 517 3 MP stroke
7 -1 -6 5 3255 642 3 MP stroke
6 1 -6 3 3257 885 3 MP stroke
7 5 -8 0 3255 1003 3 MP stroke
2 -1 -2 2 3265 1260 3 MP stroke
3 0 -2 2 3262 1384 3 MP stroke
2 -1 -2 2 3264 1510 3 MP stroke
3 0 -2 1 3263 1632 3 MP stroke
3 2 -3 -1 3263 1752 3 MP stroke
3 1 -3 1 3263 1879 3 MP stroke
3 1 -3 1 3263 2004 3 MP stroke
3 -2 -2 4 3262 2133 3 MP stroke
3 4 -4 -2 3262 2245 3 MP stroke
3 3 -4 -1 3262 2371 3 MP stroke
4 1 -4 1 3261 2501 3 MP stroke
3 0 -3 2 3261 2626 3 MP stroke
3 0 -3 2 3264 2751 3 MP stroke
4 2 -4 1 3260 2872 3 MP stroke
4 1 -4 1 3260 2998 3 MP stroke
4 1 -4 1 3261 3122 3 MP stroke
4 2 -4 0 3260 3246 3 MP stroke
3 0 -3 2 3262 3371 3 MP stroke
4 2 -4 1 3261 3494 3 MP stroke
4 2 -4 0 3261 3618 3 MP stroke
5 2 -6 1 3259 3742 3 MP stroke
4 3 -5 0 3259 3865 3 MP stroke
5 2 -5 1 3258 3990 3 MP stroke
6 2 -6 2 3257 4115 3 MP stroke
4 3 -5 -1 3261 4236 3 MP stroke
5 2 -5 0 3259 4363 3 MP stroke
5 0 -5 3 3259 4491 3 MP stroke
3 -2 -2 3 3372 392 3 MP stroke
6 -1 -5 4 3365 516 3 MP stroke
12 1 -11 5 3354 639 3 MP stroke
4 4 -5 -1 3369 754 3 MP stroke
4 0 -4 2 3368 887 3 MP stroke
4 2 -4 0 3367 1007 3 MP stroke
3 1 -3 1 3369 1133 3 MP stroke
2 0 -1 1 3374 1508 3 MP stroke
1 0 -1 1 3374 1632 3 MP stroke
-1 0 1 0 3377 1755 3 MP stroke
2 0 -2 2 3372 1882 3 MP stroke
3 0 -2 1 3370 2005 3 MP stroke
3 1 -3 1 3370 2128 3 MP stroke
4 -1 -3 3 3369 2254 3 MP stroke
3 2 -3 0 3370 2375 3 MP stroke
4 1 -4 1 3370 2500 3 MP stroke
3 1 -3 0 3370 2624 3 MP stroke
3 2 -4 0 3370 2747 3 MP stroke
3 1 -3 1 3371 2873 3 MP stroke
4 1 -4 1 3369 2998 3 MP stroke
3 1 -3 1 3369 3122 3 MP stroke
3 2 -3 0 3369 3246 3 MP stroke
3 0 -3 2 3370 3371 3 MP stroke
4 1 -4 1 3368 3496 3 MP stroke
4 2 -4 1 3369 3618 3 MP stroke
3 1 -3 1 3369 3742 3 MP stroke
4 1 -4 1 3368 3867 3 MP stroke
6 0 -5 3 3365 3993 3 MP stroke
5 0 -5 3 3366 4119 3 MP stroke
5 1 -5 2 3365 4241 3 MP stroke
5 2 -5 1 3366 4364 3 MP stroke
4 1 -4 0 3370 4488 3 MP stroke
1 2 -2 -1 3373 4612 3 MP stroke
0 -2 1 2 3485 391 3 MP stroke
5 0 -4 3 3473 515 3 MP stroke
11 2 -11 5 3463 636 3 MP stroke
6 2 -6 2 3472 758 3 MP stroke
2 4 -3 -3 3479 879 3 MP stroke
5 0 -4 3 3473 1010 3 MP stroke
0 4 -2 -4 3484 1126 3 MP stroke
1 0 -1 0 3482 1507 3 MP stroke
1 0 -1 0 3482 1632 3 MP stroke
3 0 -2 1 3479 1880 3 MP stroke
4 2 -4 1 3477 2001 3 MP stroke
3 2 -3 0 3478 2127 3 MP stroke
0 3 -1 -2 3482 2247 3 MP stroke
-1 3 0 -3 3484 2371 3 MP stroke
2 2 -2 -1 3480 2499 3 MP stroke
3 1 -3 1 3478 2624 3 MP stroke
3 2 -3 0 3478 2748 3 MP stroke
3 2 -3 0 3478 2872 3 MP stroke
4 1 -4 1 3477 2997 3 MP stroke
5 1 -5 2 3475 3121 3 MP stroke
4 1 -4 1 3475 3246 3 MP stroke
4 1 -4 1 3476 3370 3 MP stroke
3 0 -3 1 3479 3496 3 MP stroke
5 2 -6 1 3474 3617 3 MP stroke
5 2 -5 1 3475 3743 3 MP stroke
5 1 -5 2 3474 3869 3 MP stroke
6 0 -5 3 3473 3996 3 MP stroke
7 2 -7 1 3472 4115 3 MP stroke
5 3 -6 1 3472 4237 3 MP stroke
5 3 -6 0 3474 4362 3 MP stroke
2 2 -3 0 3479 4487 3 MP stroke
-3 -3 3 1 3597 393 3 MP stroke
3 -1 -2 2 3587 515 3 MP stroke
5 -2 -4 4 3582 642 3 MP stroke
5 3 -6 0 3581 1379 3 MP stroke
5 4 -6 -1 3582 1625 3 MP stroke
3593 1756 PD
4 0 -3 2 3583 2131 3 MP stroke
4 0 -4 2 3583 2254 3 MP stroke
3 1 -3 1 3585 2376 3 MP stroke
2 1 -3 0 3587 2500 3 MP stroke
2 1 -2 1 3587 2624 3 MP stroke
1 0 -1 0 3590 2751 3 MP stroke
1 1 -1 0 3588 2873 3 MP stroke
4 1 -4 1 3585 2996 3 MP stroke
3 2 -3 0 3585 3121 3 MP stroke
3 1 -4 1 3585 3245 3 MP stroke
4 2 -4 0 3584 3369 3 MP stroke
5 2 -5 1 3581 3495 3 MP stroke
5 2 -5 1 3582 3617 3 MP stroke
4 1 -4 1 3585 3744 3 MP stroke
6 0 -5 3 3580 3870 3 MP stroke
5 2 -5 1 3582 3989 3 MP stroke
5 2 -6 1 3582 4115 3 MP stroke
5 2 -5 1 3582 4240 3 MP stroke
5 1 -5 1 3582 4364 3 MP stroke
6 4 -7 0 3579 4484 3 MP stroke
2 2 -3 -1 3586 4611 3 MP stroke
5 1 -4 2 3690 513 3 MP stroke
5 -3 -3 5 3691 645 3 MP stroke
3 3 -4 -1 3693 1255 3 MP stroke
2 2 -2 -1 3696 1381 3 MP stroke
6 2 -6 1 3688 1505 3 MP stroke
2 2 -2 -1 3696 1629 3 MP stroke
0 2 -1 -1 3699 1753 3 MP stroke
1 0 -1 1 3698 1880 3 MP stroke
4 1 -4 1 3692 2003 3 MP stroke
4 1 -4 2 3692 2128 3 MP stroke
4 1 -4 1 3691 2252 3 MP stroke
3 2 -4 0 3694 2375 3 MP stroke
3 1 -3 1 3693 2500 3 MP stroke
2 2 -3 0 3694 2623 3 MP stroke
3 1 -3 1 3693 2750 3 MP stroke
4 0 -4 3 3691 2875 3 MP stroke
4 1 -4 1 3692 2997 3 MP stroke
4 1 -4 1 3693 3121 3 MP stroke
4 2 -4 0 3692 3245 3 MP stroke
4 2 -4 0 3693 3370 3 MP stroke
4 2 -4 1 3691 3494 3 MP stroke
4 1 -5 1 3691 3618 3 MP stroke
4 2 -5 0 3691 3742 3 MP stroke
5 0 -4 2 3689 3869 3 MP stroke
4 1 -4 1 3691 3991 3 MP stroke
4 2 -4 1 3690 4116 3 MP stroke
5 2 -5 1 3690 4240 3 MP stroke
5 3 -6 0 3690 4361 3 MP stroke
8 4 -9 1 3683 4483 3 MP stroke
5 12 -9 -8 3688 4593 3 MP stroke
5 0 -5 2 3798 514 3 MP stroke
4 -4 -2 6 3800 645 3 MP stroke
5 1 -5 2 3797 1257 3 MP stroke
4 1 -4 1 3800 1383 3 MP stroke
3 0 -3 1 3802 1632 3 MP stroke
2 3 -3 -2 3803 1876 3 MP stroke
3 1 -3 1 3800 2005 3 MP stroke
3 0 -3 2 3801 2129 3 MP stroke
2 2 -3 -1 3804 2248 3 MP stroke
3 1 -3 0 3801 2376 3 MP stroke
3 1 -3 1 3801 2501 3 MP stroke
3 -1 -2 2 3802 2628 3 MP stroke
2 0 -2 1 3804 2750 3 MP stroke
2 0 -2 2 3802 2874 3 MP stroke
3 1 -4 1 3800 2997 3 MP stroke
4 1 -4 2 3798 3121 3 MP stroke
3 3 -4 -1 3800 3243 3 MP stroke
3 1 -3 1 3800 3371 3 MP stroke
5 1 -5 1 3798 3496 3 MP stroke
5 2 -5 1 3798 3619 3 MP stroke
5 1 -5 1 3798 3743 3 MP stroke
4 3 -5 0 3799 3865 3 MP stroke
4 3 -4 0 3800 3989 3 MP stroke
3 0 -3 2 3801 4119 3 MP stroke
5 0 -5 3 3796 4244 3 MP stroke
7 1 -6 3 3795 4366 3 MP stroke
4 5 -6 -2 3797 4481 3 MP stroke
6 4 -7 0 3902 507 3 MP stroke
7 -2 -6 5 3901 642 3 MP stroke
4 2 -4 0 3908 1009 3 MP stroke
4 2 -4 1 3905 1133 3 MP stroke
4 1 -4 1 3907 1259 3 MP stroke
2 -1 -2 2 3911 1384 3 MP stroke
0 -1 0 1 3915 1509 3 MP stroke
3 0 -3 2 3910 1632 3 MP stroke
4 1 -4 2 3907 1755 3 MP stroke
4 1 -4 1 3908 1880 3 MP stroke
3 1 -3 1 3909 2004 3 MP stroke
4 -1 -3 3 3907 2130 3 MP stroke
1 4 -2 -3 3913 2246 3 MP stroke
3 1 -3 1 3910 2376 3 MP stroke
3 0 -3 2 3908 2501 3 MP stroke
4 2 -5 0 3906 2623 3 MP stroke
3 2 -3 0 3908 2747 3 MP stroke
3 2 -3 0 3908 2872 3 MP stroke
4 1 -4 1 3909 2997 3 MP stroke
4 1 -4 1 3908 3121 3 MP stroke
3 3 -4 -1 3909 3243 3 MP stroke
4 -1 -3 3 3906 3373 3 MP stroke
5 2 -5 1 3906 3494 3 MP stroke
5 1 -5 2 3905 3619 3 MP stroke
4 2 -4 0 3906 3743 3 MP stroke
6 4 -6 0 3903 3864 3 MP stroke
6 2 -6 1 3904 3992 3 MP stroke
5 2 -5 1 3906 4115 3 MP stroke
4 1 -4 2 3906 4241 3 MP stroke
5 1 -5 2 3905 4366 3 MP stroke
8 1 -7 3 3899 4491 3 MP stroke
1 0 -1 0 4019 389 3 MP stroke
6 4 -7 0 4011 507 3 MP stroke
5 -1 -4 4 4013 641 3 MP stroke
6 -6 -3 8 4012 774 3 MP stroke
-3 -58 26 50 4041 999 3 MP stroke
8 -5 -5 9 4009 1148 3 MP stroke
14 -2 -11 10 3996 1267 3 MP stroke
6 4 -7 -1 4011 1376 3 MP stroke
3 0 -3 2 4018 1508 3 MP stroke
2 1 -3 0 4019 1629 3 MP stroke
3 1 -3 0 4017 1755 3 MP stroke
3 1 -3 1 4017 1880 3 MP stroke
4 1 -4 1 4016 2003 3 MP stroke
2 -3 -1 4 4018 2136 3 MP stroke
2 0 -1 1 4020 2255 3 MP stroke
4 0 -4 2 4016 2378 3 MP stroke
3 1 -3 1 4017 2500 3 MP stroke
2 3 -3 -2 4016 2621 3 MP stroke
2 0 -2 1 4018 2750 3 MP stroke
1 1 -2 0 4021 2872 3 MP stroke
5 1 -5 2 4012 2998 3 MP stroke
7 2 -7 2 4009 3121 3 MP stroke
5 1 -5 2 4012 3246 3 MP stroke
7 4 -8 0 4009 3366 3 MP stroke
5 5 -6 -2 4013 3489 3 MP stroke
3 1 -3 0 4018 3618 3 MP stroke
3 0 -3 2 4017 3746 3 MP stroke
2 -1 -1 1 4019 3870 3 MP stroke
4 0 -3 2 4016 3993 3 MP stroke
3 1 -4 1 4017 4115 3 MP stroke
2 -1 -2 2 4020 4244 3 MP stroke
8 -6 -5 9 4009 4379 3 MP stroke
10 1 -9 4 4004 4491 3 MP stroke
4 0 -4 2 4123 390 3 MP stroke
7 1 -7 4 4116 513 3 MP stroke
4 4 -5 -1 4122 631 3 MP stroke
6 3 -6 1 4118 759 3 MP stroke
6 0 -5 3 4119 886 3 MP stroke
7 7 -9 -2 4114 999 3 MP stroke
12 -20 -2 24 4110 1177 3 MP stroke
6 25 -15 -19 4113 1212 3 MP stroke
9 23 -17 -15 4106 1341 3 MP stroke
16 21 -22 -10 4096 1472 3 MP stroke
16 19 -21 -9 4095 1599 3 MP stroke
11 5 -12 1 4109 1747 3 MP stroke
-1 1 1 -2 4133 1878 3 MP stroke
6 5 -8 -1 4118 1997 3 MP stroke
3 4 -4 -1 4123 2122 3 MP stroke
4 -6 -1 8 4124 2266 3 MP stroke
4 1 -4 2 4121 2378 3 MP stroke
5 2 -5 1 4120 2500 3 MP stroke
1 5 -2 -4 4127 2618 3 MP stroke
1 -1 0 1 4128 2751 3 MP stroke
0 -1 0 1 4131 2876 3 MP stroke
5 2 -5 1 4120 2997 3 MP stroke
5 3 -6 0 4121 3118 3 MP stroke
5 -8 -1 10 4123 3266 3 MP stroke
6 6 -8 -2 4118 3361 3 MP stroke
7 4 -7 0 4116 3490 3 MP stroke
3 0 -3 2 4123 3620 3 MP stroke
6 -1 -5 5 4118 3749 3 MP stroke
6 1 -6 2 4119 3868 3 MP stroke
4 -2 -3 4 4123 3998 3 MP stroke
2 5 -4 -3 4124 4108 3 MP stroke
8 -6 -4 10 4116 4255 3 MP stroke
7 1 -7 3 4117 4368 3 MP stroke
6 2 -6 2 4119 4489 3 MP stroke
8 -9 -4 12 4224 408 3 MP stroke
7 3 -8 1 4224 509 3 MP stroke
1 5 -3 -3 4234 628 3 MP stroke
8 1 -7 4 4223 761 3 MP stroke
0 -1 4239 884 2 MP stroke
3 -3 -2 4 4234 1015 3 MP stroke
5 -4 -3 6 4230 1143 3 MP stroke
4 -1 -3 3 4230 1261 3 MP stroke
5 2 -6 1 4228 1381 3 MP stroke
6 4 -7 0 4226 1500 3 MP stroke
8 0 -7 4 4224 1634 3 MP stroke
5 4 -6 -1 4228 1750 3 MP stroke
0 3 -1 -2 4237 1875 3 MP stroke
4 5 -6 -2 4230 1996 3 MP stroke
5 1 -5 2 4228 2127 3 MP stroke
2 -3 -1 4 4234 2258 3 MP stroke
3 2 -3 0 4231 2374 3 MP stroke
-2 4 0 -4 4240 2494 3 MP stroke
-1 -1 1 0 4241 2626 3 MP stroke
0 2 -1 -2 4237 2747 3 MP stroke
2 0 -2 1 4234 2875 3 MP stroke
1 -1 0 2 4237 3002 3 MP stroke
-1 0 1 -1 4242 3124 3 MP stroke
3 -5 -1 6 4234 3258 3 MP stroke
4 -7 -1 9 4230 3386 3 MP stroke
6 3 -6 0 4225 3492 3 MP stroke
5 1 -5 2 4227 3619 3 MP stroke
0 1 4237 3748 2 MP stroke
-3 -1 3 0 4244 3871 3 MP stroke
2 -2 -1 3 4235 3999 3 MP stroke
1 -1 0 1 4236 4120 3 MP stroke
7 -3 -5 7 4224 4250 3 MP stroke
9 -6 -5 10 4223 4381 3 MP stroke
3 1 -3 1 4232 4491 3 MP stroke
6 -2 -4 5 4336 395 3 MP stroke
10 -1 -9 6 4327 517 3 MP stroke
3 1 -4 1 4339 634 3 MP stroke
6 4 -7 -1 4333 755 3 MP stroke
8 0 -7 5 4330 888 3 MP stroke
6 1 -5 2 4335 1009 3 MP stroke
-1 -7 4 6 4349 1148 3 MP stroke
2 -1 -1 2 4342 1260 3 MP stroke
-3 1 2 -2 4350 1379 3 MP stroke
1 -2 0 3 4343 1511 3 MP stroke
3 -1 -2 3 4341 1634 3 MP stroke
0 1 -1 -1 4345 1752 3 MP stroke
5 0 -5 3 4336 1881 3 MP stroke
5 -4 -3 6 4338 2013 3 MP stroke
5 -2 -4 4 4337 2134 3 MP stroke
3 -2 -2 3 4340 2257 3 MP stroke
5 -1 -4 4 4335 2379 3 MP stroke
0 1 -1 -1 4345 2498 3 MP stroke
2 1 -2 0 4342 2625 3 MP stroke
5 0 -4 2 4338 2753 3 MP stroke
4 2 -4 1 4338 2871 3 MP stroke
4 -4 -2 6 4339 3008 3 MP stroke
-1 2 0 -2 4346 3118 3 MP stroke
0 -7 3 6 4349 3261 3 MP stroke
3 -2 -2 4 4340 3378 3 MP stroke
4 1 -3 1 4339 3496 3 MP stroke
0 -1 1 1 4346 3623 3 MP stroke
1 0 -1 1 4343 3744 3 MP stroke
0 -2 0 0 4346 3866 3 MP stroke
4346 3995 PD
1 -3 0 3 4345 4123 3 MP stroke
4 -2 -3 4 4338 4246 3 MP stroke
5 4 -6 -1 4335 4360 3 MP stroke
4348 4490 PD
1 1 -1 0 4344 4614 3 MP stroke
5 -3 -3 5 4444 520 3 MP stroke
7 -2 -5 6 4440 642 3 MP stroke
7 2 -7 2 4439 760 3 MP stroke
8 -2 -6 6 4439 890 3 MP stroke
2 1 -2 0 4451 1010 3 MP stroke
0 1 4453 1134 2 MP stroke
6 0 -6 3 4442 1260 3 MP stroke
3 1 -3 1 4447 1382 3 MP stroke
1 1 -2 -1 4452 1505 3 MP stroke
0 -1 1 1 4454 1633 3 MP stroke
1 1 -1 -1 4453 1753 3 MP stroke
-2 0 2 -2 4458 1880 3 MP stroke
3 -3 -1 4 4448 2012 3 MP stroke
5 2 -5 1 4443 2126 3 MP stroke
3 1 -3 0 4448 2251 3 MP stroke
1 -2 0 2 4453 2380 3 MP stroke
-2 2 0 -3 4456 2496 3 MP stroke
1 2 -1 -1 4453 2622 3 MP stroke
2 1 -2 0 4450 2749 3 MP stroke
2 0 -2 1 4450 2873 3 MP stroke
4 -1 -3 3 4447 3003 3 MP stroke
6 -3 -4 6 4443 3132 3 MP stroke
6 -1 -5 5 4441 3251 3 MP stroke
6 0 -5 3 4443 3373 3 MP stroke
2 0 -2 1 4449 3496 3 MP stroke
3 1 -3 1 4447 3620 3 MP stroke
6 2 -7 2 4442 3742 3 MP stroke
0 4 -2 -4 4452 3860 3 MP stroke
5 -2 -3 4 4445 3998 3 MP stroke
1 2 -2 -1 4452 4114 3 MP stroke
2 9 -5 -7 4448 4225 3 MP stroke
2 3 -3 -1 4448 4360 3 MP stroke
2 3 -3 -1 4448 4485 3 MP stroke
1 1 -2 -1 4452 4613 3 MP stroke
6 0 -5 3 4551 391 3 MP stroke
6 -2 -5 5 4550 519 3 MP stroke
8 -1 -7 6 4545 641 3 MP stroke
5 -5 -3 7 4552 772 3 MP stroke
4 -4 -2 5 4555 894 3 MP stroke
5 0 -5 3 4551 1012 3 MP stroke
6 6 -8 -2 4549 1126 3 MP stroke
5 1 -5 2 4552 1256 3 MP stroke
5 -1 -4 3 4552 1386 3 MP stroke
8 0 -7 4 4547 1509 3 MP stroke
7 -5 -4 8 4550 1643 3 MP stroke
4 -1 -3 3 4555 1760 3 MP stroke
1 -1 -1 2 4559 1882 3 MP stroke
9 -3 -7 7 4546 2011 3 MP stroke
9 0 -8 5 4544 2132 3 MP stroke
4562 2254 PD
1 0 -1 0 4560 2378 3 MP stroke
5 4 -6 -1 4552 2495 3 MP stroke
7 1 -7 3 4548 2626 3 MP stroke
2 1 -2 0 4556 2749 3 MP stroke
3 4 -4 -1 4554 2869 3 MP stroke
5 -2 -4 4 4552 3004 3 MP stroke
10 -4 -7 9 4543 3134 3 MP stroke
8 -1 -7 6 4545 3251 3 MP stroke
6 -2 -5 5 4548 3376 3 MP stroke
11 4 -11 3 4539 3492 3 MP stroke
6 9 -9 -5 4547 3605 3 MP stroke
4 4 -5 -1 4553 3738 3 MP stroke
-6 3 4 -6 4572 3860 3 MP stroke
9 -2 -7 7 4544 4001 3 MP stroke
10 9 -12 -2 4539 4103 3 MP stroke
17 -7 -13 16 4529 4259 3 MP stroke
15 -9 -9 16 4534 4389 3 MP stroke
15 4 -15 5 4530 4488 3 MP stroke
8 -4 -5 8 4654 523 3 MP stroke
10 -1 -8 6 4650 643 3 MP stroke
6 1 -6 3 4656 762 3 MP stroke
7 -4 -5 8 4657 895 3 MP stroke
7 3 -7 1 4656 1007 3 MP stroke
10 2 -9 4 4649 1133 3 MP stroke
7 2 -7 3 4655 1256 3 MP stroke
8 -4 -5 7 4655 1393 3 MP stroke
11 4 -12 3 4647 1503 3 MP stroke
11 2 -11 3 4649 1630 3 MP stroke
13 6 -14 2 4642 1748 3 MP stroke
10 3 -10 3 4647 1877 3 MP stroke
10 7 -12 -1 4649 1993 3 MP stroke
11 -5 -8 11 4650 2141 3 MP stroke
10 7 -12 0 4647 2242 3 MP stroke
6 6 -8 -2 4656 2368 3 MP stroke
0 10 -4 -8 4666 2481 3 MP stroke
4 1 -4 1 4660 2624 3 MP stroke
9 -1 -8 6 4651 2755 3 MP stroke
8 1 -7 3 4654 2874 3 MP stroke
4 4 -6 -2 4661 2992 3 MP stroke
6 -1 -5 5 4656 3126 3 MP stroke
15 4 -15 4 4639 3243 3 MP stroke
14 3 -14 5 4642 3369 3 MP stroke
17 0 -15 9 4636 3500 3 MP stroke
9 1 -8 4 4652 3620 3 MP stroke
11 -3 -9 9 4648 3753 3 MP stroke
8 8 -11 -2 4652 3856 3 MP stroke
10 5 -11 1 4649 3985 3 MP stroke
9 9 -12 -4 4651 4102 3 MP stroke
9 9 -12 -3 4650 4228 3 MP stroke
4 13 -9 -10 4659 4340 3 MP stroke
4 -3 -3 5 4662 4496 3 MP stroke
8 -3 -6 7 4763 522 3 MP stroke
12 1 -11 6 4753 639 3 MP stroke
9 2 -9 3 4759 760 3 MP stroke
11 -2 -10 8 4755 891 3 MP stroke
9 -1 -7 5 4760 1015 3 MP stroke
4 2 -4 1 4768 1131 3 MP stroke
2 2 -2 0 4772 1256 3 MP stroke
6 0 -6 3 4765 1383 3 MP stroke
5 2 -5 0 4767 1505 3 MP stroke
5 -10 0 11 4770 1654 3 MP stroke
8 2 -8 3 4760 1755 3 MP stroke
10 2 -9 4 4757 1879 3 MP stroke
14 0 -12 8 4750 2009 3 MP stroke
10 8 -12 -1 4756 2116 3 MP stroke
7 -4 -4 7 4765 2262 3 MP stroke
3 -2 -2 4 4771 2382 3 MP stroke
8 0 -8 4 4761 2503 3 MP stroke
9 -1 -8 6 4760 2631 3 MP stroke
8 2 -8 3 4760 2750 3 MP stroke
10 -5 -6 10 4758 2888 3 MP stroke
7 0 -6 4 4763 3001 3 MP stroke
5 0 -5 3 4766 3124 3 MP stroke
7 1 -6 2 4764 3247 3 MP stroke
7 1 -7 2 4765 3370 3 MP stroke
9 3 -9 2 4759 3492 3 MP stroke
5 -2 -3 5 4767 3626 3 MP stroke
4 3 -5 -1 4770 3740 3 MP stroke
4 3 -5 0 4767 3862 3 MP stroke
7 0 -6 4 4763 3995 3 MP stroke
6 1 -6 2 4766 4117 3 MP stroke
5 2 -5 1 4766 4240 3 MP stroke
4 -2 -3 3 4771 4369 3 MP stroke
3 -2 -2 3 4772 4494 3 MP stroke
6 7 -8 -3 4764 4601 3 MP stroke
7 5 -8 0 4869 506 3 MP stroke
9 4 -10 1 4866 631 3 MP stroke
7 1 -6 2 4871 761 3 MP stroke
8 2 -8 2 4870 883 3 MP stroke
-6 21 -3 -22 4893 966 3 MP stroke
-7 19 -2 -21 4896 1094 3 MP stroke
3 0 -3 2 4879 1259 3 MP stroke
0 13 -6 -11 4882 1358 3 MP stroke
8 1 -8 4 4868 1506 3 MP stroke
7 1 -6 3 4870 1632 3 MP stroke
5 3 -6 0 4873 1751 3 MP stroke
7 0 -6 4 4871 1882 3 MP stroke
5 3 -6 0 4873 2000 3 MP stroke
7 1 -7 3 4872 2127 3 MP stroke
4 1 -4 1 4877 2253 3 MP stroke
5 1 -5 2 4876 2377 3 MP stroke
4 1 -4 1 4876 2501 3 MP stroke
4 1 -4 1 4876 2625 3 MP stroke
7 2 -7 2 4871 2748 3 MP stroke
5 2 -6 1 4875 2871 3 MP stroke
4 2 -5 1 4876 2996 3 MP stroke
5 1 -5 1 4876 3122 3 MP stroke
4 1 -4 1 4876 3246 3 MP stroke
5 2 -5 1 4875 3369 3 MP stroke
6 0 -5 3 4874 3498 3 MP stroke
5 0 -5 2 4875 3621 3 MP stroke
4 1 -4 2 4876 3743 3 MP stroke
5 1 -5 2 4876 3868 3 MP stroke
6 2 -6 2 4873 3991 3 MP stroke
4 1 -4 2 4877 4116 3 MP stroke
6 3 -7 1 4873 4239 3 MP stroke
8 5 -9 0 4869 4359 3 MP stroke
3 3 -4 -1 4879 4485 3 MP stroke
12 3 -12 4 4968 511 3 MP stroke
1 7 -4 -6 4988 623 3 MP stroke
5 1 -5 2 4982 763 3 MP stroke
5 3 -6 0 4982 880 3 MP stroke
5 4 -5 -1 4982 1005 3 MP stroke
5 2 -5 1 4982 1132 3 MP stroke
4 2 -5 1 4983 1256 3 MP stroke
4 2 -4 1 4983 1380 3 MP stroke
3 1 -3 0 4987 1506 3 MP stroke
2 2 -2 0 4988 1629 3 MP stroke
2 1 -2 1 4987 1755 3 MP stroke
3 -1 -2 3 4985 1884 3 MP stroke
3 -3 -1 4 4987 2011 3 MP stroke
4 1 -4 1 4985 2127 3 MP stroke
3 1 -4 0 4986 2252 3 MP stroke
4 0 -4 2 4986 2377 3 MP stroke
3 1 -4 0 4987 2500 3 MP stroke
3 2 -3 -1 4987 2622 3 MP stroke
4 1 -4 1 4985 2748 3 MP stroke
4 1 -4 2 4983 2874 3 MP stroke
4 2 -4 0 4984 2997 3 MP stroke
4 1 -4 1 4984 3122 3 MP stroke
4 2 -4 0 4984 3246 3 MP stroke
5 1 -5 2 4982 3371 3 MP stroke
6 -1 -5 4 4982 3499 3 MP stroke
6 0 -5 4 4980 3622 3 MP stroke
5 1 -5 2 4981 3745 3 MP stroke
4 1 -4 2 4984 3868 3 MP stroke
6 2 -6 2 4980 3991 3 MP stroke
6 2 -6 1 4980 4115 3 MP stroke
5 2 -5 1 4981 4239 3 MP stroke
5 3 -6 0 4982 4363 3 MP stroke
5 3 -5 0 4982 4487 3 MP stroke
7 5 -8 0 4978 4607 3 MP stroke
21 -4 -17 15 5060 403 3 MP stroke
19 -7 -14 17 5064 531 3 MP stroke
-1 8 -3 -7 5101 622 3 MP stroke
2 0 -2 1 5095 763 3 MP stroke
3 -1 -3 3 5093 887 3 MP stroke
3 1 -3 1 5092 1010 3 MP stroke
4 0 -3 3 5092 1135 3 MP stroke
4 1 -4 1 5092 1257 3 MP stroke
4 0 -4 2 5092 1384 3 MP stroke
3 0 -3 2 5093 1508 3 MP stroke
3 2 -3 0 5093 1630 3 MP stroke
2 2 -3 0 5095 1753 3 MP stroke
3 -1 -2 3 5094 1883 3 MP stroke
4 2 -4 0 5093 2002 3 MP stroke
4 1 -4 1 5093 2127 3 MP stroke
3 2 -3 0 5093 2251 3 MP stroke
3 1 -3 1 5093 2378 3 MP stroke
4 0 -3 2 5093 2501 3 MP stroke
2 2 -3 0 5095 2624 3 MP stroke
5 1 -4 2 5091 2749 3 MP stroke
4 1 -4 1 5091 2873 3 MP stroke
4 2 -4 0 5091 2996 3 MP stroke
4 2 -4 0 5092 3121 3 MP stroke
4 1 -4 2 5092 3246 3 MP stroke
5 1 -5 2 5091 3371 3 MP stroke
5 1 -5 2 5089 3495 3 MP stroke
6 2 -6 2 5088 3618 3 MP stroke
6 1 -5 2 5088 3744 3 MP stroke
6 0 -5 3 5089 3869 3 MP stroke
4 1 -4 1 5092 3992 3 MP stroke
3 4 -5 -2 5093 4109 3 MP stroke
5 3 -5 0 5089 4237 3 MP stroke
5 1 -4 2 5090 4365 3 MP stroke
4 1 -4 1 5093 4490 3 MP stroke
4 2 -4 1 5091 4612 3 MP stroke
10 0 -9 5 5189 391 3 MP stroke
3 5 -5 -3 5202 505 3 MP stroke
1 3 -1 -2 5205 632 3 MP stroke
3 2 -4 0 5202 758 3 MP stroke
3 1 -3 0 5201 884 3 MP stroke
3 2 -3 0 5202 1006 3 MP stroke
4 1 -3 1 5201 1135 3 MP stroke
4 0 -3 2 5200 1258 3 MP stroke
5 0 -4 2 5199 1384 3 MP stroke
4 0 -4 2 5200 1508 3 MP stroke
2 2 -2 -1 5203 1629 3 MP stroke
2 2 -3 -1 5203 1753 3 MP stroke
3 2 -4 0 5201 1877 3 MP stroke
3 1 -3 1 5203 2002 3 MP stroke
3 2 -3 0 5202 2127 3 MP stroke
3 1 -3 1 5201 2251 3 MP stroke
4 2 -4 0 5201 2376 3 MP stroke
4 0 -4 2 5201 2501 3 MP stroke
4 1 -4 1 5201 2626 3 MP stroke
4 1 -4 1 5199 2750 3 MP stroke
4 1 -4 2 5200 2873 3 MP stroke
4 1 -4 1 5199 2997 3 MP stroke
5 1 -5 1 5198 3121 3 MP stroke
4 1 -4 2 5200 3246 3 MP stroke
4 0 -4 2 5201 3371 3 MP stroke
5 1 -5 2 5197 3494 3 MP stroke
5 1 -5 2 5198 3619 3 MP stroke
5 2 -5 1 5197 3741 3 MP stroke
4 2 -4 1 5198 3868 3 MP stroke
3 2 -4 0 5200 3990 3 MP stroke
5 1 -5 2 5197 4117 3 MP stroke
6 1 -6 2 5195 4241 3 MP stroke
5 2 -5 1 5197 4363 3 MP stroke
5 4 -6 -1 5197 4484 3 MP stroke
1 5 -3 -4 5204 4606 3 MP stroke
5308 389 PD
4 -1 -3 3 5308 891 3 MP stroke
4 0 -4 2 5308 1010 3 MP stroke
2 1 -3 0 5311 1256 3 MP stroke
3 0 -3 1 5309 1383 3 MP stroke
3 -1 -2 3 5308 1510 3 MP stroke
3 -1 -2 2 5310 1634 3 MP stroke
5 2 -5 1 5305 1755 3 MP stroke
4 1 -4 1 5308 1880 3 MP stroke
1 1 -2 -1 5313 2003 3 MP stroke
4 1 -4 1 5309 2128 3 MP stroke
3 1 -3 1 5309 2253 3 MP stroke
4 0 -4 2 5307 2378 3 MP stroke
5 -1 -4 3 5306 2504 3 MP stroke
3 1 -3 1 5308 2626 3 MP stroke
4 1 -4 1 5309 2749 3 MP stroke
4 1 -4 1 5309 2873 3 MP stroke
4 2 -4 0 5307 2996 3 MP stroke
3 2 -3 0 5311 3121 3 MP stroke
5 2 -5 1 5307 3245 3 MP stroke
5 0 -4 2 5306 3373 3 MP stroke
4 1 -4 2 5306 3495 3 MP stroke
4 2 -4 1 5308 3618 3 MP stroke
4 1 -4 2 5306 3743 3 MP stroke
5 2 -5 1 5306 3866 3 MP stroke
4 3 -5 -1 5307 3989 3 MP stroke
6 3 -6 1 5304 4113 3 MP stroke
7 3 -7 1 5302 4237 3 MP stroke
8 4 -9 1 5299 4361 3 MP stroke
5 3 -5 0 5306 4487 3 MP stroke
1 1 -2 0 5314 4612 3 MP stroke
6 0 -5 3 5412 1135 3 MP stroke
3 0 -3 2 5416 1259 3 MP stroke
3 1 -3 1 5418 1382 3 MP stroke
2 -3 -1 3 5420 1514 3 MP stroke
3 0 -3 2 5417 1633 3 MP stroke
5 -2 -3 4 5415 1760 3 MP stroke
5 2 -5 1 5413 1877 3 MP stroke
3 1 -3 1 5419 2003 3 MP stroke
3 1 -3 1 5416 2128 3 MP stroke
3 1 -3 1 5418 2253 3 MP stroke
3 0 -3 2 5417 2378 3 MP stroke
4 2 -4 0 5415 2499 3 MP stroke
5 2 -5 1 5414 2624 3 MP stroke
5 1 -5 2 5413 2749 3 MP stroke
5 0 -5 2 5414 2875 3 MP stroke
5 0 -5 3 5413 2998 3 MP stroke
5 1 -4 2 5413 3122 3 MP stroke
3 1 -4 1 5416 3246 3 MP stroke
5 1 -5 1 5415 3371 3 MP stroke
5 1 -5 1 5414 3495 3 MP stroke
4 1 -4 1 5415 3620 3 MP stroke
3 2 -3 0 5418 3742 3 MP stroke
4 3 -4 0 5414 3864 3 MP stroke
6 0 -6 3 5412 3994 3 MP stroke
5 1 -5 2 5412 4117 3 MP stroke
6 2 -6 1 5411 4239 3 MP stroke
5 1 -5 2 5413 4366 3 MP stroke
4 3 -5 0 5416 4486 3 MP stroke
4 3 -5 0 5414 4610 3 MP stroke
4 0 -4 2 5523 1135 3 MP stroke
3 0 -2 1 5525 1259 3 MP stroke
3 0 -3 1 5526 1384 3 MP stroke
2 2 -2 -1 5527 1504 3 MP stroke
1 -3 0 3 5528 1637 3 MP stroke
3 -1 -2 3 5525 1758 3 MP stroke
4 1 -4 1 5523 1879 3 MP stroke
4 1 -3 1 5524 2004 3 MP stroke
3 0 -3 2 5524 2128 3 MP stroke
4 1 -4 1 5524 2253 3 MP stroke
3 0 -3 2 5525 2377 3 MP stroke
3 2 -4 0 5524 2498 3 MP stroke
4 2 -5 0 5524 2622 3 MP stroke
4 1 -4 1 5523 2750 3 MP stroke
4 1 -4 1 5524 2874 3 MP stroke
3 -1 -3 3 5524 3000 3 MP stroke
4 0 -4 2 5523 3123 3 MP stroke
4 1 -4 1 5522 3247 3 MP stroke
5 1 -5 1 5521 3371 3 MP stroke
5 1 -4 2 5521 3495 3 MP stroke
4 1 -4 2 5523 3620 3 MP stroke
6 1 -5 2 5519 3745 3 MP stroke
5 1 -5 1 5522 3868 3 MP stroke
5 1 -5 2 5521 3991 3 MP stroke
5 1 -5 2 5521 4116 3 MP stroke
5 2 -5 1 5520 4240 3 MP stroke
6 2 -6 2 5518 4364 3 MP stroke
3 2 -3 -1 5525 4487 3 MP stroke
3 2 -3 0 5525 4610 3 MP stroke
1 1 -1 0 5635 1132 3 MP stroke
4 1 -3 1 5632 1258 3 MP stroke
4 1 -4 1 5631 1382 3 MP stroke
3 2 -3 -1 5633 1503 3 MP stroke
2 -1 -1 2 5635 1635 3 MP stroke
1 -2 0 3 5637 1761 3 MP stroke
3 -1 -2 2 5633 1883 3 MP stroke
5 1 -4 1 5630 2004 3 MP stroke
4 0 -4 2 5631 2129 3 MP stroke
4 1 -4 1 5632 2254 3 MP stroke
4 0 -3 2 5632 2377 3 MP stroke
4 0 -4 2 5631 2502 3 MP stroke
3 1 -3 1 5632 2624 3 MP stroke
5 1 -5 2 5628 2748 3 MP stroke
7 3 -7 1 5626 2870 3 MP stroke
4 2 -4 1 5630 2996 3 MP stroke
4 1 -4 2 5629 3122 3 MP stroke
5 1 -5 1 5630 3246 3 MP stroke
4 1 -4 1 5630 3372 3 MP stroke
4 2 -4 1 5630 3493 3 MP stroke
5 2 -5 1 5629 3617 3 MP stroke
4 1 -4 1 5632 3744 3 MP stroke
6 2 -6 2 5627 3866 3 MP stroke
5 1 -5 2 5628 3992 3 MP stroke
4 1 -4 1 5632 4116 3 MP stroke
4 2 -4 1 5630 4239 3 MP stroke
5 3 -6 0 5628 4363 3 MP stroke
2 0 -2 1 5633 4490 3 MP stroke
8 -4 -6 8 5732 524 3 MP stroke
3 0 -2 2 5741 1011 3 MP stroke
4 0 -4 2 5738 1135 3 MP stroke
4 2 -5 1 5737 1256 3 MP stroke
4 1 -4 2 5739 1382 3 MP stroke
6 1 -5 2 5736 1508 3 MP stroke
6 1 -6 2 5736 1629 3 MP stroke
4 1 -4 1 5740 1755 3 MP stroke
3 2 -4 -1 5741 1877 3 MP stroke
4 1 -4 1 5739 2004 3 MP stroke
4 1 -4 1 5737 2128 3 MP stroke
6 3 -7 1 5734 2249 3 MP stroke
2 1 -2 0 5743 2375 3 MP stroke
3 1 -3 1 5741 2500 3 MP stroke
2 1 -2 0 5742 2625 3 MP stroke
5 2 -5 1 5738 2748 3 MP stroke
5 2 -5 1 5737 2872 3 MP stroke
4 1 -4 1 5738 2997 3 MP stroke
5 2 -6 1 5737 3121 3 MP stroke
7 2 -7 1 5733 3245 3 MP stroke
4 2 -5 1 5737 3370 3 MP stroke
5 2 -6 1 5736 3493 3 MP stroke
5 3 -5 0 5737 3616 3 MP stroke
6 1 -5 2 5735 3744 3 MP stroke
6 1 -6 2 5734 3868 3 MP stroke
5 2 -6 1 5736 3991 3 MP stroke
4 2 -4 1 5737 4115 3 MP stroke
3 2 -4 0 5739 4239 3 MP stroke
3 1 -3 1 5742 4365 3 MP stroke
4 3 -5 -1 5739 4486 3 MP stroke
4 3 -5 0 5736 4609 3 MP stroke
8 -3 -6 6 5840 396 3 MP stroke
4 -1 -3 3 5848 516 3 MP stroke
3 0 -3 1 5849 1011 3 MP stroke
5 1 -4 2 5845 1134 3 MP stroke
2 1 -2 0 5850 1258 3 MP stroke
3 1 -3 1 5846 1382 3 MP stroke
4 0 -4 2 5848 1507 3 MP stroke
4 0 -4 2 5846 1632 3 MP stroke
1 1 -1 0 5851 1755 3 MP stroke
3 1 -3 1 5847 1879 3 MP stroke
4 1 -4 1 5846 2004 3 MP stroke
4 2 -4 1 5845 2127 3 MP stroke
5 1 -5 2 5845 2251 3 MP stroke
4 0 -4 2 5846 2378 3 MP stroke
4 1 -3 2 5846 2501 3 MP stroke
3 1 -3 1 5848 2624 3 MP stroke
4 1 -4 2 5845 2748 3 MP stroke
5 1 -5 2 5843 2872 3 MP stroke
6 2 -6 1 5844 2997 3 MP stroke
6 1 -5 2 5843 3123 3 MP stroke
5 1 -5 2 5844 3246 3 MP stroke
5 3 -5 1 5843 3367 3 MP stroke
5 1 -5 2 5843 3496 3 MP stroke
5 2 -5 1 5844 3618 3 MP stroke
4 2 -4 0 5846 3741 3 MP stroke
5 3 -5 1 5843 3865 3 MP stroke
5 3 -5 0 5843 3990 3 MP stroke
5 0 -5 2 5845 4118 3 MP stroke
5 1 -5 1 5844 4241 3 MP stroke
4 1 -5 1 5845 4364 3 MP stroke
3 2 -4 0 5847 4488 3 MP stroke
0 3 -1 -3 5854 4609 3 MP stroke
4 -3 -3 5 5953 395 3 MP stroke
5 1 -5 1 5952 512 3 MP stroke
2 1 -2 1 5957 1133 3 MP stroke
6 1 -6 2 5950 1259 3 MP stroke
3 1 -4 1 5955 1382 3 MP stroke
3 -1 -2 2 5957 1509 3 MP stroke
3 1 -3 1 5957 1630 3 MP stroke
3 1 -3 0 5957 1755 3 MP stroke
3 0 -3 1 5956 1880 3 MP stroke
4 0 -3 2 5954 2004 3 MP stroke
3 0 -3 2 5955 2128 3 MP stroke
3 1 -3 1 5956 2252 3 MP stroke
4 1 -4 1 5955 2378 3 MP stroke
6 4 -6 0 5950 2496 3 MP stroke
5 1 -5 2 5951 2626 3 MP stroke
4 1 -4 1 5955 2749 3 MP stroke
4 1 -4 1 5954 2874 3 MP stroke
5 2 -5 1 5952 2998 3 MP stroke
6 2 -6 1 5952 3121 3 MP stroke
4 1 -4 2 5953 3245 3 MP stroke
5 2 -5 0 5953 3370 3 MP stroke
5 1 -5 2 5952 3493 3 MP stroke
4 0 -3 2 5954 3622 3 MP stroke
4 1 -4 2 5953 3743 3 MP stroke
6 1 -6 3 5949 3868 3 MP stroke
6 2 -6 2 5949 3991 3 MP stroke
6 1 -5 3 5950 4118 3 MP stroke
5 1 -5 2 5952 4241 3 MP stroke
5 3 -5 0 5951 4362 3 MP stroke
7 -1 -5 5 5949 4494 3 MP stroke
2 -3 -1 4 6067 395 3 MP stroke
1 -1 -1 1 6067 514 3 MP stroke
5 1 -5 2 6061 1009 3 MP stroke
2 1 -3 0 6066 1132 3 MP stroke
3 0 -2 2 6063 1260 3 MP stroke
5 2 -5 1 6060 1380 3 MP stroke
4 2 -4 1 6061 1505 3 MP stroke
3 1 -4 1 6063 1629 3 MP stroke
2 0 -2 1 6065 1755 3 MP stroke
3 0 -3 1 6064 1880 3 MP stroke
4 0 -4 2 6063 2005 3 MP stroke
4 -2 -3 4 6063 2134 3 MP stroke
4 1 -4 1 6063 2252 3 MP stroke
3 1 -3 1 6064 2377 3 MP stroke
4 0 -4 2 6062 2501 3 MP stroke
5 1 -5 2 6061 2625 3 MP stroke
5 0 -4 2 6061 2751 3 MP stroke
5 2 -5 1 6061 2872 3 MP stroke
4 2 -4 0 6062 2997 3 MP stroke
4 2 -4 0 6061 3120 3 MP stroke
5 1 -5 2 6060 3245 3 MP stroke
4 2 -4 1 6060 3370 3 MP stroke
3 1 -3 1 6062 3495 3 MP stroke
5 3 -5 1 6059 3617 3 MP stroke
5 1 -5 1 6061 3742 3 MP stroke
6 0 -5 3 6059 3870 3 MP stroke
5 2 -5 1 6058 3991 3 MP stroke
7 3 -7 1 6056 4114 3 MP stroke
7 4 -7 0 6056 4236 3 MP stroke
3 4 -4 -2 6063 4358 3 MP stroke
9 -1 -8 6 6053 4494 3 MP stroke
8 3 -8 2 6052 4610 3 MP stroke
-2 2 1 -3 6182 756 3 MP stroke
-3 2 2 -3 6183 882 3 MP stroke
1 0 -1 1 6176 1010 3 MP stroke
4 0 -4 2 6170 1135 3 MP stroke
2 2 -3 0 6173 1255 3 MP stroke
3 2 -4 0 6171 1380 3 MP stroke
3 2 -4 1 6170 1505 3 MP stroke
4 1 -4 1 6169 1630 3 MP stroke
1 1 -2 0 6174 1754 3 MP stroke
3 0 -3 1 6172 1880 3 MP stroke
4 1 -4 1 6169 2004 3 MP stroke
2 1 -2 0 6173 2127 3 MP stroke
1 2 -2 -1 6175 2250 3 MP stroke
4 1 -4 1 6171 2377 3 MP stroke
3 1 -4 1 6172 2499 3 MP stroke
4 2 -4 0 6171 2625 3 MP stroke
4 2 -5 1 6169 2747 3 MP stroke
4 1 -4 2 6168 2873 3 MP stroke
6 4 -7 0 6164 2993 3 MP stroke
4 0 -3 3 6169 3125 3 MP stroke
4 1 -4 1 6169 3247 3 MP stroke
3 1 -3 1 6171 3370 3 MP stroke
4 2 -4 0 6169 3494 3 MP stroke
6 1 -6 2 6167 3620 3 MP stroke
6 1 -6 3 6166 3744 3 MP stroke
5 4 -6 -1 6167 3863 3 MP stroke
7 6 -8 -2 6164 3984 3 MP stroke
6 -3 -5 6 6166 4123 3 MP stroke
5 -2 -4 4 6168 4247 3 MP stroke
10 4 -10 2 6158 4361 3 MP stroke
4 6 -6 -3 6169 4481 3 MP stroke
7 3 899 389 2 MP stroke
899 513 PD
899 637 PD
899 1010 PD
899 1134 PD
3 0 899 1383 2 MP stroke
9 6 899 1507 2 MP stroke
899 2502 PD
899 2626 PD
899 2750 PD
899 2874 PD
899 2999 PD
899 3123 PD
899 3247 PD
899 3372 PD
899 3496 PD
899 3620 PD
899 3744 PD
899 3869 PD
899 3993 PD
899 4117 PD
899 4242 PD
899 4366 PD
899 4490 PD
1006 389 PD
-13 2 1006 513 2 MP stroke
-8 -2 1006 637 2 MP stroke
13 -32 1006 886 2 MP stroke
-6 -7 1006 1010 2 MP stroke
-17 6 1006 1134 2 MP stroke
-11 5 1006 1259 2 MP stroke
-1 3 1006 1383 2 MP stroke
-16 -2 1006 1507 2 MP stroke
-33 -15 1006 1631 2 MP stroke
-18 2 1006 2377 2 MP stroke
-12 -1 1006 2502 2 MP stroke
-12 -1 1006 2626 2 MP stroke
-11 -12 1006 2750 2 MP stroke
-11 -12 1006 2874 2 MP stroke
-11 0 1006 2999 2 MP stroke
-11 1 1006 3123 2 MP stroke
-10 -3 1006 3247 2 MP stroke
-9 -4 1006 3372 2 MP stroke
-9 -2 1006 3496 2 MP stroke
-11 -1 1006 3620 2 MP stroke
-14 -1 1006 3744 2 MP stroke
-13 -2 1006 3869 2 MP stroke
-14 2 1006 3993 2 MP stroke
-16 0 1006 4117 2 MP stroke
-17 0 1006 4242 2 MP stroke
-16 -1 1006 4366 2 MP stroke
-15 1 1006 4490 2 MP stroke
-20 2 1114 389 2 MP stroke
-2 -3 1114 513 2 MP stroke
-30 6 1114 637 2 MP stroke
-20 10 1114 886 2 MP stroke
-20 13 1114 1010 2 MP stroke
-9 -8 1114 1134 2 MP stroke
-12 3 1114 1259 2 MP stroke
-7 -1 1114 1383 2 MP stroke
-14 -3 1114 1507 2 MP stroke
-9 -6 1114 1631 2 MP stroke
-12 0 1114 2377 2 MP stroke
-11 -2 1114 2502 2 MP stroke
-9 -1 1114 2626 2 MP stroke
-9 -11 1114 2750 2 MP stroke
-12 -11 1114 2874 2 MP stroke
-9 -6 1114 2999 2 MP stroke
-8 -5 1114 3123 2 MP stroke
-6 -5 1114 3247 2 MP stroke
-5 -4 1114 3372 2 MP stroke
-7 -2 1114 3496 2 MP stroke
-11 -2 1114 3620 2 MP stroke
-13 -1 1114 3744 2 MP stroke
-16 -3 1114 3869 2 MP stroke
-17 -2 1114 3993 2 MP stroke
-16 0 1114 4117 2 MP stroke
-15 0 1114 4242 2 MP stroke
-18 0 1114 4366 2 MP stroke
-17 1 1114 4490 2 MP stroke
-6 1 1222 389 2 MP stroke
-20 5 1222 513 2 MP stroke
-12 -4 1222 637 2 MP stroke
-20 10 1222 761 2 MP stroke
-11 5 1222 886 2 MP stroke
-16 10 1222 1010 2 MP stroke
-6 1 1222 1134 2 MP stroke
-2 -1 1222 1383 2 MP stroke
-2 0 1222 1507 2 MP stroke
1222 1631 PD
-6 -3 1222 2502 2 MP stroke
-4 -4 1222 2626 2 MP stroke
-1 -4 1222 2750 2 MP stroke
-7 -1 1222 2874 2 MP stroke
-10 1 1222 2999 2 MP stroke
-11 0 1222 3123 2 MP stroke
-12 -3 1222 3247 2 MP stroke
-11 -3 1222 3372 2 MP stroke
-14 -2 1222 3496 2 MP stroke
-12 -2 1222 3620 2 MP stroke
-12 -2 1222 3744 2 MP stroke
-14 -1 1222 3869 2 MP stroke
-14 0 1222 3993 2 MP stroke
-13 3 1222 4117 2 MP stroke
-15 1 1222 4242 2 MP stroke
-16 -2 1222 4366 2 MP stroke
-18 0 1222 4490 2 MP stroke
1329 389 PD
-18 2 1329 513 2 MP stroke
-9 -5 1329 637 2 MP stroke
-16 8 1329 761 2 MP stroke
-4 -15 1329 886 2 MP stroke
-15 -4 1329 1010 2 MP stroke
-26 -9 1329 1134 2 MP stroke
-19 -1 1329 1259 2 MP stroke
1329 1507 PD
-11 -6 1329 2502 2 MP stroke
-13 -6 1329 2626 2 MP stroke
-2 -7 1329 2750 2 MP stroke
-8 -2 1329 2874 2 MP stroke
-1 -4 1329 2999 2 MP stroke
-2 -3 1329 3123 2 MP stroke
-10 -1 1329 3247 2 MP stroke
-5 -3 1329 3372 2 MP stroke
-9 -2 1329 3496 2 MP stroke
-13 1 1329 3620 2 MP stroke
-10 -3 1329 3744 2 MP stroke
-16 -2 1329 3869 2 MP stroke
-17 -2 1329 3993 2 MP stroke
-16 0 1329 4117 2 MP stroke
-15 -2 1329 4242 2 MP stroke
-14 -6 1329 4366 2 MP stroke
-17 -2 1329 4490 2 MP stroke
-20 8 1437 389 2 MP stroke
-18 2 1437 513 2 MP stroke
-9 2 1437 637 2 MP stroke
-21 -4 1437 761 2 MP stroke
-11 -4 1437 886 2 MP stroke
-22 7 1437 1010 2 MP stroke
-16 6 1437 1134 2 MP stroke
-5 -3 1437 1259 2 MP stroke
8 0 1437 1383 2 MP stroke
-16 -2 1437 2502 2 MP stroke
-12 1 1437 2626 2 MP stroke
0 -1 1437 3123 2 MP stroke
-10 0 1437 3247 2 MP stroke
-9 -2 1437 3372 2 MP stroke
-10 -1 1437 3496 2 MP stroke
-12 1 1437 3620 2 MP stroke
-12 -1 1437 3744 2 MP stroke
-12 -2 1437 3869 2 MP stroke
-15 -2 1437 3993 2 MP stroke
-11 -5 1437 4117 2 MP stroke
-14 -4 1437 4242 2 MP stroke
-16 0 1437 4366 2 MP stroke
-15 0 1437 4490 2 MP stroke
-13 -3 1437 4615 2 MP stroke
1545 389 PD
-16 2 1545 513 2 MP stroke
-4 12 1545 637 2 MP stroke
-18 4 1545 761 2 MP stroke
-16 5 1545 886 2 MP stroke
-15 2 1545 1010 2 MP stroke
-17 0 1545 1134 2 MP stroke
-15 2 1545 1259 2 MP stroke
-16 4 1545 1383 2 MP stroke
1 -1 1545 1507 2 MP stroke
1545 1631 PD
-8 -4 1545 2502 2 MP stroke
-6 0 1545 3123 2 MP stroke
-7 -1 1545 3247 2 MP stroke
-6 -1 1545 3372 2 MP stroke
-9 -1 1545 3496 2 MP stroke
-10 1 1545 3620 2 MP stroke
-7 4 1545 3744 2 MP stroke
-13 -1 1545 3869 2 MP stroke
-15 2 1545 3993 2 MP stroke
-15 1 1545 4117 2 MP stroke
-15 -3 1545 4242 2 MP stroke
-15 0 1545 4366 2 MP stroke
-14 -1 1545 4490 2 MP stroke
-12 -3 1545 4615 2 MP stroke
1653 389 PD
-11 3 1653 513 2 MP stroke
-14 4 1653 637 2 MP stroke
-18 2 1653 761 2 MP stroke
-13 1 1653 886 2 MP stroke
-14 4 1653 1010 2 MP stroke
-9 -4 1653 1134 2 MP stroke
-8 7 1653 1259 2 MP stroke
-8 -1 1653 1383 2 MP stroke
-6 0 1653 1507 2 MP stroke
-13 8 1653 2502 2 MP stroke
-11 8 1653 2626 2 MP stroke
-11 3 1653 2750 2 MP stroke
-10 -1 1653 3123 2 MP stroke
-14 -1 1653 3247 2 MP stroke
-14 -2 1653 3372 2 MP stroke
-10 -2 1653 3496 2 MP stroke
-13 -2 1653 3620 2 MP stroke
-17 1 1653 3744 2 MP stroke
-16 -1 1653 3869 2 MP stroke
-16 -2 1653 3993 2 MP stroke
-14 -1 1653 4117 2 MP stroke
-13 -6 1653 4242 2 MP stroke
-21 0 1653 4366 2 MP stroke
-18 2 1653 4490 2 MP stroke
1760 389 PD
-11 -1 1760 513 2 MP stroke
-18 1 1760 637 2 MP stroke
-9 5 1760 761 2 MP stroke
-10 -1 1760 886 2 MP stroke
-9 -9 1760 1010 2 MP stroke
-24 7 1760 1134 2 MP stroke
-12 15 1760 1259 2 MP stroke
-3 17 1760 1383 2 MP stroke
-4 -1 1760 1507 2 MP stroke
-13 -2 1760 1631 2 MP stroke
-8 4 1760 2502 2 MP stroke
-11 4 1760 2626 2 MP stroke
-9 7 1760 2750 2 MP stroke
-9 7 1760 2874 2 MP stroke
-1 -2 1760 2999 2 MP stroke
-1 -2 1760 3123 2 MP stroke
-11 -1 1760 3247 2 MP stroke
-11 -2 1760 3372 2 MP stroke
-16 -1 1760 3496 2 MP stroke
-16 0 1760 3620 2 MP stroke
-13 -2 1760 3744 2 MP stroke
-14 -2 1760 3869 2 MP stroke
-13 -5 1760 3993 2 MP stroke
-15 -4 1760 4117 2 MP stroke
-21 3 1760 4242 2 MP stroke
-18 -2 1760 4366 2 MP stroke
-16 0 1760 4490 2 MP stroke
-15 2 1868 389 2 MP stroke
-5 3 1868 513 2 MP stroke
-18 0 1868 637 2 MP stroke
-18 -1 1868 761 2 MP stroke
-24 5 1868 886 2 MP stroke
-17 3 1868 1010 2 MP stroke
-4 4 1868 1134 2 MP stroke
-8 -1 1868 1259 2 MP stroke
-9 -3 1868 1383 2 MP stroke
-10 0 1868 1507 2 MP stroke
-1 1 1868 1631 2 MP stroke
-12 -4 1868 2626 2 MP stroke
-9 1 1868 2750 2 MP stroke
-6 5 1868 2874 2 MP stroke
-7 4 1868 2999 2 MP stroke
-9 3 1868 3123 2 MP stroke
-9 -1 1868 3247 2 MP stroke
-12 -4 1868 3372 2 MP stroke
-12 -1 1868 3496 2 MP stroke
-12 0 1868 3620 2 MP stroke
-12 0 1868 3744 2 MP stroke
-16 -2 1868 3869 2 MP stroke
-20 6 1868 3993 2 MP stroke
-20 4 1868 4117 2 MP stroke
-16 -3 1868 4242 2 MP stroke
-15 -4 1868 4366 2 MP stroke
-12 -3 1868 4490 2 MP stroke
-15 -2 1868 4615 2 MP stroke
-2 4 1976 389 2 MP stroke
-4 5 1976 513 2 MP stroke
-27 -2 1976 637 2 MP stroke
-19 8 1976 761 2 MP stroke
-20 13 1976 886 2 MP stroke
6 -21 1976 1010 2 MP stroke
-1 3 1976 1134 2 MP stroke
-9 -1 1976 1259 2 MP stroke
-13 0 1976 1383 2 MP stroke
-10 0 1976 1507 2 MP stroke
11 0 1976 1631 2 MP stroke
-21 -6 1976 2502 2 MP stroke
-13 -6 1976 2626 2 MP stroke
-11 1 1976 2750 2 MP stroke
-11 -2 1976 2874 2 MP stroke
-10 -2 1976 2999 2 MP stroke
-10 -1 1976 3123 2 MP stroke
-9 -2 1976 3247 2 MP stroke
-13 -2 1976 3372 2 MP stroke
-14 -2 1976 3496 2 MP stroke
-14 -2 1976 3620 2 MP stroke
-14 0 1976 3744 2 MP stroke
-15 -1 1976 3869 2 MP stroke
-15 -4 1976 3993 2 MP stroke
-16 -3 1976 4117 2 MP stroke
-13 -4 1976 4242 2 MP stroke
-16 -2 1976 4366 2 MP stroke
-18 -2 1976 4490 2 MP stroke
-8 3 2084 389 2 MP stroke
-30 7 2084 513 2 MP stroke
-13 -10 2084 637 2 MP stroke
-12 1 2084 761 2 MP stroke
-19 4 2084 886 2 MP stroke
-8 -7 2084 1010 2 MP stroke
-8 -1 2084 1134 2 MP stroke
-3 1 2084 1259 2 MP stroke
-6 -1 2084 1383 2 MP stroke
3 -9 2084 1507 2 MP stroke
-10 -2 2084 1631 2 MP stroke
-11 2 2084 2377 2 MP stroke
-13 -2 2084 2502 2 MP stroke
-13 -5 2084 2626 2 MP stroke
-11 1 2084 2750 2 MP stroke
-7 -4 2084 2874 2 MP stroke
-7 4 2084 2999 2 MP stroke
-9 -4 2084 3123 2 MP stroke
-10 -2 2084 3247 2 MP stroke
-14 -1 2084 3372 2 MP stroke
-13 -1 2084 3496 2 MP stroke
-12 -3 2084 3620 2 MP stroke
-13 0 2084 3744 2 MP stroke
-13 -4 2084 3869 2 MP stroke
-13 0 2084 3993 2 MP stroke
-14 0 2084 4117 2 MP stroke
-17 -2 2084 4242 2 MP stroke
-21 2 2084 4366 2 MP stroke
-15 -11 2084 4490 2 MP stroke
-6 4 2191 389 2 MP stroke
-19 10 2191 513 2 MP stroke
-12 0 2191 637 2 MP stroke
-7 -8 2191 761 2 MP stroke
-28 6 2191 886 2 MP stroke
-13 -1 2191 1010 2 MP stroke
-11 -1 2191 1134 2 MP stroke
-26 2 2191 1259 2 MP stroke
-8 5 2191 1383 2 MP stroke
-6 0 2191 1631 2 MP stroke
-10 1 2191 2377 2 MP stroke
-10 0 2191 2502 2 MP stroke
-14 -1 2191 2626 2 MP stroke
-9 -2 2191 2750 2 MP stroke
-10 -7 2191 2874 2 MP stroke
-10 0 2191 2999 2 MP stroke
-10 -2 2191 3123 2 MP stroke
-10 -1 2191 3247 2 MP stroke
-11 1 2191 3372 2 MP stroke
-12 0 2191 3496 2 MP stroke
-10 -1 2191 3620 2 MP stroke
-15 0 2191 3744 2 MP stroke
-15 0 2191 3869 2 MP stroke
-13 -1 2191 3993 2 MP stroke
-12 -2 2191 4117 2 MP stroke
-13 0 2191 4242 2 MP stroke
-18 3 2191 4366 2 MP stroke
-14 0 2191 4490 2 MP stroke
2299 389 PD
-12 5 2299 513 2 MP stroke
-19 4 2299 637 2 MP stroke
-17 1 2299 761 2 MP stroke
-16 2 2299 886 2 MP stroke
-15 2 2299 1010 2 MP stroke
-10 -9 2299 1134 2 MP stroke
-14 0 2299 1259 2 MP stroke
-10 -1 2299 1383 2 MP stroke
0 4 2299 1507 2 MP stroke
-5 5 2299 1631 2 MP stroke
-8 0 2299 1756 2 MP stroke
-6 11 2299 1880 2 MP stroke
-14 3 2299 2253 2 MP stroke
-14 4 2299 2377 2 MP stroke
-11 -1 2299 2502 2 MP stroke
-11 -1 2299 2626 2 MP stroke
-8 -4 2299 2750 2 MP stroke
-9 -8 2299 2874 2 MP stroke
-7 -6 2299 2999 2 MP stroke
-6 -1 2299 3123 2 MP stroke
-8 -1 2299 3247 2 MP stroke
-12 -1 2299 3372 2 MP stroke
-11 -2 2299 3496 2 MP stroke
-13 -2 2299 3620 2 MP stroke
-12 -2 2299 3744 2 MP stroke
-13 -1 2299 3869 2 MP stroke
-14 0 2299 3993 2 MP stroke
-16 0 2299 4117 2 MP stroke
-14 -3 2299 4242 2 MP stroke
-15 -7 2299 4366 2 MP stroke
-13 1 2299 4490 2 MP stroke
-16 -2 2299 4615 2 MP stroke
-24 4 2407 389 2 MP stroke
-15 4 2407 513 2 MP stroke
-20 7 2407 637 2 MP stroke
-15 0 2407 761 2 MP stroke
-15 -1 2407 886 2 MP stroke
-13 3 2407 1010 2 MP stroke
-6 -16 2407 1134 2 MP stroke
-8 -4 2407 1507 2 MP stroke
-8 5 2407 1631 2 MP stroke
-12 -1 2407 1756 2 MP stroke
-9 5 2407 1880 2 MP stroke
-13 1 2407 2004 2 MP stroke
-11 4 2407 2129 2 MP stroke
-12 4 2407 2253 2 MP stroke
-15 3 2407 2377 2 MP stroke
-11 -2 2407 2502 2 MP stroke
-11 0 2407 2626 2 MP stroke
-8 4 2407 2750 2 MP stroke
-12 -1 2407 2874 2 MP stroke
-8 0 2407 2999 2 MP stroke
-8 -1 2407 3123 2 MP stroke
-13 0 2407 3247 2 MP stroke
-16 1 2407 3372 2 MP stroke
-13 -1 2407 3496 2 MP stroke
-16 2 2407 3620 2 MP stroke
-13 -2 2407 3744 2 MP stroke
-11 -5 2407 3869 2 MP stroke
-16 1 2407 3993 2 MP stroke
-15 -2 2407 4117 2 MP stroke
-14 -3 2407 4242 2 MP stroke
-13 -4 2407 4366 2 MP stroke
-17 -1 2407 4490 2 MP stroke
2515 389 PD
-10 -3 2515 513 2 MP stroke
-13 0 2515 637 2 MP stroke
-6 7 2515 886 2 MP stroke
-21 13 2515 1010 2 MP stroke
-35 16 2515 1134 2 MP stroke
-21 14 2515 1259 2 MP stroke
-14 9 2515 1383 2 MP stroke
-15 5 2515 1507 2 MP stroke
-7 8 2515 1631 2 MP stroke
-11 5 2515 1756 2 MP stroke
-8 17 2515 1880 2 MP stroke
-11 -4 2515 2004 2 MP stroke
-11 -3 2515 2129 2 MP stroke
-9 5 2515 2253 2 MP stroke
-10 4 2515 2377 2 MP stroke
-10 -1 2515 2502 2 MP stroke
-11 -1 2515 2626 2 MP stroke
-10 -1 2515 2750 2 MP stroke
-9 -2 2515 2874 2 MP stroke
-9 -3 2515 2999 2 MP stroke
-9 -3 2515 3123 2 MP stroke
-10 -2 2515 3247 2 MP stroke
-12 -1 2515 3372 2 MP stroke
-10 -3 2515 3496 2 MP stroke
-12 3 2515 3620 2 MP stroke
-15 -3 2515 3744 2 MP stroke
-13 -4 2515 3869 2 MP stroke
-18 1 2515 3993 2 MP stroke
-15 0 2515 4117 2 MP stroke
-18 -1 2515 4242 2 MP stroke
-17 -5 2515 4366 2 MP stroke
-12 0 2515 4490 2 MP stroke
-14 13 2622 389 2 MP stroke
-15 4 2622 513 2 MP stroke
-18 8 2622 637 2 MP stroke
-18 -5 2622 761 2 MP stroke
-18 16 2622 886 2 MP stroke
-13 -6 2622 1010 2 MP stroke
-15 -3 2622 1134 2 MP stroke
-14 11 2622 1259 2 MP stroke
-10 7 2622 1383 2 MP stroke
-15 1 2622 1507 2 MP stroke
-12 0 2622 1631 2 MP stroke
1 0 2622 1756 2 MP stroke
-5 -2 2622 1880 2 MP stroke
-4 0 2622 2004 2 MP stroke
-4 5 2622 2129 2 MP stroke
-6 7 2622 2253 2 MP stroke
-8 7 2622 2377 2 MP stroke
-9 -3 2622 2502 2 MP stroke
-9 -1 2622 2626 2 MP stroke
-9 0 2622 2750 2 MP stroke
-8 2 2622 2874 2 MP stroke
-8 -3 2622 2999 2 MP stroke
-8 -3 2622 3123 2 MP stroke
-7 -1 2622 3247 2 MP stroke
-10 -1 2622 3372 2 MP stroke
-12 0 2622 3496 2 MP stroke
-14 -1 2622 3620 2 MP stroke
-11 1 2622 3744 2 MP stroke
-15 1 2622 3869 2 MP stroke
-15 0 2622 3993 2 MP stroke
-12 0 2622 4117 2 MP stroke
-14 -2 2622 4242 2 MP stroke
-11 -6 2622 4366 2 MP stroke
-22 -1 2622 4490 2 MP stroke
-17 2 2730 389 2 MP stroke
-12 7 2730 513 2 MP stroke
-11 5 2730 637 2 MP stroke
-14 1 2730 761 2 MP stroke
-16 16 2730 886 2 MP stroke
-6 0 2730 1010 2 MP stroke
-5 -1 2730 1134 2 MP stroke
-5 0 2730 1259 2 MP stroke
-1 0 2730 1383 2 MP stroke
-9 1 2730 1507 2 MP stroke
-14 1 2730 1631 2 MP stroke
-3 -6 2730 1756 2 MP stroke
-1 -8 2730 1880 2 MP stroke
-4 -2 2730 2377 2 MP stroke
-1 -5 2730 2502 2 MP stroke
-4 0 2730 2626 2 MP stroke
-9 -3 2730 2750 2 MP stroke
-9 0 2730 2874 2 MP stroke
-9 -1 2730 2999 2 MP stroke
-8 -3 2730 3123 2 MP stroke
-10 0 2730 3247 2 MP stroke
-11 0 2730 3372 2 MP stroke
-14 -3 2730 3496 2 MP stroke
-13 -2 2730 3620 2 MP stroke
-14 -1 2730 3744 2 MP stroke
-16 -3 2730 3869 2 MP stroke
-15 0 2730 3993 2 MP stroke
-17 -2 2730 4117 2 MP stroke
-14 -2 2730 4242 2 MP stroke
-13 -4 2730 4366 2 MP stroke
-14 -3 2730 4490 2 MP stroke
2838 389 PD
-14 9 2838 513 2 MP stroke
-7 12 2838 637 2 MP stroke
-17 -8 2838 761 2 MP stroke
-8 -4 2838 1259 2 MP stroke
7 1 2838 1383 2 MP stroke
-2 4 2838 1507 2 MP stroke
-4 5 2838 1631 2 MP stroke
2838 2377 PD
-9 0 2838 2502 2 MP stroke
-9 -1 2838 2626 2 MP stroke
-10 -1 2838 2750 2 MP stroke
-10 1 2838 2874 2 MP stroke
-11 0 2838 2999 2 MP stroke
-10 -1 2838 3123 2 MP stroke
-9 0 2838 3247 2 MP stroke
-12 0 2838 3372 2 MP stroke
-13 -1 2838 3496 2 MP stroke
-12 -1 2838 3620 2 MP stroke
-15 0 2838 3744 2 MP stroke
-15 -1 2838 3869 2 MP stroke
-15 0 2838 3993 2 MP stroke
-15 0 2838 4117 2 MP stroke
-15 -5 2838 4242 2 MP stroke
-15 -1 2838 4366 2 MP stroke
-12 -2 2838 4490 2 MP stroke
-11 -2 2838 4615 2 MP stroke
2945 389 PD
-24 6 2945 513 2 MP stroke
-12 15 2945 637 2 MP stroke
-6 3 2945 886 2 MP stroke
-9 1 2945 1010 2 MP stroke
-8 4 2945 1134 2 MP stroke
-16 3 2945 1259 2 MP stroke
-16 3 2945 1383 2 MP stroke
-7 2 2945 1507 2 MP stroke
0 3 2945 1631 2 MP stroke
-4 0 2945 2502 2 MP stroke
-11 -3 2945 2626 2 MP stroke
-10 -2 2945 2750 2 MP stroke
-10 -1 2945 2874 2 MP stroke
-8 -2 2945 2999 2 MP stroke
-12 0 2945 3123 2 MP stroke
-11 0 2945 3247 2 MP stroke
-13 -2 2945 3372 2 MP stroke
-12 -1 2945 3496 2 MP stroke
-14 -1 2945 3620 2 MP stroke
-11 -1 2945 3744 2 MP stroke
-13 -3 2945 3869 2 MP stroke
-12 -3 2945 3993 2 MP stroke
-13 -3 2945 4117 2 MP stroke
-16 0 2945 4242 2 MP stroke
-16 3 2945 4366 2 MP stroke
-14 3 2945 4490 2 MP stroke
-15 -4 2945 4615 2 MP stroke
3053 389 PD
-19 8 3053 513 2 MP stroke
-3 16 3053 637 2 MP stroke
-4 1 3053 1134 2 MP stroke
-9 1 3053 1259 2 MP stroke
-10 1 3053 1383 2 MP stroke
-10 1 3053 1507 2 MP stroke
-11 1 3053 1631 2 MP stroke
-7 -8 3053 1756 2 MP stroke
-21 -1 3053 1880 2 MP stroke
1 -6 3053 2502 2 MP stroke
-11 -1 3053 2626 2 MP stroke
-11 -2 3053 2750 2 MP stroke
-11 -1 3053 2874 2 MP stroke
-11 -1 3053 2999 2 MP stroke
-11 0 3053 3123 2 MP stroke
-11 -1 3053 3247 2 MP stroke
-12 -1 3053 3372 2 MP stroke
-13 0 3053 3496 2 MP stroke
-13 -1 3053 3620 2 MP stroke
-16 -1 3053 3744 2 MP stroke
-13 0 3053 3869 2 MP stroke
-14 -4 3053 3993 2 MP stroke
-16 0 3053 4117 2 MP stroke
-15 1 3053 4242 2 MP stroke
-14 2 3053 4366 2 MP stroke
-17 3 3053 4490 2 MP stroke
-16 -2 3053 4615 2 MP stroke
-14 3 3161 389 2 MP stroke
-8 8 3161 513 2 MP stroke
-4 9 3161 637 2 MP stroke
-8 1 3161 1134 2 MP stroke
-9 3 3161 1259 2 MP stroke
-9 1 3161 1383 2 MP stroke
-7 7 3161 1507 2 MP stroke
-5 9 3161 1631 2 MP stroke
-10 4 3161 1756 2 MP stroke
-9 6 3161 1880 2 MP stroke
-9 8 3161 2004 2 MP stroke
-8 9 3161 2129 2 MP stroke
-9 4 3161 2253 2 MP stroke
-9 5 3161 2377 2 MP stroke
-10 -1 3161 2502 2 MP stroke
-7 -3 3161 2626 2 MP stroke
-6 -4 3161 2750 2 MP stroke
-7 -7 3161 2874 2 MP stroke
-7 -2 3161 2999 2 MP stroke
-10 0 3161 3123 2 MP stroke
-11 0 3161 3247 2 MP stroke
-11 1 3161 3372 2 MP stroke
-13 -1 3161 3496 2 MP stroke
-13 -3 3161 3620 2 MP stroke
-15 0 3161 3744 2 MP stroke
-13 0 3161 3869 2 MP stroke
-16 -2 3161 3993 2 MP stroke
-18 -1 3161 4117 2 MP stroke
-19 -3 3161 4242 2 MP stroke
-18 -2 3161 4366 2 MP stroke
-17 -3 3161 4490 2 MP stroke
-15 9 3269 389 2 MP stroke
-21 9 3269 513 2 MP stroke
-20 10 3269 637 2 MP stroke
-18 2 3269 886 2 MP stroke
-22 -7 3269 1010 2 MP stroke
-6 3 3269 1259 2 MP stroke
-9 3 3269 1383 2 MP stroke
-7 5 3269 1507 2 MP stroke
-8 2 3269 1631 2 MP stroke
-9 -5 3269 1756 2 MP stroke
-9 0 3269 1880 2 MP stroke
-9 1 3269 2004 2 MP stroke
-9 8 3269 2129 2 MP stroke
-11 -10 3269 2253 2 MP stroke
-11 -7 3269 2377 2 MP stroke
-12 0 3269 2502 2 MP stroke
-11 2 3269 2626 2 MP stroke
-8 3 3269 2750 2 MP stroke
-13 -1 3269 2874 2 MP stroke
-13 0 3269 2999 2 MP stroke
-12 0 3269 3123 2 MP stroke
-13 -1 3269 3247 2 MP stroke
-10 1 3269 3372 2 MP stroke
-12 -1 3269 3496 2 MP stroke
-12 -2 3269 3620 2 MP stroke
-16 -1 3269 3744 2 MP stroke
-15 -4 3269 3869 2 MP stroke
-16 -2 3269 3993 2 MP stroke
-18 0 3269 4117 2 MP stroke
-13 -7 3269 4242 2 MP stroke
-15 -3 3269 4366 2 MP stroke
-15 4 3269 4490 2 MP stroke
-6 6 3376 389 2 MP stroke
-16 7 3376 513 2 MP stroke
-33 7 3376 637 2 MP stroke
-12 -8 3376 761 2 MP stroke
-12 3 3376 886 2 MP stroke
-13 -3 3376 1010 2 MP stroke
-10 0 3376 1134 2 MP stroke
-3 2 3376 1507 2 MP stroke
-3 2 3376 1631 2 MP stroke
2 -1 3376 1756 2 MP stroke
-6 4 3376 1880 2 MP stroke
-8 2 3376 2004 2 MP stroke
-9 0 3376 2129 2 MP stroke
-10 4 3376 2253 2 MP stroke
-9 -2 3376 2377 2 MP stroke
-10 -1 3376 2502 2 MP stroke
-9 -2 3376 2626 2 MP stroke
-10 -3 3376 2750 2 MP stroke
-8 0 3376 2874 2 MP stroke
-11 0 3376 2999 2 MP stroke
-10 0 3376 3123 2 MP stroke
-10 -1 3376 3247 2 MP stroke
-9 1 3376 3372 2 MP stroke
-12 1 3376 3496 2 MP stroke
-11 -1 3376 3620 2 MP stroke
-10 -1 3376 3744 2 MP stroke
-12 -1 3376 3869 2 MP stroke
-16 3 3376 3993 2 MP stroke
-15 5 3376 4117 2 MP stroke
-16 1 3376 4242 2 MP stroke
-15 -1 3376 4366 2 MP stroke
-10 -2 3376 4490 2 MP stroke
-5 -4 3376 4615 2 MP stroke
2 4 3484 389 2 MP stroke
-15 5 3484 513 2 MP stroke
-32 4 3484 637 2 MP stroke
-18 -1 3484 761 2 MP stroke
-8 -10 3484 886 2 MP stroke
-15 3 3484 1010 2 MP stroke
-2 -12 3484 1134 2 MP stroke
-3 0 3484 1507 2 MP stroke
-3 1 3484 1631 2 MP stroke
-7 1 3484 1880 2 MP stroke
-11 -2 3484 2004 2 MP stroke
-9 -2 3484 2129 2 MP stroke
-3 -8 3484 2253 2 MP stroke
0 -9 3484 2377 2 MP stroke
-6 -4 3484 2502 2 MP stroke
-9 -1 3484 2626 2 MP stroke
-9 -2 3484 2750 2 MP stroke
-9 -2 3484 2874 2 MP stroke
-11 -1 3484 2999 2 MP stroke
-14 0 3484 3123 2 MP stroke
-13 0 3484 3247 2 MP stroke
-12 -1 3484 3372 2 MP stroke
-8 1 3484 3496 2 MP stroke
-16 -2 3484 3620 2 MP stroke
-14 0 3484 3744 2 MP stroke
-15 2 3484 3869 2 MP stroke
-16 6 3484 3993 2 MP stroke
-19 -1 3484 4117 2 MP stroke
-18 -4 3484 4242 2 MP stroke
-16 -4 3484 4366 2 MP stroke
-8 -3 3484 4490 2 MP stroke
8 5 3592 389 2 MP stroke
-7 4 3592 513 2 MP stroke
-14 9 3592 637 2 MP stroke
-17 -4 3592 1383 2 MP stroke
-16 -7 3592 1631 2 MP stroke
1 0 3592 1756 2 MP stroke
-12 4 3592 2129 2 MP stroke
-13 3 3592 2253 2 MP stroke
-10 0 3592 2377 2 MP stroke
-8 -2 3592 2502 2 MP stroke
-7 -1 3592 2626 2 MP stroke
-3 1 3592 2750 2 MP stroke
-5 -1 3592 2874 2 MP stroke
-11 -2 3592 2999 2 MP stroke
-10 -2 3592 3123 2 MP stroke
-11 -1 3592 3247 2 MP stroke
-12 -3 3592 3372 2 MP stroke
-16 0 3592 3496 2 MP stroke
-15 -2 3592 3620 2 MP stroke
-11 1 3592 3744 2 MP stroke
-17 4 3592 3869 2 MP stroke
-15 -3 3592 3993 2 MP stroke
-16 -1 3592 4117 2 MP stroke
-15 -1 3592 4242 2 MP stroke
-15 -1 3592 4366 2 MP stroke
-20 -6 3592 4490 2 MP stroke
-9 -5 3592 4615 2 MP stroke
3700 389 PD
-14 2 3700 513 2 MP stroke
-12 13 3700 637 2 MP stroke
-11 -5 3700 1259 2 MP stroke
-6 -3 3700 1383 2 MP stroke
-18 -1 3700 1507 2 MP stroke
-6 -3 3700 1631 2 MP stroke
-2 -4 3700 1756 2 MP stroke
-3 1 3700 1880 2 MP stroke
-12 0 3700 2004 2 MP stroke
-12 1 3700 2129 2 MP stroke
-13 0 3700 2253 2 MP stroke
-10 -2 3700 2377 2 MP stroke
-10 -1 3700 2502 2 MP stroke
-9 -3 3700 2626 2 MP stroke
-10 1 3700 2750 2 MP stroke
-13 4 3700 2874 2 MP stroke
-12 -1 3700 2999 2 MP stroke
-11 -1 3700 3123 2 MP stroke
-12 -2 3700 3247 2 MP stroke
-11 -2 3700 3372 2 MP stroke
-13 -1 3700 3496 2 MP stroke
-14 -1 3700 3620 2 MP stroke
-14 -2 3700 3744 2 MP stroke
-15 2 3700 3869 2 MP stroke
-13 -1 3700 3993 2 MP stroke
-14 0 3700 4117 2 MP stroke
-15 -1 3700 4242 2 MP stroke
-16 -5 3700 4366 2 MP stroke
-26 -6 3700 4490 2 MP stroke
-21 -30 3700 4615 2 MP stroke
-14 3 3807 513 2 MP stroke
-9 14 3807 637 2 MP stroke
-15 0 3807 1259 2 MP stroke
-11 1 3807 1383 2 MP stroke
-8 2 3807 1631 2 MP stroke
-7 -6 3807 1880 2 MP stroke
-10 2 3807 2004 2 MP stroke
-9 2 3807 2129 2 MP stroke
-6 -6 3807 2253 2 MP stroke
-9 -1 3807 2377 2 MP stroke
-9 0 3807 2502 2 MP stroke
-7 4 3807 2626 2 MP stroke
-5 1 3807 2750 2 MP stroke
-7 2 3807 2874 2 MP stroke
-11 -1 3807 2999 2 MP stroke
-13 0 3807 3123 2 MP stroke
-11 -5 3807 3247 2 MP stroke
-10 0 3807 3372 2 MP stroke
-14 1 3807 3496 2 MP stroke
-14 0 3807 3620 2 MP stroke
-14 0 3807 3744 2 MP stroke
-13 -4 3807 3869 2 MP stroke
-11 -4 3807 3993 2 MP stroke
-9 4 3807 4117 2 MP stroke
-16 5 3807 4242 2 MP stroke
-18 3 3807 4366 2 MP stroke
-16 -11 3807 4490 2 MP stroke
3915 389 PD
-20 -6 3915 513 2 MP stroke
-20 10 3915 637 2 MP stroke
-11 -1 3915 1010 2 MP stroke
-14 0 3915 1134 2 MP stroke
-12 1 3915 1259 2 MP stroke
-6 3 3915 1383 2 MP stroke
0 3 3915 1507 2 MP stroke
-8 3 3915 1631 2 MP stroke
-12 1 3915 1756 2 MP stroke
-11 1 3915 1880 2 MP stroke
-9 1 3915 2004 2 MP stroke
-11 4 3915 2129 2 MP stroke
-4 -10 3915 2253 2 MP stroke
-8 0 3915 2377 2 MP stroke
-10 1 3915 2502 2 MP stroke
-14 -3 3915 2626 2 MP stroke
-10 -3 3915 2750 2 MP stroke
-10 -2 3915 2874 2 MP stroke
-10 -1 3915 2999 2 MP stroke
-11 -1 3915 3123 2 MP stroke
-10 -5 3915 3247 2 MP stroke
-12 4 3915 3372 2 MP stroke
-14 -1 3915 3496 2 MP stroke
-15 1 3915 3620 2 MP stroke
-13 -1 3915 3744 2 MP stroke
-18 -5 3915 3869 2 MP stroke
-17 0 3915 3993 2 MP stroke
-14 -1 3915 4117 2 MP stroke
-13 1 3915 4242 2 MP stroke
-15 2 3915 4366 2 MP stroke
-23 4 3915 4490 2 MP stroke
-5 0 4023 389 2 MP stroke
-19 -6 4023 513 2 MP stroke
-14 8 4023 637 2 MP stroke
-14 21 4023 761 2 MP stroke
44 163 4023 886 2 MP stroke
-19 23 4023 1134 2 MP stroke
-38 18 4023 1259 2 MP stroke
-19 -8 4023 1383 2 MP stroke
-8 3 4023 1507 2 MP stroke
-7 -2 4023 1631 2 MP stroke
-9 -1 4023 1756 2 MP stroke
-9 1 4023 1880 2 MP stroke
-11 0 4023 2004 2 MP stroke
-6 11 4023 2129 2 MP stroke
-4 3 4023 2253 2 MP stroke
-11 3 4023 2377 2 MP stroke
-9 -1 4023 2502 2 MP stroke
-10 -7 4023 2626 2 MP stroke
-7 1 4023 2750 2 MP stroke
-4 -2 4023 2874 2 MP stroke
-16 1 4023 2999 2 MP stroke
-21 0 4023 3123 2 MP stroke
-16 1 4023 3247 2 MP stroke
-22 -6 4023 3372 2 MP stroke
-16 -9 4023 3496 2 MP stroke
-8 -2 4023 3620 2 MP stroke
-9 4 4023 3744 2 MP stroke
-5 2 4023 3869 2 MP stroke
-10 2 4023 3993 2 MP stroke
-10 -1 4023 4117 2 MP stroke
-5 4 4023 4242 2 MP stroke
-19 22 4023 4366 2 MP stroke
-28 5 4023 4490 2 MP stroke
-12 3 4131 389 2 MP stroke
-22 4 4131 513 2 MP stroke
-14 -7 4131 637 2 MP stroke
-19 -1 4131 761 2 MP stroke
-17 3 4131 886 2 MP stroke
-26 -13 4131 1010 2 MP stroke
-23 67 4131 1134 2 MP stroke
-33 -66 4131 1259 2 MP stroke
-42 -57 4131 1383 2 MP stroke
-57 -45 4131 1507 2 MP stroke
-57 -41 4131 1631 2 MP stroke
-34 -8 4131 1756 2 MP stroke
3 -4 4131 1880 2 MP stroke
-21 -8 4131 2004 2 MP stroke
-12 -8 4131 2129 2 MP stroke
-8 21 4131 2253 2 MP stroke
-14 3 4131 2377 2 MP stroke
-16 -1 4131 2502 2 MP stroke
-6 -12 4131 2626 2 MP stroke
-3 2 4131 2750 2 MP stroke
0 3 4131 2874 2 MP stroke
-16 -1 4131 2999 2 MP stroke
-16 -5 4131 3123 2 MP stroke
-9 29 4131 3247 2 MP stroke
-21 -13 4131 3372 2 MP stroke
-22 -6 4131 3496 2 MP stroke
-11 2 4131 3620 2 MP stroke
-18 10 4131 3744 2 MP stroke
-18 1 4131 3869 2 MP stroke
-11 9 4131 3993 2 MP stroke
-11 -12 4131 4117 2 MP stroke
-19 23 4131 4242 2 MP stroke
-21 5 4131 4366 2 MP stroke
-18 1 4131 4490 2 MP stroke
-18 31 4238 389 2 MP stroke
-22 -3 4238 513 2 MP stroke
-7 -12 4238 637 2 MP stroke
-22 4 4238 761 2 MP stroke
1 -3 4238 886 2 MP stroke
-6 9 4238 1010 2 MP stroke
-11 15 4238 1134 2 MP stroke
-11 5 4238 1259 2 MP stroke
-16 -1 4238 1383 2 MP stroke
-19 -7 4238 1507 2 MP stroke
-21 7 4238 1631 2 MP stroke
-16 -7 4238 1756 2 MP stroke
-2 -7 4238 1880 2 MP stroke
-14 -10 4238 2004 2 MP stroke
-15 0 4238 2129 2 MP stroke
-5 9 4238 2253 2 MP stroke
-10 -3 4238 2377 2 MP stroke
2 -12 4238 2502 2 MP stroke
4 0 4238 2626 2 MP stroke
-2 -5 4238 2750 2 MP stroke
-6 2 4238 2874 2 MP stroke
-1 5 4238 2999 2 MP stroke
5 0 4238 3123 2 MP stroke
-5 17 4238 3247 2 MP stroke
-9 23 4238 3372 2 MP stroke
-19 -4 4238 3496 2 MP stroke
-16 1 4238 3620 2 MP stroke
-1 5 4238 3744 2 MP stroke
9 2 4238 3869 2 MP stroke
-4 9 4238 3993 2 MP stroke
-2 4 4238 4117 2 MP stroke
-19 15 4238 4242 2 MP stroke
-20 25 4238 4366 2 MP stroke
-9 2 4238 4490 2 MP stroke
-14 11 4346 389 2 MP stroke
-28 10 4346 513 2 MP stroke
-11 -2 4346 637 2 MP stroke
-20 -7 4346 761 2 MP stroke
-23 7 4346 886 2 MP stroke
-16 1 4346 1010 2 MP stroke
7 20 4346 1134 2 MP stroke
-5 3 4346 1259 2 MP stroke
6 -6 4346 1383 2 MP stroke
-3 7 4346 1507 2 MP stroke
-7 6 4346 1631 2 MP stroke
-2 -5 4346 1756 2 MP stroke
-15 4 4346 1880 2 MP stroke
-11 15 4346 2004 2 MP stroke
-13 9 4346 2129 2 MP stroke
-8 7 4346 2253 2 MP stroke
-15 6 4346 2377 2 MP stroke
-2 -5 4346 2502 2 MP stroke
-6 -1 4346 2626 2 MP stroke
-12 5 4346 2750 2 MP stroke
-12 -2 4346 2874 2 MP stroke
-9 15 4346 2999 2 MP stroke
0 -7 4346 3123 2 MP stroke
6 20 4346 3247 2 MP stroke
-8 10 4346 3372 2 MP stroke
-10 1 4346 3496 2 MP stroke
1 4 4346 3620 2 MP stroke
-4 1 4346 3744 2 MP stroke
0 -5 4346 3869 2 MP stroke
0 2 4346 3993 2 MP stroke
-1 9 4346 4117 2 MP stroke
-11 8 4346 4242 2 MP stroke
-17 -7 4346 4366 2 MP stroke
2 0 4346 4490 2 MP stroke
-3 -1 4346 4615 2 MP stroke
4454 389 PD
-13 12 4454 513 2 MP stroke
-19 11 4454 637 2 MP stroke
-22 1 4454 761 2 MP stroke
-21 10 4454 886 2 MP stroke
-5 0 4454 1010 2 MP stroke
-1 1 4454 1134 2 MP stroke
-18 4 4454 1259 2 MP stroke
-10 0 4454 1383 2 MP stroke
-4 -3 4454 1507 2 MP stroke
1 3 4454 1631 2 MP stroke
-2 -4 4454 1756 2 MP stroke
6 -2 4454 1880 2 MP stroke
-7 12 4454 2004 2 MP stroke
-16 -2 4454 2129 2 MP stroke
-9 -2 4454 2253 2 MP stroke
-1 5 4454 2377 2 MP stroke
2 -9 4454 2502 2 MP stroke
-2 -5 4454 2626 2 MP stroke
-6 -1 4454 2750 2 MP stroke
-6 0 4454 2874 2 MP stroke
-10 7 4454 2999 2 MP stroke
-15 15 4454 3123 2 MP stroke
-18 9 4454 3247 2 MP stroke
-16 4 4454 3372 2 MP stroke
-7 1 4454 3496 2 MP stroke
-10 1 4454 3620 2 MP stroke
-19 0 4454 3744 2 MP stroke
-4 -13 4454 3869 2 MP stroke
-12 9 4454 3993 2 MP stroke
-4 -4 4454 4117 2 MP stroke
-11 -24 4454 4242 2 MP stroke
-9 -7 4454 4366 2 MP stroke
-9 -6 4454 4490 2 MP stroke
-4 -3 4454 4615 2 MP stroke
-16 5 4562 389 2 MP stroke
-17 11 4562 513 2 MP stroke
-24 10 4562 637 2 MP stroke
-13 18 4562 761 2 MP stroke
-9 13 4562 886 2 MP stroke
-16 5 4562 1010 2 MP stroke
-21 -10 4562 1134 2 MP stroke
-15 -1 4562 1259 2 MP stroke
-14 6 4562 1383 2 MP stroke
-22 6 4562 1507 2 MP stroke
-16 20 4562 1631 2 MP stroke
-10 7 4562 1756 2 MP stroke
-4 4 4562 1880 2 MP stroke
-23 14 4562 2004 2 MP stroke
-26 8 4562 2129 2 MP stroke
0 1 4562 2253 2 MP stroke
-3 1 4562 2377 2 MP stroke
-16 -8 4562 2502 2 MP stroke
-21 3 4562 2626 2 MP stroke
-8 -1 4562 2750 2 MP stroke
-12 -6 4562 2874 2 MP stroke
-14 9 4562 2999 2 MP stroke
-26 20 4562 3123 2 MP stroke
-24 10 4562 3247 2 MP stroke
-19 9 4562 3372 2 MP stroke
-34 -1 4562 3496 2 MP stroke
-24 -20 4562 3620 2 MP stroke
-14 -7 4562 3744 2 MP stroke
14 -15 4562 3869 2 MP stroke
-25 15 4562 3993 2 MP stroke
-35 -16 4562 4117 2 MP stroke
-46 33 4562 4242 2 MP stroke
-37 39 4562 4366 2 MP stroke
-47 3 4562 4490 2 MP stroke
4669 389 PD
-20 18 4669 513 2 MP stroke
-27 12 4669 637 2 MP stroke
-19 4 4669 761 2 MP stroke
-17 17 4669 886 2 MP stroke
-20 -2 4669 1010 2 MP stroke
-29 3 4669 1134 2 MP stroke
-21 0 4669 1259 2 MP stroke
-19 17 4669 1383 2 MP stroke
-34 -1 4669 1507 2 MP stroke
-31 2 4669 1631 2 MP stroke
-41 -6 4669 1756 2 MP stroke
-32 0 4669 1880 2 MP stroke
-32 -12 4669 2004 2 MP stroke
-27 23 4669 2129 2 MP stroke
-34 -11 4669 2253 2 MP stroke
-21 -11 4669 2377 2 MP stroke
-7 -29 4669 2502 2 MP stroke
-13 -1 4669 2626 2 MP stroke
-26 11 4669 2750 2 MP stroke
-22 3 4669 2874 2 MP stroke
-14 -9 4669 2999 2 MP stroke
-18 8 4669 3123 2 MP stroke
-45 0 4669 3247 2 MP stroke
-41 2 4669 3372 2 MP stroke
-48 13 4669 3496 2 MP stroke
-25 4 4669 3620 2 MP stroke
-30 18 4669 3744 2 MP stroke
-28 -15 4669 3869 2 MP stroke
-31 -7 4669 3993 2 MP stroke
-30 -19 4669 4117 2 MP stroke
-31 -17 4669 4242 2 MP stroke
-19 -36 4669 4366 2 MP stroke
-10 11 4669 4490 2 MP stroke
4777 389 PD
-20 16 4777 513 2 MP stroke
-35 8 4777 637 2 MP stroke
-27 2 4777 761 2 MP stroke
-32 13 4777 886 2 MP stroke
-24 10 4777 1010 2 MP stroke
-13 -2 4777 1134 2 MP stroke
-7 -3 4777 1259 2 MP stroke
-18 3 4777 1383 2 MP stroke
-15 -2 4777 1507 2 MP stroke
-7 34 4777 1631 2 MP stroke
-25 2 4777 1756 2 MP stroke
-29 3 4777 1880 2 MP stroke
-39 13 4777 2004 2 MP stroke
-33 -14 4777 2129 2 MP stroke
-16 16 4777 2253 2 MP stroke
-8 9 4777 2377 2 MP stroke
-24 5 4777 2502 2 MP stroke
-25 11 4777 2626 2 MP stroke
-25 3 4777 2750 2 MP stroke
-25 24 4777 2874 2 MP stroke
-20 6 4777 2999 2 MP stroke
-16 4 4777 3123 2 MP stroke
-19 2 4777 3247 2 MP stroke
-19 0 4777 3372 2 MP stroke
-27 -2 4777 3496 2 MP stroke
-13 11 4777 3620 2 MP stroke
-12 -5 4777 3744 2 MP stroke
-15 -7 4777 3869 2 MP stroke
-20 6 4777 3993 2 MP stroke
-17 2 4777 4117 2 MP stroke
-16 -1 4777 4242 2 MP stroke
-9 6 4777 4366 2 MP stroke
-7 7 4777 4490 2 MP stroke
-21 -17 4777 4615 2 MP stroke
4885 389 PD
-24 -7 4885 513 2 MP stroke
-29 -5 4885 637 2 MP stroke
-20 2 4885 761 2 MP stroke
-23 -1 4885 886 2 MP stroke
5 -66 4885 1010 2 MP stroke
9 -61 4885 1134 2 MP stroke
-9 2 4885 1259 2 MP stroke
-9 -36 4885 1383 2 MP stroke
-25 3 4885 1507 2 MP stroke
-21 4 4885 1631 2 MP stroke
-18 -5 4885 1756 2 MP stroke
-20 6 4885 1880 2 MP stroke
-18 -4 4885 2004 2 MP stroke
-20 1 4885 2129 2 MP stroke
-12 1 4885 2253 2 MP stroke
-14 2 4885 2377 2 MP stroke
-13 0 4885 2502 2 MP stroke
-13 0 4885 2626 2 MP stroke
-21 0 4885 2750 2 MP stroke
-16 -2 4885 2874 2 MP stroke
-14 -2 4885 2999 2 MP stroke
-14 0 4885 3123 2 MP stroke
-13 0 4885 3247 2 MP stroke
-15 -2 4885 3372 2 MP stroke
-16 5 4885 3496 2 MP stroke
-15 3 4885 3620 2 MP stroke
-13 1 4885 3744 2 MP stroke
-14 1 4885 3869 2 MP stroke
-18 0 4885 3993 2 MP stroke
-12 1 4885 4117 2 MP stroke
-19 -2 4885 4242 2 MP stroke
-25 -7 4885 4366 2 MP stroke
-10 -6 4885 4490 2 MP stroke
4992 389 PD
-36 2 4992 513 2 MP stroke
-8 -20 4992 637 2 MP stroke
-15 4 4992 761 2 MP stroke
-16 -6 4992 886 2 MP stroke
-15 -6 4992 1010 2 MP stroke
-15 -1 4992 1134 2 MP stroke
-14 -2 4992 1259 2 MP stroke
-13 -2 4992 1383 2 MP stroke
-8 -1 4992 1507 2 MP stroke
-6 -2 4992 1631 2 MP stroke
-7 0 4992 1756 2 MP stroke
-9 7 4992 1880 2 MP stroke
-6 11 4992 2004 2 MP stroke
-11 -1 4992 2129 2 MP stroke
-10 -1 4992 2253 2 MP stroke
-10 2 4992 2377 2 MP stroke
-9 -2 4992 2502 2 MP stroke
-8 -5 4992 2626 2 MP stroke
-11 -1 4992 2750 2 MP stroke
-13 2 4992 2874 2 MP stroke
-12 -2 4992 2999 2 MP stroke
-12 0 4992 3123 2 MP stroke
-12 -1 4992 3247 2 MP stroke
-15 1 4992 3372 2 MP stroke
-15 7 4992 3496 2 MP stroke
-17 6 4992 3620 2 MP stroke
-16 3 4992 3744 2 MP stroke
-12 1 4992 3869 2 MP stroke
-18 0 4992 3993 2 MP stroke
-18 -1 4992 4117 2 MP stroke
-16 -2 4992 4242 2 MP stroke
-16 -3 4992 4366 2 MP stroke
-15 -3 4992 4490 2 MP stroke
-22 -8 4992 4615 2 MP stroke
-57 29 5100 389 2 MP stroke
-50 35 5100 513 2 MP stroke
-2 -22 5100 637 2 MP stroke
-7 3 5100 761 2 MP stroke
-10 4 5100 886 2 MP stroke
-11 1 5100 1010 2 MP stroke
-11 4 5100 1134 2 MP stroke
-12 -1 5100 1259 2 MP stroke
-12 3 5100 1383 2 MP stroke
-10 3 5100 1507 2 MP stroke
-10 -1 5100 1631 2 MP stroke
-8 -3 5100 1756 2 MP stroke
-8 6 5100 1880 2 MP stroke
-11 -2 5100 2004 2 MP stroke
-11 -1 5100 2129 2 MP stroke
-10 -2 5100 2253 2 MP stroke
-10 2 5100 2377 2 MP stroke
-10 1 5100 2502 2 MP stroke
-8 -2 5100 2626 2 MP stroke
-13 1 5100 2750 2 MP stroke
-13 0 5100 2874 2 MP stroke
-13 -3 5100 2999 2 MP stroke
-12 -2 5100 3123 2 MP stroke
-12 1 5100 3247 2 MP stroke
-14 1 5100 3372 2 MP stroke
-16 1 5100 3496 2 MP stroke
-18 0 5100 3620 2 MP stroke
-17 2 5100 3744 2 MP stroke
-16 3 5100 3869 2 MP stroke
-12 0 5100 3993 2 MP stroke
-12 -10 5100 4117 2 MP stroke
-16 -5 5100 4242 2 MP stroke
-14 1 5100 4366 2 MP stroke
-11 1 5100 4490 2 MP stroke
-13 -2 5100 4615 2 MP stroke
-28 7 5208 389 2 MP stroke
-11 -11 5208 513 2 MP stroke
-4 -7 5208 637 2 MP stroke
-10 -3 5208 761 2 MP stroke
-10 -2 5208 886 2 MP stroke
-9 -4 5208 1010 2 MP stroke
-10 2 5208 1134 2 MP stroke
-11 1 5208 1259 2 MP stroke
-13 3 5208 1383 2 MP stroke
-12 3 5208 1507 2 MP stroke
-7 -3 5208 1631 2 MP stroke
-8 -4 5208 1756 2 MP stroke
-11 -3 5208 1880 2 MP stroke
-8 -1 5208 2004 2 MP stroke
-9 -2 5208 2129 2 MP stroke
-10 -1 5208 2253 2 MP stroke
-11 -1 5208 2377 2 MP stroke
-11 1 5208 2502 2 MP stroke
-11 1 5208 2626 2 MP stroke
-13 1 5208 2750 2 MP stroke
-12 1 5208 2874 2 MP stroke
-13 -1 5208 2999 2 MP stroke
-15 -1 5208 3123 2 MP stroke
-12 1 5208 3247 2 MP stroke
-11 1 5208 3372 2 MP stroke
-16 0 5208 3496 2 MP stroke
-15 1 5208 3620 2 MP stroke
-16 -2 5208 3744 2 MP stroke
-14 0 5208 3869 2 MP stroke
-12 -3 5208 3993 2 MP stroke
-16 2 5208 4117 2 MP stroke
-19 1 5208 4242 2 MP stroke
-16 -2 5208 4366 2 MP stroke
-17 -7 5208 4490 2 MP stroke
-7 -13 5208 4615 2 MP stroke
5316 389 PD
-11 8 5316 886 2 MP stroke
-12 2 5316 1010 2 MP stroke
-8 -3 5316 1259 2 MP stroke
-10 1 5316 1383 2 MP stroke
-10 6 5316 1507 2 MP stroke
-8 5 5316 1631 2 MP stroke
-16 0 5316 1756 2 MP stroke
-12 1 5316 1880 2 MP stroke
-5 -2 5316 2004 2 MP stroke
-11 0 5316 2129 2 MP stroke
-10 1 5316 2253 2 MP stroke
-13 3 5316 2377 2 MP stroke
-14 5 5316 2502 2 MP stroke
-11 1 5316 2626 2 MP stroke
-11 0 5316 2750 2 MP stroke
-11 0 5316 2874 2 MP stroke
-13 -3 5316 2999 2 MP stroke
-8 -2 5316 3123 2 MP stroke
-14 -1 5316 3247 2 MP stroke
-14 3 5316 3372 2 MP stroke
-14 1 5316 3496 2 MP stroke
-12 -1 5316 3620 2 MP stroke
-14 1 5316 3744 2 MP stroke
-15 -2 5316 3869 2 MP stroke
-14 -5 5316 3993 2 MP stroke
-18 -3 5316 4117 2 MP stroke
-21 -4 5316 4242 2 MP stroke
-26 -4 5316 4366 2 MP stroke
-15 -3 5316 4490 2 MP stroke
-4 -3 5316 4615 2 MP stroke
-16 4 5423 1134 2 MP stroke
-10 2 5423 1259 2 MP stroke
-8 0 5423 1383 2 MP stroke
-4 10 5423 1507 2 MP stroke
-9 4 5423 1631 2 MP stroke
-11 8 5423 1756 2 MP stroke
-15 -2 5423 1880 2 MP stroke
-7 0 5423 2004 2 MP stroke
-10 0 5423 2129 2 MP stroke
-8 1 5423 2253 2 MP stroke
-9 3 5423 2377 2 MP stroke
-12 -3 5423 2502 2 MP stroke
-14 -1 5423 2626 2 MP stroke
-15 1 5423 2750 2 MP stroke
-14 3 5423 2874 2 MP stroke
-15 2 5423 2999 2 MP stroke
-14 1 5423 3123 2 MP stroke
-11 0 5423 3247 2 MP stroke
-13 0 5423 3372 2 MP stroke
-14 0 5423 3496 2 MP stroke
-12 1 5423 3620 2 MP stroke
-8 -2 5423 3744 2 MP stroke
-13 -5 5423 3869 2 MP stroke
-17 4 5423 3993 2 MP stroke
-16 2 5423 4117 2 MP stroke
-18 -2 5423 4242 2 MP stroke
-15 2 5423 4366 2 MP stroke
-12 -4 5423 4490 2 MP stroke
-14 -5 5423 4615 2 MP stroke
-12 3 5531 1134 2 MP stroke
-8 1 5531 1259 2 MP stroke
-8 2 5531 1383 2 MP stroke
-6 -4 5531 1507 2 MP stroke
-3 9 5531 1631 2 MP stroke
-8 5 5531 1756 2 MP stroke
-12 0 5531 1880 2 MP stroke
-10 1 5531 2004 2 MP stroke
-10 1 5531 2129 2 MP stroke
-11 1 5531 2253 2 MP stroke
-9 2 5531 2377 2 MP stroke
-11 -4 5531 2502 2 MP stroke
-12 -4 5531 2626 2 MP stroke
-12 1 5531 2750 2 MP stroke
-11 1 5531 2874 2 MP stroke
-10 4 5531 2999 2 MP stroke
-12 2 5531 3123 2 MP stroke
-13 1 5531 3247 2 MP stroke
-15 0 5531 3372 2 MP stroke
-14 1 5531 3496 2 MP stroke
-12 2 5531 3620 2 MP stroke
-17 3 5531 3744 2 MP stroke
-14 0 5531 3869 2 MP stroke
-15 0 5531 3993 2 MP stroke
-15 1 5531 4117 2 MP stroke
-16 -1 5531 4242 2 MP stroke
-19 0 5531 4366 2 MP stroke
-9 -4 5531 4490 2 MP stroke
-9 -5 5531 4615 2 MP stroke
-5 -2 5639 1134 2 MP stroke
-10 0 5639 1259 2 MP stroke
-12 0 5639 1383 2 MP stroke
-9 -5 5639 1507 2 MP stroke
-5 6 5639 1631 2 MP stroke
-2 8 5639 1756 2 MP stroke
-8 5 5639 1880 2 MP stroke
-13 1 5639 2004 2 MP stroke
-12 2 5639 2129 2 MP stroke
-11 2 5639 2253 2 MP stroke
-10 2 5639 2377 2 MP stroke
-12 2 5639 2502 2 MP stroke
-10 -1 5639 2626 2 MP stroke
-16 0 5639 2750 2 MP stroke
-20 -3 5639 2874 2 MP stroke
-13 -2 5639 2999 2 MP stroke
-14 1 5639 3123 2 MP stroke
-14 0 5639 3247 2 MP stroke
-13 1 5639 3372 2 MP stroke
-13 -2 5639 3496 2 MP stroke
-15 -2 5639 3620 2 MP stroke
-11 1 5639 3744 2 MP stroke
-18 -1 5639 3869 2 MP stroke
-16 1 5639 3993 2 MP stroke
-11 0 5639 4117 2 MP stroke
-13 -2 5639 4242 2 MP stroke
-17 -3 5639 4366 2 MP stroke
-8 1 5639 4490 2 MP stroke
-21 19 5747 513 2 MP stroke
-8 3 5747 1010 2 MP stroke
-13 3 5747 1134 2 MP stroke
-15 -2 5747 1259 2 MP stroke
-12 1 5747 1383 2 MP stroke
-16 3 5747 1507 2 MP stroke
-17 0 5747 1631 2 MP stroke
-11 0 5747 1756 2 MP stroke
-10 -4 5747 1880 2 MP stroke
-12 1 5747 2004 2 MP stroke
-14 0 5747 2129 2 MP stroke
-20 -3 5747 2253 2 MP stroke
-6 -2 5747 2377 2 MP stroke
-9 -1 5747 2502 2 MP stroke
-7 -1 5747 2626 2 MP stroke
-14 -1 5747 2750 2 MP stroke
-15 -1 5747 2874 2 MP stroke
-13 -1 5747 2999 2 MP stroke
-16 -1 5747 3123 2 MP stroke
-21 -1 5747 3247 2 MP stroke
-15 -1 5747 3372 2 MP stroke
-17 -2 5747 3496 2 MP stroke
-15 -4 5747 3620 2 MP stroke
-17 2 5747 3744 2 MP stroke
-19 1 5747 3869 2 MP stroke
-17 -1 5747 3993 2 MP stroke
-14 -1 5747 4117 2 MP stroke
-12 -3 5747 4242 2 MP stroke
-8 0 5747 4366 2 MP stroke
-13 -5 5747 4490 2 MP stroke
-16 -6 5747 4615 2 MP stroke
-20 13 5854 389 2 MP stroke
-9 6 5854 513 2 MP stroke
-8 2 5854 1010 2 MP stroke
-13 2 5854 1134 2 MP stroke
-6 -1 5854 1259 2 MP stroke
-11 0 5854 1383 2 MP stroke
-10 2 5854 1507 2 MP stroke
-12 3 5854 1631 2 MP stroke
-4 -1 5854 1756 2 MP stroke
-10 0 5854 1880 2 MP stroke
-12 1 5854 2004 2 MP stroke
-13 -1 5854 2129 2 MP stroke
-14 0 5854 2253 2 MP stroke
-12 3 5854 2377 2 MP stroke
-11 1 5854 2502 2 MP stroke
-9 -1 5854 2626 2 MP stroke
-13 0 5854 2750 2 MP stroke
-16 0 5854 2874 2 MP stroke
-16 -1 5854 2999 2 MP stroke
-16 2 5854 3123 2 MP stroke
-15 1 5854 3247 2 MP stroke
-16 -4 5854 3372 2 MP stroke
-16 2 5854 3496 2 MP stroke
-15 -1 5854 3620 2 MP stroke
-12 -3 5854 3744 2 MP stroke
-16 -3 5854 3869 2 MP stroke
-16 -3 5854 3993 2 MP stroke
-14 3 5854 4117 2 MP stroke
-15 0 5854 4242 2 MP stroke
-14 -1 5854 4366 2 MP stroke
-11 -2 5854 4490 2 MP stroke
-1 -9 5854 4615 2 MP stroke
-12 11 5962 389 2 MP stroke
-15 0 5962 513 2 MP stroke
-7 0 5962 1134 2 MP stroke
-18 2 5962 1259 2 MP stroke
-11 0 5962 1383 2 MP stroke
-7 4 5962 1507 2 MP stroke
-8 0 5962 1631 2 MP stroke
-8 -1 5962 1756 2 MP stroke
-9 1 5962 1880 2 MP stroke
-11 2 5962 2004 2 MP stroke
-10 1 5962 2129 2 MP stroke
-9 0 5962 2253 2 MP stroke
-11 2 5962 2377 2 MP stroke
-18 -6 5962 2502 2 MP stroke
-16 2 5962 2626 2 MP stroke
-11 0 5962 2750 2 MP stroke
-12 1 5962 2874 2 MP stroke
-15 0 5962 2999 2 MP stroke
-16 -1 5962 3123 2 MP stroke
-13 0 5962 3247 2 MP stroke
-14 -2 5962 3372 2 MP stroke
-15 -1 5962 3496 2 MP stroke
-11 4 5962 3620 2 MP stroke
-13 1 5962 3744 2 MP stroke
-19 2 5962 3869 2 MP stroke
-19 0 5962 3993 2 MP stroke
-17 4 5962 4117 2 MP stroke
-15 1 5962 4242 2 MP stroke
-16 -4 5962 4366 2 MP stroke
-18 9 5962 4490 2 MP stroke
-4 10 6070 389 2 MP stroke
-4 2 6070 513 2 MP stroke
-14 1 6070 1010 2 MP stroke
-7 -2 6070 1134 2 MP stroke
-9 3 6070 1259 2 MP stroke
-15 -2 6070 1383 2 MP stroke
-13 -1 6070 1507 2 MP stroke
-11 -1 6070 1631 2 MP stroke
-7 0 6070 1756 2 MP stroke
-9 1 6070 1880 2 MP stroke
-11 3 6070 2004 2 MP stroke
-10 9 6070 2129 2 MP stroke
-11 0 6070 2253 2 MP stroke
-9 1 6070 2377 2 MP stroke
-12 1 6070 2502 2 MP stroke
-14 1 6070 2626 2 MP stroke
-13 3 6070 2750 2 MP stroke
-14 -1 6070 2874 2 MP stroke
-12 -2 6070 2999 2 MP stroke
-13 -3 6070 3123 2 MP stroke
-15 0 6070 3247 2 MP stroke
-14 -1 6070 3372 2 MP stroke
-11 0 6070 3496 2 MP stroke
-16 -2 6070 3620 2 MP stroke
-14 -1 6070 3744 2 MP stroke
-16 4 6070 3869 2 MP stroke
-17 -1 6070 3993 2 MP stroke
-21 -2 6070 4117 2 MP stroke
-21 -6 6070 4242 2 MP stroke
-11 -10 6070 4366 2 MP stroke
-25 10 6070 4490 2 MP stroke
-26 -3 6070 4615 2 MP stroke
5 -8 6178 761 2 MP stroke
7 -7 6178 886 2 MP stroke
-3 1 6178 1010 2 MP stroke
-12 3 6178 1134 2 MP stroke
-8 -4 6178 1259 2 MP stroke
-11 -3 6178 1383 2 MP stroke
-12 -1 6178 1507 2 MP stroke
-13 0 6178 1631 2 MP stroke
-6 -2 6178 1756 2 MP stroke
-9 1 6178 1880 2 MP stroke
-13 1 6178 2004 2 MP stroke
-7 -2 6178 2129 2 MP stroke
-5 -4 6178 2253 2 MP stroke
-11 1 6178 2377 2 MP stroke
-10 -2 6178 2502 2 MP stroke
-11 -1 6178 2626 2 MP stroke
-14 -2 6178 2750 2 MP stroke
-14 1 6178 2874 2 MP stroke
-21 -6 6178 2999 2 MP stroke
-12 5 6178 3123 2 MP stroke
-13 1 6178 3247 2 MP stroke
-10 -1 6178 3372 2 MP stroke
-13 -2 6178 3496 2 MP stroke
-17 2 6178 3620 2 MP stroke
-18 3 6178 3744 2 MP stroke
-17 -7 6178 3869 2 MP stroke
-22 -11 6178 3993 2 MP stroke
-17 12 6178 4117 2 MP stroke
-14 9 6178 4242 2 MP stroke
-30 -3 6178 4366 2 MP stroke
-15 -12 6178 4490 2 MP stroke
gr

c8

end %%Color Dict

eplot
%%EndObject

epage
end

showpage

%%Trailer
%%EOF
