%!PS-Adobe-2.0 EPSF-1.2
%%Creator: MATLAB, The MathWorks, Inc. Version 8.3.0.532 (R2014a). Operating System: Linux 3.19.0-31-generic #36~14.04.1-Ubuntu SMP Thu Oct 8 10:21:08 UTC 2015 x86_64.
%%Title: ../../data/output/p4/win_size10n_level4n_iter30min_eig0.0001.eps
%%CreationDate: 11/22/2015  18:57:03
%%DocumentNeededFonts: Helvetica
%%DocumentProcessColors: Cyan Magenta Yellow Black
%%Extensions: CMYK
%%Pages: 1
%%BoundingBox:    78   215   548   583
%%EndComments

%%BeginProlog
% MathWorks dictionary
/MathWorks 160 dict begin
% definition operators
/bdef {bind def} bind def
/ldef {load def} bind def
/xdef {exch def} bdef
/xstore {exch store} bdef
% operator abbreviations
/c  /clip ldef
/cc /concat ldef
/cp /closepath ldef
/gr /grestore ldef
/gs /gsave ldef
/mt /moveto ldef
/np /newpath ldef
/cm /currentmatrix ldef
/sm /setmatrix ldef
/rm /rmoveto ldef
/rl /rlineto ldef
/s {show newpath} bdef
/sc {setcmykcolor} bdef
/sr /setrgbcolor ldef
/sg /setgray ldef
/w /setlinewidth ldef
/j /setlinejoin ldef
/cap /setlinecap ldef
/rc {rectclip} bdef
/rf {rectfill} bdef
% page state control
/pgsv () def
/bpage {/pgsv save def} bdef
/epage {pgsv restore} bdef
/bplot /gsave ldef
/eplot {stroke grestore} bdef
% orientation switch
/portraitMode 0 def /landscapeMode 1 def /rotateMode 2 def
% coordinate system mappings
/dpi2point 0 def
% font control
/FontSize 0 def
/FMS {/FontSize xstore findfont [FontSize 0 0 FontSize neg 0 0]
  makefont setfont} bdef
/reencode {exch dup where {pop load} {pop StandardEncoding} ifelse
  exch dup 3 1 roll findfont dup length dict begin
  { 1 index /FID ne {def}{pop pop} ifelse } forall
  /Encoding exch def currentdict end definefont pop} bdef
/isroman {findfont /CharStrings get /Agrave known} bdef
/FMSR {3 1 roll 1 index dup isroman {reencode} {pop pop} ifelse
  exch FMS} bdef
/csm {1 dpi2point div -1 dpi2point div scale neg translate
 dup landscapeMode eq {pop -90 rotate}
  {rotateMode eq {90 rotate} if} ifelse} bdef
% line types: solid, dotted, dashed, dotdash
/SO { [] 0 setdash } bdef
/DO { [.5 dpi2point mul 4 dpi2point mul] 0 setdash } bdef
/DA { [6 dpi2point mul] 0 setdash } bdef
/DD { [.5 dpi2point mul 4 dpi2point mul 6 dpi2point mul 4
  dpi2point mul] 0 setdash } bdef
% macros for lines and objects
/L {lineto stroke} bdef
/MP {3 1 roll moveto 1 sub {rlineto} repeat} bdef
/AP {{rlineto} repeat} bdef
/PDlw -1 def
/W {/PDlw currentlinewidth def setlinewidth} def
/PP {closepath eofill} bdef
/DP {closepath stroke} bdef
/MR {4 -2 roll moveto dup  0 exch rlineto exch 0 rlineto
  neg 0 exch rlineto closepath} bdef
/FR {MR stroke} bdef
/PR {MR fill} bdef
/L1i {{currentfile picstr readhexstring pop} image} bdef
/tMatrix matrix def
/MakeOval {newpath tMatrix currentmatrix pop translate scale
0 0 1 0 360 arc tMatrix setmatrix} bdef
/FO {MakeOval stroke} bdef
/PO {MakeOval fill} bdef
/PD {currentlinewidth 2 div 0 360 arc fill
   PDlw -1 eq not {PDlw w /PDlw -1 def} if} def
/FA {newpath tMatrix currentmatrix pop translate scale
  0 0 1 5 -2 roll arc tMatrix setmatrix stroke} bdef
/PA {newpath tMatrix currentmatrix pop	translate 0 0 moveto scale
  0 0 1 5 -2 roll arc closepath tMatrix setmatrix fill} bdef
/FAn {newpath tMatrix currentmatrix pop translate scale
  0 0 1 5 -2 roll arcn tMatrix setmatrix stroke} bdef
/PAn {newpath tMatrix currentmatrix pop translate 0 0 moveto scale
  0 0 1 5 -2 roll arcn closepath tMatrix setmatrix fill} bdef
/vradius 0 def /hradius 0 def /lry 0 def
/lrx 0 def /uly 0 def /ulx 0 def /rad 0 def
/MRR {/vradius xdef /hradius xdef /lry xdef /lrx xdef /uly xdef
  /ulx xdef newpath tMatrix currentmatrix pop ulx hradius add uly
  vradius add translate hradius vradius scale 0 0 1 180 270 arc 
  tMatrix setmatrix lrx hradius sub uly vradius add translate
  hradius vradius scale 0 0 1 270 360 arc tMatrix setmatrix
  lrx hradius sub lry vradius sub translate hradius vradius scale
  0 0 1 0 90 arc tMatrix setmatrix ulx hradius add lry vradius sub
  translate hradius vradius scale 0 0 1 90 180 arc tMatrix setmatrix
  closepath} bdef
/FRR {MRR stroke } bdef
/PRR {MRR fill } bdef
/MlrRR {/lry xdef /lrx xdef /uly xdef /ulx xdef /rad lry uly sub 2 div def
  newpath tMatrix currentmatrix pop ulx rad add uly rad add translate
  rad rad scale 0 0 1 90 270 arc tMatrix setmatrix lrx rad sub lry rad
  sub translate rad rad scale 0 0 1 270 90 arc tMatrix setmatrix
  closepath} bdef
/FlrRR {MlrRR stroke } bdef
/PlrRR {MlrRR fill } bdef
/MtbRR {/lry xdef /lrx xdef /uly xdef /ulx xdef /rad lrx ulx sub 2 div def
  newpath tMatrix currentmatrix pop ulx rad add uly rad add translate
  rad rad scale 0 0 1 180 360 arc tMatrix setmatrix lrx rad sub lry rad
  sub translate rad rad scale 0 0 1 0 180 arc tMatrix setmatrix
  closepath} bdef
/FtbRR {MtbRR stroke } bdef
/PtbRR {MtbRR fill } bdef
/stri 6 array def /dtri 6 array def
/smat 6 array def /dmat 6 array def
/tmat1 6 array def /tmat2 6 array def /dif 3 array def
/asub {/ind2 exch def /ind1 exch def dup dup
  ind1 get exch ind2 get sub exch } bdef
/tri_to_matrix {
  2 0 asub 3 1 asub 4 0 asub 5 1 asub
  dup 0 get exch 1 get 7 -1 roll astore } bdef
/compute_transform {
  dmat dtri tri_to_matrix tmat1 invertmatrix 
  smat stri tri_to_matrix tmat2 concatmatrix } bdef
/ds {stri astore pop} bdef
/dt {dtri astore pop} bdef
/db {2 copy /cols xdef /rows xdef mul dup 3 mul string
  currentfile exch readhexstring pop
  dup 0 3 index getinterval /rbmap xdef
  dup 2 index dup getinterval /gbmap xdef
  1 index dup 2 mul exch getinterval /bbmap xdef pop pop}bdef
/it {gs np dtri aload pop moveto lineto lineto cp c
  cols rows 8 compute_transform 
  rbmap gbmap bbmap true 3 colorimage gr}bdef
/il {newpath moveto lineto stroke}bdef
currentdict end def
%%EndProlog

%%BeginSetup
MathWorks begin

0 cap

end
%%EndSetup

%%Page: 1 1
%%BeginPageSetup
%%PageBoundingBox:    78   215   548   583
MathWorks begin
bpage
%%EndPageSetup

%%BeginObject: obj1
bplot

/dpi2point 12 def
portraitMode 0216 7344 csm

  731   341  5640  4420 MR c np
85 dict begin %Colortable dictionary
/c0 { 0.000000 0.000000 0.000000 sr} bdef
/c1 { 1.000000 1.000000 1.000000 sr} bdef
/c2 { 0.900000 0.000000 0.000000 sr} bdef
/c3 { 0.000000 0.820000 0.000000 sr} bdef
/c4 { 0.000000 0.000000 0.800000 sr} bdef
/c5 { 0.910000 0.820000 0.320000 sr} bdef
/c6 { 1.000000 0.260000 0.820000 sr} bdef
/c7 { 0.000000 0.820000 0.820000 sr} bdef
c0
1 j
1 sg
   0    0 6913 5186 PR
6 w
0 -4226 5356 0 0 4226 899 389 4 MP
PP
-5356 0 0 -4226 5356 0 0 4226 899 389 5 MP stroke
4 w
DO
SO
6 w
0 sg
 899  389 mt 6255  389 L
 899 4615 mt 6255 4615 L
 899  389 mt  899 4615 L
6255  389 mt 6255 4615 L
 899 4615 mt 6255 4615 L
 899  389 mt  899 4615 L
1406 4615 mt 1406 4561 L
1406  389 mt 1406  442 L
%%IncludeResource: font Helvetica
/Helvetica /ISOLatin1Encoding 120 FMSR

1373 4760 mt 
(5) s
1945 4615 mt 1945 4561 L
1945  389 mt 1945  442 L
1879 4760 mt 
(10) s
2484 4615 mt 2484 4561 L
2484  389 mt 2484  442 L
2418 4760 mt 
(15) s
3022 4615 mt 3022 4561 L
3022  389 mt 3022  442 L
2956 4760 mt 
(20) s
3561 4615 mt 3561 4561 L
3561  389 mt 3561  442 L
3495 4760 mt 
(25) s
4100 4615 mt 4100 4561 L
4100  389 mt 4100  442 L
4034 4760 mt 
(30) s
4638 4615 mt 4638 4561 L
4638  389 mt 4638  442 L
4572 4760 mt 
(35) s
5177 4615 mt 5177 4561 L
5177  389 mt 5177  442 L
5111 4760 mt 
(40) s
5716 4615 mt 5716 4561 L
5716  389 mt 5716  442 L
5650 4760 mt 
(45) s
6255 4615 mt 6255 4561 L
6255  389 mt 6255  442 L
6189 4760 mt 
(50) s
 899  974 mt  952  974 L
6255  974 mt 6201  974 L
 798 1018 mt 
(5) s
 899 1596 mt  952 1596 L
6255 1596 mt 6201 1596 L
 731 1640 mt 
(10) s
 899 2217 mt  952 2217 L
6255 2217 mt 6201 2217 L
 731 2261 mt 
(15) s
 899 2839 mt  952 2839 L
6255 2839 mt 6201 2839 L
 731 2883 mt 
(20) s
 899 3460 mt  952 3460 L
6255 3460 mt 6201 3460 L
 731 3504 mt 
(25) s
 899 4082 mt  952 4082 L
6255 4082 mt 6201 4082 L
 731 4126 mt 
(30) s
 899  389 mt 6255  389 L
 899 4615 mt 6255 4615 L
 899  389 mt  899 4615 L
6255  389 mt 6255 4615 L
gs 899 389 5357 4227 MR c np
/c8 { 0.000000 0.000000 1.000000 sr} bdef
c8
7 1 -6 3 1207 514 3 MP stroke
6 3 -7 1 1209 633 3 MP stroke
7 0 -6 4 1207 762 3 MP stroke
6 2 -6 2 1210 885 3 MP stroke
6 0 -6 3 1209 1011 3 MP stroke
7 3 -7 1 1207 1130 3 MP stroke
7 2 -7 2 1206 1256 3 MP stroke
5 6 -7 -3 1210 1371 3 MP stroke
6 4 -7 0 1209 1502 3 MP stroke
6 6 -7 -2 1210 1622 3 MP stroke
2 5 -4 -4 1218 2368 3 MP stroke
2 3 -3 -1 1217 2496 3 MP stroke
2 3 -3 -1 1216 2620 3 MP stroke
1 1 -1 0 1218 2749 3 MP stroke
2 5 -4 -3 1216 2865 3 MP stroke
2 2 -3 -1 1218 2995 3 MP stroke
1 5 -3 -4 1220 3114 3 MP stroke
3 2 -3 0 1216 3244 3 MP stroke
1 5 -3 -4 1219 3361 3 MP stroke
3 3 -4 -1 1215 3492 3 MP stroke
3 6 -5 -4 1215 3610 3 MP stroke
2 2 -3 -1 1218 3742 3 MP stroke
4 6 -6 -3 1213 3858 3 MP stroke
6 2 -6 2 1211 3990 3 MP stroke
5 4 -6 -1 1211 4110 3 MP stroke
6 4 -7 0 1210 4235 3 MP stroke
6 4 -7 0 1209 4359 3 MP stroke
4 4 -5 -1 1211 4485 3 MP stroke
4 5 -6 -3 1213 4606 3 MP stroke
7 2 -7 3 1314 511 3 MP stroke
7 4 -8 0 1315 631 3 MP stroke
8 0 -7 4 1314 765 3 MP stroke
8 4 -9 1 1313 881 3 MP stroke
8 0 -8 4 1314 1011 3 MP stroke
8 2 -8 3 1313 1132 3 MP stroke
8 2 -8 3 1312 1256 3 MP stroke
8 6 -10 -1 1312 1372 3 MP stroke
4 3 -4 0 1321 1503 3 MP stroke
4 5 -6 -2 1320 2369 3 MP stroke
4 3 -5 -1 1322 2496 3 MP stroke
4 6 -6 -3 1320 2616 3 MP stroke
5 3 -5 -1 1320 2746 3 MP stroke
4 2 -4 0 1321 2872 3 MP stroke
6 0 -5 3 1319 3001 3 MP stroke
3 6 -5 -3 1320 3112 3 MP stroke
5 4 -6 0 1319 3242 3 MP stroke
3 6 -5 -3 1321 3360 3 MP stroke
3 4 -4 -1 1322 3489 3 MP stroke
4 5 -5 -3 1321 3611 3 MP stroke
4 3 -5 -1 1321 3740 3 MP stroke
4 6 -7 -3 1320 3857 3 MP stroke
7 3 -7 1 1315 3989 3 MP stroke
7 8 -9 -3 1315 4105 3 MP stroke
6 4 -7 0 1316 4235 3 MP stroke
7 4 -8 0 1314 4359 3 MP stroke
8 5 -9 0 1315 4483 3 MP stroke
7 2 -7 2 1423 513 3 MP stroke
6 2 -6 2 1424 636 3 MP stroke
6 0 -5 3 1425 763 3 MP stroke
6 3 -7 1 1424 881 3 MP stroke
8 -1 -7 5 1423 1013 3 MP stroke
6 2 -6 2 1424 1132 3 MP stroke
6 1 -5 2 1426 1258 3 MP stroke
6 6 -7 -2 1423 1373 3 MP stroke
6 2 -6 1 1424 1504 3 MP stroke
1 4 -3 -3 1434 2370 3 MP stroke
3 2 -3 0 1430 2498 3 MP stroke
1 4 -2 -3 1433 2619 3 MP stroke
1 2 -2 -1 1435 2747 3 MP stroke
1 4 -3 -3 1434 2865 3 MP stroke
2 2 -3 -1 1433 2994 3 MP stroke
1 5 -3 -3 1433 3114 3 MP stroke
2 3 -3 -1 1432 3242 3 MP stroke
1 5 -3 -4 1435 3361 3 MP stroke
2 2 -3 0 1432 3493 3 MP stroke
3 4 -4 -2 1430 3614 3 MP stroke
2 2 -3 0 1433 3742 3 MP stroke
2 5 -4 -3 1433 3859 3 MP stroke
5 3 -6 1 1425 3989 3 MP stroke
5 4 -6 -1 1427 4109 3 MP stroke
6 3 -6 0 1425 4237 3 MP stroke
5 5 -7 -2 1426 4357 3 MP stroke
6 3 -6 0 1425 4487 3 MP stroke
5 6 -7 -2 1425 4603 3 MP stroke
9 2 -1 0 1520 389 3 MP stroke
8 -1 -7 5 1527 516 3 MP stroke
9 2 -9 3 1528 634 3 MP stroke
8 -1 -7 5 1528 765 3 MP stroke
8 3 -9 2 1527 882 3 MP stroke
9 1 -8 4 1529 1012 3 MP stroke
8 4 -9 1 1528 1129 3 MP stroke
9 2 -9 3 1527 1257 3 MP stroke
8 7 -10 -1 1528 1372 3 MP stroke
7 4 -7 0 1530 1503 3 MP stroke
4 5 -5 -3 1536 2369 3 MP stroke
5 3 -5 0 1535 2498 3 MP stroke
5 4 -6 -1 1534 2619 3 MP stroke
5 2 -5 0 1535 2748 3 MP stroke
4 2 -4 1 1536 2996 3 MP stroke
4 6 -6 -3 1536 3113 3 MP stroke
5 3 -6 0 1535 3242 3 MP stroke
2 6 -5 -4 1539 3361 3 MP stroke
4 4 -5 -1 1535 3490 3 MP stroke
3 5 -4 -2 1537 3611 3 MP stroke
5 3 -6 0 1534 3741 3 MP stroke
7 5 -8 0 1531 3860 3 MP stroke
8 2 -9 2 1529 3990 3 MP stroke
6 5 -8 -1 1532 4108 3 MP stroke
8 2 -8 2 1529 4239 3 MP stroke
7 6 -9 -2 1530 4355 3 MP stroke
9 3 -9 2 1527 4488 3 MP stroke
6 7 -8 -2 1531 4602 3 MP stroke
7 0 -6 4 1639 516 3 MP stroke
5 2 -5 1 1641 635 3 MP stroke
7 0 -6 3 1640 764 3 MP stroke
6 1 -6 2 1641 885 3 MP stroke
7 0 -6 4 1641 1013 3 MP stroke
7 3 -7 1 1638 1130 3 MP stroke
6 0 -5 4 1641 1260 3 MP stroke
5 6 -7 -3 1641 1372 3 MP stroke
6 4 -7 -1 1641 1502 3 MP stroke
1 4 -3 -3 1650 1625 3 MP stroke
2 0 -2 1 1649 2503 3 MP stroke
3 1 -3 0 1648 2625 3 MP stroke
3 -2 -2 3 1647 2753 3 MP stroke
2 4 -3 -3 1648 2867 3 MP stroke
2 2 -2 -1 1648 2995 3 MP stroke
1 3 -3 -2 1649 3117 3 MP stroke
2 2 -3 -1 1649 3244 3 MP stroke
2 4 -4 -3 1648 3365 3 MP stroke
3 3 -3 -1 1646 3491 3 MP stroke
2 5 -3 -4 1648 3611 3 MP stroke
3 2 -3 -1 1647 3740 3 MP stroke
4 5 -6 -2 1643 3859 3 MP stroke
5 3 -5 0 1642 3988 3 MP stroke
4 6 -6 -3 1644 4106 3 MP stroke
5 2 -5 0 1643 4238 3 MP stroke
5 6 -7 -2 1641 4355 3 MP stroke
5 3 -5 0 1642 4486 3 MP stroke
6 5 -7 -1 1640 4606 3 MP stroke
8 1 -8 3 1745 513 3 MP stroke
8 3 -8 2 1744 632 3 MP stroke
10 2 -9 3 1741 760 3 MP stroke
9 4 -9 1 1742 881 3 MP stroke
8 1 -8 4 1744 1010 3 MP stroke
8 4 -9 1 1742 1129 3 MP stroke
9 0 -7 5 1743 1261 3 MP stroke
8 2 -8 2 1744 1380 3 MP stroke
8 3 -9 2 1744 1503 3 MP stroke
4 5 -5 -2 1752 1624 3 MP stroke
4 -1 -3 2 1754 2504 3 MP stroke
4 2 -4 1 1751 2623 3 MP stroke
5 1 -5 2 1750 2749 3 MP stroke
4 6 -6 -3 1752 2865 3 MP stroke
4 2 -4 0 1752 2996 3 MP stroke
4 7 -6 -4 1752 3112 3 MP stroke
3 2 -4 0 1753 3244 3 MP stroke
5 4 -6 -1 1751 3364 3 MP stroke
4 4 -5 -2 1753 3490 3 MP stroke
5 6 -6 -2 1749 3610 3 MP stroke
5 2 -5 1 1750 3743 3 MP stroke
6 6 -8 -2 1748 3859 3 MP stroke
8 5 -9 0 1744 3987 3 MP stroke
8 5 -9 0 1744 4109 3 MP stroke
9 4 -9 1 1743 4236 3 MP stroke
8 5 -9 0 1743 4357 3 MP stroke
7 3 -8 1 1746 4485 3 MP stroke
8 5 -9 0 1744 4608 3 MP stroke
5 0 -5 3 1857 514 3 MP stroke
6 3 -7 1 1856 632 3 MP stroke
6 0 -5 3 1857 763 3 MP stroke
7 2 -7 2 1853 884 3 MP stroke
7 -1 -6 5 1854 1013 3 MP stroke
6 2 -7 2 1856 1131 3 MP stroke
7 -1 -6 5 1853 1262 3 MP stroke
7 3 -7 1 1854 1381 3 MP stroke
6 4 -7 -1 1856 1501 3 MP stroke
1 4 -3 -3 1866 1623 3 MP stroke
3 2 -3 0 1861 2498 3 MP stroke
3 3 -4 -1 1863 2620 3 MP stroke
1 2 -2 -1 1866 2746 3 MP stroke
1 5 -3 -4 1866 2865 3 MP stroke
2 3 -2 -1 1863 2994 3 MP stroke
1 4 -3 -3 1865 3116 3 MP stroke
2 3 -3 -1 1863 3241 3 MP stroke
3 5 -4 -3 1862 3364 3 MP stroke
2 1 -3 0 1864 3494 3 MP stroke
2 5 -4 -3 1863 3610 3 MP stroke
2 1 -2 1 1864 3743 3 MP stroke
4 5 -5 -2 1860 3861 3 MP stroke
5 2 -6 1 1857 3990 3 MP stroke
4 5 -5 -2 1859 4110 3 MP stroke
6 4 -7 0 1856 4235 3 MP stroke
5 4 -6 -1 1859 4358 3 MP stroke
4 4 -5 -2 1859 4484 3 MP stroke
7 0 -6 4 1962 515 3 MP stroke
7 4 -8 1 1960 631 3 MP stroke
9 1 -8 4 1957 764 3 MP stroke
7 4 -7 1 1960 881 3 MP stroke
8 0 -7 5 1959 1012 3 MP stroke
8 2 -8 2 1960 1133 3 MP stroke
9 2 -9 3 1958 1259 3 MP stroke
9 4 -10 2 1958 1378 3 MP stroke
8 4 -9 1 1958 1500 3 MP stroke
3 6 -5 -3 1968 1620 3 MP stroke
4 0 -4 2 1969 2253 3 MP stroke
5 4 -6 -1 1966 2369 3 MP stroke
4 2 -4 1 1967 2498 3 MP stroke
3 6 -5 -3 1967 2615 3 MP stroke
5 3 -6 -1 1966 2746 3 MP stroke
3 5 -5 -3 1968 2865 3 MP stroke
4 2 -4 0 1968 2996 3 MP stroke
2 5 -4 -3 1970 3114 3 MP stroke
5 3 -5 0 1965 3242 3 MP stroke
3 4 -5 -2 1969 3364 3 MP stroke
5 3 -6 0 1967 3490 3 MP stroke
4 4 -5 -1 1968 3613 3 MP stroke
4 3 -5 0 1968 3741 3 MP stroke
5 5 -7 -2 1965 3861 3 MP stroke
6 4 -7 0 1962 3987 3 MP stroke
6 6 -8 -3 1963 4107 3 MP stroke
6 4 -7 0 1962 4235 3 MP stroke
7 5 -8 0 1959 4359 3 MP stroke
8 3 -9 1 1960 4486 3 MP stroke
7 1 -4 1 2068 389 3 MP stroke
7 2 -7 2 2070 512 3 MP stroke
6 2 -7 1 2071 634 3 MP stroke
6 2 -6 2 2071 760 3 MP stroke
5 2 -6 1 2073 884 3 MP stroke
8 -1 -7 5 2069 1013 3 MP stroke
6 2 -5 2 2071 1133 3 MP stroke
7 1 -6 3 2069 1260 3 MP stroke
6 4 -6 0 2071 1378 3 MP stroke
3 2 -3 0 2079 1504 3 MP stroke
2 3 -4 -2 2079 1625 3 MP stroke
2 1 -2 0 2079 2253 3 MP stroke
0 4 -2 -3 2082 2369 3 MP stroke
1 3 -2 -2 2082 2497 3 MP stroke
0 5 -2 -4 2082 2616 3 MP stroke
1 2 -1 -1 2081 2747 3 MP stroke
2 6 -4 -4 2079 2864 3 MP stroke
3 3 -3 -1 2077 2994 3 MP stroke
0 5 -2 -4 2082 3114 3 MP stroke
1 2 -2 -1 2081 3243 3 MP stroke
2 4 -3 -2 2078 3365 3 MP stroke
3 3 -3 -1 2078 3492 3 MP stroke
3 5 -4 -3 2077 3613 3 MP stroke
4 2 -4 0 2077 3741 3 MP stroke
4 5 -6 -2 2075 3860 3 MP stroke
6 3 -7 1 2072 3989 3 MP stroke
5 5 -6 -1 2073 4110 3 MP stroke
6 4 -7 -1 2072 4235 3 MP stroke
5 6 -7 -2 2073 4356 3 MP stroke
6 4 -7 -1 2072 4485 3 MP stroke
5 6 -7 -3 2073 4604 3 MP stroke
10 0 -9 5 2171 516 3 MP stroke
8 3 -8 1 2176 633 3 MP stroke
10 1 -9 4 2172 761 3 MP stroke
9 2 -9 3 2173 884 3 MP stroke
9 0 -8 5 2174 1012 3 MP stroke
8 4 -8 0 2174 1129 3 MP stroke
8 0 -7 5 2175 1260 3 MP stroke
5 3 -6 0 2182 1380 3 MP stroke
4 2 -4 0 2184 1504 3 MP stroke
5 6 -7 -3 2182 1621 3 MP stroke
4 3 -5 -1 2184 1750 3 MP stroke
5 1 -5 2 2181 2253 3 MP stroke
3 4 -4 -2 2184 2371 3 MP stroke
6 1 -6 3 2180 2501 3 MP stroke
3 5 -5 -3 2185 2616 3 MP stroke
5 3 -5 0 2181 2745 3 MP stroke
4 6 -6 -4 2184 2864 3 MP stroke
5 4 -6 -1 2182 2992 3 MP stroke
3 5 -5 -3 2184 3114 3 MP stroke
5 3 -6 0 2182 3243 3 MP stroke
3 5 -5 -3 2182 3362 3 MP stroke
5 2 -5 1 2180 3494 3 MP stroke
4 6 -5 -3 2182 3610 3 MP stroke
5 2 -6 1 2181 3741 3 MP stroke
8 6 -9 -1 2176 3859 3 MP stroke
7 3 -8 1 2176 3989 3 MP stroke
5 6 -7 -2 2179 4106 3 MP stroke
7 3 -8 1 2177 4238 3 MP stroke
7 6 -9 -2 2177 4355 3 MP stroke
8 4 -9 1 2175 4486 3 MP stroke
1 0 2283 389 2 MP stroke
6 1 -6 3 2287 513 3 MP stroke
7 3 -7 2 2283 633 3 MP stroke
8 0 -7 4 2283 765 3 MP stroke
6 2 -7 1 2287 883 3 MP stroke
7 -1 -6 5 2286 1013 3 MP stroke
5 3 -6 1 2287 1131 3 MP stroke
5 2 -5 1 2288 1258 3 MP stroke
6 3 -6 1 2288 1379 3 MP stroke
2 -1 -1 2 2296 1511 3 MP stroke
1 5 -3 -3 2296 1622 3 MP stroke
1 2 -2 0 2295 1752 3 MP stroke
2 6 -4 -3 2292 1870 3 MP stroke
3 -1 -2 2 2294 2007 3 MP stroke
2 1 -2 1 2294 2127 3 MP stroke
1 1 -2 0 2296 2250 3 MP stroke
1 4 -3 -3 2295 2368 3 MP stroke
2 2 -3 -1 2295 2499 3 MP stroke
2 4 -4 -2 2294 2618 3 MP stroke
2 1 -2 0 2295 2748 3 MP stroke
1 5 -3 -4 2296 2864 3 MP stroke
1 2 -1 -1 2297 2996 3 MP stroke
0 3 -2 -2 2297 3117 3 MP stroke
2 1 -3 0 2294 3245 3 MP stroke
3 4 -4 -2 2293 3363 3 MP stroke
3 1 -4 1 2293 3493 3 MP stroke
2 3 -4 -2 2294 3614 3 MP stroke
3 1 -3 1 2293 3742 3 MP stroke
4 6 -6 -3 2291 3858 3 MP stroke
6 3 -6 0 2288 3989 3 MP stroke
4 6 -6 -3 2289 4107 3 MP stroke
6 3 -6 1 2286 4236 3 MP stroke
4 6 -6 -3 2290 4356 3 MP stroke
6 4 -6 0 2286 4484 3 MP stroke
10 1 -9 4 2389 514 3 MP stroke
9 3 -9 2 2388 635 3 MP stroke
10 0 -9 5 2388 764 3 MP stroke
7 3 -7 1 2392 882 3 MP stroke
8 2 -8 3 2391 1010 3 MP stroke
7 6 -8 -1 2392 1126 3 MP stroke
9 0 -7 5 2390 1261 3 MP stroke
8 4 -9 0 2391 1377 3 MP stroke
7 2 -7 2 2393 1505 3 MP stroke
4 6 -6 -3 2399 1622 3 MP stroke
4 1 -4 2 2398 1755 3 MP stroke
4 5 -6 -1 2397 1871 3 MP stroke
4 1 -4 2 2397 2003 3 MP stroke
3 3 -4 -1 2399 2123 3 MP stroke
4 2 -4 1 2397 2250 3 MP stroke
4 5 -6 -2 2398 2369 3 MP stroke
4 3 -5 -1 2397 2497 3 MP stroke
4 6 -6 -3 2398 2615 3 MP stroke
5 4 -6 -1 2398 2743 3 MP stroke
4 7 -6 -4 2398 2863 3 MP stroke
4 2 -5 0 2399 2994 3 MP stroke
4 6 -6 -3 2398 3112 3 MP stroke
5 3 -5 0 2397 3242 3 MP stroke
4 5 -5 -2 2398 3363 3 MP stroke
6 2 -6 2 2395 3494 3 MP stroke
4 6 -6 -3 2397 3610 3 MP stroke
5 2 -5 1 2397 3742 3 MP stroke
6 6 -7 -2 2393 3858 3 MP stroke
7 4 -8 0 2393 3987 3 MP stroke
6 7 -8 -3 2392 4106 3 MP stroke
8 4 -9 1 2390 4237 3 MP stroke
8 6 -9 -1 2390 4356 3 MP stroke
8 3 -8 2 2390 4486 3 MP stroke
7 1 -6 2 2500 389 3 MP stroke
7 -1 -5 4 2501 517 3 MP stroke
6 3 -7 1 2501 631 3 MP stroke
7 0 -7 4 2501 763 3 MP stroke
7 3 -7 1 2501 881 3 MP stroke
7 3 -7 1 2500 1007 3 MP stroke
5 5 -6 -1 2503 1127 3 MP stroke
5 0 -5 3 2504 1261 3 MP stroke
6 2 -6 2 2501 1381 3 MP stroke
5 -1 -4 4 2504 1509 3 MP stroke
4 2 -5 1 2505 1629 3 MP stroke
2 -1 -1 2 2510 1759 3 MP stroke
2 3 -3 -1 2510 1875 3 MP stroke
3 1 -3 0 2509 2003 3 MP stroke
3 1 -3 0 2509 2127 3 MP stroke
2 0 -2 1 2510 2255 3 MP stroke
2 4 -3 -3 2509 2370 3 MP stroke
3 3 -3 -1 2508 2497 3 MP stroke
1 5 -4 -4 2511 2615 3 MP stroke
3 3 -3 -1 2508 2745 3 MP stroke
2 6 -4 -4 2509 2865 3 MP stroke
2 2 -3 -1 2511 2994 3 MP stroke
0 4 -2 -4 2513 3114 3 MP stroke
2 2 -3 -1 2510 3245 3 MP stroke
2 5 -4 -3 2508 3363 3 MP stroke
2 2 -3 -1 2509 3492 3 MP stroke
1 4 -3 -3 2512 3612 3 MP stroke
2 1 -2 0 2510 3743 3 MP stroke
4 6 -5 -3 2505 3859 3 MP stroke
4 3 -5 0 2506 3989 3 MP stroke
4 5 -6 -3 2506 4108 3 MP stroke
5 4 -6 0 2503 4235 3 MP stroke
4 6 -6 -3 2506 4354 3 MP stroke
6 2 -7 2 2501 4487 3 MP stroke
2 0 2602 389 2 MP stroke
10 2 -9 3 2603 512 3 MP stroke
9 4 -10 1 2605 632 3 MP stroke
9 0 -8 5 2605 765 3 MP stroke
8 4 -9 1 2604 880 3 MP stroke
7 3 -7 1 2607 1005 3 MP stroke
7 6 -8 -2 2608 1124 3 MP stroke
9 2 -8 3 2605 1259 3 MP stroke
9 2 -9 2 2606 1380 3 MP stroke
9 0 -8 5 2604 1510 3 MP stroke
8 4 -9 1 2607 1626 3 MP stroke
4 1 -4 2 2614 1756 3 MP stroke
4 5 -6 -2 2613 1871 3 MP stroke
4 3 -4 -1 2615 2000 3 MP stroke
4 2 -4 1 2613 2126 3 MP stroke
5 0 -4 3 2613 2254 3 MP stroke
3 2 -4 0 2616 2374 3 MP stroke
5 2 -5 1 2613 2498 3 MP stroke
4 4 -6 -1 2613 2617 3 MP stroke
3 3 -4 -1 2615 2745 3 MP stroke
4 2 -5 0 2615 2871 3 MP stroke
5 3 -5 0 2613 2994 3 MP stroke
3 5 -5 -3 2614 3113 3 MP stroke
5 3 -6 0 2614 3241 3 MP stroke
4 5 -5 -2 2614 3363 3 MP stroke
4 3 -5 -1 2614 3492 3 MP stroke
3 3 -4 -1 2614 3614 3 MP stroke
5 3 -6 0 2612 3739 3 MP stroke
6 7 -8 -3 2609 3858 3 MP stroke
8 4 -9 1 2606 3988 3 MP stroke
7 5 -8 -1 2609 4108 3 MP stroke
7 3 -8 1 2609 4236 3 MP stroke
7 6 -9 -1 2606 4357 3 MP stroke
8 4 -9 1 2605 4484 3 MP stroke
6 0 -6 4 2718 515 3 MP stroke
8 2 -8 2 2714 635 3 MP stroke
7 0 -7 4 2716 762 3 MP stroke
8 2 -8 2 2715 884 3 MP stroke
5 2 -5 1 2720 1007 3 MP stroke
6 6 -8 -2 2717 1124 3 MP stroke
7 2 -7 2 2716 1256 3 MP stroke
5 3 -6 0 2719 1379 3 MP stroke
8 0 -7 4 2716 1510 3 MP stroke
6 2 -6 1 2718 1628 3 MP stroke
3 1 -3 0 2724 1754 3 MP stroke
4 -2 -3 4 2723 2257 3 MP stroke
2 2 -3 0 2726 2374 3 MP stroke
2 -1 -1 2 2726 2505 3 MP stroke
1 3 -2 -2 2727 2619 3 MP stroke
0 2 -1 -1 2728 2745 3 MP stroke
1 5 -3 -4 2727 2864 3 MP stroke
1 2 -2 -1 2728 2995 3 MP stroke
2 6 -5 -4 2725 3112 3 MP stroke
3 3 -4 -1 2723 3242 3 MP stroke
2 3 -3 -1 2723 3366 3 MP stroke
1 2 -2 -1 2727 3493 3 MP stroke
1 6 -3 -5 2727 3610 3 MP stroke
3 2 -4 0 2723 3741 3 MP stroke
4 6 -6 -3 2720 3858 3 MP stroke
4 3 -5 -1 2722 3989 3 MP stroke
5 5 -7 -1 2719 4110 3 MP stroke
4 2 -5 1 2721 4238 3 MP stroke
5 5 -6 -1 2719 4358 3 MP stroke
6 3 -7 1 2716 4485 3 MP stroke
10 0 -9 6 2819 515 3 MP stroke
8 3 -8 1 2823 633 3 MP stroke
9 -1 -7 5 2820 766 3 MP stroke
7 3 -7 2 2822 882 3 MP stroke
8 3 -8 2 2820 1007 3 MP stroke
7 6 -9 -1 2822 1123 3 MP stroke
8 3 -9 1 2822 1254 3 MP stroke
7 6 -9 -2 2823 1372 3 MP stroke
9 2 -9 3 2821 1506 3 MP stroke
4 3 -4 0 2829 1627 3 MP stroke
4 3 -5 -1 2828 1750 3 MP stroke
4 6 -6 -3 2830 2367 3 MP stroke
4 3 -5 -1 2830 2496 3 MP stroke
4 6 -6 -3 2830 2615 3 MP stroke
4 4 -5 -1 2829 2744 3 MP stroke
3 4 -5 -2 2830 2867 3 MP stroke
3 3 -4 -1 2831 2993 3 MP stroke
4 6 -6 -3 2829 3113 3 MP stroke
5 1 -5 1 2829 3245 3 MP stroke
3 3 -5 -1 2830 3365 3 MP stroke
5 3 -6 0 2827 3493 3 MP stroke
4 6 -6 -3 2830 3610 3 MP stroke
7 4 -8 0 2824 3737 3 MP stroke
6 5 -7 -1 2824 3862 3 MP stroke
8 4 -9 1 2821 3988 3 MP stroke
6 5 -8 -1 2825 4108 3 MP stroke
8 4 -8 0 2822 4236 3 MP stroke
7 5 -9 -1 2822 4357 3 MP stroke
8 4 -9 0 2821 4484 3 MP stroke
10 2 -4 1 2920 389 3 MP stroke
11 0 -10 6 2923 516 3 MP stroke
5 2 -5 0 2936 634 3 MP stroke
7 -1 -6 5 2933 766 3 MP stroke
7 3 -8 1 2931 1005 3 MP stroke
7 6 -8 -2 2931 1125 3 MP stroke
7 0 -6 4 2930 1261 3 MP stroke
6 3 -7 1 2933 1377 3 MP stroke
3 -1 -2 3 2940 1510 3 MP stroke
3 3 -4 -2 2941 1626 3 MP stroke
2 2 -2 -1 2941 1752 3 MP stroke
1 5 -3 -3 2941 1872 3 MP stroke
2 5 -4 -4 2940 2368 3 MP stroke
3 4 -4 -2 2940 2496 3 MP stroke
2 6 -4 -4 2941 2615 3 MP stroke
1 4 -3 -2 2942 2744 3 MP stroke
1 5 -3 -4 2942 2865 3 MP stroke
1 3 -2 -2 2942 2993 3 MP stroke
3 5 -5 -3 2940 3114 3 MP stroke
2 3 -3 -1 2940 3243 3 MP stroke
3 5 -4 -3 2940 3364 3 MP stroke
2 2 -2 -1 2940 3492 3 MP stroke
1 6 -3 -5 2943 3610 3 MP stroke
3 2 -4 0 2940 3740 3 MP stroke
6 4 -7 -1 2934 3861 3 MP stroke
6 4 -7 -1 2934 3987 3 MP stroke
5 7 -7 -3 2934 4106 3 MP stroke
5 2 -5 1 2935 4238 3 MP stroke
4 6 -6 -3 2936 4356 3 MP stroke
4 1 3023 389 2 MP stroke
12 2 -11 4 3029 512 3 MP stroke
10 2 -10 4 3032 636 3 MP stroke
9 1 -8 4 3035 764 3 MP stroke
8 3 -9 2 3036 1130 3 MP stroke
9 3 -9 2 3036 1256 3 MP stroke
4 7 -6 -3 3043 1371 3 MP stroke
6 -1 -5 3 3043 1510 3 MP stroke
2 6 -4 -4 3047 1621 3 MP stroke
5 2 -5 1 3043 1751 3 MP stroke
5 3 -5 0 3042 1875 3 MP stroke
4 4 -5 -1 3044 1999 3 MP stroke
3 7 -5 -5 3047 2117 3 MP stroke
4 4 -6 -2 3045 2245 3 MP stroke
4 5 -6 -2 3043 2368 3 MP stroke
4 2 -5 0 3044 2498 3 MP stroke
4 4 -5 -1 3044 2618 3 MP stroke
3 3 -4 0 3045 2745 3 MP stroke
3 5 -4 -3 3046 2864 3 MP stroke
4 3 -4 -1 3045 2994 3 MP stroke
3 5 -5 -3 3047 3113 3 MP stroke
3 4 -4 -2 3046 3242 3 MP stroke
5 5 -6 -2 3043 3362 3 MP stroke
5 3 -6 0 3044 3491 3 MP stroke
4 4 -5 -1 3044 3614 3 MP stroke
6 4 -7 -1 3042 3738 3 MP stroke
6 6 -8 -2 3041 3859 3 MP stroke
8 3 -8 1 3038 3990 3 MP stroke
7 6 -9 -2 3037 4106 3 MP stroke
8 4 -9 1 3036 4237 3 MP stroke
7 7 -8 -2 3038 4355 3 MP stroke
8 2 3132 389 2 MP stroke
9 1 -9 4 3142 513 3 MP stroke
6 3 -7 1 3148 633 3 MP stroke
7 0 -6 4 3146 764 3 MP stroke
6 3 -6 0 3149 882 3 MP stroke
4 4 -5 -1 3151 1005 3 MP stroke
2 3 -4 -2 3156 1128 3 MP stroke
2 2 -3 -1 3157 1255 3 MP stroke
2 1 -2 0 3156 1381 3 MP stroke
2 -2 -1 3 3158 1510 3 MP stroke
2 2 -2 0 3156 1629 3 MP stroke
3 -1 -2 2 3156 1759 3 MP stroke
3 1 -3 0 3155 1878 3 MP stroke
4 -1 -3 3 3154 2007 3 MP stroke
2 6 -4 -4 3155 2118 3 MP stroke
2 3 -3 -1 3155 2247 3 MP stroke
1 4 -2 -3 3159 2369 3 MP stroke
1 3 -2 -1 3156 2496 3 MP stroke
0 5 -2 -4 3160 2616 3 MP stroke
1 2 -2 -2 3159 2746 3 MP stroke
1 4 -3 -3 3157 2866 3 MP stroke
3 1 -3 1 3154 2998 3 MP stroke
3 4 -4 -2 3154 3116 3 MP stroke
2 1 -2 0 3158 3245 3 MP stroke
3 5 -4 -3 3154 3363 3 MP stroke
2 2 -3 0 3155 3493 3 MP stroke
2 4 -4 -3 3156 3613 3 MP stroke
5 1 -5 1 3152 3743 3 MP stroke
6 4 -7 -1 3149 3861 3 MP stroke
4 3 -6 -1 3152 3987 3 MP stroke
6 5 -7 -1 3149 4108 3 MP stroke
6 2 -7 2 3148 4239 3 MP stroke
6 5 -7 -2 3148 4358 3 MP stroke
10 3 3238 389 2 MP stroke
9 1 -8 4 3251 514 3 MP stroke
8 4 -9 1 3252 632 3 MP stroke
10 0 -9 5 3249 764 3 MP stroke
7 3 -8 2 3254 882 3 MP stroke
9 1 -9 4 3251 1011 3 MP stroke
8 7 -10 -2 3252 1122 3 MP stroke
5 4 -6 -1 3259 1252 3 MP stroke
4 3 -5 -1 3261 1379 3 MP stroke
5 0 -5 3 3259 1508 3 MP stroke
3 2 -4 0 3262 1628 3 MP stroke
5 -1 -5 3 3259 1758 3 MP stroke
4 1 -5 1 3261 1878 3 MP stroke
4 0 -3 2 3261 2004 3 MP stroke
3 6 -5 -3 3262 2118 3 MP stroke
4 3 -5 0 3260 2248 3 MP stroke
3 6 -5 -3 3260 2367 3 MP stroke
3 4 -4 -2 3262 2496 3 MP stroke
2 4 -4 -2 3263 2618 3 MP stroke
4 2 -4 1 3260 2748 3 MP stroke
4 5 -6 -2 3260 2865 3 MP stroke
3 3 -4 -1 3262 2994 3 MP stroke
3 5 -5 -2 3261 3113 3 MP stroke
4 2 -5 0 3260 3243 3 MP stroke
4 5 -6 -2 3259 3363 3 MP stroke
5 1 -5 1 3260 3494 3 MP stroke
5 4 -7 -1 3258 3613 3 MP stroke
6 3 -7 1 3255 3741 3 MP stroke
6 7 -7 -3 3255 3858 3 MP stroke
8 3 -8 2 3251 3990 3 MP stroke
7 6 -9 -2 3254 4107 3 MP stroke
7 3 -8 1 3254 4236 3 MP stroke
7 5 -8 -1 3254 4358 3 MP stroke
11 2 -4 1 3349 389 3 MP stroke
10 2 -9 4 3356 513 3 MP stroke
10 4 -11 2 3356 631 3 MP stroke
6 -2 -5 5 3364 766 3 MP stroke
7 2 -7 2 3363 883 3 MP stroke
7 1 -7 3 3362 1009 3 MP stroke
6 4 -7 0 3365 1127 3 MP stroke
6 3 -7 0 3364 1254 3 MP stroke
2 5 -4 -4 3373 1372 3 MP stroke
3 0 -3 1 3372 1507 3 MP stroke
1 2 -2 -1 3375 1628 3 MP stroke
2 2 -3 -1 3371 1752 3 MP stroke
3 5 -4 -3 3371 1871 3 MP stroke
4 0 -4 2 3370 2004 3 MP stroke
1 4 -2 -3 3373 2120 3 MP stroke
3 3 -4 -1 3371 2248 3 MP stroke
0 3 -1 -3 3375 2370 3 MP stroke
2 2 -2 0 3372 2499 3 MP stroke
2 4 -3 -3 3372 2618 3 MP stroke
3 3 -3 -1 3370 2745 3 MP stroke
1 4 -2 -3 3373 2867 3 MP stroke
3 3 -4 -1 3370 2995 3 MP stroke
2 6 -4 -4 3372 3113 3 MP stroke
3 2 -3 0 3369 3244 3 MP stroke
2 4 -3 -2 3373 3364 3 MP stroke
3 3 -4 -1 3371 3491 3 MP stroke
1 5 -3 -4 3373 3612 3 MP stroke
5 3 -6 0 3365 3739 3 MP stroke
4 6 -6 -3 3368 3858 3 MP stroke
6 3 -6 1 3364 3989 3 MP stroke
5 7 -7 -4 3367 4107 3 MP stroke
6 2 -6 1 3365 4240 3 MP stroke
1 0 3462 389 2 MP stroke
9 1 -8 4 3466 515 3 MP stroke
9 3 -9 2 3466 633 3 MP stroke
11 0 -9 6 3462 766 3 MP stroke
7 4 -7 0 3470 882 3 MP stroke
7 1 -7 3 3469 1010 3 MP stroke
8 6 -9 0 3466 1126 3 MP stroke
9 6 -10 0 3465 1250 3 MP stroke
4 2 -4 0 3476 1505 3 MP stroke
4 3 -5 0 3476 1626 3 MP stroke
3 2 -4 0 3477 1752 3 MP stroke
3 5 -5 -3 3477 1870 3 MP stroke
4 1 -4 1 3475 2003 3 MP stroke
3 1 -3 1 3477 2127 3 MP stroke
3 3 -4 0 3476 2248 3 MP stroke
3 5 -5 -3 3477 2368 3 MP stroke
3 3 -4 -1 3478 2495 3 MP stroke
3 4 -4 -2 3478 2619 3 MP stroke
3 3 -4 -2 3478 2745 3 MP stroke
4 6 -6 -3 3477 2863 3 MP stroke
3 2 -4 0 3477 2996 3 MP stroke
2 5 -4 -3 3478 3113 3 MP stroke
4 2 -5 0 3476 3244 3 MP stroke
4 2 -5 0 3476 3368 3 MP stroke
4 2 -5 1 3475 3492 3 MP stroke
4 6 -6 -3 3474 3610 3 MP stroke
7 3 -7 2 3469 3741 3 MP stroke
6 6 -8 -2 3471 3858 3 MP stroke
6 4 -7 -1 3471 3987 3 MP stroke
7 5 -8 0 3469 4109 3 MP stroke
9 3 -9 2 3467 4239 3 MP stroke
12 2 -4 1 3562 389 3 MP stroke
10 2 -9 4 3572 512 3 MP stroke
9 2 -9 3 3572 636 3 MP stroke
9 -1 -8 6 3574 766 3 MP stroke
1 5 -3 -4 3588 1373 3 MP stroke
2 3 -3 -1 3587 1502 3 MP stroke
0 5 -3 -4 3590 1621 3 MP stroke
2 2 -3 -1 3588 1751 3 MP stroke
1 5 -3 -4 3589 1871 3 MP stroke
1 0 -1 1 3589 2005 3 MP stroke
1 2 -2 -2 3590 2124 3 MP stroke
2 3 -3 -2 3587 2248 3 MP stroke
1 3 -2 -2 3590 2371 3 MP stroke
1 3 -2 -2 3588 2496 3 MP stroke
1 5 -3 -5 3590 2616 3 MP stroke
2 3 -3 -1 3586 2745 3 MP stroke
1 4 -2 -3 3589 2867 3 MP stroke
3 4 -4 -2 3585 2993 3 MP stroke
1 6 -3 -4 3588 3112 3 MP stroke
3 3 -4 -1 3585 3244 3 MP stroke
1 5 -3 -4 3590 3363 3 MP stroke
3 3 -4 -1 3585 3493 3 MP stroke
1 5 -3 -4 3589 3612 3 MP stroke
4 4 -5 -1 3584 3738 3 MP stroke
4 5 -6 -2 3584 3861 3 MP stroke
6 3 -7 0 3580 3988 3 MP stroke
6 6 -8 -2 3579 4107 3 MP stroke
6 3 -6 0 3580 4238 3 MP stroke
3673 389 PD
12 2 -11 5 3675 513 3 MP stroke
11 3 -11 4 3676 634 3 MP stroke
11 0 -9 6 3678 765 3 MP stroke
4 3 -5 -1 3692 1253 3 MP stroke
6 6 -8 -2 3688 1373 3 MP stroke
5 3 -6 0 3689 1502 3 MP stroke
3 4 -5 -2 3692 1624 3 MP stroke
3 4 -4 -1 3693 1749 3 MP stroke
5 4 -5 -1 3690 1875 3 MP stroke
6 1 -5 2 3688 2005 3 MP stroke
3 1 -3 1 3693 2127 3 MP stroke
4 3 -5 -1 3691 2248 3 MP stroke
3 5 -5 -2 3693 2369 3 MP stroke
3 2 -3 -1 3693 2499 3 MP stroke
3 3 -4 -1 3692 2620 3 MP stroke
3 3 -3 -1 3693 2745 3 MP stroke
3 6 -5 -4 3692 2864 3 MP stroke
5 2 -5 1 3689 2996 3 MP stroke
4 5 -6 -2 3691 3113 3 MP stroke
5 3 -6 0 3689 3242 3 MP stroke
3 5 -5 -3 3692 3363 3 MP stroke
5 3 -6 0 3688 3490 3 MP stroke
3 5 -5 -3 3691 3611 3 MP stroke
8 2 -8 2 3684 3742 3 MP stroke
6 7 -8 -3 3686 3858 3 MP stroke
8 3 -8 2 3683 3989 3 MP stroke
7 7 -9 -2 3684 4106 3 MP stroke
9 4 -10 1 3682 4238 3 MP stroke
11 3 -8 2 3782 389 3 MP stroke
12 1 -11 5 3783 515 3 MP stroke
11 3 -11 3 3783 634 3 MP stroke
-1 -5 3 4 3810 771 3 MP stroke
2 3 -3 -1 3802 1129 3 MP stroke
2 1 -2 1 3803 1258 3 MP stroke
2 3 -3 -2 3804 1376 3 MP stroke
2 3 -3 -2 3804 1502 3 MP stroke
2 5 -4 -4 3803 1621 3 MP stroke
3 1 -3 1 3800 1755 3 MP stroke
1 1 -2 0 3804 1877 3 MP stroke
3 0 -2 1 3801 2006 3 MP stroke
2 3 -3 -1 3801 2123 3 MP stroke
2 2 -3 -1 3804 2248 3 MP stroke
1 4 -3 -3 3805 2369 3 MP stroke
2 3 -3 -2 3803 2496 3 MP stroke
1 5 -3 -4 3806 2617 3 MP stroke
1 3 -2 -2 3804 2745 3 MP stroke
2 5 -4 -3 3801 2866 3 MP stroke
3 1 -4 1 3801 2996 3 MP stroke
2 3 -3 -2 3803 3117 3 MP stroke
3 2 -4 0 3801 3245 3 MP stroke
2 5 -3 -3 3802 3363 3 MP stroke
4 -1 -3 3 3801 3499 3 MP stroke
1 5 -3 -4 3803 3611 3 MP stroke
5 3 -5 0 3796 3740 3 MP stroke
5 6 -7 -3 3797 3858 3 MP stroke
6 2 -6 1 3795 3991 3 MP stroke
5 5 -7 -1 3797 4109 3 MP stroke
7 5 -8 -1 3794 4235 3 MP stroke
12 3 -7 2 3886 389 3 MP stroke
14 1 -13 7 3887 515 3 MP stroke
12 4 -12 3 3891 634 3 MP stroke
14 2 -13 6 3887 761 3 MP stroke
12 3 -12 4 3891 884 3 MP stroke
-4 -10 7 7 3925 1028 3 MP stroke
4 2 -4 0 3907 1132 3 MP stroke
4 2 -4 0 3906 1255 3 MP stroke
3 5 -5 -3 3909 1374 3 MP stroke
5 0 -5 3 3906 1507 3 MP stroke
5 3 -5 0 3905 1627 3 MP stroke
6 0 -5 3 3905 1758 3 MP stroke
5 3 -6 0 3905 1877 3 MP stroke
5 1 -4 1 3905 2004 3 MP stroke
4 1 -4 0 3909 2128 3 MP stroke
4 1 -5 1 3907 2252 3 MP stroke
4 4 -6 -1 3905 2371 3 MP stroke
4 3 -5 0 3907 2496 3 MP stroke
4 6 -6 -3 3906 2615 3 MP stroke
3 3 -4 0 3908 2746 3 MP stroke
3 5 -4 -3 3908 2865 3 MP stroke
3 1 -4 1 3908 2996 3 MP stroke
4 5 -6 -1 3905 3114 3 MP stroke
5 2 -6 2 3904 3244 3 MP stroke
5 2 -5 1 3905 3369 3 MP stroke
7 4 -8 0 3899 3491 3 MP stroke
7 3 -7 1 3900 3616 3 MP stroke
8 1 -8 3 3899 3745 3 MP stroke
7 3 -7 1 3901 3865 3 MP stroke
7 4 -8 1 3900 3988 3 MP stroke
8 5 -9 0 3899 4110 3 MP stroke
8 4 -8 1 3899 4237 3 MP stroke
11 2 -8 3 3998 389 3 MP stroke
11 0 -10 6 4001 515 3 MP stroke
10 2 -9 4 4003 636 3 MP stroke
12 1 -11 5 4000 761 3 MP stroke
10 3 -10 3 4002 882 3 MP stroke
11 1 -10 5 4001 1012 3 MP stroke
12 4 -13 2 3999 1130 3 MP stroke
12 2 -12 5 3999 1259 3 MP stroke
10 8 -12 -2 4000 1370 3 MP stroke
11 -3 -8 9 4002 1515 3 MP stroke
6 5 -8 -1 4009 1622 3 MP stroke
5 2 -5 0 4013 1752 3 MP stroke
1 5 -3 -4 4018 1871 3 MP stroke
3 0 -2 2 4017 2005 3 MP stroke
5 1 -5 2 4014 2128 3 MP stroke
7 -1 -6 4 4010 2257 3 MP stroke
5 1 -5 2 4011 2376 3 MP stroke
3 3 -4 -1 4016 2497 3 MP stroke
2 6 -4 -4 4017 2615 3 MP stroke
2 3 -3 -2 4019 2744 3 MP stroke
4 3 -5 0 4014 2870 3 MP stroke
6 0 -6 3 4010 3000 3 MP stroke
7 3 -7 1 4008 3119 3 MP stroke
7 1 -7 3 4008 3247 3 MP stroke
9 7 -11 -2 4004 3359 3 MP stroke
6 2 -6 2 4010 3494 3 MP stroke
7 2 -7 2 4009 3619 3 MP stroke
7 0 -6 4 4010 3747 3 MP stroke
6 2 -6 2 4011 3867 3 MP stroke
6 3 -6 1 4010 3989 3 MP stroke
6 5 -7 -1 4009 4109 3 MP stroke
7 4 -7 1 4008 4236 3 MP stroke
7 2 4096 389 2 MP stroke
12 2 -11 5 4106 512 3 MP stroke
13 3 -12 5 4104 635 3 MP stroke
13 2 -12 6 4103 761 3 MP stroke
13 4 -13 3 4105 881 3 MP stroke
13 1 -12 7 4103 1011 3 MP stroke
13 3 -13 4 4105 1130 3 MP stroke
14 2 -13 6 4103 1259 3 MP stroke
13 4 -13 4 4104 1378 3 MP stroke
18 -13 -11 21 4097 1537 3 MP stroke
12 4 -12 3 4105 1628 3 MP stroke
9 0 -7 5 4113 1759 3 MP stroke
7 7 -9 -2 4115 1869 3 MP stroke
14 -3 -11 10 4105 2015 3 MP stroke
9 2 -8 3 4113 2128 3 MP stroke
13 1 -12 7 4104 2254 3 MP stroke
8 4 -9 1 4115 2371 3 MP stroke
7 3 -8 1 4116 2498 3 MP stroke
3 4 -5 -2 4122 2618 3 MP stroke
3 3 -4 -1 4123 2745 3 MP stroke
7 3 -8 1 4115 2871 3 MP stroke
12 2 -12 5 4105 2998 3 MP stroke
13 5 -13 3 4103 3117 3 MP stroke
13 6 -14 2 4105 3239 3 MP stroke
14 10 -16 -2 4102 3356 3 MP stroke
12 1 -11 5 4106 3497 3 MP stroke
12 3 -12 4 4105 3616 3 MP stroke
12 1 -11 5 4108 3746 3 MP stroke
10 3 -10 3 4110 3866 3 MP stroke
9 0 -8 5 4112 3995 3 MP stroke
12 8 -14 -1 4107 4104 3 MP stroke
12 1 -11 5 4106 4243 3 MP stroke
13 8 -14 0 4104 4354 3 MP stroke
12 3 -1 0 4204 389 3 MP stroke
11 -1 -10 7 4217 517 3 MP stroke
11 5 -11 2 4215 632 3 MP stroke
11 1 -10 5 4218 763 3 MP stroke
12 3 -12 4 4215 883 3 MP stroke
10 1 -9 5 4217 1011 3 MP stroke
11 4 -12 3 4215 1130 3 MP stroke
10 0 -9 5 4218 1261 3 MP stroke
11 2 -11 4 4216 1382 3 MP stroke
12 0 -11 6 4214 1510 3 MP stroke
8 9 -11 -3 4220 1618 3 MP stroke
11 5 -11 2 4215 1749 3 MP stroke
9 7 -11 -1 4219 1869 3 MP stroke
11 1 -10 5 4217 2006 3 MP stroke
11 5 -12 2 4215 2124 3 MP stroke
13 2 -12 5 4214 2254 3 MP stroke
15 5 -15 4 4208 2370 3 MP stroke
12 2 -12 4 4215 2500 3 MP stroke
12 7 -14 0 4213 2616 3 MP stroke
13 2 -13 5 4212 2749 3 MP stroke
14 4 -14 4 4209 2870 3 MP stroke
15 3 -14 5 4208 2996 3 MP stroke
12 7 -13 1 4213 3114 3 MP stroke
11 1 -10 5 4216 3250 3 MP stroke
13 4 -13 4 4213 3368 3 MP stroke
14 2 -13 6 4211 3496 3 MP stroke
15 3 -15 5 4209 3617 3 MP stroke
14 4 -14 5 4209 3741 3 MP stroke
13 5 -14 3 4212 3863 3 MP stroke
14 3 -13 5 4211 3990 3 MP stroke
14 5 -15 3 4209 4112 3 MP stroke
14 5 -14 3 4210 4235 3 MP stroke
13 7 -15 1 4211 4354 3 MP stroke
14 3 -8 2 4312 389 3 MP stroke
13 1 -12 6 4320 515 3 MP stroke
12 3 -12 4 4321 633 3 MP stroke
13 1 -12 6 4320 763 3 MP stroke
14 3 -14 5 4319 884 3 MP stroke
13 2 -12 5 4320 1011 3 MP stroke
12 5 -12 2 4321 1128 3 MP stroke
12 2 -12 5 4321 1257 3 MP stroke
13 5 -13 3 4319 1377 3 MP stroke
14 2 -13 6 4318 1509 3 MP stroke
14 5 -15 3 4318 1626 3 MP stroke
13 3 -13 5 4320 1754 3 MP stroke
13 4 -13 3 4319 1876 3 MP stroke
14 3 -13 5 4318 2003 3 MP stroke
13 3 -13 4 4321 2126 3 MP stroke
14 3 -13 5 4318 2250 3 MP stroke
13 6 -14 2 4321 2370 3 MP stroke
13 3 -13 5 4320 2500 3 MP stroke
12 21 -19 -12 4318 2588 3 MP stroke
14 1 -12 7 4318 2751 3 MP stroke
12 4 -12 3 4321 2868 3 MP stroke
14 2 -13 6 4317 2998 3 MP stroke
15 4 -15 4 4316 3119 3 MP stroke
16 1 -15 8 4313 3248 3 MP stroke
17 5 -17 5 4313 3367 3 MP stroke
16 3 -16 6 4314 3495 3 MP stroke
16 6 -17 3 4314 3613 3 MP stroke
17 4 -17 6 4312 3742 3 MP stroke
15 6 -16 3 4315 3860 3 MP stroke
16 3 -15 7 4312 3992 3 MP stroke
15 5 -15 4 4314 4112 3 MP stroke
17 6 -17 4 4313 4235 3 MP stroke
14 9 -16 0 4317 4352 3 MP stroke
11 3 -3 0 4424 389 3 MP stroke
11 2 -11 4 4432 513 3 MP stroke
11 1 -11 5 4432 637 3 MP stroke
13 1 -12 6 4430 764 3 MP stroke
11 2 -11 4 4431 885 3 MP stroke
10 0 -9 5 4432 1013 3 MP stroke
11 4 -11 3 4432 1130 3 MP stroke
13 0 -11 7 4429 1262 3 MP stroke
11 2 -11 4 4433 1382 3 MP stroke
11 1 -10 6 4432 1509 3 MP stroke
11 4 -11 3 4432 1627 3 MP stroke
11 2 -11 5 4431 1755 3 MP stroke
10 3 -10 2 4433 1877 3 MP stroke
11 1 -11 5 4431 2005 3 MP stroke
11 3 -11 4 4431 2125 3 MP stroke
11 2 -10 4 4432 2252 3 MP stroke
10 4 -11 2 4433 2373 3 MP stroke
14 1 -13 7 4424 2503 3 MP stroke
13 3 -13 4 4427 2622 3 MP stroke
14 1 -13 8 4425 2752 3 MP stroke
13 6 -14 2 4428 2867 3 MP stroke
14 3 -14 5 4424 2996 3 MP stroke
15 5 -15 4 4424 3119 3 MP stroke
13 4 -13 4 4426 3243 3 MP stroke
14 4 -14 4 4425 3368 3 MP stroke
14 2 -13 6 4426 3496 3 MP stroke
13 4 -13 3 4428 3616 3 MP stroke
13 4 -13 4 4426 3742 3 MP stroke
14 4 -14 4 4425 3864 3 MP stroke
14 1 -13 7 4426 3994 3 MP stroke
14 4 -14 3 4426 4113 3 MP stroke
13 6 -14 2 4427 4235 3 MP stroke
12 9 -14 -1 4427 4354 3 MP stroke
12 3 -5 1 4529 389 3 MP stroke
13 1 -12 6 4537 515 3 MP stroke
13 4 -13 4 4536 633 3 MP stroke
13 2 -12 6 4534 760 3 MP stroke
13 4 -13 4 4535 880 3 MP stroke
15 2 -15 6 4532 1009 3 MP stroke
14 4 -14 4 4533 1132 3 MP stroke
15 2 -14 6 4531 1258 3 MP stroke
14 5 -14 3 4534 1377 3 MP stroke
15 1 -13 7 4533 1510 3 MP stroke
12 4 -12 3 4536 1626 3 MP stroke
16 2 -15 8 4528 1757 3 MP stroke
15 5 -15 4 4531 1874 3 MP stroke
17 1 -15 8 4528 2007 3 MP stroke
15 6 -15 3 4531 2121 3 MP stroke
17 4 -17 5 4528 2250 3 MP stroke
16 4 -16 5 4529 2374 3 MP stroke
17 2 -16 7 4528 2502 3 MP stroke
16 6 -16 3 4530 2619 3 MP stroke
15 3 -14 6 4531 2747 3 MP stroke
15 5 -15 4 4530 2870 3 MP stroke
16 4 -16 5 4529 2996 3 MP stroke
17 7 -18 3 4528 3114 3 MP stroke
17 2 -16 7 4528 3248 3 MP stroke
14 6 -15 3 4531 3364 3 MP stroke
17 5 -16 5 4528 3492 3 MP stroke
16 6 -16 3 4529 3613 3 MP stroke
16 3 -16 7 4528 3742 3 MP stroke
15 6 -15 3 4530 3862 3 MP stroke
17 4 -17 6 4527 3990 3 MP stroke
15 7 -16 2 4532 4107 3 MP stroke
15 7 -16 2 4530 4233 3 MP stroke
16 10 -18 0 4529 4351 3 MP stroke
9 2 4638 389 2 MP stroke
13 2 -12 6 4642 513 3 MP stroke
11 2 -10 4 4648 636 3 MP stroke
11 2 -11 5 4647 761 3 MP stroke
11 4 -11 2 4646 880 3 MP stroke
13 2 -12 5 4644 1009 3 MP stroke
11 3 -11 4 4645 1131 3 MP stroke
13 0 -11 7 4644 1262 3 MP stroke
12 3 -12 4 4644 1379 3 MP stroke
11 1 -10 5 4646 1508 3 MP stroke
13 5 -13 2 4643 1625 3 MP stroke
15 3 -14 6 4639 1754 3 MP stroke
14 4 -14 5 4641 1876 3 MP stroke
11 0 -10 5 4649 2006 3 MP stroke
11 3 -10 3 4648 2127 3 MP stroke
11 0 -10 6 4646 2255 3 MP stroke
12 5 -12 2 4645 2372 3 MP stroke
13 1 -12 6 4644 2503 3 MP stroke
11 3 -11 3 4647 2623 3 MP stroke
15 1 -14 7 4640 2751 3 MP stroke
13 4 -13 4 4642 2871 3 MP stroke
15 1 -14 7 4641 3000 3 MP stroke
14 6 -15 2 4640 3115 3 MP stroke
13 3 -13 5 4642 3246 3 MP stroke
13 4 -14 3 4643 3367 3 MP stroke
14 6 -15 2 4641 3488 3 MP stroke
10 8 -12 -2 4649 3607 3 MP stroke
9 5 -10 1 4649 3737 3 MP stroke
9 8 -11 -2 4650 3857 3 MP stroke
10 4 -11 2 4648 3987 3 MP stroke
8 8 -10 -2 4651 4105 3 MP stroke
6 3 -7 1 4656 4238 3 MP stroke
8 8 -10 -3 4653 4353 3 MP stroke
10 7 -12 0 4647 4479 3 MP stroke
7 2 4742 389 2 MP stroke
17 2 -16 7 4744 512 3 MP stroke
16 5 -16 4 4745 632 3 MP stroke
16 4 -16 6 4744 759 3 MP stroke
15 6 -16 3 4746 878 3 MP stroke
17 3 -16 6 4744 1009 3 MP stroke
16 4 -16 6 4743 1130 3 MP stroke
18 5 -18 5 4740 1255 3 MP stroke
18 5 -18 6 4740 1377 3 MP stroke
15 8 -17 1 4745 1497 3 MP stroke
13 4 -13 3 4752 1627 3 MP stroke
14 2 -13 6 4750 1755 3 MP stroke
12 4 -13 3 4752 1875 3 MP stroke
13 2 -12 5 4750 2004 3 MP stroke
11 4 -12 3 4753 2125 3 MP stroke
12 2 -12 4 4753 2253 3 MP stroke
11 9 -13 -2 4753 2364 3 MP stroke
13 2 -12 5 4751 2501 3 MP stroke
12 2 -12 5 4752 2624 3 MP stroke
16 2 -14 7 4745 2752 3 MP stroke
12 4 -12 3 4752 2871 3 MP stroke
14 3 -13 4 4750 2997 3 MP stroke
9 3 -9 2 4759 3121 3 MP stroke
12 1 -11 6 4751 3249 3 MP stroke
12 4 -13 3 4752 3366 3 MP stroke
14 1 -13 6 4751 3497 3 MP stroke
12 6 -13 1 4752 3613 3 MP stroke
9 3 -9 2 4760 3741 3 MP stroke
8 8 -10 -3 4761 3857 3 MP stroke
9 3 -9 2 4760 3989 3 MP stroke
9 7 -11 -1 4758 4106 3 MP stroke
9 4 -9 1 4759 4236 3 MP stroke
9 7 -11 -1 4758 4354 3 MP stroke
11 5 -12 2 4753 4484 3 MP stroke
7 2 4855 389 2 MP stroke
11 1 -10 5 4863 514 3 MP stroke
11 2 -11 4 4863 634 3 MP stroke
11 1 -10 5 4863 763 3 MP stroke
8 8 -11 -3 4866 872 3 MP stroke
5 25 -14 -19 4869 962 3 MP stroke
3 33 -16 -27 4871 1072 3 MP stroke
8 32 -20 -24 4863 1199 3 MP stroke
22 -15 -14 25 4845 1418 3 MP stroke
15 -5 -12 13 4855 1521 3 MP stroke
6 6 -8 -2 4872 1620 3 MP stroke
6 4 -6 0 4873 1750 3 MP stroke
2 16 -9 -13 4877 1848 3 MP stroke
7 0 -6 4 4871 2006 3 MP stroke
6 1 -6 2 4873 2129 3 MP stroke
7 0 -6 3 4871 2255 3 MP stroke
5 5 -7 -2 4874 2368 3 MP stroke
7 1 -7 3 4871 2501 3 MP stroke
7 4 -8 0 4871 2621 3 MP stroke
11 0 -10 6 4864 2753 3 MP stroke
7 2 -7 2 4872 2873 3 MP stroke
7 -1 -6 4 4871 3003 3 MP stroke
6 2 -6 1 4874 3120 3 MP stroke
6 -1 -5 4 4873 3250 3 MP stroke
6 3 -7 0 4873 3366 3 MP stroke
7 -1 -6 4 4871 3499 3 MP stroke
4 4 -6 -2 4876 3614 3 MP stroke
6 4 -7 -1 4873 3739 3 MP stroke
5 6 -6 -3 4875 3860 3 MP stroke
4 3 -5 -1 4875 3988 3 MP stroke
5 6 -6 -2 4874 4108 3 MP stroke
6 3 -7 0 4873 4237 3 MP stroke
14 1 -13 6 4966 514 3 MP stroke
12 3 -12 4 4967 633 3 MP stroke
13 4 -13 3 4968 758 3 MP stroke
3 22 -11 -17 4981 844 3 MP stroke
3 29 -14 -25 4981 954 3 MP stroke
4 33 -17 -27 4977 1070 3 MP stroke
0 58 -23 -51 4981 1145 3 MP stroke
12 3 -12 4 4968 1381 3 MP stroke
8 3 -8 2 4975 1503 3 MP stroke
7 6 -9 -2 4978 1621 3 MP stroke
8 3 -9 2 4975 1752 3 MP stroke
5 13 -9 -8 4979 1857 3 MP stroke
7 4 -8 0 4979 1999 3 MP stroke
7 6 -8 -1 4977 2119 3 MP stroke
6 1 -5 3 4981 2253 3 MP stroke
4 1 -4 1 4984 2375 3 MP stroke
5 0 -5 3 4983 2502 3 MP stroke
4 5 -5 -2 4984 2618 3 MP stroke
5 2 -5 1 4982 2748 3 MP stroke
4 3 -4 -1 4984 2871 3 MP stroke
6 0 -6 3 4981 3000 3 MP stroke
4 3 -4 -1 4984 3118 3 MP stroke
6 0 -5 3 4982 3248 3 MP stroke
7 2 -7 2 4978 3368 3 MP stroke
8 0 -7 4 4977 3499 3 MP stroke
7 6 -8 -2 4979 3611 3 MP stroke
7 4 -8 0 4979 3738 3 MP stroke
6 5 -8 -1 4979 3860 3 MP stroke
8 4 -8 1 4976 3987 3 MP stroke
6 6 -8 -2 4979 4106 3 MP stroke
9 5 -9 0 4975 4235 3 MP stroke
9 1 -9 4 5082 513 3 MP stroke
8 7 -10 -1 5082 626 3 MP stroke
5 5 -7 -1 5088 753 3 MP stroke
5 6 -7 -2 5088 875 3 MP stroke
4 0 -4 2 5093 1012 3 MP stroke
1 2 -2 -1 5097 1131 3 MP stroke
3 0 -3 2 5093 1258 3 MP stroke
4 1 -4 1 5094 1382 3 MP stroke
2 -2 -1 3 5096 1512 3 MP stroke
3 1 -3 0 5096 1630 3 MP stroke
2 0 -2 1 5097 1756 3 MP stroke
1 5 -3 -4 5097 1870 3 MP stroke
2 0 -2 1 5097 2004 3 MP stroke
3 5 -4 -3 5094 2120 3 MP stroke
3 2 -4 -1 5095 2249 3 MP stroke
2 5 -4 -4 5097 2368 3 MP stroke
3 -2 -2 3 5096 2506 3 MP stroke
1 5 -3 -4 5096 2617 3 MP stroke
3 -1 -2 2 5095 2753 3 MP stroke
3 2 -4 0 5094 2870 3 MP stroke
3 0 -2 1 5095 3000 3 MP stroke
3 3 -4 -1 5094 3117 3 MP stroke
4 -2 -3 3 5093 3251 3 MP stroke
5 4 -6 -1 5090 3365 3 MP stroke
5 0 -5 3 5090 3497 3 MP stroke
5 5 -7 -2 5090 3610 3 MP stroke
7 1 -7 3 5087 3744 3 MP stroke
4 4 -6 -1 5091 3862 3 MP stroke
7 3 -7 1 5087 3989 3 MP stroke
4 5 -6 -2 5090 4109 3 MP stroke
6 4 -7 0 5087 4236 3 MP stroke
10 5 -11 1 5187 507 3 MP stroke
2 11 -7 -9 5202 616 3 MP stroke
4 8 -7 -5 5198 747 3 MP stroke
6 3 -6 0 5197 882 3 MP stroke
6 0 -5 3 5197 1012 3 MP stroke
5 4 -6 -1 5197 1129 3 MP stroke
6 -1 -5 4 5196 1262 3 MP stroke
5 2 -5 1 5198 1381 3 MP stroke
5 1 -5 2 5198 1507 3 MP stroke
3 2 -4 0 5201 1629 3 MP stroke
4 -1 -3 3 5200 1759 3 MP stroke
4 6 -6 -3 5200 1869 3 MP stroke
3 3 -4 -1 5200 1999 3 MP stroke
3 4 -4 -2 5201 2121 3 MP stroke
4 3 -4 0 5199 2249 3 MP stroke
4 2 -4 1 5199 2375 3 MP stroke
6 0 -5 3 5196 2503 3 MP stroke
5 3 -6 0 5198 2621 3 MP stroke
5 4 -6 -1 5199 2744 3 MP stroke
4 4 -6 -1 5198 2867 3 MP stroke
5 3 -6 0 5197 2994 3 MP stroke
4 4 -5 -1 5199 3116 3 MP stroke
7 1 -7 3 5194 3247 3 MP stroke
6 5 -8 -2 5195 3362 3 MP stroke
8 4 -9 1 5191 3491 3 MP stroke
8 5 -10 0 5191 3611 3 MP stroke
9 4 -10 1 5191 3738 3 MP stroke
8 5 -9 0 5191 3860 3 MP stroke
8 4 -9 0 5193 3987 3 MP stroke
7 6 -8 -1 5193 4107 3 MP stroke
8 5 -9 0 5191 4235 3 MP stroke
0 11 -5 -9 5313 615 3 MP stroke
2 -2 -1 3 5311 765 3 MP stroke
3 1 -3 1 5309 884 3 MP stroke
1 0 -1 1 5312 1010 3 MP stroke
2 0 -2 0 5313 1134 3 MP stroke
2 -1 -1 2 5311 1262 3 MP stroke
2 1 -3 0 5312 1381 3 MP stroke
2 -1 -1 1 5312 1510 3 MP stroke
3 0 -3 1 5309 1631 3 MP stroke
2 3 -3 -2 5312 1751 3 MP stroke
1 0 -2 0 5313 1879 3 MP stroke
3 1 -3 1 5310 2004 3 MP stroke
1 4 -3 -3 5312 2120 3 MP stroke
1 1 -1 0 5312 2252 3 MP stroke
2 1 -2 0 5312 2376 3 MP stroke
3 -1 -2 2 5310 2505 3 MP stroke
2 2 -3 -1 5310 2622 3 MP stroke
2 1 -2 0 5313 2748 3 MP stroke
3 3 -4 0 5309 2870 3 MP stroke
5 -1 -4 3 5308 3002 3 MP stroke
2 2 -3 -1 5311 3121 3 MP stroke
4 1 -4 1 5308 3248 3 MP stroke
5 6 -6 -2 5304 3362 3 MP stroke
6 2 -6 2 5302 3494 3 MP stroke
5 6 -7 -2 5304 3609 3 MP stroke
4 3 -5 0 5305 3739 3 MP stroke
4 5 -5 -2 5306 3860 3 MP stroke
5 2 -5 1 5305 3990 3 MP stroke
6 7 -8 -3 5302 4107 3 MP stroke
5 4 -6 -1 5304 4235 3 MP stroke
4 3 -5 0 5415 880 3 MP stroke
5 -1 -5 4 5414 1013 3 MP stroke
4 2 -4 1 5415 1131 3 MP stroke
5 -1 -4 4 5413 1262 3 MP stroke
4 2 -5 1 5416 1380 3 MP stroke
4 0 -4 2 5415 1509 3 MP stroke
4 2 -5 0 5416 1629 3 MP stroke
6 1 -5 2 5412 1755 3 MP stroke
6 3 -6 0 5412 1875 3 MP stroke
5 0 -5 3 5413 2006 3 MP stroke
4 2 -4 0 5415 2125 3 MP stroke
5 -1 -4 3 5414 2256 3 MP stroke
4 3 -5 0 5414 2374 3 MP stroke
4 0 -3 3 5414 2503 3 MP stroke
3 3 -4 -1 5417 2621 3 MP stroke
4 3 -4 -1 5415 2745 3 MP stroke
4 2 -4 0 5415 2871 3 MP stroke
5 1 -5 1 5414 2998 3 MP stroke
6 3 -6 1 5411 3119 3 MP stroke
7 2 -7 2 5410 3245 3 MP stroke
7 2 -7 2 5409 3369 3 MP stroke
8 0 -7 4 5408 3497 3 MP stroke
7 5 -8 -1 5408 3612 3 MP stroke
7 4 -8 1 5408 3739 3 MP stroke
6 4 -7 0 5410 3863 3 MP stroke
7 3 -8 1 5408 3988 3 MP stroke
7 6 -9 -1 5408 4107 3 MP stroke
8 3 -8 1 5407 4238 3 MP stroke
2 2 -2 -1 5528 1006 3 MP stroke
3 0 -3 1 5525 1134 3 MP stroke
2 -2 -1 3 5527 1262 3 MP stroke
2 2 -2 -1 5527 1379 3 MP stroke
3 -2 -2 3 5526 1512 3 MP stroke
2 0 -2 1 5526 1632 3 MP stroke
2 1 -2 0 5526 1755 3 MP stroke
3 1 -3 0 5524 1878 3 MP stroke
2 0 -2 1 5527 2005 3 MP stroke
3 1 -3 1 5524 2127 3 MP stroke
2 0 -2 1 5528 2253 3 MP stroke
3 3 -4 -1 5525 2373 3 MP stroke
3 0 -2 1 5527 2503 3 MP stroke
1 2 -2 -1 5529 2622 3 MP stroke
3 -1 -2 3 5525 2753 3 MP stroke
2 1 -2 1 5527 2873 3 MP stroke
4 0 -3 2 5524 3001 3 MP stroke
4 2 -4 0 5523 3120 3 MP stroke
6 -1 -5 4 5519 3249 3 MP stroke
5 3 -6 1 5520 3368 3 MP stroke
5 2 -6 1 5521 3494 3 MP stroke
6 7 -8 -2 5518 3609 3 MP stroke
5 3 -5 0 5520 3741 3 MP stroke
6 2 -6 1 5519 3866 3 MP stroke
7 3 -8 1 5517 3989 3 MP stroke
5 7 -7 -4 5520 4106 3 MP stroke
5 3 -6 0 5520 4237 3 MP stroke
4 1 -4 2 5630 1009 3 MP stroke
3 1 -4 1 5632 1131 3 MP stroke
4 -1 -3 3 5631 1260 3 MP stroke
4 4 -5 -1 5630 1377 3 MP stroke
0 -4 1 4 5640 1515 3 MP stroke
4 2 -4 1 5629 1629 3 MP stroke
4 0 -4 2 5630 1756 3 MP stroke
5 2 -5 1 5629 1877 3 MP stroke
5 1 -5 2 5629 2004 3 MP stroke
4 3 -5 0 5630 2124 3 MP stroke
4 1 -4 1 5631 2253 3 MP stroke
4 3 -5 0 5629 2372 3 MP stroke
5 1 -5 2 5629 2500 3 MP stroke
3 2 -3 0 5632 2624 3 MP stroke
5 1 -5 2 5628 2749 3 MP stroke
5 3 -6 0 5630 2869 3 MP stroke
6 1 -6 3 5627 2998 3 MP stroke
4 4 -5 -1 5631 3117 3 MP stroke
7 1 -6 4 5624 3248 3 MP stroke
6 4 -7 0 5625 3364 3 MP stroke
8 2 -8 2 5622 3493 3 MP stroke
7 6 -9 -1 5625 3610 3 MP stroke
9 4 -9 1 5622 3739 3 MP stroke
7 3 -8 1 5623 3865 3 MP stroke
8 4 -9 1 5623 3987 3 MP stroke
8 6 -10 0 5621 4108 3 MP stroke
8 3 -8 2 5623 4238 3 MP stroke
7 2 -6 2 5733 636 3 MP stroke
4 -1 -3 3 5740 1012 3 MP stroke
2 2 -3 -1 5742 1130 3 MP stroke
2 -2 -1 3 5743 1263 3 MP stroke
-9 -5 10 0 5767 1390 3 MP stroke
-10 -7 12 1 5768 1518 3 MP stroke
3 1 -3 1 5740 1630 3 MP stroke
3 0 -2 2 5740 1757 3 MP stroke
2 2 -3 -1 5742 1877 3 MP stroke
2 0 -2 1 5743 2003 3 MP stroke
1 5 -3 -4 5744 2118 3 MP stroke
4 0 -4 2 5739 2252 3 MP stroke
3 1 -3 0 5741 2375 3 MP stroke
3 -1 -2 3 5740 2505 3 MP stroke
1 3 -2 -2 5743 2620 3 MP stroke
4 1 -4 1 5738 2749 3 MP stroke
1 2 -2 -1 5743 2869 3 MP stroke
3 0 -3 2 5742 2999 3 MP stroke
4 3 -5 0 5737 3120 3 MP stroke
5 2 -5 1 5737 3244 3 MP stroke
3 5 -5 -2 5738 3363 3 MP stroke
6 2 -6 1 5736 3494 3 MP stroke
5 6 -7 -3 5736 3609 3 MP stroke
5 4 -6 -1 5736 3739 3 MP stroke
4 5 -6 -2 5737 3859 3 MP stroke
5 4 -6 -1 5734 3987 3 MP stroke
6 5 -7 -1 5733 4109 3 MP stroke
6 4 -7 0 5733 4236 3 MP stroke
5 0 -4 2 5846 1012 3 MP stroke
5 3 -5 0 5844 1131 3 MP stroke
4 -1 -3 3 5846 1262 3 MP stroke
5 3 -6 0 5845 1378 3 MP stroke
-8 -7 10 2 5872 1518 3 MP stroke
4 2 -5 0 5845 1628 3 MP stroke
5 1 -5 2 5844 1755 3 MP stroke
4 4 -5 -1 5846 1873 3 MP stroke
5 -1 -4 3 5846 2008 3 MP stroke
5 3 -5 0 5843 2125 3 MP stroke
5 0 -5 2 5845 2253 3 MP stroke
4 2 -4 1 5847 2375 3 MP stroke
6 0 -5 3 5842 2502 3 MP stroke
3 6 -6 -4 5846 2615 3 MP stroke
4 2 -4 1 5845 2748 3 MP stroke
6 2 -6 1 5844 2872 3 MP stroke
7 0 -6 4 5842 3001 3 MP stroke
6 4 -7 0 5840 3116 3 MP stroke
8 4 -9 1 5838 3241 3 MP stroke
6 5 -8 -1 5841 3364 3 MP stroke
7 2 -7 3 5840 3495 3 MP stroke
6 7 -8 -3 5841 3609 3 MP stroke
8 5 -9 0 5839 3737 3 MP stroke
8 6 -9 0 5836 3860 3 MP stroke
7 2 -7 2 5839 3990 3 MP stroke
9 6 -10 -1 5835 4109 3 MP stroke
9 4 -9 1 5835 4237 3 MP stroke
2 0 -2 1 5958 1009 3 MP stroke
3 1 -3 1 5956 1133 3 MP stroke
2 2 -2 0 5957 1255 3 MP stroke
2 4 -4 -2 5957 1375 3 MP stroke
2 0 -2 1 5958 1508 3 MP stroke
2 1 -2 0 5957 1630 3 MP stroke
3 0 -3 1 5957 1756 3 MP stroke
1 3 -2 -2 5959 1874 3 MP stroke
2 -2 -1 3 5957 2008 3 MP stroke
2 2 -2 -1 5959 2126 3 MP stroke
2 0 -2 1 5959 2253 3 MP stroke
3 1 -3 0 5956 2375 3 MP stroke
2 -2 -1 3 5957 2506 3 MP stroke
1 4 -3 -3 5958 2618 3 MP stroke
2 2 -2 0 5957 2748 3 MP stroke
1 2 -2 -1 5958 2870 3 MP stroke
4 2 -5 0 5955 2996 3 MP stroke
6 5 -7 -1 5950 3115 3 MP stroke
5 3 -5 0 5952 3242 3 MP stroke
4 5 -6 -2 5953 3362 3 MP stroke
6 1 -5 2 5951 3496 3 MP stroke
4 5 -6 -2 5953 3611 3 MP stroke
5 3 -6 0 5952 3738 3 MP stroke
4 6 -6 -3 5952 3859 3 MP stroke
5 4 -6 0 5950 3987 3 MP stroke
6 7 -8 -3 5949 4106 3 MP stroke
6 2 -6 2 5949 4238 3 MP stroke
-2 4 0 -4 6071 877 3 MP stroke
4 3 -5 0 6060 1004 3 MP stroke
4 5 -6 -3 6062 1125 3 MP stroke
4 3 -5 0 6062 1255 3 MP stroke
5 6 -7 -3 6060 1372 3 MP stroke
4 3 -5 0 6060 1503 3 MP stroke
3 2 -4 0 6063 1629 3 MP stroke
5 1 -4 2 6060 1756 3 MP stroke
4 2 -4 0 6062 1877 3 MP stroke
4 0 -3 2 6062 2006 3 MP stroke
4 4 -5 -1 6061 2124 3 MP stroke
5 0 -5 3 6061 2254 3 MP stroke
4 1 -5 1 6062 2375 3 MP stroke
6 0 -5 3 6058 2503 3 MP stroke
4 5 -6 -2 6060 2617 3 MP stroke
6 3 -6 0 6058 2746 3 MP stroke
5 4 -6 -1 6061 2867 3 MP stroke
4 4 -5 -1 6060 2993 3 MP stroke
6 5 -8 -1 6057 3116 3 MP stroke
8 2 -8 2 6054 3244 3 MP stroke
7 6 -8 -1 6055 3362 3 MP stroke
8 3 -8 2 6055 3493 3 MP stroke
7 5 -8 0 6053 3612 3 MP stroke
7 4 -8 0 6054 3738 3 MP stroke
7 6 -9 -1 6054 3858 3 MP stroke
7 2 -7 2 6054 3990 3 MP stroke
7 5 -8 -1 6055 4109 3 MP stroke
10 4 -10 2 6051 4236 3 MP stroke
-3 2 2 -4 6183 880 3 MP stroke
2 2 -2 -1 6174 1007 3 MP stroke
2 4 -3 -3 6173 1127 3 MP stroke
2 3 -3 -1 6172 1253 3 MP stroke
1 4 -3 -3 6175 1374 3 MP stroke
3 3 -4 -1 6172 1502 3 MP stroke
2 4 -3 -2 6173 1625 3 MP stroke
2 -1 -1 2 6174 1757 3 MP stroke
2 2 -3 -1 6173 1876 3 MP stroke
2 -2 -1 2 6174 2009 3 MP stroke
1 2 -2 -1 6175 2125 3 MP stroke
3 0 -3 1 6173 2253 3 MP stroke
3 2 -4 0 6171 2374 3 MP stroke
2 3 -3 -2 6173 2496 3 MP stroke
1 4 -3 -3 6175 2619 3 MP stroke
3 1 -3 0 6172 2748 3 MP stroke
4 4 -5 -2 6170 2868 3 MP stroke
4 3 -4 -1 6170 2995 3 MP stroke
5 2 -6 1 6168 3119 3 MP stroke
6 3 -7 1 6166 3243 3 MP stroke
5 4 -6 -1 6166 3364 3 MP stroke
6 4 -7 0 6164 3490 3 MP stroke
5 6 -7 -3 6168 3610 3 MP stroke
6 3 -7 0 6165 3739 3 MP stroke
5 6 -7 -3 6166 3859 3 MP stroke
5 3 -6 0 6167 3987 3 MP stroke
5 6 -7 -3 6166 4107 3 MP stroke
7 4 -8 0 6164 4235 3 MP stroke
-21 4 1222 513 2 MP stroke
-20 -3 1222 637 2 MP stroke
-21 5 1222 761 2 MP stroke
-18 1 1222 886 2 MP stroke
-19 4 1222 1010 2 MP stroke
-22 -3 1222 1134 2 MP stroke
-23 -1 1222 1259 2 MP stroke
-19 -15 1222 1383 2 MP stroke
-20 -5 1222 1507 2 MP stroke
-19 -11 1222 1631 2 MP stroke
-8 -13 1222 2377 2 MP stroke
-8 -7 1222 2502 2 MP stroke
-9 -7 1222 2626 2 MP stroke
-5 -1 1222 2750 2 MP stroke
-10 -12 1222 2874 2 MP stroke
-7 -5 1222 2999 2 MP stroke
-5 -13 1222 3123 2 MP stroke
-9 -3 1222 3247 2 MP stroke
-6 -15 1222 3372 2 MP stroke
-11 -5 1222 3496 2 MP stroke
-12 -14 1222 3620 2 MP stroke
-7 -3 1222 3744 2 MP stroke
-15 -14 1222 3869 2 MP stroke
-17 -1 1222 3993 2 MP stroke
-17 -8 1222 4117 2 MP stroke
-19 -7 1222 4242 2 MP stroke
-20 -7 1222 4366 2 MP stroke
-16 -6 1222 4490 2 MP stroke
-15 -12 1222 4615 2 MP stroke
-22 1 1329 513 2 MP stroke
-22 -6 1329 637 2 MP stroke
-22 8 1329 761 2 MP stroke
-25 -4 1329 886 2 MP stroke
-23 5 1329 1010 2 MP stroke
-24 1 1329 1134 2 MP stroke
-25 0 1329 1259 2 MP stroke
-27 -12 1329 1383 2 MP stroke
-12 -4 1329 1507 2 MP stroke
-15 -10 1329 2377 2 MP stroke
-12 -7 1329 2502 2 MP stroke
-15 -13 1329 2626 2 MP stroke
-14 -5 1329 2750 2 MP stroke
-12 -2 1329 2874 2 MP stroke
-15 5 1329 2999 2 MP stroke
-14 -14 1329 3123 2 MP stroke
-16 -5 1329 3247 2 MP stroke
-13 -15 1329 3372 2 MP stroke
-11 -8 1329 3496 2 MP stroke
-13 -12 1329 3620 2 MP stroke
-13 -5 1329 3744 2 MP stroke
-16 -15 1329 3869 2 MP stroke
-21 -3 1329 3993 2 MP stroke
-23 -15 1329 4117 2 MP stroke
-20 -7 1329 4242 2 MP stroke
-23 -7 1329 4366 2 MP stroke
-23 -7 1329 4490 2 MP stroke
-21 2 1437 513 2 MP stroke
-19 1 1437 637 2 MP stroke
-17 5 1437 761 2 MP stroke
-20 -4 1437 886 2 MP stroke
-21 8 1437 1010 2 MP stroke
-19 0 1437 1134 2 MP stroke
-16 1 1437 1259 2 MP stroke
-21 -12 1437 1383 2 MP stroke
-19 -2 1437 1507 2 MP stroke
-6 -10 1437 2377 2 MP stroke
-10 -4 1437 2502 2 MP stroke
-6 -10 1437 2626 2 MP stroke
-4 -4 1437 2750 2 MP stroke
-6 -12 1437 2874 2 MP stroke
-7 -6 1437 2999 2 MP stroke
-7 -12 1437 3123 2 MP stroke
-8 -6 1437 3247 2 MP stroke
-5 -15 1437 3372 2 MP stroke
-8 -3 1437 3496 2 MP stroke
-11 -8 1437 3620 2 MP stroke
-7 -2 1437 3744 2 MP stroke
-8 -13 1437 3869 2 MP stroke
-18 -3 1437 3993 2 MP stroke
-16 -9 1437 4117 2 MP stroke
-18 -5 1437 4242 2 MP stroke
-18 -11 1437 4366 2 MP stroke
-18 -3 1437 4490 2 MP stroke
-19 -14 1437 4615 2 MP stroke
-26 0 1545 389 2 MP stroke
-25 8 1545 513 2 MP stroke
-26 0 1545 637 2 MP stroke
-24 9 1545 761 2 MP stroke
-27 -2 1545 886 2 MP stroke
-24 6 1545 1010 2 MP stroke
-26 -4 1545 1134 2 MP stroke
-27 1 1545 1259 2 MP stroke
-27 -12 1545 1383 2 MP stroke
-22 -4 1545 1507 2 MP stroke
-14 -11 1545 2377 2 MP stroke
-15 -4 1545 2502 2 MP stroke
-17 -8 1545 2626 2 MP stroke
-15 -2 1545 2750 2 MP stroke
-13 -2 1545 2999 2 MP stroke
-15 -13 1545 3123 2 MP stroke
-16 -5 1545 3247 2 MP stroke
-11 -15 1545 3372 2 MP stroke
-15 -7 1545 3496 2 MP stroke
-12 -11 1545 3620 2 MP stroke
-17 -3 1545 3744 2 MP stroke
-22 -9 1545 3869 2 MP stroke
-25 -1 1545 3993 2 MP stroke
-21 -10 1545 4117 2 MP stroke
-24 -1 1545 4242 2 MP stroke
-24 -13 1545 4366 2 MP stroke
-27 0 1545 4490 2 MP stroke
-22 -15 1545 4615 2 MP stroke
1653 389 PD
-20 7 1653 513 2 MP stroke
-17 -1 1653 637 2 MP stroke
-19 6 1653 761 2 MP stroke
-18 1 1653 886 2 MP stroke
-18 7 1653 1010 2 MP stroke
-22 -3 1653 1134 2 MP stroke
-17 5 1653 1259 2 MP stroke
-19 -14 1653 1383 2 MP stroke
-19 -6 1653 1507 2 MP stroke
-6 -9 1653 1631 2 MP stroke
-6 2 1653 2502 2 MP stroke
-8 -1 1653 2626 2 MP stroke
-8 6 1653 2750 2 MP stroke
-8 -10 1653 2874 2 MP stroke
-7 -5 1653 2999 2 MP stroke
-7 -8 1653 3123 2 MP stroke
-7 -4 1653 3247 2 MP stroke
-9 -10 1653 3372 2 MP stroke
-10 -6 1653 3496 2 MP stroke
-8 -13 1653 3620 2 MP stroke
-9 -5 1653 3744 2 MP stroke
-16 -12 1653 3869 2 MP stroke
-16 -5 1653 3993 2 MP stroke
-15 -14 1653 4117 2 MP stroke
-15 -4 1653 4242 2 MP stroke
-19 -13 1653 4366 2 MP stroke
-16 -4 1653 4490 2 MP stroke
-20 -10 1653 4615 2 MP stroke
-23 3 1760 513 2 MP stroke
-24 -3 1760 637 2 MP stroke
-28 2 1760 761 2 MP stroke
-27 -4 1760 886 2 MP stroke
-24 4 1760 1010 2 MP stroke
-27 -4 1760 1134 2 MP stroke
-24 7 1760 1259 2 MP stroke
-24 -1 1760 1383 2 MP stroke
-25 -2 1760 1507 2 MP stroke
-13 -9 1760 1631 2 MP stroke
-9 4 1760 2502 2 MP stroke
-13 -2 1760 2626 2 MP stroke
-15 1 1760 2750 2 MP stroke
-14 -12 1760 2874 2 MP stroke
-12 -3 1760 2999 2 MP stroke
-14 -15 1760 3123 2 MP stroke
-11 -3 1760 3247 2 MP stroke
-15 -9 1760 3372 2 MP stroke
-12 -8 1760 3496 2 MP stroke
-17 -12 1760 3620 2 MP stroke
-15 0 1760 3744 2 MP stroke
-20 -12 1760 3869 2 MP stroke
-25 -6 1760 3993 2 MP stroke
-25 -8 1760 4117 2 MP stroke
-26 -5 1760 4242 2 MP stroke
-26 -9 1760 4366 2 MP stroke
-22 -4 1760 4490 2 MP stroke
-25 -7 1760 4615 2 MP stroke
1868 389 PD
-16 4 1868 513 2 MP stroke
-19 -4 1868 637 2 MP stroke
-16 5 1868 761 2 MP stroke
-22 0 1868 886 2 MP stroke
-20 8 1868 1010 2 MP stroke
-19 -1 1868 1134 2 MP stroke
-21 8 1868 1259 2 MP stroke
-21 -1 1868 1383 2 MP stroke
-19 -7 1868 1507 2 MP stroke
-5 -11 1868 1631 2 MP stroke
-10 -4 1868 2502 2 MP stroke
-9 -7 1868 2626 2 MP stroke
-4 -5 1868 2750 2 MP stroke
-5 -13 1868 2874 2 MP stroke
-7 -6 1868 2999 2 MP stroke
-6 -10 1868 3123 2 MP stroke
-8 -7 1868 3247 2 MP stroke
-10 -11 1868 3372 2 MP stroke
-7 -2 1868 3496 2 MP stroke
-9 -13 1868 3620 2 MP stroke
-6 0 1868 3744 2 MP stroke
-13 -10 1868 3869 2 MP stroke
-17 -2 1868 3993 2 MP stroke
-14 -9 1868 4117 2 MP stroke
-19 -7 1868 4242 2 MP stroke
-15 -9 1868 4366 2 MP stroke
-14 -8 1868 4490 2 MP stroke
1976 389 PD
-20 6 1976 513 2 MP stroke
-24 -5 1976 637 2 MP stroke
-27 7 1976 761 2 MP stroke
-23 -4 1976 886 2 MP stroke
-24 7 1976 1010 2 MP stroke
-24 1 1976 1134 2 MP stroke
-27 3 1976 1259 2 MP stroke
-28 -3 1976 1383 2 MP stroke
-27 -6 1976 1507 2 MP stroke
-13 -14 1976 1631 2 MP stroke
-11 2 1976 2253 2 MP stroke
-16 -9 1976 2377 2 MP stroke
-13 -3 1976 2502 2 MP stroke
-14 -14 1976 2626 2 MP stroke
-16 -5 1976 2750 2 MP stroke
-13 -12 1976 2874 2 MP stroke
-12 -3 1976 2999 2 MP stroke
-10 -12 1976 3123 2 MP stroke
-16 -5 1976 3247 2 MP stroke
-12 -10 1976 3372 2 MP stroke
-15 -6 1976 3496 2 MP stroke
-13 -8 1976 3620 2 MP stroke
-13 -3 1976 3744 2 MP stroke
-18 -10 1976 3869 2 MP stroke
-21 -6 1976 3993 2 MP stroke
-21 -13 1976 4117 2 MP stroke
-21 -7 1976 4242 2 MP stroke
-25 -7 1976 4366 2 MP stroke
-25 -3 1976 4490 2 MP stroke
-20 1 2084 389 2 MP stroke
-21 1 2084 513 2 MP stroke
-20 -2 2084 637 2 MP stroke
-19 1 2084 761 2 MP stroke
-17 -1 2084 886 2 MP stroke
-22 8 2084 1010 2 MP stroke
-18 1 2084 1134 2 MP stroke
-21 4 2084 1259 2 MP stroke
-19 -5 2084 1383 2 MP stroke
-8 -3 2084 1507 2 MP stroke
-9 -8 2084 1631 2 MP stroke
-7 0 2084 2253 2 MP stroke
-4 -11 2084 2377 2 MP stroke
-4 -7 2084 2502 2 MP stroke
-4 -14 2084 2626 2 MP stroke
-4 -4 2084 2750 2 MP stroke
-9 -14 2084 2874 2 MP stroke
-10 -6 2084 2999 2 MP stroke
-4 -13 2084 3123 2 MP stroke
-5 -5 2084 3247 2 MP stroke
-9 -9 2084 3372 2 MP stroke
-9 -5 2084 3496 2 MP stroke
-11 -10 2084 3620 2 MP stroke
-11 -3 2084 3744 2 MP stroke
-15 -11 2084 3869 2 MP stroke
-19 -3 2084 3993 2 MP stroke
-17 -8 2084 4117 2 MP stroke
-19 -8 2084 4242 2 MP stroke
-18 -12 2084 4366 2 MP stroke
-19 -6 2084 4490 2 MP stroke
-18 -14 2084 4615 2 MP stroke
2191 389 PD
-29 8 2191 513 2 MP stroke
-23 -3 2191 637 2 MP stroke
-28 4 2191 761 2 MP stroke
-27 1 2191 886 2 MP stroke
-25 7 2191 1010 2 MP stroke
-25 -5 2191 1134 2 MP stroke
-23 6 2191 1259 2 MP stroke
-15 -3 2191 1383 2 MP stroke
-11 -3 2191 1507 2 MP stroke
-16 -13 2191 1631 2 MP stroke
-12 -7 2191 1756 2 MP stroke
-15 2 2191 2253 2 MP stroke
-11 -8 2191 2377 2 MP stroke
-17 2 2191 2502 2 MP stroke
-11 -13 2191 2626 2 MP stroke
-15 -5 2191 2750 2 MP stroke
-13 -14 2191 2874 2 MP stroke
-15 -8 2191 2999 2 MP stroke
-12 -12 2191 3123 2 MP stroke
-15 -4 2191 3247 2 MP stroke
-14 -13 2191 3372 2 MP stroke
-16 -1 2191 3496 2 MP stroke
-14 -13 2191 3620 2 MP stroke
-16 -2 2191 3744 2 MP stroke
-24 -11 2191 3869 2 MP stroke
-23 -3 2191 3993 2 MP stroke
-19 -13 2191 4117 2 MP stroke
-22 -3 2191 4242 2 MP stroke
-23 -13 2191 4366 2 MP stroke
-25 -3 2191 4490 2 MP stroke
2299 389 PD
-18 3 2299 513 2 MP stroke
-23 -2 2299 637 2 MP stroke
-23 8 2299 761 2 MP stroke
-19 -2 2299 886 2 MP stroke
-19 8 2299 1010 2 MP stroke
-18 -2 2299 1134 2 MP stroke
-16 0 2299 1259 2 MP stroke
-17 -3 2299 1383 2 MP stroke
-4 6 2299 1507 2 MP stroke
-6 -12 2299 1631 2 MP stroke
-6 -4 2299 1756 2 MP stroke
-11 -13 2299 1880 2 MP stroke
-7 5 2299 2004 2 MP stroke
-7 -1 2299 2129 2 MP stroke
-5 -3 2299 2253 2 MP stroke
-7 -12 2299 2377 2 MP stroke
-7 -4 2299 2502 2 MP stroke
-9 -10 2299 2626 2 MP stroke
-6 -2 2299 2750 2 MP stroke
-6 -14 2299 2874 2 MP stroke
-3 -4 2299 2999 2 MP stroke
-4 -8 2299 3123 2 MP stroke
-8 -2 2299 3247 2 MP stroke
-10 -11 2299 3372 2 MP stroke
-10 -2 2299 3496 2 MP stroke
-9 -8 2299 3620 2 MP stroke
-9 -1 2299 3744 2 MP stroke
-14 -14 2299 3869 2 MP stroke
-17 -4 2299 3993 2 MP stroke
-16 -13 2299 4117 2 MP stroke
-19 -5 2299 4242 2 MP stroke
-15 -13 2299 4366 2 MP stroke
-19 -6 2299 4490 2 MP stroke
2407 389 PD
-27 5 2407 513 2 MP stroke
-28 0 2407 637 2 MP stroke
-28 8 2407 761 2 MP stroke
-22 -3 2407 886 2 MP stroke
-24 3 2407 1010 2 MP stroke
-23 -9 2407 1134 2 MP stroke
-24 7 2407 1259 2 MP stroke
-25 -6 2407 1383 2 MP stroke
-21 0 2407 1507 2 MP stroke
-14 -12 2407 1631 2 MP stroke
-13 1 2407 1756 2 MP stroke
-16 -10 2407 1880 2 MP stroke
-14 1 2407 2004 2 MP stroke
-12 -7 2407 2129 2 MP stroke
-14 -2 2407 2253 2 MP stroke
-15 -10 2407 2377 2 MP stroke
-15 -6 2407 2502 2 MP stroke
-15 -14 2407 2626 2 MP stroke
-15 -8 2407 2750 2 MP stroke
-15 -15 2407 2874 2 MP stroke
-13 -5 2407 2999 2 MP stroke
-15 -14 2407 3123 2 MP stroke
-15 -5 2407 3247 2 MP stroke
-14 -11 2407 3372 2 MP stroke
-18 0 2407 3496 2 MP stroke
-16 -13 2407 3620 2 MP stroke
-15 -1 2407 3744 2 MP stroke
-21 -13 2407 3869 2 MP stroke
-22 -6 2407 3993 2 MP stroke
-23 -14 2407 4117 2 MP stroke
-26 -4 2407 4242 2 MP stroke
-26 -11 2407 4366 2 MP stroke
-25 -2 2407 4490 2 MP stroke
-21 2 2515 389 2 MP stroke
-19 8 2515 513 2 MP stroke
-21 -5 2515 637 2 MP stroke
-21 6 2515 761 2 MP stroke
-21 -4 2515 886 2 MP stroke
-22 -2 2515 1010 2 MP stroke
-18 -8 2515 1134 2 MP stroke
-16 5 2515 1259 2 MP stroke
-20 0 2515 1383 2 MP stroke
-15 6 2515 1507 2 MP stroke
-15 -1 2515 1631 2 MP stroke
-6 5 2515 1756 2 MP stroke
-8 -6 2515 1880 2 MP stroke
-9 -1 2515 2004 2 MP stroke
-9 -2 2515 2129 2 MP stroke
-7 3 2515 2253 2 MP stroke
-9 -10 2515 2377 2 MP stroke
-10 -6 2515 2502 2 MP stroke
-8 -15 2515 2626 2 MP stroke
-10 -6 2515 2750 2 MP stroke
-10 -13 2515 2874 2 MP stroke
-7 -6 2515 2999 2 MP stroke
-4 -13 2515 3123 2 MP stroke
-8 -3 2515 3247 2 MP stroke
-11 -12 2515 3372 2 MP stroke
-9 -5 2515 3496 2 MP stroke
-6 -11 2515 3620 2 MP stroke
-7 -1 2515 3744 2 MP stroke
-15 -13 2515 3869 2 MP stroke
-14 -4 2515 3993 2 MP stroke
-15 -12 2515 4117 2 MP stroke
-18 -7 2515 4242 2 MP stroke
-15 -15 2515 4366 2 MP stroke
-21 -1 2515 4490 2 MP stroke
2622 389 PD
-28 2 2622 513 2 MP stroke
-27 -4 2622 637 2 MP stroke
-25 9 2622 761 2 MP stroke
-27 -5 2622 886 2 MP stroke
-22 -4 2622 1010 2 MP stroke
-22 -12 2622 1134 2 MP stroke
-25 3 2622 1259 2 MP stroke
-25 -1 2622 1383 2 MP stroke
-26 8 2622 1507 2 MP stroke
-24 -4 2622 1631 2 MP stroke
-12 2 2622 1756 2 MP stroke
-15 -11 2622 1880 2 MP stroke
-11 -5 2622 2004 2 MP stroke
-13 -2 2622 2129 2 MP stroke
-13 4 2622 2253 2 MP stroke
-10 -3 2622 2377 2 MP stroke
-14 -3 2622 2502 2 MP stroke
-15 -10 2622 2626 2 MP stroke
-11 -6 2622 2750 2 MP stroke
-12 -3 2622 2874 2 MP stroke
-14 -5 2622 2999 2 MP stroke
-13 -13 2622 3123 2 MP stroke
-14 -6 2622 3247 2 MP stroke
-13 -11 2622 3372 2 MP stroke
-13 -5 2622 3496 2 MP stroke
-12 -7 2622 3620 2 MP stroke
-16 -5 2622 3744 2 MP stroke
-21 -14 2622 3869 2 MP stroke
-25 -4 2622 3993 2 MP stroke
-21 -10 2622 4117 2 MP stroke
-21 -5 2622 4242 2 MP stroke
-25 -10 2622 4366 2 MP stroke
-26 -5 2622 4490 2 MP stroke
2730 389 PD
-18 6 2730 513 2 MP stroke
-24 0 2730 637 2 MP stroke
-21 5 2730 761 2 MP stroke
-23 0 2730 886 2 MP stroke
-15 -2 2730 1010 2 MP stroke
-21 -12 2730 1134 2 MP stroke
-21 -1 2730 1259 2 MP stroke
-17 -4 2730 1383 2 MP stroke
-21 7 2730 1507 2 MP stroke
-18 -2 2730 1631 2 MP stroke
-9 -2 2730 1756 2 MP stroke
-10 8 2730 2253 2 MP stroke
-7 -3 2730 2377 2 MP stroke
-5 5 2730 2502 2 MP stroke
-5 -9 2730 2626 2 MP stroke
-3 -6 2730 2750 2 MP stroke
-6 -14 2730 2874 2 MP stroke
-4 -5 2730 2999 2 MP stroke
-10 -15 2730 3123 2 MP stroke
-11 -6 2730 3247 2 MP stroke
-10 -7 2730 3372 2 MP stroke
-5 -4 2730 3496 2 MP stroke
-6 -15 2730 3620 2 MP stroke
-11 -3 2730 3744 2 MP stroke
-16 -14 2730 3869 2 MP stroke
-13 -5 2730 3993 2 MP stroke
-18 -8 2730 4117 2 MP stroke
-14 -3 2730 4242 2 MP stroke
-17 -9 2730 4366 2 MP stroke
-21 -4 2730 4490 2 MP stroke
2838 389 PD
-28 8 2838 513 2 MP stroke
-23 -3 2838 637 2 MP stroke
-25 10 2838 761 2 MP stroke
-23 -2 2838 886 2 MP stroke
-26 -1 2838 1010 2 MP stroke
-25 -12 2838 1134 2 MP stroke
-25 -4 2838 1259 2 MP stroke
-24 -13 2838 1383 2 MP stroke
-26 2 2838 1507 2 MP stroke
-13 -4 2838 1631 2 MP stroke
-15 -7 2838 1756 2 MP stroke
-14 -13 2838 2377 2 MP stroke
-13 -7 2838 2502 2 MP stroke
-14 -14 2838 2626 2 MP stroke
-14 -7 2838 2750 2 MP stroke
-13 -9 2838 2874 2 MP stroke
-11 -7 2838 2999 2 MP stroke
-15 -13 2838 3123 2 MP stroke
-14 -1 2838 3247 2 MP stroke
-13 -8 2838 3372 2 MP stroke
-17 -3 2838 3496 2 MP stroke
-14 -13 2838 3620 2 MP stroke
-22 -7 2838 3744 2 MP stroke
-21 -8 2838 3869 2 MP stroke
-26 -4 2838 3993 2 MP stroke
-21 -10 2838 4117 2 MP stroke
-24 -6 2838 4242 2 MP stroke
-25 -10 2838 4366 2 MP stroke
-26 -6 2838 4490 2 MP stroke
-29 1 2945 389 2 MP stroke
-32 9 2945 513 2 MP stroke
-14 -3 2945 637 2 MP stroke
-18 10 2945 761 2 MP stroke
-22 -4 2945 1010 2 MP stroke
-22 -11 2945 1134 2 MP stroke
-21 6 2945 1259 2 MP stroke
-19 -5 2945 1383 2 MP stroke
-7 6 2945 1507 2 MP stroke
-8 -7 2945 1631 2 MP stroke
-6 -5 2945 1756 2 MP stroke
-7 -11 2945 1880 2 MP stroke
-9 -13 2945 2377 2 MP stroke
-9 -8 2945 2502 2 MP stroke
-8 -15 2945 2626 2 MP stroke
-6 -8 2945 2750 2 MP stroke
-6 -13 2945 2874 2 MP stroke
-5 -8 2945 2999 2 MP stroke
-10 -12 2945 3123 2 MP stroke
-8 -5 2945 3247 2 MP stroke
-9 -11 2945 3372 2 MP stroke
-7 -5 2945 3496 2 MP stroke
-5 -15 2945 3620 2 MP stroke
-9 -4 2945 3744 2 MP stroke
-18 -9 2945 3869 2 MP stroke
-18 -7 2945 3993 2 MP stroke
-18 -14 2945 4117 2 MP stroke
-15 -3 2945 4242 2 MP stroke
-15 -13 2945 4366 2 MP stroke
3053 389 PD
-35 3 3053 513 2 MP stroke
-31 3 3053 637 2 MP stroke
-26 7 3053 761 2 MP stroke
-26 -2 3053 1134 2 MP stroke
-26 -1 3053 1259 2 MP stroke
-16 -15 3053 1383 2 MP stroke
-15 6 3053 1507 2 MP stroke
-10 -14 3053 1631 2 MP stroke
-15 -4 3053 1756 2 MP stroke
-16 -5 3053 1880 2 MP stroke
-14 -6 3053 2004 2 MP stroke
-11 -17 3053 2129 2 MP stroke
-14 -10 3053 2253 2 MP stroke
-16 -11 3053 2377 2 MP stroke
-14 -4 3053 2502 2 MP stroke
-14 -9 3053 2626 2 MP stroke
-12 -5 3053 2750 2 MP stroke
-11 -13 3053 2874 2 MP stroke
-12 -6 3053 2999 2 MP stroke
-11 -13 3053 3123 2 MP stroke
-11 -7 3053 3247 2 MP stroke
-16 -12 3053 3372 2 MP stroke
-15 -5 3053 3496 2 MP stroke
-14 -7 3053 3620 2 MP stroke
-18 -7 3053 3744 2 MP stroke
-20 -12 3053 3869 2 MP stroke
-23 -2 3053 3993 2 MP stroke
-25 -13 3053 4117 2 MP stroke
-26 -4 3053 4242 2 MP stroke
-23 -13 3053 4366 2 MP stroke
3161 389 PD
-28 4 3161 513 2 MP stroke
-20 -3 3161 637 2 MP stroke
-21 7 3161 761 2 MP stroke
-18 -4 3161 886 2 MP stroke
-15 -6 3161 1010 2 MP stroke
-9 -8 3161 1134 2 MP stroke
-7 -5 3161 1259 2 MP stroke
-7 -2 3161 1383 2 MP stroke
-4 6 3161 1507 2 MP stroke
-7 -2 3161 1631 2 MP stroke
-7 5 3161 1756 2 MP stroke
-9 -2 3161 1880 2 MP stroke
-10 6 3161 2004 2 MP stroke
-10 -15 3161 2129 2 MP stroke
-9 -7 3161 2253 2 MP stroke
-4 -11 3161 2377 2 MP stroke
-7 -7 3161 2502 2 MP stroke
-3 -14 3161 2626 2 MP stroke
-4 -6 3161 2750 2 MP stroke
-7 -11 3161 2874 2 MP stroke
-10 0 3161 2999 2 MP stroke
-11 -9 3161 3123 2 MP stroke
-5 -2 3161 3247 2 MP stroke
-11 -12 3161 3372 2 MP stroke
-9 -3 3161 3496 2 MP stroke
-9 -10 3161 3620 2 MP stroke
-14 0 3161 3744 2 MP stroke
-19 -9 3161 3869 2 MP stroke
-15 -7 3161 3993 2 MP stroke
-19 -10 3161 4117 2 MP stroke
-20 -1 3161 4242 2 MP stroke
-20 -10 3161 4366 2 MP stroke
-31 0 3269 389 2 MP stroke
-26 5 3269 513 2 MP stroke
-26 -4 3269 637 2 MP stroke
-29 8 3269 761 2 MP stroke
-23 -2 3269 886 2 MP stroke
-27 5 3269 1010 2 MP stroke
-27 -14 3269 1134 2 MP stroke
-16 -8 3269 1259 2 MP stroke
-13 -5 3269 1383 2 MP stroke
-15 4 3269 1507 2 MP stroke
-11 -3 3269 1631 2 MP stroke
-15 5 3269 1756 2 MP stroke
-13 -1 3269 1880 2 MP stroke
-11 2 3269 2004 2 MP stroke
-12 -14 3269 2129 2 MP stroke
-14 -5 3269 2253 2 MP stroke
-14 -13 3269 2377 2 MP stroke
-11 -8 3269 2502 2 MP stroke
-10 -10 3269 2626 2 MP stroke
-13 -1 3269 2750 2 MP stroke
-15 -11 3269 2874 2 MP stroke
-11 -6 3269 2999 2 MP stroke
-13 -12 3269 3123 2 MP stroke
-14 -4 3269 3247 2 MP stroke
-16 -11 3269 3372 2 MP stroke
-14 -1 3269 3496 2 MP stroke
-18 -8 3269 3620 2 MP stroke
-21 -2 3269 3744 2 MP stroke
-21 -14 3269 3869 2 MP stroke
-26 -1 3269 3993 2 MP stroke
-24 -12 3269 4117 2 MP stroke
-23 -5 3269 4242 2 MP stroke
-23 -9 3269 4366 2 MP stroke
-31 1 3376 389 2 MP stroke
-29 4 3376 513 2 MP stroke
-31 -4 3376 637 2 MP stroke
-17 10 3376 761 2 MP stroke
-20 -1 3376 886 2 MP stroke
-21 2 3376 1010 2 MP stroke
-18 -7 3376 1134 2 MP stroke
-19 -5 3376 1259 2 MP stroke
-7 -15 3376 1383 2 MP stroke
-7 1 3376 1507 2 MP stroke
-3 -4 3376 1631 2 MP stroke
-8 -5 3376 1756 2 MP stroke
-9 -12 3376 1880 2 MP stroke
-10 2 3376 2004 2 MP stroke
-5 -12 3376 2129 2 MP stroke
-9 -6 3376 2253 2 MP stroke
-2 -10 3376 2377 2 MP stroke
-6 -3 3376 2502 2 MP stroke
-7 -11 3376 2626 2 MP stroke
-9 -6 3376 2750 2 MP stroke
-5 -10 3376 2874 2 MP stroke
-10 -5 3376 2999 2 MP stroke
-8 -14 3376 3123 2 MP stroke
-10 -3 3376 3247 2 MP stroke
-6 -10 3376 3372 2 MP stroke
-9 -6 3376 3496 2 MP stroke
-6 -12 3376 3620 2 MP stroke
-17 -5 3376 3744 2 MP stroke
-14 -14 3376 3869 2 MP stroke
-18 -3 3376 3993 2 MP stroke
-16 -14 3376 4117 2 MP stroke
-17 -1 3376 4242 2 MP stroke
3484 389 PD
-26 6 3484 513 2 MP stroke
-27 -2 3484 637 2 MP stroke
-31 11 3484 761 2 MP stroke
-21 -4 3484 886 2 MP stroke
-22 3 3484 1010 2 MP stroke
-27 -8 3484 1134 2 MP stroke
-29 -9 3484 1259 2 MP stroke
-12 -2 3484 1507 2 MP stroke
-13 -5 3484 1631 2 MP stroke
-11 -4 3484 1756 2 MP stroke
-12 -13 3484 1880 2 MP stroke
-13 0 3484 2004 2 MP stroke
-10 -1 3484 2129 2 MP stroke
-12 -5 3484 2253 2 MP stroke
-12 -12 3484 2377 2 MP stroke
-10 -8 3484 2502 2 MP stroke
-10 -9 3484 2626 2 MP stroke
-10 -7 3484 2750 2 MP stroke
-13 -14 3484 2874 2 MP stroke
-11 -3 3484 2999 2 MP stroke
-10 -13 3484 3123 2 MP stroke
-13 -3 3484 3247 2 MP stroke
-13 -4 3484 3372 2 MP stroke
-14 -3 3484 3496 2 MP stroke
-16 -13 3484 3620 2 MP stroke
-22 -1 3484 3744 2 MP stroke
-21 -13 3484 3869 2 MP stroke
-20 -7 3484 3993 2 MP stroke
-23 -8 3484 4117 2 MP stroke
-26 -1 3484 4242 2 MP stroke
-34 1 3592 389 2 MP stroke
-29 3 3592 513 2 MP stroke
-29 2 3592 637 2 MP stroke
-26 11 3592 761 2 MP stroke
-7 -14 3592 1383 2 MP stroke
-8 -6 3592 1507 2 MP stroke
-5 -14 3592 1631 2 MP stroke
-7 -6 3592 1756 2 MP stroke
-6 -13 3592 1880 2 MP stroke
-4 2 3592 2004 2 MP stroke
-4 -7 3592 2129 2 MP stroke
-8 -7 3592 2253 2 MP stroke
-4 -8 3592 2377 2 MP stroke
-6 -8 3592 2502 2 MP stroke
-5 -15 3592 2626 2 MP stroke
-9 -6 3592 2750 2 MP stroke
-5 -10 3592 2874 2 MP stroke
-11 -8 3592 2999 2 MP stroke
-7 -15 3592 3123 2 MP stroke
-11 -4 3592 3247 2 MP stroke
-5 -13 3592 3372 2 MP stroke
-11 -4 3592 3496 2 MP stroke
-6 -12 3592 3620 2 MP stroke
-13 -7 3592 3744 2 MP stroke
-14 -10 3592 3869 2 MP stroke
-19 -5 3592 3993 2 MP stroke
-21 -12 3592 4117 2 MP stroke
-18 -4 3592 4242 2 MP stroke
3700 389 PD
-36 5 3700 513 2 MP stroke
-35 1 3700 637 2 MP stroke
-31 10 3700 761 2 MP stroke
-13 -7 3700 1259 2 MP stroke
-20 -12 3700 1383 2 MP stroke
-17 -5 3700 1507 2 MP stroke
-13 -9 3700 1631 2 MP stroke
-11 -8 3700 1756 2 MP stroke
-15 -6 3700 1880 2 MP stroke
-17 3 3700 2004 2 MP stroke
-10 -1 3700 2129 2 MP stroke
-14 -6 3700 2253 2 MP stroke
-12 -10 3700 2377 2 MP stroke
-10 -4 3700 2502 2 MP stroke
-12 -7 3700 2626 2 MP stroke
-10 -6 3700 2750 2 MP stroke
-13 -14 3700 2874 2 MP stroke
-16 -2 3700 2999 2 MP stroke
-15 -12 3700 3123 2 MP stroke
-17 -5 3700 3247 2 MP stroke
-13 -12 3700 3372 2 MP stroke
-18 -6 3700 3496 2 MP stroke
-14 -12 3700 3620 2 MP stroke
-24 0 3700 3744 2 MP stroke
-22 -14 3700 3869 2 MP stroke
-25 -2 3700 3993 2 MP stroke
-25 -13 3700 4117 2 MP stroke
-28 -3 3700 4242 2 MP stroke
-33 2 3807 389 2 MP stroke
-35 7 3807 513 2 MP stroke
-35 0 3807 637 2 MP stroke
6 14 3807 761 2 MP stroke
-8 -6 3807 1134 2 MP stroke
-6 0 3807 1259 2 MP stroke
-6 -9 3807 1383 2 MP stroke
-6 -7 3807 1507 2 MP stroke
-8 -14 3807 1631 2 MP stroke
-10 0 3807 1756 2 MP stroke
-5 -3 3807 1880 2 MP stroke
-8 3 3807 2004 2 MP stroke
-9 -7 3807 2129 2 MP stroke
-6 -6 3807 2253 2 MP stroke
-5 -11 3807 2377 2 MP stroke
-7 -8 3807 2502 2 MP stroke
-4 -13 3807 2626 2 MP stroke
-5 -7 3807 2750 2 MP stroke
-10 -11 3807 2874 2 MP stroke
-10 -2 3807 2999 2 MP stroke
-7 -8 3807 3123 2 MP stroke
-10 -2 3807 3247 2 MP stroke
-8 -12 3807 3372 2 MP stroke
-9 6 3807 3496 2 MP stroke
-7 -13 3807 3620 2 MP stroke
-16 -4 3807 3744 2 MP stroke
-17 -14 3807 3869 2 MP stroke
-18 -1 3807 3993 2 MP stroke
-17 -9 3807 4117 2 MP stroke
-21 -8 3807 4242 2 MP stroke
-36 2 3915 389 2 MP stroke
-41 9 3915 513 2 MP stroke
-36 0 3915 637 2 MP stroke
-41 6 3915 761 2 MP stroke
-36 2 3915 886 2 MP stroke
17 25 3915 1010 2 MP stroke
-12 -2 3915 1134 2 MP stroke
-13 -4 3915 1259 2 MP stroke
-11 -12 3915 1383 2 MP stroke
-14 3 3915 1507 2 MP stroke
-15 -4 3915 1631 2 MP stroke
-15 5 3915 1756 2 MP stroke
-16 -3 3915 1880 2 MP stroke
-14 1 3915 2004 2 MP stroke
-10 -1 3915 2129 2 MP stroke
-13 0 3915 2253 2 MP stroke
-16 -7 3915 2377 2 MP stroke
-13 -6 3915 2502 2 MP stroke
-15 -14 3915 2626 2 MP stroke
-11 -4 3915 2750 2 MP stroke
-11 -12 3915 2874 2 MP stroke
-11 -2 3915 2999 2 MP stroke
-16 -10 3915 3123 2 MP stroke
-17 -1 3915 3247 2 MP stroke
-15 -2 3915 3372 2 MP stroke
-24 -5 3915 3496 2 MP stroke
-22 -3 3915 3620 2 MP stroke
-24 4 3915 3744 2 MP stroke
-21 -3 3915 3869 2 MP stroke
-23 -4 3915 3993 2 MP stroke
-25 -7 3915 4117 2 MP stroke
-24 -4 3915 4242 2 MP stroke
-33 3 4023 389 2 MP stroke
-32 8 4023 513 2 MP stroke
-29 3 4023 637 2 MP stroke
-34 5 4023 761 2 MP stroke
-31 -1 4023 886 2 MP stroke
-32 7 4023 1010 2 MP stroke
-37 -2 4023 1134 2 MP stroke
-36 5 4023 1259 2 MP stroke
-35 -15 4023 1383 2 MP stroke
-29 17 4023 1507 2 MP stroke
-22 -10 4023 1631 2 MP stroke
-15 -4 4023 1756 2 MP stroke
-8 -13 4023 1880 2 MP stroke
-8 3 4023 2004 2 MP stroke
-14 1 4023 2129 2 MP stroke
-19 8 4023 2253 2 MP stroke
-17 1 4023 2377 2 MP stroke
-11 -6 4023 2502 2 MP stroke
-10 -15 4023 2626 2 MP stroke
-7 -8 4023 2750 2 MP stroke
-14 -4 4023 2874 2 MP stroke
-19 4 4023 2999 2 MP stroke
-22 -3 4023 3123 2 MP stroke
-22 3 4023 3247 2 MP stroke
-30 -15 4023 3372 2 MP stroke
-19 0 4023 3496 2 MP stroke
-21 1 4023 3620 2 MP stroke
-19 7 4023 3744 2 MP stroke
-18 0 4023 3869 2 MP stroke
-19 -3 4023 3993 2 MP stroke
-21 -9 4023 4117 2 MP stroke
-22 -5 4023 4242 2 MP stroke
4131 389 PD
-36 4 4131 513 2 MP stroke
-39 3 4131 637 2 MP stroke
-40 6 4131 761 2 MP stroke
-39 -2 4131 886 2 MP stroke
-40 8 4131 1010 2 MP stroke
-39 0 4131 1134 2 MP stroke
-41 6 4131 1259 2 MP stroke
-40 -1 4131 1383 2 MP stroke
-45 51 4131 1507 2 MP stroke
-38 0 4131 1631 2 MP stroke
-25 8 4131 1756 2 MP stroke
-25 -13 4131 1880 2 MP stroke
-37 21 4131 2004 2 MP stroke
-26 2 4131 2129 2 MP stroke
-39 8 4131 2253 2 MP stroke
-25 -5 4131 2377 2 MP stroke
-23 -3 4131 2502 2 MP stroke
-14 -10 4131 2626 2 MP stroke
-12 -6 4131 2750 2 MP stroke
-24 -2 4131 2874 2 MP stroke
-38 4 4131 2999 2 MP stroke
-41 -3 4131 3123 2 MP stroke
-40 -6 4131 3247 2 MP stroke
-45 -18 4131 3372 2 MP stroke
-36 6 4131 3496 2 MP stroke
-38 0 4131 3620 2 MP stroke
-34 7 4131 3744 2 MP stroke
-31 0 4131 3869 2 MP stroke
-27 7 4131 3993 2 MP stroke
-38 -14 4131 4117 2 MP stroke
-36 6 4131 4242 2 MP stroke
-41 -12 4131 4366 2 MP stroke
-35 0 4238 389 2 MP stroke
-31 11 4238 513 2 MP stroke
-34 -3 4238 637 2 MP stroke
-30 7 4238 761 2 MP stroke
-35 1 4238 886 2 MP stroke
-30 6 4238 1010 2 MP stroke
-35 -1 4238 1134 2 MP stroke
-29 7 4238 1259 2 MP stroke
-33 3 4238 1383 2 MP stroke
-35 9 4238 1507 2 MP stroke
-29 -16 4238 1631 2 MP stroke
-34 -5 4238 1756 2 MP stroke
-30 -12 4238 1880 2 MP stroke
-31 7 4238 2004 2 MP stroke
-35 -3 4238 2129 2 MP stroke
-36 6 4238 2253 2 MP stroke
-45 -3 4238 2377 2 MP stroke
-35 2 4238 2502 2 MP stroke
-39 -10 4238 2626 2 MP stroke
-39 4 4238 2750 2 MP stroke
-43 0 4238 2874 2 MP stroke
-44 2 4238 2999 2 MP stroke
-38 -8 4238 3123 2 MP stroke
-32 8 4238 3247 2 MP stroke
-38 0 4238 3372 2 MP stroke
-40 6 4238 3496 2 MP stroke
-44 2 4238 3620 2 MP stroke
-43 2 4238 3744 2 MP stroke
-40 -3 4238 3869 2 MP stroke
-40 2 4238 3993 2 MP stroke
-44 -2 4238 4117 2 MP stroke
-42 -4 4238 4242 2 MP stroke
-42 -11 4238 4366 2 MP stroke
-42 2 4346 389 2 MP stroke
-38 8 4346 513 2 MP stroke
-37 0 4346 637 2 MP stroke
-38 8 4346 761 2 MP stroke
-41 3 4346 886 2 MP stroke
-38 6 4346 1010 2 MP stroke
-37 -4 4346 1134 2 MP stroke
-37 3 4346 1259 2 MP stroke
-40 -3 4346 1383 2 MP stroke
-41 8 4346 1507 2 MP stroke
-43 -2 4346 1631 2 MP stroke
-39 3 4346 1756 2 MP stroke
-40 -1 4346 1880 2 MP stroke
-41 4 4346 2004 2 MP stroke
-38 1 4346 2129 2 MP stroke
-41 2 4346 2253 2 MP stroke
-39 -5 4346 2377 2 MP stroke
-39 3 4346 2502 2 MP stroke
-47 -50 4346 2626 2 MP stroke
-40 8 4346 2750 2 MP stroke
-37 -3 4346 2874 2 MP stroke
-42 5 4346 2999 2 MP stroke
-45 0 4346 3123 2 MP stroke
-48 9 4346 3247 2 MP stroke
-50 0 4346 3372 2 MP stroke
-48 5 4346 3496 2 MP stroke
-49 -4 4346 3620 2 MP stroke
-51 4 4346 3744 2 MP stroke
-47 -6 4346 3869 2 MP stroke
-49 6 4346 3993 2 MP stroke
-47 -1 4346 4117 2 MP stroke
-50 -3 4346 4242 2 MP stroke
-45 -14 4346 4366 2 MP stroke
-33 0 4454 389 2 MP stroke
-33 4 4454 513 2 MP stroke
-33 5 4454 637 2 MP stroke
-36 9 4454 761 2 MP stroke
-34 3 4454 886 2 MP stroke
-31 8 4454 1010 2 MP stroke
-33 -1 4454 1134 2 MP stroke
-36 10 4454 1259 2 MP stroke
-32 3 4454 1383 2 MP stroke
-32 8 4454 1507 2 MP stroke
-33 -1 4454 1631 2 MP stroke
-34 4 4454 1756 2 MP stroke
-31 -1 4454 1880 2 MP stroke
-34 6 4454 2004 2 MP stroke
-34 0 4454 2129 2 MP stroke
-32 3 4454 2253 2 MP stroke
-32 -2 4454 2377 2 MP stroke
-43 8 4454 2502 2 MP stroke
-40 0 4454 2626 2 MP stroke
-42 10 4454 2750 2 MP stroke
-40 -5 4454 2874 2 MP stroke
-44 2 4454 2999 2 MP stroke
-45 0 4454 3123 2 MP stroke
-41 0 4454 3247 2 MP stroke
-43 0 4454 3372 2 MP stroke
-41 6 4454 3496 2 MP stroke
-39 -1 4454 3620 2 MP stroke
-41 2 4454 3744 2 MP stroke
-43 -1 4454 3869 2 MP stroke
-41 8 4454 3993 2 MP stroke
-42 -1 4454 4117 2 MP stroke
-41 -5 4454 4242 2 MP stroke
-41 -13 4454 4366 2 MP stroke
-38 1 4562 389 2 MP stroke
-37 8 4562 513 2 MP stroke
-39 0 4562 637 2 MP stroke
-40 5 4562 761 2 MP stroke
-40 -2 4562 886 2 MP stroke
-45 5 4562 1010 2 MP stroke
-43 2 4562 1134 2 MP stroke
-45 5 4562 1259 2 MP stroke
-42 -3 4562 1383 2 MP stroke
-42 10 4562 1507 2 MP stroke
-38 -2 4562 1631 2 MP stroke
-49 9 4562 1756 2 MP stroke
-46 -2 4562 1880 2 MP stroke
-49 11 4562 2004 2 MP stroke
-46 -5 4562 2129 2 MP stroke
-51 2 4562 2253 2 MP stroke
-49 2 4562 2377 2 MP stroke
-50 7 4562 2502 2 MP stroke
-48 -4 4562 2626 2 MP stroke
-45 3 4562 2750 2 MP stroke
-47 0 4562 2874 2 MP stroke
-49 2 4562 2999 2 MP stroke
-52 -6 4562 3123 2 MP stroke
-50 8 4562 3247 2 MP stroke
-46 -5 4562 3372 2 MP stroke
-50 1 4562 3496 2 MP stroke
-49 -4 4562 3620 2 MP stroke
-50 5 4562 3744 2 MP stroke
-47 -4 4562 3869 2 MP stroke
-52 3 4562 3993 2 MP stroke
-46 -8 4562 4117 2 MP stroke
-48 -7 4562 4242 2 MP stroke
-51 -15 4562 4366 2 MP stroke
4669 389 PD
-39 6 4669 513 2 MP stroke
-31 3 4669 637 2 MP stroke
-33 5 4669 761 2 MP stroke
-34 -4 4669 886 2 MP stroke
-37 4 4669 1010 2 MP stroke
-35 1 4669 1134 2 MP stroke
-36 10 4669 1259 2 MP stroke
-37 0 4669 1383 2 MP stroke
-33 6 4669 1507 2 MP stroke
-39 -4 4669 1631 2 MP stroke
-44 4 4669 1756 2 MP stroke
-42 1 4669 1880 2 MP stroke
-30 7 4669 2004 2 MP stroke
-31 1 4669 2129 2 MP stroke
-33 8 4669 2253 2 MP stroke
-36 -3 4669 2377 2 MP stroke
-37 7 4669 2502 2 MP stroke
-33 0 4669 2626 2 MP stroke
-43 8 4669 2750 2 MP stroke
-40 1 4669 2874 2 MP stroke
-42 8 4669 2999 2 MP stroke
-44 -6 4669 3123 2 MP stroke
-40 4 4669 3247 2 MP stroke
-40 -2 4669 3372 2 MP stroke
-43 -6 4669 3496 2 MP stroke
-32 -15 4669 3620 2 MP stroke
-30 -6 4669 3744 2 MP stroke
-30 -14 4669 3869 2 MP stroke
-32 -4 4669 3993 2 MP stroke
-28 -14 4669 4117 2 MP stroke
-20 -3 4669 4242 2 MP stroke
-26 -16 4669 4366 2 MP stroke
-34 -11 4669 4490 2 MP stroke
4777 389 PD
-49 6 4777 513 2 MP stroke
-48 -1 4777 637 2 MP stroke
-49 4 4777 761 2 MP stroke
-47 -5 4777 886 2 MP stroke
-49 5 4777 1010 2 MP stroke
-50 2 4777 1134 2 MP stroke
-55 1 4777 1259 2 MP stroke
-55 0 4777 1383 2 MP stroke
-49 -9 4777 1507 2 MP stroke
-38 -1 4777 1631 2 MP stroke
-40 5 4777 1756 2 MP stroke
-38 -2 4777 1880 2 MP stroke
-39 5 4777 2004 2 MP stroke
-36 -1 4777 2129 2 MP stroke
-36 4 4777 2253 2 MP stroke
-37 -15 4777 2377 2 MP stroke
-38 4 4777 2502 2 MP stroke
-37 3 4777 2626 2 MP stroke
-46 9 4777 2750 2 MP stroke
-37 0 4777 2874 2 MP stroke
-40 2 4777 2999 2 MP stroke
-27 0 4777 3123 2 MP stroke
-37 8 4777 3247 2 MP stroke
-38 -3 4777 3372 2 MP stroke
-39 7 4777 3496 2 MP stroke
-38 -6 4777 3620 2 MP stroke
-26 -1 4777 3744 2 MP stroke
-26 -15 4777 3869 2 MP stroke
-26 -2 4777 3993 2 MP stroke
-30 -12 4777 4117 2 MP stroke
-27 -5 4777 4242 2 MP stroke
-30 -13 4777 4366 2 MP stroke
-36 -4 4777 4490 2 MP stroke
4885 389 PD
-32 6 4885 513 2 MP stroke
-33 1 4885 637 2 MP stroke
-32 7 4885 761 2 MP stroke
-30 -17 4885 886 2 MP stroke
-30 -67 4885 1010 2 MP stroke
-30 -89 4885 1134 2 MP stroke
-42 -84 4885 1259 2 MP stroke
-54 60 4885 1383 2 MP stroke
-42 27 4885 1507 2 MP stroke
-21 -13 4885 1631 2 MP stroke
-18 -6 4885 1756 2 MP stroke
-17 -45 4885 1880 2 MP stroke
-20 6 4885 2004 2 MP stroke
-18 2 4885 2129 2 MP stroke
-20 5 4885 2253 2 MP stroke
-18 -11 4885 2377 2 MP stroke
-21 2 4885 2502 2 MP stroke
-22 -5 4885 2626 2 MP stroke
-31 9 4885 2750 2 MP stroke
-20 1 4885 2874 2 MP stroke
-20 8 4885 2999 2 MP stroke
-17 -2 4885 3123 2 MP stroke
-17 7 4885 3247 2 MP stroke
-19 -6 4885 3372 2 MP stroke
-20 7 4885 3496 2 MP stroke
-15 -8 4885 3620 2 MP stroke
-19 -6 4885 3744 2 MP stroke
-16 -12 4885 3869 2 MP stroke
-15 -6 4885 3993 2 MP stroke
-17 -11 4885 4117 2 MP stroke
-19 -5 4885 4242 2 MP stroke
-39 7 4992 513 2 MP stroke
-37 0 4992 637 2 MP stroke
-37 0 4992 761 2 MP stroke
-22 -59 4992 886 2 MP stroke
-25 -81 4992 1010 2 MP stroke
-32 -91 4992 1134 2 MP stroke
-34 -165 4992 1259 2 MP stroke
-36 2 4992 1383 2 MP stroke
-25 -2 4992 1507 2 MP stroke
-23 -12 4992 1631 2 MP stroke
-26 -2 4992 1756 2 MP stroke
-22 -31 4992 1880 2 MP stroke
-21 -5 4992 2004 2 MP stroke
-23 -11 4992 2129 2 MP stroke
-16 3 4992 2253 2 MP stroke
-12 -1 4992 2377 2 MP stroke
-14 3 4992 2502 2 MP stroke
-13 -10 4992 2626 2 MP stroke
-15 -1 4992 2750 2 MP stroke
-12 -4 4992 2874 2 MP stroke
-17 4 4992 2999 2 MP stroke
-12 -6 4992 3123 2 MP stroke
-15 4 4992 3247 2 MP stroke
-21 -2 4992 3372 2 MP stroke
-22 7 4992 3496 2 MP stroke
-21 -11 4992 3620 2 MP stroke
-21 -6 4992 3744 2 MP stroke
-21 -10 4992 3869 2 MP stroke
-24 -5 4992 3993 2 MP stroke
-21 -13 4992 4117 2 MP stroke
-26 -7 4992 4242 2 MP stroke
-27 4 5100 513 2 MP stroke
-28 -12 5100 637 2 MP stroke
-19 -9 5100 761 2 MP stroke
-19 -13 5100 886 2 MP stroke
-11 4 5100 1010 2 MP stroke
-5 -4 5100 1134 2 MP stroke
-10 1 5100 1259 2 MP stroke
-10 0 5100 1383 2 MP stroke
-5 8 5100 1507 2 MP stroke
-7 -1 5100 1631 2 MP stroke
-5 1 5100 1756 2 MP stroke
-6 -14 5100 1880 2 MP stroke
-5 1 5100 2004 2 MP stroke
-10 -12 5100 2129 2 MP stroke
-9 -5 5100 2253 2 MP stroke
-7 -13 5100 2377 2 MP stroke
-6 7 5100 2502 2 MP stroke
-7 -13 5100 2626 2 MP stroke
-7 5 5100 2750 2 MP stroke
-10 -4 5100 2874 2 MP stroke
-7 2 5100 2999 2 MP stroke
-10 -7 5100 3123 2 MP stroke
-10 7 5100 3247 2 MP stroke
-16 -8 5100 3372 2 MP stroke
-15 4 5100 3496 2 MP stroke
-17 -12 5100 3620 2 MP stroke
-20 3 5100 3744 2 MP stroke
-15 -8 5100 3869 2 MP stroke
-20 -3 5100 3993 2 MP stroke
-16 -10 5100 4117 2 MP stroke
-20 -6 5100 4242 2 MP stroke
-32 -5 5208 513 2 MP stroke
-13 -30 5208 637 2 MP stroke
-17 -19 5208 761 2 MP stroke
-17 -4 5208 886 2 MP stroke
-16 5 5208 1010 2 MP stroke
-17 -6 5208 1134 2 MP stroke
-17 7 5208 1259 2 MP stroke
-15 -1 5208 1383 2 MP stroke
-15 2 5208 1507 2 MP stroke
-11 -2 5208 1631 2 MP stroke
-11 6 5208 1756 2 MP stroke
-14 -14 5208 1880 2 MP stroke
-12 -6 5208 2004 2 MP stroke
-11 -10 5208 2129 2 MP stroke
-13 -4 5208 2253 2 MP stroke
-13 -1 5208 2377 2 MP stroke
-17 4 5208 2502 2 MP stroke
-16 -5 5208 2626 2 MP stroke
-15 -7 5208 2750 2 MP stroke
-16 -8 5208 2874 2 MP stroke
-17 -5 5208 2999 2 MP stroke
-14 -8 5208 3123 2 MP stroke
-21 3 5208 3247 2 MP stroke
-21 -12 5208 3372 2 MP stroke
-26 -4 5208 3496 2 MP stroke
-27 -9 5208 3620 2 MP stroke
-27 -5 5208 3744 2 MP stroke
-26 -9 5208 3869 2 MP stroke
-24 -6 5208 3993 2 MP stroke
-23 -11 5208 4117 2 MP stroke
-26 -7 5208 4242 2 MP stroke
-8 -31 5316 637 2 MP stroke
-6 7 5316 761 2 MP stroke
-10 -1 5316 886 2 MP stroke
-5 1 5316 1010 2 MP stroke
-5 0 5316 1134 2 MP stroke
-6 5 5316 1259 2 MP stroke
-7 -2 5316 1383 2 MP stroke
-5 4 5316 1507 2 MP stroke
-10 1 5316 1631 2 MP stroke
-7 -7 5316 1756 2 MP stroke
-5 -1 5316 1880 2 MP stroke
-9 1 5316 2004 2 MP stroke
-7 -12 5316 2129 2 MP stroke
-5 -1 5316 2253 2 MP stroke
-6 -1 5316 2377 2 MP stroke
-8 5 5316 2502 2 MP stroke
-9 -5 5316 2626 2 MP stroke
-5 -2 5316 2750 2 MP stroke
-11 -4 5316 2874 2 MP stroke
-12 6 5316 2999 2 MP stroke
-8 -3 5316 3123 2 MP stroke
-12 2 5316 3247 2 MP stroke
-18 -12 5316 3372 2 MP stroke
-20 0 5316 3496 2 MP stroke
-19 -13 5316 3620 2 MP stroke
-16 -5 5316 3744 2 MP stroke
-15 -11 5316 3869 2 MP stroke
-16 -2 5316 3993 2 MP stroke
-22 -13 5316 4117 2 MP stroke
-18 -8 5316 4242 2 MP stroke
-13 -6 5423 886 2 MP stroke
-14 7 5423 1010 2 MP stroke
-12 -2 5423 1134 2 MP stroke
-14 7 5423 1259 2 MP stroke
-12 -2 5423 1383 2 MP stroke
-12 4 5423 1507 2 MP stroke
-12 -2 5423 1631 2 MP stroke
-16 1 5423 1756 2 MP stroke
-17 -5 5423 1880 2 MP stroke
-15 5 5423 2004 2 MP stroke
-12 -4 5423 2129 2 MP stroke
-13 6 5423 2253 2 MP stroke
-14 -3 5423 2377 2 MP stroke
-12 4 5423 2502 2 MP stroke
-10 -6 5423 2626 2 MP stroke
-12 -6 5423 2750 2 MP stroke
-12 -3 5423 2874 2 MP stroke
-14 0 5423 2999 2 MP stroke
-18 -3 5423 3123 2 MP stroke
-20 0 5423 3247 2 MP stroke
-21 -1 5423 3372 2 MP stroke
-22 5 5423 3496 2 MP stroke
-23 -9 5423 3620 2 MP stroke
-23 -4 5423 3744 2 MP stroke
-20 -6 5423 3869 2 MP stroke
-23 -4 5423 3993 2 MP stroke
-24 -11 5423 4117 2 MP stroke
-24 -3 5423 4242 2 MP stroke
-5 -5 5531 1010 2 MP stroke
-9 1 5531 1134 2 MP stroke
-5 6 5531 1259 2 MP stroke
-6 -5 5531 1383 2 MP stroke
-7 8 5531 1507 2 MP stroke
-7 2 5531 1631 2 MP stroke
-7 -1 5531 1756 2 MP stroke
-10 -2 5531 1880 2 MP stroke
-6 2 5531 2004 2 MP stroke
-10 -1 5531 2129 2 MP stroke
-5 1 5531 2253 2 MP stroke
-10 -5 5531 2377 2 MP stroke
-6 2 5531 2502 2 MP stroke
-4 -5 5531 2626 2 MP stroke
-8 6 5531 2750 2 MP stroke
-6 0 5531 2874 2 MP stroke
-10 4 5531 2999 2 MP stroke
-12 -3 5531 3123 2 MP stroke
-17 6 5531 3247 2 MP stroke
-17 -3 5531 3372 2 MP stroke
-16 -1 5531 3496 2 MP stroke
-21 -13 5531 3620 2 MP stroke
-16 -3 5531 3744 2 MP stroke
-18 -2 5531 3869 2 MP stroke
-22 -3 5531 3993 2 MP stroke
-18 -15 5531 4117 2 MP stroke
-17 -5 5531 4242 2 MP stroke
-13 1 5639 1010 2 MP stroke
-11 -2 5639 1134 2 MP stroke
-11 4 5639 1259 2 MP stroke
-14 -7 5639 1383 2 MP stroke
2 12 5639 1507 2 MP stroke
-14 -1 5639 1631 2 MP stroke
-13 2 5639 1756 2 MP stroke
-15 -2 5639 1880 2 MP stroke
-15 2 5639 2004 2 MP stroke
-14 -5 5639 2129 2 MP stroke
-12 1 5639 2253 2 MP stroke
-15 -5 5639 2377 2 MP stroke
-15 0 5639 2502 2 MP stroke
-10 -2 5639 2626 2 MP stroke
-16 1 5639 2750 2 MP stroke
-15 -5 5639 2874 2 MP stroke
-18 2 5639 2999 2 MP stroke
-13 -7 5639 3123 2 MP stroke
-21 5 5639 3247 2 MP stroke
-21 -8 5639 3372 2 MP stroke
-25 -1 5639 3496 2 MP stroke
-23 -11 5639 3620 2 MP stroke
-26 -4 5639 3744 2 MP stroke
-24 -3 5639 3869 2 MP stroke
-25 -5 5639 3993 2 MP stroke
-28 -9 5639 4117 2 MP stroke
-24 -2 5639 4242 2 MP stroke
-20 1 5747 637 2 MP stroke
-10 5 5747 1010 2 MP stroke
-8 -5 5747 1134 2 MP stroke
-5 7 5747 1259 2 MP stroke
30 7 5747 1383 2 MP stroke
33 12 5747 1507 2 MP stroke
-10 0 5747 1631 2 MP stroke
-9 3 5747 1756 2 MP stroke
-8 -4 5747 1880 2 MP stroke
-6 0 5747 2004 2 MP stroke
-6 -15 5747 2129 2 MP stroke
-12 1 5747 2253 2 MP stroke
-9 -2 5747 2377 2 MP stroke
-9 6 5747 2502 2 MP stroke
-6 -8 5747 2626 2 MP stroke
-13 0 5747 2750 2 MP stroke
-6 -6 5747 2874 2 MP stroke
-8 2 5747 2999 2 MP stroke
-15 -3 5747 3123 2 MP stroke
-15 -2 5747 3247 2 MP stroke
-14 -11 5747 3372 2 MP stroke
-17 -1 5747 3496 2 MP stroke
-18 -14 5747 3620 2 MP stroke
-17 -6 5747 3744 2 MP stroke
-16 -12 5747 3869 2 MP stroke
-19 -7 5747 3993 2 MP stroke
-21 -9 5747 4117 2 MP stroke
-21 -6 5747 4242 2 MP stroke
-12 4 5854 1010 2 MP stroke
-15 -3 5854 1134 2 MP stroke
-11 6 5854 1259 2 MP stroke
-15 -5 5854 1383 2 MP stroke
28 13 5854 1507 2 MP stroke
-14 -3 5854 1631 2 MP stroke
-15 1 5854 1756 2 MP stroke
-13 -8 5854 1880 2 MP stroke
-12 7 5854 2004 2 MP stroke
-16 -4 5854 2129 2 MP stroke
-14 2 5854 2253 2 MP stroke
-11 -1 5854 2377 2 MP stroke
-17 3 5854 2502 2 MP stroke
-14 -15 5854 2626 2 MP stroke
-13 -1 5854 2750 2 MP stroke
-16 -1 5854 2874 2 MP stroke
-18 6 5854 2999 2 MP stroke
-21 -7 5854 3123 2 MP stroke
-25 -5 5854 3247 2 MP stroke
-21 -9 5854 3372 2 MP stroke
-21 2 5854 3496 2 MP stroke
-21 -14 5854 3620 2 MP stroke
-24 -7 5854 3744 2 MP stroke
-27 -9 5854 3869 2 MP stroke
-22 -1 5854 3993 2 MP stroke
-29 -9 5854 4117 2 MP stroke
-28 -4 5854 4242 2 MP stroke
-6 0 5962 1010 2 MP stroke
-9 0 5962 1134 2 MP stroke
-7 -4 5962 1259 2 MP stroke
-9 -10 5962 1383 2 MP stroke
-6 2 5962 1507 2 MP stroke
-7 -1 5962 1631 2 MP stroke
-8 1 5962 1756 2 MP stroke
-5 -8 5962 1880 2 MP stroke
-6 7 5962 2004 2 MP stroke
-5 -4 5962 2129 2 MP stroke
-5 1 5962 2253 2 MP stroke
-9 -2 5962 2377 2 MP stroke
-6 7 5962 2502 2 MP stroke
-7 -11 5962 2626 2 MP stroke
-7 -2 5962 2750 2 MP stroke
-6 -5 5962 2874 2 MP stroke
-12 -3 5962 2999 2 MP stroke
-19 -9 5962 3123 2 MP stroke
-15 -5 5962 3247 2 MP stroke
-15 -12 5962 3372 2 MP stroke
-16 2 5962 3496 2 MP stroke
-15 -11 5962 3620 2 MP stroke
-16 -6 5962 3744 2 MP stroke
-16 -13 5962 3869 2 MP stroke
-18 -6 5962 3993 2 MP stroke
-21 -14 5962 4117 2 MP stroke
-19 -2 5962 4242 2 MP stroke
1 -13 6070 886 2 MP stroke
-15 -6 6070 1010 2 MP stroke
-14 -12 6070 1134 2 MP stroke
-13 -4 6070 1259 2 MP stroke
-17 -14 6070 1383 2 MP stroke
-15 -4 6070 1507 2 MP stroke
-11 -2 6070 1631 2 MP stroke
-14 2 6070 1756 2 MP stroke
-12 -3 6070 1880 2 MP stroke
-11 4 6070 2004 2 MP stroke
-14 -6 6070 2129 2 MP stroke
-14 4 6070 2253 2 MP stroke
-13 -1 6070 2377 2 MP stroke
-17 4 6070 2502 2 MP stroke
-16 -11 6070 2626 2 MP stroke
-18 -4 6070 2750 2 MP stroke
-15 -8 6070 2874 2 MP stroke
-15 -7 6070 2999 2 MP stroke
-21 -8 6070 3123 2 MP stroke
-24 -1 6070 3247 2 MP stroke
-23 -11 6070 3372 2 MP stroke
-23 -1 6070 3496 2 MP stroke
-25 -8 6070 3620 2 MP stroke
-24 -6 6070 3744 2 MP stroke
-25 -12 6070 3869 2 MP stroke
-23 -1 6070 3993 2 MP stroke
-23 -9 6070 4117 2 MP stroke
-29 -4 6070 4242 2 MP stroke
7 -10 6178 886 2 MP stroke
-6 -4 6178 1010 2 MP stroke
-8 -10 6178 1134 2 MP stroke
-9 -7 6178 1259 2 MP stroke
-6 -12 6178 1383 2 MP stroke
-10 -6 6178 1507 2 MP stroke
-8 -8 6178 1631 2 MP stroke
-5 3 6178 1756 2 MP stroke
-8 -5 6178 1880 2 MP stroke
-5 7 6178 2004 2 MP stroke
-5 -5 6178 2129 2 MP stroke
-8 1 6178 2253 2 MP stroke
-11 -3 6178 2377 2 MP stroke
-8 -8 6178 2502 2 MP stroke
-6 -10 6178 2626 2 MP stroke
-9 -2 6178 2750 2 MP stroke
-13 -8 6178 2874 2 MP stroke
-12 -5 6178 2999 2 MP stroke
-16 -3 6178 3123 2 MP stroke
-19 -3 6178 3247 2 MP stroke
-18 -9 6178 3372 2 MP stroke
-21 -6 6178 3496 2 MP stroke
-17 -13 6178 3620 2 MP stroke
-20 -5 6178 3744 2 MP stroke
-19 -13 6178 3869 2 MP stroke
-17 -6 6178 3993 2 MP stroke
-19 -13 6178 4117 2 MP stroke
-22 -7 6178 4242 2 MP stroke
gr

c8

end %%Color Dict

eplot
%%EndObject

epage
end

showpage

%%Trailer
%%EOF
