%!PS-Adobe-3.0 EPSF-3.0
%%Creator: MATLAB, The MathWorks, Inc. Version 8.3.0.532 (R2014a). Operating System: Microsoft Windows 8.1 Pro.
%%Title: D:\workspace\course\cse252a\hw\hw1\data\output\p2\plot.eps
%%CreationDate: 10/16/2015  14:29:44
%%DocumentNeededFonts: Helvetica
%%DocumentProcessColors: Cyan Magenta Yellow Black
%%LanguageLevel: 2
%%Pages: 1
%%BoundingBox:   -33   242   647   548
%%EndComments

%%BeginProlog
% MathWorks dictionary
/MathWorks 160 dict begin
% definition operators
/bdef {bind def} bind def
/ldef {load def} bind def
/xdef {exch def} bdef
/xstore {exch store} bdef
% operator abbreviations
/c  /clip ldef
/cc /concat ldef
/cp /closepath ldef
/gr /grestore ldef
/gs /gsave ldef
/mt /moveto ldef
/np /newpath ldef
/cm /currentmatrix ldef
/sm /setmatrix ldef
/rm /rmoveto ldef
/rl /rlineto ldef
/s {show newpath} bdef
/sc {setcmykcolor} bdef
/sr /setrgbcolor ldef
/sg /setgray ldef
/w /setlinewidth ldef
/j /setlinejoin ldef
/cap /setlinecap ldef
/rc {rectclip} bdef
/rf {rectfill} bdef
% page state control
/pgsv () def
/bpage {/pgsv save def} bdef
/epage {pgsv restore} bdef
/bplot /gsave ldef
/eplot {stroke grestore} bdef
% orientation switch
/portraitMode 0 def /landscapeMode 1 def /rotateMode 2 def
% coordinate system mappings
/dpi2point 0 def
% font control
/FontSize 0 def
/FMS {/FontSize xstore findfont [FontSize 0 0 FontSize neg 0 0]
  makefont setfont} bdef
/ISOLatin1Encoding where {pop /WindowsLatin1Encoding 256 array bdef
ISOLatin1Encoding WindowsLatin1Encoding copy pop
/.notdef/.notdef/quotesinglbase/florin/quotedblbase/ellipsis/dagger
/daggerdbl/circumflex/perthousand/Scaron/guilsinglleft/OE/.notdef/.notdef
/.notdef/.notdef/quoteleft/quoteright/quotedblleft/quotedblright/bullet
/endash/emdash/tilde/trademark/scaron/guilsinglright/oe/.notdef/.notdef
/Ydieresis WindowsLatin1Encoding 128 32 getinterval astore pop}
{/WindowsLatin1Encoding StandardEncoding bdef} ifelse
/reencode {exch dup where {pop load} {pop StandardEncoding} ifelse
  exch dup 3 1 roll findfont dup length dict begin
  { 1 index /FID ne {def}{pop pop} ifelse } forall
  /Encoding exch def currentdict end definefont pop} bdef
/isroman {findfont /CharStrings get /Agrave known} bdef
/FMSR {3 1 roll 1 index dup isroman {reencode} {pop pop} ifelse
  exch FMS} bdef
/csm {1 dpi2point div -1 dpi2point div scale neg translate
 dup landscapeMode eq {pop -90 rotate}
  {rotateMode eq {90 rotate} if} ifelse} bdef
% line types: solid, dotted, dashed, dotdash
/SO { [] 0 setdash } bdef
/DO { [.5 dpi2point mul 4 dpi2point mul] 0 setdash } bdef
/DA { [6 dpi2point mul] 0 setdash } bdef
/DD { [.5 dpi2point mul 4 dpi2point mul 6 dpi2point mul 4
  dpi2point mul] 0 setdash } bdef
% macros for lines and objects
/L {lineto stroke} bdef
/MP {3 1 roll moveto 1 sub {rlineto} repeat} bdef
/AP {{rlineto} repeat} bdef
/PDlw -1 def
/W {/PDlw currentlinewidth def setlinewidth} def
/PP {closepath eofill} bdef
/DP {closepath stroke} bdef
/MR {4 -2 roll moveto dup  0 exch rlineto exch 0 rlineto
  neg 0 exch rlineto closepath} bdef
/FR {MR stroke} bdef
/PR {MR fill} bdef
/L1i {{currentfile picstr readhexstring pop} image} bdef
/tMatrix matrix def
/MakeOval {newpath tMatrix currentmatrix pop translate scale
0 0 1 0 360 arc tMatrix setmatrix} bdef
/FO {MakeOval stroke} bdef
/PO {MakeOval fill} bdef
/PD {currentlinewidth 2 div 0 360 arc fill
   PDlw -1 eq not {PDlw w /PDlw -1 def} if} def
/FA {newpath tMatrix currentmatrix pop translate scale
  0 0 1 5 -2 roll arc tMatrix setmatrix stroke} bdef
/PA {newpath tMatrix currentmatrix pop	translate 0 0 moveto scale
  0 0 1 5 -2 roll arc closepath tMatrix setmatrix fill} bdef
/FAn {newpath tMatrix currentmatrix pop translate scale
  0 0 1 5 -2 roll arcn tMatrix setmatrix stroke} bdef
/PAn {newpath tMatrix currentmatrix pop translate 0 0 moveto scale
  0 0 1 5 -2 roll arcn closepath tMatrix setmatrix fill} bdef
/vradius 0 def /hradius 0 def /lry 0 def
/lrx 0 def /uly 0 def /ulx 0 def /rad 0 def
/MRR {/vradius xdef /hradius xdef /lry xdef /lrx xdef /uly xdef
  /ulx xdef newpath tMatrix currentmatrix pop ulx hradius add uly
  vradius add translate hradius vradius scale 0 0 1 180 270 arc 
  tMatrix setmatrix lrx hradius sub uly vradius add translate
  hradius vradius scale 0 0 1 270 360 arc tMatrix setmatrix
  lrx hradius sub lry vradius sub translate hradius vradius scale
  0 0 1 0 90 arc tMatrix setmatrix ulx hradius add lry vradius sub
  translate hradius vradius scale 0 0 1 90 180 arc tMatrix setmatrix
  closepath} bdef
/FRR {MRR stroke } bdef
/PRR {MRR fill } bdef
/MlrRR {/lry xdef /lrx xdef /uly xdef /ulx xdef /rad lry uly sub 2 div def
  newpath tMatrix currentmatrix pop ulx rad add uly rad add translate
  rad rad scale 0 0 1 90 270 arc tMatrix setmatrix lrx rad sub lry rad
  sub translate rad rad scale 0 0 1 270 90 arc tMatrix setmatrix
  closepath} bdef
/FlrRR {MlrRR stroke } bdef
/PlrRR {MlrRR fill } bdef
/MtbRR {/lry xdef /lrx xdef /uly xdef /ulx xdef /rad lrx ulx sub 2 div def
  newpath tMatrix currentmatrix pop ulx rad add uly rad add translate
  rad rad scale 0 0 1 180 360 arc tMatrix setmatrix lrx rad sub lry rad
  sub translate rad rad scale 0 0 1 0 180 arc tMatrix setmatrix
  closepath} bdef
/FtbRR {MtbRR stroke } bdef
/PtbRR {MtbRR fill } bdef
/stri 6 array def /dtri 6 array def
/smat 6 array def /dmat 6 array def
/tmat1 6 array def /tmat2 6 array def /dif 3 array def
/asub {/ind2 exch def /ind1 exch def dup dup
  ind1 get exch ind2 get sub exch } bdef
/tri_to_matrix {
  2 0 asub 3 1 asub 4 0 asub 5 1 asub
  dup 0 get exch 1 get 7 -1 roll astore } bdef
/compute_transform {
  dmat dtri tri_to_matrix tmat1 invertmatrix 
  smat stri tri_to_matrix tmat2 concatmatrix } bdef
/ds {stri astore pop} bdef
/dt {dtri astore pop} bdef
/db {2 copy /cols xdef /rows xdef mul dup 3 mul string
  currentfile 
  3 index 0 eq {/ASCIIHexDecode filter}
  {/ASCII85Decode filter 3 index 2 eq {/RunLengthDecode filter} if }
  ifelse exch readstring pop
  dup 0 3 index getinterval /rbmap xdef
  dup 2 index dup getinterval /gbmap xdef
  1 index dup 2 mul exch getinterval /bbmap xdef pop pop}bdef
/it {gs np dtri aload pop moveto lineto lineto cp c
  cols rows 8 compute_transform 
  rbmap gbmap bbmap true 3 colorimage gr}bdef
/il {newpath moveto lineto stroke}bdef
currentdict end def
%%EndProlog

%%BeginSetup
MathWorks begin

0 cap

end
%%EndSetup

%%Page: 1 1
%%BeginPageSetup
%%PageBoundingBox:   -33   242   647   548
MathWorks begin
bpage
%%EndPageSetup

%%BeginObject: obj1
bplot

/dpi2point 12 def
portraitMode -0396 6576 csm

    0     0  8161  3663 rc
85 dict begin %Colortable dictionary
/c0 { 0.000000 0.000000 0.000000 sr} bdef
/c1 { 1.000000 1.000000 1.000000 sr} bdef
/c2 { 0.900000 0.000000 0.000000 sr} bdef
/c3 { 0.000000 0.820000 0.000000 sr} bdef
/c4 { 0.000000 0.000000 0.800000 sr} bdef
/c5 { 0.910000 0.820000 0.320000 sr} bdef
/c6 { 1.000000 0.260000 0.820000 sr} bdef
/c7 { 0.000000 0.820000 0.820000 sr} bdef
c0
1 j
1 sg
   0    0 8162 3664 rf
6 w
0 1217 2731 0 0 -1217 1061 1524 4 MP
PP
-2731 0 0 1217 2731 0 0 -1217 1061 1524 5 MP stroke
4 w
DO
SO
6 w
0 sg
1061 1524 mt 3792 1524 L
1061 1524 mt 1061  307 L
1061 1524 mt 1061 1496 L
%%IncludeResource: font Helvetica
/Helvetica /WindowsLatin1Encoding 120 FMSR

 908 1669 mt 
(-0.5) s
2426 1524 mt 2426 1496 L
2393 1669 mt 
(0) s
3792 1524 mt 3792 1496 L
3709 1669 mt 
(0.5) s
1061 1524 mt 1088 1524 L
 790 1568 mt 
(-0.5) s
1061  915 mt 1088  915 L
 960  959 mt 
(0) s
1061  307 mt 1088  307 L
 860  351 mt 
(0.5) s
gs 1061 307 2732 1218 rc
24 w
/c8 { 0.000000 0.000000 1.000000 sr} bdef
c8
2731 0 1061 1219 2 MP stroke
6 w
gr

c8
gs 988 1146 147 147 rc
/c9 { 1.000000 0.000000 0.000000 sr} bdef
c9
1025 1219 mt 1097 1219 L
1061 1183 mt 1061 1255 L
1036 1194 mt 1086 1244 L
1086 1194 mt 1036 1244 L
gr

c9
gs 1061 307 2732 1218 rc
gr

0 sg
1197 1200 mt 
([-0.500, -0.250]) s
gs 1061 307 2732 1218 rc
24 w
c8
0 -608 3792 1219 2 MP stroke
6 w
gr

c8
gs 3719 1146 147 147 rc
c9
3756 1219 mt 3828 1219 L
3792 1183 mt 3792 1255 L
3767 1194 mt 3817 1244 L
3817 1194 mt 3767 1244 L
gr

c9
gs 1061 307 2732 1218 rc
gr

0 sg
3655 1200 mt 
([0.500, -0.250]) s
gs 1061 307 2732 1218 rc
24 w
c8
-2731 0 3792 611 2 MP stroke
6 w
gr

c8
gs 3719 538 147 147 rc
c9
3756  611 mt 3828  611 L
3792  575 mt 3792  647 L
3767  586 mt 3817  636 L
3817  586 mt 3767  636 L
gr

c9
gs 1061 307 2732 1218 rc
gr

0 sg
3655  714 mt 
([0.500, 0.250]) s
gs 1061 307 2732 1218 rc
24 w
c8
0 608 1061 611 2 MP stroke
6 w
gr

c8
gs 988 538 147 147 rc
c9
1025  611 mt 1097  611 L
1061  575 mt 1061  647 L
1036  586 mt 1086  636 L
1086  586 mt 1036  636 L
gr

c9
gs 1061 307 2732 1218 rc
gr

0 sg
1197  714 mt 
([-0.500, 0.250]) s
2162  212 mt 
(proj,origin) s
1 sg
0 1217 2731 0 0 -1217 4655 1524 4 MP
PP
-2731 0 0 1217 2731 0 0 -1217 4655 1524 5 MP stroke
4 w
DO
SO
6 w
0 sg
4655 1524 mt 7386 1524 L
4655 1524 mt 4655  307 L
4655 1524 mt 4655 1496 L
4502 1669 mt 
(-0.4) s
5337 1524 mt 5337 1496 L
5184 1669 mt 
(-0.2) s
6020 1524 mt 6020 1496 L
5987 1669 mt 
(0) s
6703 1524 mt 6703 1496 L
6620 1669 mt 
(0.2) s
7386 1524 mt 7386 1496 L
7303 1669 mt 
(0.4) s
4655 1524 mt 4682 1524 L
4384 1568 mt 
(-0.2) s
4655 1219 mt 4682 1219 L
4384 1263 mt 
(-0.1) s
4655  915 mt 4682  915 L
4554  959 mt 
(0) s
4655  611 mt 4682  611 L
4454  655 mt 
(0.1) s
4655  307 mt 4682  307 L
4454  351 mt 
(0.2) s
gs 4655 307 2732 1218 rc
24 w
c8
2276 0 4882 1422 2 MP stroke
6 w
gs 4809 1349 147 147 rc
c9
4846 1422 mt 4918 1422 L
4882 1386 mt 4882 1458 L
4857 1397 mt 4907 1447 L
4907 1397 mt 4857 1447 L
gr

c9
gr

c9
0 sg
5053 1312 mt 
([-0.333, -0.167]) s
gs 4655 307 2732 1218 rc
24 w
c8
0 -1014 7158 1422 2 MP stroke
6 w
gs 7085 1349 147 147 rc
c9
7122 1422 mt 7194 1422 L
7158 1386 mt 7158 1458 L
7133 1397 mt 7183 1447 L
7183 1397 mt 7133 1447 L
gr

c9
gr

c9
0 sg
6987 1312 mt 
([0.333, -0.167]) s
gs 4655 307 2732 1218 rc
24 w
c8
-2276 0 7158 408 2 MP stroke
6 w
gs 7085 335 147 147 rc
c9
7122  408 mt 7194  408 L
7158  372 mt 7158  444 L
7133  383 mt 7183  433 L
7183  383 mt 7133  433 L
gr

c9
gr

c9
0 sg
6987  602 mt 
([0.333, 0.167]) s
gs 4655 307 2732 1218 rc
24 w
c8
0 1014 4882 408 2 MP stroke
6 w
gs 4809 335 147 147 rc
c9
4846  408 mt 4918  408 L
4882  372 mt 4882  444 L
4857  383 mt 4907  433 L
4907  383 mt 4857  433 L
gr

c9
gr

c9
0 sg
5053  602 mt 
([-0.333, 0.167]) s
5627  212 mt 
(proj,translation) s
1 sg
0 1217 2731 0 0 -1217 1061 3260 4 MP
PP
-2731 0 0 1217 2731 0 0 -1217 1061 3260 5 MP stroke
4 w
DO
SO
6 w
0 sg
1061 3260 mt 3792 3260 L
1061 3260 mt 1061 2043 L
1061 3260 mt 1061 3232 L
 978 3405 mt 
(0.2) s
1607 3260 mt 1607 3232 L
1524 3405 mt 
(0.4) s
2153 3260 mt 2153 3232 L
2070 3405 mt 
(0.6) s
2699 3260 mt 2699 3232 L
2616 3405 mt 
(0.8) s
3245 3260 mt 3245 3232 L
3212 3405 mt 
(1) s
3792 3260 mt 3792 3232 L
3709 3405 mt 
(1.2) s
1061 3260 mt 1088 3260 L
 790 3304 mt 
(-0.5) s
1061 2651 mt 1088 2651 L
 960 2695 mt 
(0) s
1061 2043 mt 1088 2043 L
 860 2087 mt 
(0.5) s
gs 1061 2043 2732 1218 rc
24 w
c8
1712 -979 2031 3203 2 MP stroke
6 w
gr

c8
gs 1958 3130 147 147 rc
c9
1995 3203 mt 2067 3203 L
2031 3167 mt 2031 3239 L
2006 3178 mt 2056 3228 L
2056 3178 mt 2006 3228 L
gr

c9
gs 1061 2043 2732 1218 rc
gr

0 sg
1894 3184 mt 
([0.555, -0.453]) s
gs 1061 2043 2732 1218 rc
24 w
c8
-1542 -147 3743 2224 2 MP stroke
6 w
gr

c8
gs 3670 2151 147 147 rc
c9
3707 2224 mt 3779 2224 L
3743 2188 mt 3743 2260 L
3718 2199 mt 3768 2249 L
3768 2199 mt 3718 2249 L
gr

c9
gs 1061 2043 2732 1218 rc
gr

0 sg
3606 2327 mt 
([1.182, 0.351]) s
gs 1061 2043 2732 1218 rc
24 w
c8
-1016 818 2201 2077 2 MP stroke
6 w
gr

c8
gs 2128 2004 147 147 rc
c9
2165 2077 mt 2237 2077 L
2201 2041 mt 2201 2113 L
2176 2052 mt 2226 2102 L
2226 2052 mt 2176 2102 L
gr

c9
gs 1061 2043 2732 1218 rc
gr

0 sg
2064 2180 mt 
([0.618, 0.472]) s
gs 1061 2043 2732 1218 rc
24 w
c8
846 308 1185 2895 2 MP stroke
6 w
gs 1112 2822 147 147 rc
c9
1149 2895 mt 1221 2895 L
1185 2859 mt 1185 2931 L
1160 2870 mt 1210 2920 L
1210 2870 mt 1160 2920 L
gr

c9
gr

c9
0 sg
1048 2876 mt 
([0.245, -0.200]) s
2109 1948 mt 
(proj,rotation) s
1 sg
0 1217 2731 0 0 -1217 4655 3260 4 MP
PP
-2731 0 0 1217 2731 0 0 -1217 4655 3260 5 MP stroke
4 w
DO
SO
6 w
0 sg
4655 3260 mt 7386 3260 L
4655 3260 mt 4655 2043 L
4655 3260 mt 4655 3232 L
4572 3405 mt 
(2.1) s
5337 3260 mt 5337 3232 L
5254 3405 mt 
(2.2) s
6020 3260 mt 6020 3232 L
5937 3405 mt 
(2.3) s
6703 3260 mt 6703 3232 L
6620 3405 mt 
(2.4) s
7386 3260 mt 7386 3232 L
7303 3405 mt 
(2.5) s
4655 3260 mt 4682 3260 L
4484 3304 mt 
(-2) s
4655 2955 mt 4682 2955 L
4484 2999 mt 
(-1) s
4655 2651 mt 4682 2651 L
4554 2695 mt 
(0) s
4655 2347 mt 4682 2347 L
4554 2391 mt 
(1) s
4655 2043 mt 4682 2043 L
4554 2087 mt 
(2) s
gs 4655 2043 2732 1218 rc
24 w
c8
1299 -623 5992 3041 2 MP stroke
6 w
gs 5919 2968 147 147 rc
c9
5956 3041 mt 6028 3041 L
5992 3005 mt 5992 3077 L
5967 3016 mt 6017 3066 L
6017 3016 mt 5967 3066 L
gr

c9
gr

c9
0 sg
5650 3068 mt 
([2.296, -1.281]) s
gs 4655 2043 2732 1218 rc
24 w
c8
-1137 -161 7291 2418 2 MP stroke
6 w
gs 7218 2345 147 147 rc
c9
7255 2418 mt 7327 2418 L
7291 2382 mt 7291 2454 L
7266 2393 mt 7316 2443 L
7316 2393 mt 7266 2443 L
gr

c9
gr

c9
0 sg
6949 2475 mt 
([2.486, 0.766]) s
gs 4655 2043 2732 1218 rc
24 w
c8
-1137 596 6154 2257 2 MP stroke
6 w
gs 6081 2184 147 147 rc
c9
6118 2257 mt 6190 2257 L
6154 2221 mt 6154 2293 L
6129 2232 mt 6179 2282 L
6179 2232 mt 6129 2282 L
gr

c9
gr

c9
0 sg
5813 2314 mt 
([2.320, 1.294]) s
gs 4655 2043 2732 1218 rc
24 w
c8
975 188 5017 2853 2 MP stroke
6 w
gs 4944 2780 147 147 rc
c9
4981 2853 mt 5053 2853 L
5017 2817 mt 5017 2889 L
4992 2828 mt 5042 2878 L
5042 2828 mt 4992 2878 L
gr

c9
gr

c9
0 sg
4676 2880 mt 
([2.153, -0.663]) s
5333 1948 mt 
(proj,rotation long distance) s

end %%Color Dict

eplot
%%EndObject

epage
end

showpage

%%Trailer
%%EOF
