%!PS-Adobe-2.0 EPSF-1.2
%%Creator: MATLAB, The MathWorks, Inc. Version 8.3.0.532 (R2014a). Operating System: Microsoft Windows 8.1 Pro.
%%Title: ..\..\data\output\p4\normal_1.eps
%%CreationDate: 10/19/2015  17:17:13
%%DocumentNeededFonts: Helvetica
%%DocumentProcessColors: Cyan Magenta Yellow Black
%%Extensions: CMYK
%%Pages: 1
%%BoundingBox:    66   212   567   583
%%EndComments

%%BeginProlog
% MathWorks dictionary
/MathWorks 160 dict begin
% definition operators
/bdef {bind def} bind def
/ldef {load def} bind def
/xdef {exch def} bdef
/xstore {exch store} bdef
% operator abbreviations
/c  /clip ldef
/cc /concat ldef
/cp /closepath ldef
/gr /grestore ldef
/gs /gsave ldef
/mt /moveto ldef
/np /newpath ldef
/cm /currentmatrix ldef
/sm /setmatrix ldef
/rm /rmoveto ldef
/rl /rlineto ldef
/s {show newpath} bdef
/sc {setcmykcolor} bdef
/sr /setrgbcolor ldef
/sg /setgray ldef
/w /setlinewidth ldef
/j /setlinejoin ldef
/cap /setlinecap ldef
/rc {rectclip} bdef
/rf {rectfill} bdef
% page state control
/pgsv () def
/bpage {/pgsv save def} bdef
/epage {pgsv restore} bdef
/bplot /gsave ldef
/eplot {stroke grestore} bdef
% orientation switch
/portraitMode 0 def /landscapeMode 1 def /rotateMode 2 def
% coordinate system mappings
/dpi2point 0 def
% font control
/FontSize 0 def
/FMS {/FontSize xstore findfont [FontSize 0 0 FontSize neg 0 0]
  makefont setfont} bdef
/ISOLatin1Encoding where {pop /WindowsLatin1Encoding 256 array bdef
ISOLatin1Encoding WindowsLatin1Encoding copy pop
/.notdef/.notdef/quotesinglbase/florin/quotedblbase/ellipsis/dagger
/daggerdbl/circumflex/perthousand/Scaron/guilsinglleft/OE/.notdef/.notdef
/.notdef/.notdef/quoteleft/quoteright/quotedblleft/quotedblright/bullet
/endash/emdash/tilde/trademark/scaron/guilsinglright/oe/.notdef/.notdef
/Ydieresis WindowsLatin1Encoding 128 32 getinterval astore pop}
{/WindowsLatin1Encoding StandardEncoding bdef} ifelse
/reencode {exch dup where {pop load} {pop StandardEncoding} ifelse
  exch dup 3 1 roll findfont dup length dict begin
  { 1 index /FID ne {def}{pop pop} ifelse } forall
  /Encoding exch def currentdict end definefont pop} bdef
/isroman {findfont /CharStrings get /Agrave known} bdef
/FMSR {3 1 roll 1 index dup isroman {reencode} {pop pop} ifelse
  exch FMS} bdef
/csm {1 dpi2point div -1 dpi2point div scale neg translate
 dup landscapeMode eq {pop -90 rotate}
  {rotateMode eq {90 rotate} if} ifelse} bdef
% line types: solid, dotted, dashed, dotdash
/SO { [] 0 setdash } bdef
/DO { [.5 dpi2point mul 4 dpi2point mul] 0 setdash } bdef
/DA { [6 dpi2point mul] 0 setdash } bdef
/DD { [.5 dpi2point mul 4 dpi2point mul 6 dpi2point mul 4
  dpi2point mul] 0 setdash } bdef
% macros for lines and objects
/L {lineto stroke} bdef
/MP {3 1 roll moveto 1 sub {rlineto} repeat} bdef
/AP {{rlineto} repeat} bdef
/PDlw -1 def
/W {/PDlw currentlinewidth def setlinewidth} def
/PP {closepath eofill} bdef
/DP {closepath stroke} bdef
/MR {4 -2 roll moveto dup  0 exch rlineto exch 0 rlineto
  neg 0 exch rlineto closepath} bdef
/FR {MR stroke} bdef
/PR {MR fill} bdef
/L1i {{currentfile picstr readhexstring pop} image} bdef
/tMatrix matrix def
/MakeOval {newpath tMatrix currentmatrix pop translate scale
0 0 1 0 360 arc tMatrix setmatrix} bdef
/FO {MakeOval stroke} bdef
/PO {MakeOval fill} bdef
/PD {currentlinewidth 2 div 0 360 arc fill
   PDlw -1 eq not {PDlw w /PDlw -1 def} if} def
/FA {newpath tMatrix currentmatrix pop translate scale
  0 0 1 5 -2 roll arc tMatrix setmatrix stroke} bdef
/PA {newpath tMatrix currentmatrix pop	translate 0 0 moveto scale
  0 0 1 5 -2 roll arc closepath tMatrix setmatrix fill} bdef
/FAn {newpath tMatrix currentmatrix pop translate scale
  0 0 1 5 -2 roll arcn tMatrix setmatrix stroke} bdef
/PAn {newpath tMatrix currentmatrix pop translate 0 0 moveto scale
  0 0 1 5 -2 roll arcn closepath tMatrix setmatrix fill} bdef
/vradius 0 def /hradius 0 def /lry 0 def
/lrx 0 def /uly 0 def /ulx 0 def /rad 0 def
/MRR {/vradius xdef /hradius xdef /lry xdef /lrx xdef /uly xdef
  /ulx xdef newpath tMatrix currentmatrix pop ulx hradius add uly
  vradius add translate hradius vradius scale 0 0 1 180 270 arc 
  tMatrix setmatrix lrx hradius sub uly vradius add translate
  hradius vradius scale 0 0 1 270 360 arc tMatrix setmatrix
  lrx hradius sub lry vradius sub translate hradius vradius scale
  0 0 1 0 90 arc tMatrix setmatrix ulx hradius add lry vradius sub
  translate hradius vradius scale 0 0 1 90 180 arc tMatrix setmatrix
  closepath} bdef
/FRR {MRR stroke } bdef
/PRR {MRR fill } bdef
/MlrRR {/lry xdef /lrx xdef /uly xdef /ulx xdef /rad lry uly sub 2 div def
  newpath tMatrix currentmatrix pop ulx rad add uly rad add translate
  rad rad scale 0 0 1 90 270 arc tMatrix setmatrix lrx rad sub lry rad
  sub translate rad rad scale 0 0 1 270 90 arc tMatrix setmatrix
  closepath} bdef
/FlrRR {MlrRR stroke } bdef
/PlrRR {MlrRR fill } bdef
/MtbRR {/lry xdef /lrx xdef /uly xdef /ulx xdef /rad lrx ulx sub 2 div def
  newpath tMatrix currentmatrix pop ulx rad add uly rad add translate
  rad rad scale 0 0 1 180 360 arc tMatrix setmatrix lrx rad sub lry rad
  sub translate rad rad scale 0 0 1 0 180 arc tMatrix setmatrix
  closepath} bdef
/FtbRR {MtbRR stroke } bdef
/PtbRR {MtbRR fill } bdef
/stri 6 array def /dtri 6 array def
/smat 6 array def /dmat 6 array def
/tmat1 6 array def /tmat2 6 array def /dif 3 array def
/asub {/ind2 exch def /ind1 exch def dup dup
  ind1 get exch ind2 get sub exch } bdef
/tri_to_matrix {
  2 0 asub 3 1 asub 4 0 asub 5 1 asub
  dup 0 get exch 1 get 7 -1 roll astore } bdef
/compute_transform {
  dmat dtri tri_to_matrix tmat1 invertmatrix 
  smat stri tri_to_matrix tmat2 concatmatrix } bdef
/ds {stri astore pop} bdef
/dt {dtri astore pop} bdef
/db {2 copy /cols xdef /rows xdef mul dup 3 mul string
  currentfile exch readhexstring pop
  dup 0 3 index getinterval /rbmap xdef
  dup 2 index dup getinterval /gbmap xdef
  1 index dup 2 mul exch getinterval /bbmap xdef pop pop}bdef
/it {gs np dtri aload pop moveto lineto lineto cp c
  cols rows 8 compute_transform 
  rbmap gbmap bbmap true 3 colorimage gr}bdef
/il {newpath moveto lineto stroke}bdef
currentdict end def
%%EndProlog

%%BeginSetup
MathWorks begin

0 cap

end
%%EndSetup

%%Page: 1 1
%%BeginPageSetup
%%PageBoundingBox:    66   212   567   583
MathWorks begin
bpage
%%EndPageSetup

%%BeginObject: obj1
bplot

/dpi2point 12 def
portraitMode 0204 7344 csm

  589   340  6017  4460 MR c np
85 dict begin %Colortable dictionary
/c0 { 0.000000 0.000000 0.000000 sr} bdef
/c1 { 1.000000 1.000000 1.000000 sr} bdef
/c2 { 0.900000 0.000000 0.000000 sr} bdef
/c3 { 0.000000 0.820000 0.000000 sr} bdef
/c4 { 0.000000 0.000000 0.800000 sr} bdef
/c5 { 0.910000 0.820000 0.320000 sr} bdef
/c6 { 1.000000 0.260000 0.820000 sr} bdef
/c7 { 0.000000 0.820000 0.820000 sr} bdef
c0
1 j
1 sg
   0    0 6913 5185 PR
6 w
0 2335 -2326 -1070 0 -2335 6255 3793 4 MP
PP
2326 1070 0 2335 -2326 -1070 0 -2335 6255 3793 5 MP stroke
2326 1070 3030 -821 -2325 -1069 3224 4613 4 MP
PP
-3031 820 2326 1070 3030 -821 -2325 -1069 3224 4613 5 MP stroke
0 2335 3030 -821 0 -2335 899 3544 4 MP
PP
-3030 821 0 2335 3030 -821 0 -2335 899 3544 5 MP stroke
4 w
DO
0 sg
3224 4613 mt  899 3544 L
 899 3544 mt  899 1209 L
3657 4496 mt 1331 3427 L
1331 3427 mt 1331 1092 L
4090 4379 mt 1764 3310 L
1764 3310 mt 1764  975 L
4523 4262 mt 2197 3192 L
2197 3192 mt 2197  857 L
4956 4145 mt 2630 3075 L
2630 3075 mt 2630  740 L
5389 4027 mt 3063 2958 L
3063 2958 mt 3063  623 L
5822 3910 mt 3496 2841 L
3496 2841 mt 3496  506 L
6255 3793 mt 3929 2723 L
3929 2723 mt 3929  388 L
3224 4613 mt 6255 3793 L
6255 3793 mt 6255 1458 L
2643 4346 mt 5673 3525 L
5673 3525 mt 5673 1191 L
2061 4079 mt 5092 3258 L
5092 3258 mt 5092  923 L
1480 3811 mt 4510 2991 L
4510 2991 mt 4510  656 L
 899 3544 mt 3929 2723 L
3929 2723 mt 3929  388 L
 899 3544 mt 3929 2723 L
3929 2723 mt 6255 3793 L
 899 3155 mt 3929 2334 L
3929 2334 mt 6255 3404 L
 899 2766 mt 3929 1945 L
3929 1945 mt 6255 3015 L
 899 2377 mt 3929 1556 L
3929 1556 mt 6255 2625 L
 899 1987 mt 3929 1167 L
3929 1167 mt 6255 2236 L
 899 1598 mt 3929  778 L
3929  778 mt 6255 1847 L
 899 1209 mt 3929  388 L
3929  388 mt 6255 1458 L
SO
6 w
3224 4613 mt 6255 3793 L
3224 4613 mt  899 3544 L
 899 3544 mt  899 1209 L
3224 4613 mt 3295 4646 L
%%IncludeResource: font Helvetica
/Helvetica /WindowsLatin1Encoding 120 FMSR

3327 4772 mt 
(-20) s
3657 4496 mt 3728 4529 L
3760 4655 mt 
(0) s
4090 4379 mt 4161 4412 L
4193 4537 mt 
(20) s
4523 4262 mt 4594 4295 L
4625 4420 mt 
(40) s
4956 4145 mt 5027 4177 L
5058 4303 mt 
(60) s
5389 4027 mt 5460 4060 L
5491 4186 mt 
(80) s
5822 3910 mt 5893 3943 L
5924 4068 mt 
(100) s
6255 3793 mt 6326 3826 L
6357 3951 mt 
(120) s
3224 4613 mt 3148 4634 L
2912 4754 mt 
(-50) s
2643 4346 mt 2567 4367 L
2467 4487 mt 
(0) s
2061 4079 mt 1985 4099 L
1819 4219 mt 
(50) s
1480 3811 mt 1404 3832 L
1171 3952 mt 
(100) s
 899 3544 mt  823 3565 L
 589 3685 mt 
(150) s
 899 3544 mt  827 3511 L
 593 3541 mt 
(-20) s
 899 3155 mt  827 3122 L
 730 3152 mt 
(0) s
 899 2766 mt  827 2733 L
 663 2762 mt 
(20) s
 899 2377 mt  827 2344 L
 663 2373 mt 
(40) s
 899 1987 mt  827 1955 L
 663 1984 mt 
(60) s
 899 1598 mt  827 1565 L
 663 1595 mt 
(80) s
 899 1209 mt  827 1176 L
 596 1206 mt 
(100) s
gs 899 388 5357 4226 MR c np
/c8 { 0.000000 0.000000 1.000000 sr} bdef
c8
5252 3134 mt 5212 3175 L
5220 3166 mt 5252 3134 L
5202 3054 mt 5159 3092 L
5167 3083 mt 5202 3054 L
5154 2966 mt 5108 3003 L
5145 3110 mt 5103 3148 L
5142 3244 mt 5252 3134 L
5115 2994 mt 5154 2966 L
5114 3138 mt 5145 3110 L
5104 2874 mt 5057 2910 L
5102 3014 mt 5056 3051 L
5084 3157 mt 5202 3054 L
5064 3041 mt 5102 3014 L
5061 2901 mt 5104 2874 L
5051 2915 mt 5003 2950 L
5049 2776 mt 5002 2812 L
5042 3088 mt 4997 3123 L
5034 3211 mt 5145 3110 L
5026 3064 mt 5154 2966 L
5010 2940 mt 5051 2915 L
5010 3113 mt 5042 3088 L
5004 2803 mt 5049 2776 L
4999 2807 mt 4950 2841 L
4995 2686 mt 4948 2723 L
4992 2975 mt 4945 3008 L
4976 3110 mt 5102 3014 L
4968 2969 mt 5104 2874 L
4957 2999 mt 4992 2975 L
4955 2832 mt 4999 2807 L
4948 2714 mt 4995 2686 L
4946 2699 mt 4897 2733 L
4944 2853 mt 4895 2886 L
4938 2598 mt 4892 2635 L
4937 3057 mt 4891 3090 L
4926 3178 mt 5042 3088 L
4917 3006 mt 5051 2915 L
4909 2873 mt 5049 2776 L
4904 2876 mt 4944 2853 L
4904 3080 mt 4937 3057 L
4900 2724 mt 4946 2699 L
4891 2733 mt 4841 2765 L
4890 2593 mt 4841 2628 L
4888 2626 mt 4938 2598 L
4887 2941 mt 4838 2972 L
4880 2523 mt 4835 2560 L
4867 3061 mt 4992 2975 L
4859 2897 mt 4999 2807 L
4851 2783 mt 4995 2686 L
4851 2962 mt 4887 2941 L
4849 2756 mt 4891 2733 L
4842 2619 mt 4890 2593 L
4839 2609 mt 4789 2641 L
4834 2810 mt 4784 2839 L
4833 2495 mt 4785 2531 L
4829 2552 mt 4880 2523 L
4826 3029 mt 4780 3061 L
4818 2457 mt 4776 2495 L
4817 3143 mt 4937 3057 L
4809 2937 mt 4944 2853 L
4801 2789 mt 4946 2699 L
4796 2830 mt 4834 2810 L
4795 3052 mt 4826 3029 L
4793 2632 mt 4839 2609 L
4793 2697 mt 4938 2598 L
4784 2488 mt 4733 2521 L
4784 2667 mt 4733 2697 L
4783 2522 mt 4833 2495 L
4777 2901 mt 4728 2929 L
4775 2409 mt 4729 2445 L
4767 2487 mt 4818 2457 L
4759 3019 mt 4887 2941 L
4753 2406 mt 4715 2445 L
4751 2815 mt 4891 2733 L
4743 2685 mt 4890 2593 L
4742 2919 mt 4777 2901 L
4742 2688 mt 4784 2667 L
4736 2512 mt 4784 2488 L
4735 2623 mt 4880 2523 L
4731 2529 mt 4679 2560 L
4727 2375 mt 4678 2410 L
4725 2755 mt 4675 2783 L
4723 2437 mt 4775 2409 L
4714 3020 mt 4668 3045 L
4714 2337 mt 4670 2374 L
4709 3110 mt 4826 3029 L
4702 2438 mt 4753 2406 L
4701 2883 mt 4834 2810 L
4693 2692 mt 4839 2609 L
4688 2373 mt 4654 2413 L
4688 2773 mt 4725 2755 L
4686 3037 mt 4714 3020 L
4686 2550 mt 4731 2529 L
4685 2590 mt 4833 2495 L
4677 2401 mt 4727 2375 L
4677 2561 mt 4818 2457 L
4676 2396 mt 4625 2428 L
4671 2604 mt 4620 2632 L
4669 2279 mt 4621 2314 L
4663 2861 mt 4615 2888 L
4662 2366 mt 4714 2337 L
4651 2971 mt 4777 2901 L
4648 2281 mt 4609 2320 L
4643 2744 mt 4784 2667 L
4638 2407 mt 4688 2373 L
4635 2574 mt 4784 2488 L
4632 2623 mt 4671 2604 L
4631 2879 mt 4663 2861 L
4629 2418 mt 4676 2396 L
4627 2506 mt 4775 2409 L
4621 2273 mt 4570 2305 L
4621 2357 mt 4591 2397 L
4620 2452 mt 4568 2481 L
4619 2515 mt 4753 2406 L
4618 2306 mt 4669 2279 L
4612 2710 mt 4562 2735 L
4606 2196 mt 4562 2233 L
4601 2997 mt 4556 3022 L
4601 3083 mt 4714 3020 L
4597 2313 mt 4648 2281 L
4593 2824 mt 4725 2755 L
4585 2607 mt 4731 2529 L
4583 2247 mt 4547 2286 L
4578 2726 mt 4612 2710 L
4577 2472 mt 4620 2452 L
4552 2357 mt 4527 2398 L
4577 2466 mt 4727 2375 L
4575 3013 mt 4601 2997 L
4573 2392 mt 4621 2357 L
4571 2296 mt 4621 2273 L
4569 2438 mt 4714 2337 L
4566 2309 mt 4514 2338 L
4562 2162 mt 4513 2196 L
4561 2485 mt 4688 2373 L
4559 2540 mt 4509 2566 L
4554 2225 mt 4606 2196 L
4546 2838 mt 4500 2861 L
4544 2137 mt 4503 2174 L
4543 2928 mt 4663 2861 L
4535 2675 mt 4671 2604 L
4533 2280 mt 4583 2247 L
4483 2370 mt 4462 2412 L
4502 2472 mt 4621 2357 L
4527 2477 mt 4676 2396 L
4522 2557 mt 4559 2540 L
4521 2329 mt 4566 2309 L
4519 2852 mt 4546 2838 L
4519 2372 mt 4669 2279 L
4513 2231 mt 4483 2271 L
4511 2173 mt 4460 2204 L
4511 2187 mt 4562 2162 L
4511 2387 mt 4648 2281 L
4507 2394 mt 4552 2357 L
4505 2378 mt 4453 2404 L
4499 2071 mt 4454 2107 L
4494 2672 mt 4446 2694 L
4493 3060 mt 4601 2997 L
4492 2167 mt 4544 2137 L
4485 2771 mt 4612 2710 L
4481 2995 mt 4438 3016 L
4444 2475 mt 4552 2357 L
4477 2526 mt 4620 2452 L
4474 2099 mt 4439 2137 L
4444 2236 mt 4419 2276 L
4452 2356 mt 4583 2247 L
4468 2357 mt 4621 2273 L
4466 2395 mt 4505 2378 L
4465 2266 mt 4513 2231 L
4465 2685 mt 4494 2672 L
4463 2195 mt 4511 2173 L
4460 2296 mt 4606 2196 L
4460 3008 mt 4481 2995 L
4453 2214 mt 4401 2242 L
4452 2050 mt 4403 2084 L
4447 2099 mt 4499 2071 L
4441 2487 mt 4392 2512 L
4440 2409 mt 4483 2370 L
4435 2004 mt 4394 2042 L
4434 2895 mt 4546 2838 L
4429 2822 mt 4385 2844 L
4426 2605 mt 4559 2540 L
4424 2131 mt 4474 2099 L
4375 2258 mt 4354 2299 L
4394 2344 mt 4513 2231 L
4418 2384 mt 4566 2309 L
4415 2397 mt 4398 2439 L
4411 2233 mt 4453 2214 L
4410 2253 mt 4562 2162 L
4409 2503 mt 4441 2487 L
4406 2835 mt 4429 2822 L
4405 2084 mt 4375 2124 L
4402 2075 mt 4452 2050 L
4402 2240 mt 4544 2137 L
4399 2065 mt 4348 2095 L
4399 2272 mt 4444 2236 L
4391 1951 mt 4345 1988 L
4388 2315 mt 4338 2340 L
4386 2492 mt 4483 2370 L
4384 3048 mt 4481 2995 L
4383 2035 mt 4435 2004 L
4376 2725 mt 4494 2672 L
4374 2436 mt 4415 2397 L
4372 2651 mt 4327 2671 L
4368 2442 mt 4505 2378 L
4365 1965 mt 4330 2004 L
4360 3004 mt 4321 3023 L
4360 2253 mt 4511 2173 L
4356 2119 mt 4405 2084 L
4354 2086 mt 4399 2065 L
4354 2330 mt 4388 2315 L
4333 2094 mt 4309 2134 L
4352 2169 mt 4499 2071 L
4348 2663 mt 4372 2651 L
4345 2433 mt 4333 2475 L
4345 3015 mt 4360 3004 L
4344 2207 mt 4474 2099 L
4342 1932 mt 4292 1965 L
4340 1980 mt 4391 1951 L
4336 2352 mt 4444 2236 L
4336 2147 mt 4285 2173 L
4332 2296 mt 4375 2258 L
4328 2520 mt 4415 2397 L
4326 2876 mt 4429 2822 L
4325 1880 mt 4285 1918 L
4270 2559 mt 4345 2433 L
4318 2549 mt 4441 2487 L
4276 2475 mt 4268 2518 L
4308 2473 mt 4345 2433 L
4317 2468 mt 4271 2489 L
4315 1998 mt 4365 1965 L
4310 2285 mt 4453 2214 L
4305 2827 mt 4265 2847 L
4303 2295 mt 4288 2336 L
4288 2130 mt 4333 2094 L
4302 2140 mt 4452 2050 L
4298 2164 mt 4336 2147 L
4295 1954 mt 4266 1994 L
4294 1956 mt 4342 1932 L
4294 2107 mt 4435 2004 L
4292 2480 mt 4317 2468 L
4288 2839 mt 4305 2827 L
4286 2197 mt 4405 2084 L
4283 1983 mt 4232 2013 L
4254 1838 mt 4220 1878 L
4280 1822 mt 4234 1859 L
4278 2376 mt 4375 2258 L
4276 3051 mt 4360 3004 L
4274 1911 mt 4325 1880 L
4212 2604 mt 4276 2475 L
4268 2699 mt 4372 2651 L
4220 2416 mt 4303 2295 L
4267 2281 mt 4220 2304 L
4264 2334 mt 4303 2295 L
4260 2125 mt 4242 2165 L
4260 2376 mt 4388 2315 L
4219 2162 mt 4260 2125 L
4252 2143 mt 4399 2065 L
4251 2652 mt 4209 2671 L
4247 1989 mt 4295 1954 L
4244 3019 mt 4207 3039 L
4217 1968 mt 4196 2008 L
4244 2049 mt 4391 1951 L
4242 2004 mt 4283 1983 L
4242 2517 mt 4276 2475 L
4238 2295 mt 4267 2281 L
4236 2074 mt 4365 1965 L
4232 2663 mt 4251 2652 L
4231 3032 mt 4244 3019 L
4231 1850 mt 4280 1822 L
4230 2343 mt 4221 2384 L
4228 2209 mt 4333 2094 L
4227 1844 mt 4177 1877 L
4218 2877 mt 4305 2827 L
4214 1744 mt 4174 1784 L
4150 2211 mt 4188 2172 L
4170 2243 mt 4260 2125 L
4188 2172 mt 4175 2213 L
4214 2105 mt 4166 2129 L
4162 2466 mt 4230 2343 L
4210 2517 mt 4317 2468 L
4208 2518 mt 4203 2562 L
4204 1872 mt 4254 1838 L
4202 2212 mt 4336 2147 L
4195 2382 mt 4230 2343 L
4194 2468 mt 4152 2486 L
4174 2005 mt 4217 1968 L
4194 2020 mt 4342 1932 L
4187 2851 mt 4149 2867 L
4186 1985 mt 4325 1880 L
4183 1868 mt 4227 1844 L
4183 2120 mt 4214 2105 L
4181 1827 mt 4154 1868 L
4178 2067 mt 4295 1954 L
4176 2562 mt 4208 2518 L
4175 2478 mt 4194 2468 L
4174 2860 mt 4187 2851 L
4168 3068 mt 4244 3019 L
4166 1726 mt 4120 1764 L
4164 1776 mt 4214 1744 L
4104 2524 mt 4160 2398 L
4110 2607 mt 4138 2562 L
4160 2698 mt 4251 2652 L
4160 2398 mt 4155 2440 L
4159 1933 mt 4111 1962 L
4154 2651 mt 4208 2518 L
4112 2292 mt 4188 2172 L
4118 2233 mt 4110 2273 L
4152 2336 mt 4267 2281 L
4145 2008 mt 4130 2048 L
4105 2045 mt 4145 2008 L
4120 2085 mt 4217 1968 L
4144 2060 mt 4283 1983 L
4142 1700 mt 4109 1742 L
4140 2278 mt 4097 2298 L
4138 2562 mt 4138 2607 L
4103 1848 mt 4085 1888 L
4136 1922 mt 4280 1822 L
4134 1864 mt 4181 1827 L
4096 2698 mt 4138 2562 L
4128 2658 mt 4090 2675 L
4128 2439 mt 4160 2398 L
4128 1951 mt 4254 1838 L
4126 1952 mt 4159 1933 L
4121 3056 mt 4087 3074 L
4120 1755 mt 4166 1726 L
4119 2289 mt 4140 2278 L
4116 2668 mt 4128 2658 L
4114 3067 mt 4121 3056 L
4110 2891 mt 4187 2851 L
4103 1785 mt 4056 1818 L
4045 2586 mt 4094 2457 L
4046 2302 mt 4043 2342 L
4064 2499 mt 4094 2457 L
4094 2457 mt 4092 2500 L
4102 2511 mt 4194 2468 L
4099 1640 mt 4060 1682 L
4094 1736 mt 4142 1700 L
4036 2106 mt 4072 2067 L
4062 2126 mt 4145 2008 L
4072 2067 mt 4062 2107 L
4094 2165 mt 4214 2105 L
4070 1944 mt 4181 1827 L
4086 1930 mt 4227 1844 L
4084 2091 mt 4041 2113 L
4084 2272 mt 4118 2233 L
4078 1853 mt 4214 1744 L
4070 2471 mt 4032 2488 L
4070 2604 mt 4073 2649 L
4067 1808 mt 4103 1785 L
4062 1691 mt 4040 1733 L
4062 2105 mt 4084 2091 L
4062 1885 mt 4103 1848 L
4060 2887 mt 4027 2903 L
4060 3101 mt 4121 3056 L
4057 2480 mt 4070 2471 L
4054 2896 mt 4060 2887 L
4053 2354 mt 4118 2233 L
4052 1674 mt 4099 1640 L
3998 2557 mt 4024 2513 L
4037 2743 mt 4070 2604 L
4052 2699 mt 4128 2658 L
4045 1660 mt 4001 1698 L
4045 2650 mt 4070 2604 L
3995 2425 mt 4046 2302 L
3997 2140 mt 3994 2180 L
4016 2342 mt 4046 2302 L
4044 2326 mt 4140 2278 L
3988 1933 mt 4025 1894 L
4011 1966 mt 4103 1848 L
4036 2005 mt 4159 1933 L
4025 1894 mt 4014 1934 L
4029 1918 mt 3985 1944 L
3983 1718 mt 3969 1760 L
4027 1828 mt 4166 1726 L
4024 2513 mt 4026 2557 L
4023 1592 mt 3994 1636 L
4019 1817 mt 4142 1700 L
4019 1729 mt 4062 1691 L
4010 2278 mt 3973 2295 L
4006 1689 mt 4045 1660 L
4005 1935 mt 4029 1918 L
4004 2701 mt 3971 2716 L
4003 2186 mt 4072 2067 L
4002 2925 mt 4060 2887 L
3998 2288 mt 4010 2278 L
3997 2710 mt 4004 2701 L
3997 3108 mt 3968 3124 L
3996 3119 mt 3997 3108 L
3937 2500 mt 3977 2374 L
3950 2416 mt 3977 2374 L
3993 2510 mt 4070 2471 L
3987 2646 mt 4024 2513 L
3985 2146 mt 4084 2091 L
3978 1630 mt 4023 1592 L
3977 1870 mt 4103 1785 L
3977 2374 mt 3978 2416 L
3976 1564 mt 3941 1609 L
3970 1763 mt 3928 1794 L
3944 1757 mt 3983 1718 L
3969 1755 mt 4099 1640 L
3967 2180 mt 3997 2140 L
3961 1813 mt 4062 1691 L
3956 2567 mt 3961 2611 L
3953 2013 mt 4025 1894 L
3951 3149 mt 3997 3108 L
3950 1966 mt 3946 2005 L
3950 2089 mt 3913 2108 L
3946 1785 mt 3970 1763 L
3945 2260 mt 3997 2140 L
3944 2516 mt 3911 2530 L
3929 2702 mt 3956 2567 L
3943 2738 mt 4004 2701 L
3941 1585 mt 3923 1630 L
3939 2942 mt 3910 2956 L
3938 2101 mt 3950 2089 L
3938 2523 mt 3944 2516 L
3938 2950 mt 3939 2942 L
3936 1601 mt 3976 1564 L
3887 2344 mt 3929 2224 L
3901 2264 mt 3929 2224 L
3935 2319 mt 4010 2278 L
3933 2612 mt 3956 2567 L
3929 2224 mt 3929 2263 L
3927 1984 mt 4029 1918 L
3919 1763 mt 4045 1660 L
3919 2005 mt 3950 1966 L
3911 1717 mt 4023 1592 L
3910 1628 mt 3871 1667 L
3909 2444 mt 3913 2486 L
3903 1840 mt 3983 1718 L
3903 1775 mt 3897 1815 L
3901 1626 mt 3941 1585 L
3895 1512 mt 3873 1560 L
3895 2085 mt 3950 1966 L
3895 1916 mt 3858 1939 L
3893 2976 mt 3939 2942 L
3829 2435 mt 3859 2312 L
3879 2573 mt 3909 2444 L
3885 2548 mt 3944 2516 L
3885 2487 mt 3909 2444 L
3884 1658 mt 3910 1628 L
3859 2312 mt 3863 2352 L
3882 2324 mt 3851 2339 L
3882 1931 mt 3895 1916 L
3879 2053 mt 3879 2092 L
3879 2760 mt 3850 2773 L
3878 2768 mt 3879 2760 L
3878 2332 mt 3882 2324 L
3837 2172 mt 3879 2053 L
3851 2093 mt 3879 2053 L
3877 2136 mt 3950 2089 L
3873 3177 mt 3866 3165 L
3871 1814 mt 3903 1775 L
3869 1843 mt 3970 1763 L
3866 3165 mt 3844 3182 L
3861 1688 mt 3976 1564 L
3858 1617 mt 3850 1660 L
3856 1555 mt 3895 1512 L
3853 1715 mt 3941 1585 L
3845 1896 mt 3903 1775 L
3843 3210 mt 3866 3165 L
3842 2511 mt 3849 2553 L
3837 1525 mt 3809 1572 L
3835 2792 mt 3879 2760 L
3835 2353 mt 3859 2312 L
3829 1855 mt 3829 1895 L
3779 2270 mt 3806 2151 L
3827 2359 mt 3882 2324 L
3827 1759 mt 3793 1786 L
3824 1659 mt 3858 1617 L
3821 2642 mt 3842 2511 L
3820 2555 mt 3842 2511 L
3787 1975 mt 3829 1855 L
3819 1973 mt 3895 1916 L
3818 2137 mt 3788 2155 L
3818 3020 mt 3813 3011 L
3817 1779 mt 3827 1759 L
3817 2585 mt 3815 2578 L
3816 2149 mt 3818 2137 L
3815 2578 mt 3789 2590 L
3813 3011 mt 3790 3025 L
3777 1683 mt 3778 1724 L
3795 1746 mt 3858 1617 L
3811 1732 mt 3910 1628 L
3810 1563 mt 3837 1525 L
3809 1509 mt 3800 1556 L
3806 2151 mt 3811 2190 L
3803 1649 mt 3895 1512 L
3801 1895 mt 3829 1855 L
3790 2398 mt 3798 2438 L
3785 3047 mt 3813 3011 L
3783 2191 mt 3806 2151 L
3777 2607 mt 3815 2578 L
3776 1554 mt 3809 1509 L
3771 2523 mt 3790 2398 L
3769 2440 mt 3790 2398 L
3729 2075 mt 3753 1957 L
3769 2180 mt 3818 2137 L
3762 3254 mt 3754 3243 L
3745 1648 mt 3809 1509 L
3761 1622 mt 3730 1658 L
3737 1808 mt 3777 1683 L
3761 1831 mt 3827 1759 L
3758 2848 mt 3751 2841 L
3754 3243 mt 3733 3258 L
3754 2400 mt 3750 2392 L
3754 1650 mt 3761 1622 L
3753 1656 mt 3837 1525 L
3753 1469 mt 3743 1520 L
3753 1957 mt 3759 1995 L
3751 2841 mt 3729 2853 L
3750 1724 mt 3777 1683 L
3750 2392 mt 3725 2404 L
3750 1981 mt 3748 1967 L
3730 1996 mt 3753 1957 L
3748 1967 mt 3722 1986 L
3739 2253 mt 3747 2292 L
3735 3282 mt 3754 3243 L
3727 2870 mt 3751 2841 L
3724 1516 mt 3753 1469 L
3724 2479 mt 3735 2520 L
3723 1547 mt 3725 1591 L
3721 2374 mt 3739 2253 L
3719 2423 mt 3750 2392 L
3718 2294 mt 3739 2253 L
3713 2608 mt 3724 2479 L
3711 2016 mt 3748 1967 L
3706 2523 mt 3724 2479 L
3703 1719 mt 3761 1622 L
3701 1775 mt 3708 1814 L
3697 1592 mt 3723 1547 L
3696 3101 mt 3683 3093 L
3695 1617 mt 3753 1469 L
3694 2675 mt 3684 2668 L
3688 2221 mt 3679 2211 L
3687 1682 mt 3723 1547 L
3686 2066 mt 3695 2104 L
3685 1833 mt 3680 1815 L
3684 2668 mt 3665 2679 L
3683 3093 mt 3667 3105 L
3680 1815 mt 3657 1838 L
3679 1815 mt 3701 1775 L
3679 2211 mt 3659 2225 L
3679 1895 mt 3701 1775 L
3677 1513 mt 3656 1559 L
3677 1551 mt 3677 1513 L
3677 3124 mt 3683 3093 L
3671 2184 mt 3686 2066 L
3670 2355 mt 3682 2393 L
3669 2693 mt 3684 2668 L
3666 2106 mt 3686 2066 L
3663 2476 mt 3670 2355 L
3662 1469 mt 3667 1517 L
3661 2247 mt 3679 2211 L
3653 2396 mt 3670 2355 L
3653 1876 mt 3680 1815 L
3646 3332 mt 3633 3320 L
3624 1663 mt 3643 1620 L
3629 1748 mt 3643 1620 L
3643 1620 mt 3653 1661 L
3645 1641 mt 3677 1513 L
3639 1518 mt 3662 1469 L
3639 2939 mt 3627 2931 L
3637 1616 mt 3662 1469 L
3633 3320 mt 3617 3336 L
3628 1885 mt 3640 1922 L
3627 2494 mt 3614 2487 L
3627 2931 mt 3610 2943 L
3627 3362 mt 3633 3320 L
3621 2060 mt 3608 2049 L
3621 2002 mt 3628 1885 L
3619 2961 mt 3627 2931 L
3617 2181 mt 3630 2218 L
3604 2576 mt 3606 2450 L
3591 2493 mt 3606 2450 L
3614 2487 mt 3598 2498 L
3613 2299 mt 3617 2181 L
3612 1707 mt 3600 1682 L
3611 1925 mt 3628 1885 L
3611 2515 mt 3614 2487 L
3608 2049 mt 3592 2063 L
3606 2450 mt 3620 2490 L
3603 2088 mt 3608 2049 L
3601 2221 mt 3617 2181 L
3600 1682 mt 3583 1711 L
3552 1763 mt 3564 1722 L
3564 1722 mt 3581 1760 L
3570 1842 mt 3564 1722 L
3595 1765 mt 3600 1682 L
3590 1455 mt 3603 1503 L
3578 1652 mt 3576 1515 L
3587 1602 mt 3590 1455 L
3580 3193 mt 3564 3184 L
3576 1515 mt 3591 1559 L
3575 1505 mt 3590 1455 L
3570 2777 mt 3553 2770 L
3569 3218 mt 3564 3184 L
3564 3184 mt 3551 3196 L
3562 2122 mt 3559 2005 L
3562 1562 mt 3576 1515 L
3554 2414 mt 3549 2296 L
3561 2329 mt 3544 2322 L
3561 2796 mt 3553 2770 L
3559 2005 mt 3575 2042 L
3553 2770 mt 3541 2780 L
3504 2247 mt 3492 2133 L
3536 2337 mt 3549 2296 L
3552 2349 mt 3544 2322 L
3549 2296 mt 3565 2333 L
3548 1916 mt 3529 1901 L
3545 2045 mt 3559 2005 L
3487 1881 mt 3496 1841 L
3512 1957 mt 3496 1841 L
3544 1950 mt 3529 1901 L
3544 2322 mt 3532 2332 L
3520 1722 mt 3501 1595 L
3493 1639 mt 3501 1595 L
3501 1595 mt 3522 1634 L
3536 1687 mt 3512 1581 L
3534 1616 mt 3512 1581 L
3529 3419 mt 3512 3405 L
3529 1901 mt 3519 1918 L
3528 1601 mt 3503 1456 L
3519 3042 mt 3501 3033 L
3518 3452 mt 3512 3405 L
3512 1581 mt 3507 1616 L
3512 3405 mt 3500 3422 L
3510 3064 mt 3501 3033 L
3506 2614 mt 3486 2606 L
3503 1456 mt 3525 1501 L
3502 2632 mt 3486 2606 L
3501 3033 mt 3490 3044 L
3497 1507 mt 3503 1456 L
3496 2527 mt 3484 2406 L
3496 1841 mt 3516 1877 L
3482 2172 mt 3492 2133 L
3494 2193 mt 3471 2162 L
3493 2172 mt 3471 2162 L
3492 2133 mt 3511 2169 L
3462 1819 mt 3431 1701 L
3486 1842 mt 3448 1779 L
3486 2606 mt 3477 2616 L
3484 2406 mt 3503 2444 L
3427 1550 mt 3427 1503 L
3470 1637 mt 3427 1503 L
3478 1649 mt 3422 1525 L
3474 1800 mt 3448 1779 L
3474 2448 mt 3484 2406 L
3471 2162 mt 3464 2173 L
3467 3291 mt 3448 3279 L
3460 3321 mt 3448 3279 L
3458 2890 mt 3438 2883 L
3454 2084 mt 3429 1971 L
3452 2907 mt 3438 2883 L
3448 3279 mt 3438 3294 L
3448 1779 mt 3447 1800 L
3446 2374 mt 3425 2259 L
3444 2476 mt 3413 2449 L
3443 1570 mt 3422 1525 L
3438 2883 mt 3429 2892 L
3437 2458 mt 3413 2449 L
3436 2061 mt 3393 2023 L
3431 1701 mt 3455 1737 L
3429 1971 mt 3452 2006 L
3428 1769 mt 3361 1687 L
3427 1742 mt 3431 1701 L
3427 1503 mt 3454 1544 L
3425 2259 mt 3446 2295 L
3423 2011 mt 3429 1971 L
3422 1525 mt 3439 1562 L
3421 2035 mt 3393 2023 L
3412 1706 mt 3353 1586 L
3420 1649 mt 3345 1522 L
3418 2299 mt 3425 2259 L
3414 3510 mt 3394 3495 L
3413 2449 mt 3409 2459 L
3410 3544 mt 3394 3495 L
3404 1937 mt 3365 1825 L
3402 3180 mt 3378 3150 L
3400 3159 mt 3378 3150 L
3396 2218 mt 3367 2106 L
3394 2752 mt 3361 2731 L
3394 1716 mt 3361 1687 L
3394 3495 mt 3385 3512 L
3393 2023 mt 3393 2036 L
3388 2496 mt 3363 2378 L
3386 2737 mt 3361 2731 L
3386 2329 mt 3341 2304 L
3378 1957 mt 3310 1909 L
3378 3150 mt 3371 3161 L
3354 1806 mt 3290 1694 L
3370 1731 mt 3275 1637 L
3370 2312 mt 3341 2304 L
3367 2106 mt 3391 2140 L
3365 1825 mt 3392 1859 L
3364 1865 mt 3365 1825 L
3363 2378 mt 3386 2414 L
3362 2145 mt 3367 2106 L
3362 1568 mt 3345 1522 L
3362 1685 mt 3275 1566 L
3361 2731 mt 3358 2738 L
3361 1687 mt 3372 1713 L
3359 1629 mt 3353 1586 L
3357 2419 mt 3363 2378 L
3353 1586 mt 3386 1622 L
3352 3425 mt 3328 3386 L
3350 3398 mt 3328 3386 L
3346 2068 mt 3299 1959 L
3345 1522 mt 3377 1559 L
3345 1926 mt 3310 1909 L
3344 3039 mt 3315 3014 L
3341 2304 mt 3342 2313 L
3339 3022 mt 3315 3014 L
3338 2353 mt 3303 2241 L
3336 2602 mt 3290 2581 L
3328 3386 mt 3322 3400 L
3288 2208 mt 3239 2100 L
3328 2202 mt 3263 2170 L
3230 1821 mt 3265 1853 L
3238 1860 mt 3230 1821 L
3246 1854 mt 3154 1750 L
3296 1928 mt 3230 1821 L
3262 1847 mt 3145 1778 L
3320 1884 mt 3224 1824 L
3319 2588 mt 3290 2581 L
3315 3014 mt 3310 3023 L
3304 1755 mt 3213 1645 L
3213 1645 mt 3253 1677 L
3298 1734 mt 3290 1694 L
3312 1730 mt 3198 1632 L
3311 1672 mt 3275 1637 L
3310 1909 mt 3320 1924 L
3303 2241 mt 3328 2275 L
3302 3637 mt 3277 3577 L
3300 1998 mt 3299 1959 L
3300 2281 mt 3303 2241 L
3299 3596 mt 3277 3577 L
3299 1959 mt 3328 1992 L
3298 2181 mt 3263 2170 L
3294 1610 mt 3275 1566 L
3294 3299 mt 3259 3267 L
3290 1694 mt 3324 1728 L
3290 2581 mt 3291 2588 L
3286 2895 mt 3241 2873 L
3285 3277 mt 3259 3267 L
3280 2481 mt 3242 2367 L
3240 2407 mt 3242 2367 L
3278 2465 mt 3215 2442 L
3277 3577 mt 3271 3597 L
3275 1566 mt 3314 1601 L
3275 1637 mt 3301 1664 L
3270 2103 mt 3183 2065 L
3270 2880 mt 3241 2873 L
3266 1846 mt 3224 1824 L
3263 2170 mt 3272 2180 L
3259 3267 mt 3257 3278 L
3254 1766 mt 3135 1668 L
3249 2450 mt 3215 2442 L
3244 3531 mt 3206 3481 L
3242 2367 mt 3269 2402 L
3241 2138 mt 3239 2100 L
3241 2873 mt 3242 2880 L
3239 2100 mt 3269 2133 L
3238 2063 mt 3171 1959 L
3236 3171 mt 3191 3141 L
3232 1685 mt 3213 1645 L
3234 1669 mt 3198 1632 L
3232 3497 mt 3206 3481 L
3230 2349 mt 3176 2239 L
3228 2759 mt 3170 2739 L
3224 1824 mt 3246 1842 L
3223 2079 mt 3183 2065 L
3220 2348 mt 3138 2320 L
3219 3151 mt 3191 3141 L
3215 2442 mt 3223 2450 L
3180 1996 mt 3171 1959 L
3212 2032 mt 3103 1988 L
3206 3481 mt 3205 3498 L
3171 1959 mt 3206 1990 L
3188 1974 mt 3098 1873 L
3204 1843 mt 3073 1767 L
3203 2746 mt 3170 2739 L
3198 1632 mt 3238 1660 L
3196 1833 mt 3078 1738 L
3194 3728 mt 3156 3664 L
3191 3141 mt 3192 3151 L
3189 1804 mt 3145 1778 L
3186 3419 mt 3141 3378 L
3183 2065 mt 3200 2076 L
3182 3685 mt 3156 3664 L
3180 2279 mt 3176 2239 L
3180 2206 mt 3110 2103 L
3178 3040 mt 3126 3015 L
3177 2331 mt 3138 2320 L
3176 2239 mt 3208 2272 L
3173 1788 mt 3154 1750 L
3172 2484 mt 3121 2372 L
3170 2739 mt 3176 2745 L
3170 2634 mt 3094 2612 L
3170 3392 mt 3141 3378 L
3168 1705 mt 3135 1668 L
3110 2103 mt 3146 2134 L
3120 2141 mt 3110 2103 L
3162 2255 mt 3063 2225 L
3157 3024 mt 3126 3015 L
3156 3664 mt 3154 3685 L
3154 1750 mt 3196 1780 L
3058 2048 mt 3041 2012 L
3129 2111 mt 3041 2012 L
3079 2045 mt 2969 1953 L
3154 1994 mt 3026 1943 L
3148 2005 mt 3103 1988 L
3098 1873 mt 3139 1903 L
3116 1911 mt 3098 1873 L
3138 1928 mt 3024 1835 L
3146 1875 mt 3010 1795 L
3145 1778 mt 3178 1797 L
3141 3378 mt 3142 3392 L
3138 2320 mt 3153 2328 L
3136 3635 mt 3099 3580 L
3135 1668 mt 3180 1695 L
3131 2620 mt 3094 2612 L
3128 3308 mt 3075 3273 L
3126 3015 mt 3129 3023 L
3125 3598 mt 3099 3580 L
3124 2412 mt 3121 2372 L
3121 2349 mt 3053 2244 L
3121 2372 mt 3151 2406 L
3120 2919 mt 3053 2896 L
3117 1797 mt 3073 1767 L
3112 2524 mt 3022 2499 L
3109 1774 mt 3078 1738 L
3107 2236 mt 3063 2225 L
3106 3285 mt 3075 3273 L
3021 2175 mt 2914 2084 L
3103 2190 mt 2986 2153 L
3103 1988 mt 3130 2000 L
3099 3580 mt 3097 3599 L
3041 2012 mt 3082 2041 L
3095 1989 mt 2955 1929 L
3094 2612 mt 3106 2618 L
3088 2905 mt 3053 2896 L
3087 1939 mt 2953 1858 L
3086 3818 mt 3052 3743 L
3078 1738 mt 3124 1764 L
3077 3536 mt 3028 3489 L
3077 3767 mt 3052 3743 L
3075 3273 mt 3079 3285 L
3074 1963 mt 3026 1943 L
3073 1767 mt 3115 1788 L
3053 2244 mt 3088 2275 L
3062 2282 mt 3053 2244 L
3071 2251 mt 2985 2153 L
3069 3194 mt 3003 3164 L
3064 2509 mt 3022 2499 L
3063 2483 mt 2996 2375 L
3063 2225 mt 3085 2233 L
3061 2806 mt 2975 2782 L
3058 3504 mt 3028 3489 L
2996 2375 mt 3031 2407 L
3013 2393 mt 2929 2292 L
3005 2414 mt 2996 2375 L
3053 2436 mt 2948 2409 L
3053 2896 mt 3062 2903 L
3052 3743 mt 3049 3768 L
3052 1870 mt 3024 1835 L
3052 1826 mt 3010 1795 L
2971 2141 mt 2844 2059 L
3045 2155 mt 2912 2112 L
3038 3175 mt 3003 3164 L
3029 2030 mt 2898 1948 L
2935 1980 mt 2898 1948 L
3037 2017 mt 2891 1953 L
3033 2168 mt 2986 2153 L
3028 3489 mt 3031 3504 L
3027 3736 mt 2980 3670 L
3026 1943 mt 3062 1956 L
3024 1835 mt 3070 1861 L
3022 2499 mt 3040 2506 L
2985 2153 mt 3025 2181 L
3019 3433 mt 2960 3392 L
3015 2791 mt 2975 2782 L
3011 3084 mt 2938 3058 L
3010 1795 mt 3058 1817 L
3009 3692 mt 2980 3670 L
3004 1953 mt 2955 1929 L
3003 2709 mt 2902 2682 L
3003 3164 mt 3012 3173 L
3001 2189 mt 2985 2153 L
2996 1988 mt 2969 1953 L
2929 2292 mt 2969 2322 L
2963 2313 mt 2862 2219 L
2995 2371 mt 2870 2339 L
2993 2420 mt 2948 2409 L
2993 3406 mt 2960 3392 L
2992 1889 mt 2953 1858 L
2987 2149 mt 2842 2099 L
2986 2153 mt 3016 2163 L
2980 3670 mt 2982 3691 L
2979 2076 mt 2833 2007 L
2975 3068 mt 2938 3058 L
2975 2782 mt 2991 2789 L
2969 3650 mt 2910 3593 L
2969 1953 mt 3015 1979 L
2962 2129 mt 2912 2112 L
2961 3334 mt 2889 3296 L
2960 3392 mt 2966 3405 L
2955 2526 mt 2871 2423 L
2955 1929 mt 2999 1945 L
2953 2982 mt 2865 2955 L
2953 1858 mt 3002 1880 L
2948 2409 mt 2972 2416 L
2946 2693 mt 2902 2682 L
2945 2629 mt 2833 2604 L
2945 2329 mt 2929 2292 L
2942 3612 mt 2910 3593 L
2939 2118 mt 2914 2084 L
2939 1979 mt 2891 1953 L
2938 3058 mt 2950 3066 L
2813 2304 mt 2664 2240 L
2809 2353 mt 2852 2381 L
2829 2389 mt 2809 2353 L
2871 2423 mt 2911 2453 L
2905 2450 mt 2809 2353 L
2855 2395 mt 2740 2307 L
2863 2261 mt 2726 2186 L
2884 2254 mt 2862 2219 L
2913 2265 mt 2792 2180 L
2937 2337 mt 2800 2300 L
2929 2176 mt 2779 2120 L
2925 3309 mt 2889 3296 L
2921 2159 mt 2779 2087 L
2920 2352 mt 2870 2339 L
2914 2084 mt 2960 2110 L
2912 2112 mt 2950 2123 L
2911 3565 mt 2847 3512 L
2910 3593 mt 2917 3611 L
2906 2965 mt 2865 2955 L
2903 3240 mt 2818 3203 L
2902 2682 mt 2925 2689 L
2898 1948 mt 2948 1970 L
2895 2897 mt 2787 2868 L
2893 2120 mt 2842 2099 L
2891 1953 mt 2940 1970 L
2889 3296 mt 2900 3308 L
2847 2582 mt 2753 2483 L
2887 2571 mt 2759 2540 L
2887 2460 mt 2871 2423 L
2881 3530 mt 2847 3512 L
2880 2614 mt 2833 2604 L
2805 2376 mt 2674 2297 L
2879 2329 mt 2734 2285 L
2878 2034 mt 2833 2007 L
2878 2090 mt 2844 2059 L
2823 2213 mt 2792 2180 L
2871 2230 mt 2721 2168 L
2870 2339 mt 2903 2347 L
2865 2955 mt 2882 2962 L
2862 2219 mt 2906 2246 L
2858 3217 mt 2818 3203 L
2853 3478 mt 2780 3432 L
2852 2315 mt 2800 2300 L
2847 3512 mt 2855 3528 L
2845 3153 mt 2750 3120 L
2844 2059 mt 2894 2081 L
2842 2099 mt 2887 2112 L
2837 2823 mt 2722 2796 L
2833 2007 mt 2885 2025 L
2833 2880 mt 2787 2868 L
2833 2604 mt 2860 2610 L
2659 2592 mt 2636 2556 L
2688 2614 mt 2569 2526 L
2739 2652 mt 2636 2556 L
2829 2537 mt 2691 2501 L
2829 2143 mt 2779 2120 L
2674 2297 mt 2725 2318 L
2709 2327 mt 2674 2297 L
2768 2340 mt 2740 2307 L
2821 2348 mt 2670 2299 L
2821 2116 mt 2779 2087 L
2818 3203 mt 2834 3214 L
2817 3449 mt 2780 3432 L
2810 2553 mt 2759 2540 L
2773 2519 mt 2753 2483 L
2797 2527 mt 2686 2436 L
2800 2300 mt 2839 2309 L
2795 3397 mt 2711 3355 L
2793 3132 mt 2750 3120 L
2792 2180 mt 2841 2204 L
2787 2868 mt 2813 2875 L
2787 3077 mt 2683 3045 L
2786 2304 mt 2734 2285 L
2780 3432 mt 2792 3446 L
2779 2087 mt 2831 2106 L
2779 2772 mt 2652 2741 L
2779 2120 mt 2828 2134 L
2697 2498 mt 2558 2424 L
2712 2470 mt 2686 2436 L
2747 2496 mt 2621 2413 L
2771 2528 mt 2625 2487 L
2769 2807 mt 2722 2796 L
2769 2193 mt 2721 2168 L
2765 2216 mt 2726 2186 L
2755 2395 mt 2612 2324 L
2763 2392 mt 2609 2338 L
2759 2540 mt 2794 2547 L
2753 2483 mt 2795 2512 L
2750 3120 mt 2770 3129 L
2750 3371 mt 2711 3355 L
2743 2517 mt 2691 2501 L
2740 2307 mt 2788 2331 L
2737 3322 mt 2648 3283 L
2734 2285 mt 2778 2296 L
2729 3010 mt 2613 2979 L
2727 3058 mt 2683 3045 L
2726 2186 mt 2778 2206 L
2722 2796 mt 2750 2802 L
2721 2319 mt 2670 2299 L
2721 2168 mt 2772 2184 L
2630 2727 mt 2518 2633 L
2721 2741 mt 2583 2704 L
2713 2543 mt 2562 2496 L
2711 3355 mt 2727 3368 L
2710 2266 mt 2664 2240 L
2654 2445 mt 2621 2413 L
2705 2457 mt 2554 2396 L
2702 2754 mt 2652 2741 L
2691 2501 mt 2730 2510 L
2688 3298 mt 2648 3283 L
2686 2436 mt 2732 2462 L
2683 3045 mt 2707 3054 L
2679 3250 mt 2573 3210 L
2677 2505 mt 2625 2487 L
2671 2960 mt 2542 2923 L
2670 2299 mt 2718 2311 L
2664 2240 mt 2716 2257 L
2580 2711 mt 2454 2625 L
2663 2731 mt 2519 2690 L
2660 2992 mt 2613 2979 L
2659 2360 mt 2609 2338 L
2638 2607 mt 2506 2526 L
2506 2526 mt 2557 2548 L
2543 2557 mt 2506 2526 L
2654 2579 mt 2502 2526 L
2654 2352 mt 2612 2324 L
2652 2741 mt 2686 2748 L
2648 3283 mt 2666 3295 L
2646 2536 mt 2499 2470 L
2636 2556 mt 2680 2583 L
2635 2720 mt 2583 2704 L
2625 2487 mt 2669 2497 L
2621 2413 mt 2670 2436 L
2620 3192 mt 2506 3153 L
2618 3225 mt 2573 3210 L
2614 2516 mt 2562 2496 L
2613 2979 mt 2642 2987 L
2612 2930 mt 2476 2891 L
2612 2324 mt 2664 2342 L
2609 2338 mt 2661 2351 L
2530 2722 mt 2393 2644 L
2604 2741 mt 2455 2695 L
2602 2421 mt 2554 2396 L
2600 2559 mt 2569 2526 L
2598 2453 mt 2558 2424 L
2596 2633 mt 2444 2576 L
2592 2939 mt 2542 2923 L
2588 2627 mt 2445 2556 L
2583 2704 mt 2622 2713 L
2573 3210 mt 2598 3221 L
2571 2707 mt 2519 2690 L
2569 2526 mt 2617 2550 L
2562 2496 mt 2609 2507 L
2562 3146 mt 2436 3105 L
2558 2424 mt 2610 2443 L
2414 2906 mt 2290 2816 L
2554 2918 mt 2411 2875 L
2554 2396 mt 2606 2412 L
2553 3168 mt 2506 3153 L
2552 2548 mt 2502 2526 L
2522 2813 mt 2401 2723 L
2546 2769 mt 2396 2718 L
2546 2669 mt 2518 2633 L
2544 2496 mt 2499 2470 L
2542 2923 mt 2577 2932 L
2538 2700 mt 2390 2635 L
2527 2907 mt 2476 2891 L
2519 2690 mt 2562 2700 L
2518 2633 mt 2565 2660 L
2507 2714 mt 2455 2695 L
2506 3153 mt 2535 3163 L
2504 3119 mt 2372 3075 L
2502 2526 mt 2552 2539 L
2499 2470 mt 2551 2487 L
2496 2923 mt 2349 2875 L
2494 2599 mt 2444 2576 L
2488 2658 mt 2454 2625 L
2472 2816 mt 2341 2732 L
2488 2811 mt 2337 2753 L
2487 2584 mt 2445 2556 L
2485 3121 mt 2436 3105 L
2433 2757 mt 2401 2723 L
2480 2776 mt 2334 2707 L
2476 2891 mt 2515 2900 L
2462 2893 mt 2411 2875 L
2455 2695 mt 2502 2706 L
2454 2625 mt 2503 2649 L
2447 2739 mt 2396 2718 L
2446 3103 mt 2307 3055 L
2445 2556 mt 2497 2575 L
2444 2576 mt 2495 2590 L
2438 2943 mt 2292 2889 L
2436 2661 mt 2390 2635 L
2436 3105 mt 2470 3115 L
2433 2674 mt 2393 2644 L
2430 2867 mt 2282 2803 L
2422 2856 mt 2283 2779 L
2422 3093 mt 2372 3075 L
2411 2875 mt 2454 2885 L
2401 2723 mt 2449 2748 L
2401 2895 mt 2349 2875 L
2396 2718 mt 2444 2731 L
2393 2644 mt 2444 2665 L
2390 2635 mt 2442 2652 L
2306 3011 mt 2180 2921 L
2388 3103 mt 2246 3052 L
2386 2777 mt 2337 2753 L
2380 2975 mt 2233 2915 L
2379 2735 mt 2334 2707 L
2378 2764 mt 2341 2732 L
2372 3075 mt 2409 3086 L
2269 2884 mt 2231 2852 L
2364 2935 mt 2231 2852 L
2372 2930 mt 2228 2858 L
2358 3075 mt 2307 3055 L
2349 2875 mt 2395 2887 L
2342 2911 mt 2292 2889 L
2341 2732 mt 2391 2755 L
2337 2753 mt 2388 2768 L
2334 2707 mt 2386 2725 L
2330 3116 mt 2186 3057 L
2329 2829 mt 2282 2803 L
2324 2809 mt 2283 2779 L
2324 2850 mt 2290 2816 L
2322 3017 mt 2177 2951 L
2180 2921 mt 2228 2946 L
2314 2995 mt 2175 2917 L
2307 3055 mt 2348 3067 L
2297 3073 mt 2246 3052 L
2292 2889 mt 2338 2902 L
2290 2816 mt 2338 2841 L
2283 2779 mt 2333 2800 L
2282 2803 mt 2333 2819 L
2282 2939 mt 2233 2915 L
2272 2887 mt 2228 2858 L
2197 3126 mt 2074 3033 L
2109 3068 mt 2074 3033 L
2205 3119 mt 2068 3039 L
2272 3140 mt 2129 3075 L
2256 3062 mt 2124 2977 L
2264 3065 mt 2123 2991 L
2246 3052 mt 2289 3065 L
2235 3080 mt 2186 3057 L
2233 2915 mt 2281 2930 L
2231 2852 mt 2280 2874 L
2228 2858 mt 2279 2877 L
2224 2977 mt 2177 2951 L
2217 2947 mt 2175 2917 L
2215 2955 mt 2180 2921 L
2213 3173 mt 2073 3101 L
2186 3057 mt 2232 3072 L
2177 3101 mt 2129 3075 L
2177 2951 mt 2225 2968 L
2175 2917 mt 2225 2938 L
2168 3020 mt 2123 2991 L
2163 3010 mt 2124 2977 L
2155 3212 mt 2019 3134 L
2147 3171 mt 2019 3082 L
2129 3075 mt 2176 3092 L
2124 2977 mt 2172 3000 L
2123 2991 mt 2171 3011 L
2119 3129 mt 2073 3101 L
2111 3070 mt 2068 3039 L
2097 3252 mt 1965 3169 L
2089 3221 mt 1970 3124 L
2074 3033 mt 2120 3059 L
2073 3101 mt 2120 3120 L
2068 3039 mt 2117 3061 L
2063 3164 mt 2019 3134 L
2057 3116 mt 2019 3082 L
2039 3291 mt 1916 3197 L
2019 3134 mt 2065 3155 L
2019 3082 mt 2066 3107 L
2006 3201 mt 1965 3169 L
2004 3161 mt 1970 3124 L
1981 3328 mt 1868 3226 L
1970 3124 mt 2015 3151 L
1965 3169 mt 2011 3191 L
1953 3233 mt 1916 3197 L
1916 3197 mt 1961 3223 L
1901 3264 mt 1868 3226 L
1868 3226 mt 1910 3255 L
gr

c8

end %%Color Dict

eplot
%%EndObject

epage
end

showpage

%%Trailer
%%EOF
