%!PS-Adobe-2.0 EPSF-1.2
%%Creator: MATLAB, The MathWorks, Inc. Version 8.3.0.532 (R2014a). Operating System: Microsoft Windows 8.1 Pro.
%%Title: ..\..\data\output\p4\normal_0.eps
%%CreationDate: 10/19/2015  17:17:11
%%DocumentNeededFonts: Helvetica
%%DocumentProcessColors: Cyan Magenta Yellow Black
%%Extensions: CMYK
%%Pages: 1
%%BoundingBox:    66   212   567   583
%%EndComments

%%BeginProlog
% MathWorks dictionary
/MathWorks 160 dict begin
% definition operators
/bdef {bind def} bind def
/ldef {load def} bind def
/xdef {exch def} bdef
/xstore {exch store} bdef
% operator abbreviations
/c  /clip ldef
/cc /concat ldef
/cp /closepath ldef
/gr /grestore ldef
/gs /gsave ldef
/mt /moveto ldef
/np /newpath ldef
/cm /currentmatrix ldef
/sm /setmatrix ldef
/rm /rmoveto ldef
/rl /rlineto ldef
/s {show newpath} bdef
/sc {setcmykcolor} bdef
/sr /setrgbcolor ldef
/sg /setgray ldef
/w /setlinewidth ldef
/j /setlinejoin ldef
/cap /setlinecap ldef
/rc {rectclip} bdef
/rf {rectfill} bdef
% page state control
/pgsv () def
/bpage {/pgsv save def} bdef
/epage {pgsv restore} bdef
/bplot /gsave ldef
/eplot {stroke grestore} bdef
% orientation switch
/portraitMode 0 def /landscapeMode 1 def /rotateMode 2 def
% coordinate system mappings
/dpi2point 0 def
% font control
/FontSize 0 def
/FMS {/FontSize xstore findfont [FontSize 0 0 FontSize neg 0 0]
  makefont setfont} bdef
/ISOLatin1Encoding where {pop /WindowsLatin1Encoding 256 array bdef
ISOLatin1Encoding WindowsLatin1Encoding copy pop
/.notdef/.notdef/quotesinglbase/florin/quotedblbase/ellipsis/dagger
/daggerdbl/circumflex/perthousand/Scaron/guilsinglleft/OE/.notdef/.notdef
/.notdef/.notdef/quoteleft/quoteright/quotedblleft/quotedblright/bullet
/endash/emdash/tilde/trademark/scaron/guilsinglright/oe/.notdef/.notdef
/Ydieresis WindowsLatin1Encoding 128 32 getinterval astore pop}
{/WindowsLatin1Encoding StandardEncoding bdef} ifelse
/reencode {exch dup where {pop load} {pop StandardEncoding} ifelse
  exch dup 3 1 roll findfont dup length dict begin
  { 1 index /FID ne {def}{pop pop} ifelse } forall
  /Encoding exch def currentdict end definefont pop} bdef
/isroman {findfont /CharStrings get /Agrave known} bdef
/FMSR {3 1 roll 1 index dup isroman {reencode} {pop pop} ifelse
  exch FMS} bdef
/csm {1 dpi2point div -1 dpi2point div scale neg translate
 dup landscapeMode eq {pop -90 rotate}
  {rotateMode eq {90 rotate} if} ifelse} bdef
% line types: solid, dotted, dashed, dotdash
/SO { [] 0 setdash } bdef
/DO { [.5 dpi2point mul 4 dpi2point mul] 0 setdash } bdef
/DA { [6 dpi2point mul] 0 setdash } bdef
/DD { [.5 dpi2point mul 4 dpi2point mul 6 dpi2point mul 4
  dpi2point mul] 0 setdash } bdef
% macros for lines and objects
/L {lineto stroke} bdef
/MP {3 1 roll moveto 1 sub {rlineto} repeat} bdef
/AP {{rlineto} repeat} bdef
/PDlw -1 def
/W {/PDlw currentlinewidth def setlinewidth} def
/PP {closepath eofill} bdef
/DP {closepath stroke} bdef
/MR {4 -2 roll moveto dup  0 exch rlineto exch 0 rlineto
  neg 0 exch rlineto closepath} bdef
/FR {MR stroke} bdef
/PR {MR fill} bdef
/L1i {{currentfile picstr readhexstring pop} image} bdef
/tMatrix matrix def
/MakeOval {newpath tMatrix currentmatrix pop translate scale
0 0 1 0 360 arc tMatrix setmatrix} bdef
/FO {MakeOval stroke} bdef
/PO {MakeOval fill} bdef
/PD {currentlinewidth 2 div 0 360 arc fill
   PDlw -1 eq not {PDlw w /PDlw -1 def} if} def
/FA {newpath tMatrix currentmatrix pop translate scale
  0 0 1 5 -2 roll arc tMatrix setmatrix stroke} bdef
/PA {newpath tMatrix currentmatrix pop	translate 0 0 moveto scale
  0 0 1 5 -2 roll arc closepath tMatrix setmatrix fill} bdef
/FAn {newpath tMatrix currentmatrix pop translate scale
  0 0 1 5 -2 roll arcn tMatrix setmatrix stroke} bdef
/PAn {newpath tMatrix currentmatrix pop translate 0 0 moveto scale
  0 0 1 5 -2 roll arcn closepath tMatrix setmatrix fill} bdef
/vradius 0 def /hradius 0 def /lry 0 def
/lrx 0 def /uly 0 def /ulx 0 def /rad 0 def
/MRR {/vradius xdef /hradius xdef /lry xdef /lrx xdef /uly xdef
  /ulx xdef newpath tMatrix currentmatrix pop ulx hradius add uly
  vradius add translate hradius vradius scale 0 0 1 180 270 arc 
  tMatrix setmatrix lrx hradius sub uly vradius add translate
  hradius vradius scale 0 0 1 270 360 arc tMatrix setmatrix
  lrx hradius sub lry vradius sub translate hradius vradius scale
  0 0 1 0 90 arc tMatrix setmatrix ulx hradius add lry vradius sub
  translate hradius vradius scale 0 0 1 90 180 arc tMatrix setmatrix
  closepath} bdef
/FRR {MRR stroke } bdef
/PRR {MRR fill } bdef
/MlrRR {/lry xdef /lrx xdef /uly xdef /ulx xdef /rad lry uly sub 2 div def
  newpath tMatrix currentmatrix pop ulx rad add uly rad add translate
  rad rad scale 0 0 1 90 270 arc tMatrix setmatrix lrx rad sub lry rad
  sub translate rad rad scale 0 0 1 270 90 arc tMatrix setmatrix
  closepath} bdef
/FlrRR {MlrRR stroke } bdef
/PlrRR {MlrRR fill } bdef
/MtbRR {/lry xdef /lrx xdef /uly xdef /ulx xdef /rad lrx ulx sub 2 div def
  newpath tMatrix currentmatrix pop ulx rad add uly rad add translate
  rad rad scale 0 0 1 180 360 arc tMatrix setmatrix lrx rad sub lry rad
  sub translate rad rad scale 0 0 1 0 180 arc tMatrix setmatrix
  closepath} bdef
/FtbRR {MtbRR stroke } bdef
/PtbRR {MtbRR fill } bdef
/stri 6 array def /dtri 6 array def
/smat 6 array def /dmat 6 array def
/tmat1 6 array def /tmat2 6 array def /dif 3 array def
/asub {/ind2 exch def /ind1 exch def dup dup
  ind1 get exch ind2 get sub exch } bdef
/tri_to_matrix {
  2 0 asub 3 1 asub 4 0 asub 5 1 asub
  dup 0 get exch 1 get 7 -1 roll astore } bdef
/compute_transform {
  dmat dtri tri_to_matrix tmat1 invertmatrix 
  smat stri tri_to_matrix tmat2 concatmatrix } bdef
/ds {stri astore pop} bdef
/dt {dtri astore pop} bdef
/db {2 copy /cols xdef /rows xdef mul dup 3 mul string
  currentfile exch readhexstring pop
  dup 0 3 index getinterval /rbmap xdef
  dup 2 index dup getinterval /gbmap xdef
  1 index dup 2 mul exch getinterval /bbmap xdef pop pop}bdef
/it {gs np dtri aload pop moveto lineto lineto cp c
  cols rows 8 compute_transform 
  rbmap gbmap bbmap true 3 colorimage gr}bdef
/il {newpath moveto lineto stroke}bdef
currentdict end def
%%EndProlog

%%BeginSetup
MathWorks begin

0 cap

end
%%EndSetup

%%Page: 1 1
%%BeginPageSetup
%%PageBoundingBox:    66   212   567   583
MathWorks begin
bpage
%%EndPageSetup

%%BeginObject: obj1
bplot

/dpi2point 12 def
portraitMode 0204 7344 csm

  589   340  6017  4460 MR c np
85 dict begin %Colortable dictionary
/c0 { 0.000000 0.000000 0.000000 sr} bdef
/c1 { 1.000000 1.000000 1.000000 sr} bdef
/c2 { 0.900000 0.000000 0.000000 sr} bdef
/c3 { 0.000000 0.820000 0.000000 sr} bdef
/c4 { 0.000000 0.000000 0.800000 sr} bdef
/c5 { 0.910000 0.820000 0.320000 sr} bdef
/c6 { 1.000000 0.260000 0.820000 sr} bdef
/c7 { 0.000000 0.820000 0.820000 sr} bdef
c0
1 j
1 sg
   0    0 6913 5185 PR
6 w
0 2335 -2326 -1070 0 -2335 6255 3793 4 MP
PP
2326 1070 0 2335 -2326 -1070 0 -2335 6255 3793 5 MP stroke
2326 1070 3030 -821 -2325 -1069 3224 4613 4 MP
PP
-3031 820 2326 1070 3030 -821 -2325 -1069 3224 4613 5 MP stroke
0 2335 3030 -821 0 -2335 899 3544 4 MP
PP
-3030 821 0 2335 3030 -821 0 -2335 899 3544 5 MP stroke
4 w
DO
0 sg
3224 4613 mt  899 3544 L
 899 3544 mt  899 1209 L
3657 4496 mt 1331 3427 L
1331 3427 mt 1331 1092 L
4090 4379 mt 1764 3310 L
1764 3310 mt 1764  975 L
4523 4262 mt 2197 3192 L
2197 3192 mt 2197  857 L
4956 4145 mt 2630 3075 L
2630 3075 mt 2630  740 L
5389 4027 mt 3063 2958 L
3063 2958 mt 3063  623 L
5822 3910 mt 3496 2841 L
3496 2841 mt 3496  506 L
6255 3793 mt 3929 2723 L
3929 2723 mt 3929  388 L
3224 4613 mt 6255 3793 L
6255 3793 mt 6255 1458 L
2643 4346 mt 5673 3525 L
5673 3525 mt 5673 1191 L
2061 4079 mt 5092 3258 L
5092 3258 mt 5092  923 L
1480 3811 mt 4510 2991 L
4510 2991 mt 4510  656 L
 899 3544 mt 3929 2723 L
3929 2723 mt 3929  388 L
 899 3544 mt 3929 2723 L
3929 2723 mt 6255 3793 L
 899 3155 mt 3929 2334 L
3929 2334 mt 6255 3404 L
 899 2766 mt 3929 1945 L
3929 1945 mt 6255 3015 L
 899 2377 mt 3929 1556 L
3929 1556 mt 6255 2625 L
 899 1987 mt 3929 1167 L
3929 1167 mt 6255 2236 L
 899 1598 mt 3929  778 L
3929  778 mt 6255 1847 L
 899 1209 mt 3929  388 L
3929  388 mt 6255 1458 L
SO
6 w
3224 4613 mt 6255 3793 L
3224 4613 mt  899 3544 L
 899 3544 mt  899 1209 L
3224 4613 mt 3295 4646 L
%%IncludeResource: font Helvetica
/Helvetica /WindowsLatin1Encoding 120 FMSR

3327 4772 mt 
(-20) s
3657 4496 mt 3728 4529 L
3760 4655 mt 
(0) s
4090 4379 mt 4161 4412 L
4193 4537 mt 
(20) s
4523 4262 mt 4594 4295 L
4625 4420 mt 
(40) s
4956 4145 mt 5027 4177 L
5058 4303 mt 
(60) s
5389 4027 mt 5460 4060 L
5491 4186 mt 
(80) s
5822 3910 mt 5893 3943 L
5924 4068 mt 
(100) s
6255 3793 mt 6326 3826 L
6357 3951 mt 
(120) s
3224 4613 mt 3148 4634 L
2912 4754 mt 
(-50) s
2643 4346 mt 2567 4367 L
2467 4487 mt 
(0) s
2061 4079 mt 1985 4099 L
1819 4219 mt 
(50) s
1480 3811 mt 1404 3832 L
1171 3952 mt 
(100) s
 899 3544 mt  823 3565 L
 589 3685 mt 
(150) s
 899 3544 mt  827 3511 L
 593 3541 mt 
(-20) s
 899 3155 mt  827 3122 L
 730 3152 mt 
(0) s
 899 2766 mt  827 2733 L
 663 2762 mt 
(20) s
 899 2377 mt  827 2344 L
 663 2373 mt 
(40) s
 899 1987 mt  827 1955 L
 663 1984 mt 
(60) s
 899 1598 mt  827 1565 L
 663 1595 mt 
(80) s
 899 1209 mt  827 1176 L
 596 1206 mt 
(100) s
gs 899 388 5357 4226 MR c np
/c8 { 0.000000 0.000000 1.000000 sr} bdef
c8
5240 2953 mt 5203 2997 L
5212 2987 mt 5240 2953 L
5194 2882 mt 5154 2924 L
5162 2914 mt 5194 2882 L
5150 2803 mt 5106 2843 L
5142 3072 mt 5240 2953 L
5141 2946 mt 5100 2986 L
5112 2833 mt 5150 2803 L
5111 2976 mt 5141 2946 L
5101 2858 mt 5055 2896 L
5100 2716 mt 5054 2755 L
5084 2994 mt 5194 2882 L
5064 2886 mt 5101 2858 L
5058 2746 mt 5100 2716 L
5046 2626 mt 5000 2666 L
5040 2758 mt 4995 2797 L
5038 2935 mt 4994 2971 L
5034 3052 mt 5141 2946 L
5026 2909 mt 5150 2803 L
5008 2961 mt 5038 2935 L
5004 2787 mt 5040 2758 L
5002 2656 mt 5046 2626 L
4992 2658 mt 4945 2696 L
4992 2543 mt 4946 2582 L
4990 2831 mt 4943 2866 L
4976 2958 mt 5101 2858 L
4968 2820 mt 5100 2716 L
4956 2856 mt 4990 2831 L
4951 2686 mt 4992 2658 L
4945 2573 mt 4992 2543 L
4944 2561 mt 4895 2598 L
4937 2713 mt 4890 2748 L
4937 2463 mt 4892 2502 L
4933 2912 mt 4888 2947 L
4926 3029 mt 5038 2935 L
4917 2861 mt 5040 2758 L
4909 2732 mt 5046 2626 L
4902 2937 mt 4933 2912 L
4900 2739 mt 4937 2713 L
4898 2589 mt 4944 2561 L
4890 2604 mt 4840 2638 L
4889 2464 mt 4841 2501 L
4887 2493 mt 4937 2463 L
4879 2394 mt 4835 2434 L
4876 2801 mt 4830 2834 L
4867 2921 mt 4990 2831 L
4859 2759 mt 4992 2658 L
4851 2648 mt 4992 2543 L
4848 2628 mt 4890 2604 L
4845 2825 mt 4876 2801 L
4841 2492 mt 4889 2464 L
4837 2485 mt 4787 2520 L
4834 2683 mt 4783 2714 L
4832 2374 mt 4785 2411 L
4828 2425 mt 4879 2394 L
4817 3003 mt 4933 2912 L
4816 2333 mt 4775 2374 L
4814 2891 mt 4771 2925 L
4809 2806 mt 4937 2713 L
4801 2659 mt 4944 2561 L
4796 2704 mt 4834 2683 L
4793 2569 mt 4937 2463 L
4792 2510 mt 4837 2485 L
4788 2916 mt 4814 2891 L
4783 2373 mt 4733 2408 L
4782 2403 mt 4832 2374 L
4780 2544 mt 4729 2576 L
4773 2293 mt 4728 2332 L
4771 2772 mt 4723 2803 L
4765 2366 mt 4816 2333 L
4759 2888 mt 4876 2801 L
4751 2691 mt 4890 2604 L
4750 2289 mt 4713 2331 L
4743 2563 mt 4889 2464 L
4739 2567 mt 4780 2544 L
4739 2793 mt 4771 2772 L
4735 2399 mt 4783 2373 L
4735 2501 mt 4879 2394 L
4728 2414 mt 4677 2447 L
4728 2269 mt 4679 2305 L
4721 2324 mt 4773 2293 L
4721 2636 mt 4672 2665 L
4713 2230 mt 4670 2269 L
4711 2895 mt 4665 2921 L
4709 2980 mt 4814 2891 L
4701 2760 mt 4834 2683 L
4699 2324 mt 4750 2289 L
4693 2576 mt 4837 2485 L
4686 2655 mt 4721 2636 L
4685 2475 mt 4832 2374 L
4685 2437 mt 4728 2414 L
4684 2912 mt 4711 2895 L
4684 2262 mt 4652 2305 L
4678 2293 mt 4626 2325 L
4677 2296 mt 4728 2269 L
4677 2445 mt 4816 2333 L
4670 2178 mt 4622 2215 L
4669 2492 mt 4618 2522 L
4661 2261 mt 4713 2230 L
4656 2744 mt 4609 2773 L
4651 2849 mt 4771 2772 L
4647 2181 mt 4608 2221 L
4643 2628 mt 4780 2544 L
4635 2299 mt 4684 2262 L
4635 2466 mt 4783 2373 L
4631 2512 mt 4669 2492 L
4631 2316 mt 4678 2293 L
4627 2764 mt 4656 2744 L
4619 2405 mt 4750 2289 L
4627 2399 mt 4773 2293 L
4622 2174 mt 4570 2209 L
4619 2349 mt 4567 2379 L
4618 2206 mt 4670 2178 L
4614 2252 mt 4587 2294 L
4608 2603 mt 4559 2629 L
4605 2099 mt 4562 2138 L
4604 2885 mt 4557 2911 L
4601 2961 mt 4711 2895 L
4595 2215 mt 4647 2181 L
4593 2710 mt 4721 2636 L
4585 2499 mt 4728 2414 L
4581 2153 mt 4547 2194 L
4577 2370 mt 4619 2349 L
4577 2902 mt 4604 2885 L
4547 2260 mt 4524 2303 L
4577 2365 mt 4728 2269 L
4576 2619 mt 4608 2603 L
4572 2199 mt 4622 2174 L
4569 2337 mt 4713 2230 L
4567 2290 mt 4614 2252 L
4566 2213 mt 4514 2244 L
4561 2382 mt 4684 2262 L
4560 2067 mt 4512 2104 L
4557 2442 mt 4506 2469 L
4553 2130 mt 4605 2099 L
4543 2817 mt 4656 2744 L
4541 2046 mt 4501 2086 L
4538 2731 mt 4494 2755 L
4535 2568 mt 4669 2492 L
4531 2188 mt 4581 2153 L
4502 2374 mt 4614 2252 L
4502 2299 mt 4547 2260 L
4527 2377 mt 4678 2293 L
4521 2235 mt 4566 2213 L
4521 2460 mt 4557 2442 L
4519 2276 mt 4670 2178 L
4515 2747 mt 4538 2731 L
4511 2083 mt 4459 2117 L
4511 2293 mt 4647 2181 L
4509 2096 mt 4560 2067 L
4508 2143 mt 4480 2185 L
4474 2278 mt 4457 2322 L
4503 2288 mt 4452 2315 L
4499 1985 mt 4454 2023 L
4493 2576 mt 4445 2599 L
4493 2950 mt 4604 2885 L
4489 2079 mt 4541 2046 L
4485 2668 mt 4608 2603 L
4444 2384 mt 4547 2260 L
4477 2427 mt 4619 2349 L
4470 2015 mt 4437 2056 L
4441 2155 mt 4417 2197 L
4452 2268 mt 4581 2153 L
4468 2264 mt 4622 2174 L
4468 2888 mt 4428 2911 L
4466 2306 mt 4503 2288 L
4464 2590 mt 4493 2576 L
4463 2107 mt 4511 2083 L
4461 2180 mt 4508 2143 L
4460 2205 mt 4605 2099 L
4453 2904 mt 4468 2888 L
4402 2156 mt 4541 2046 L
4452 2132 mt 4400 2161 L
4450 1965 mt 4402 2002 L
4447 2015 mt 4499 1985 L
4386 2407 mt 4474 2278 L
4437 2397 mt 4389 2424 L
4434 2793 mt 4538 2731 L
4433 2319 mt 4474 2278 L
4432 1924 mt 4393 1964 L
4426 2511 mt 4557 2442 L
4420 2050 mt 4470 2015 L
4420 2725 mt 4378 2749 L
4371 2183 mt 4352 2225 L
4394 2263 mt 4508 2143 L
4418 2293 mt 4566 2213 L
4411 2152 mt 4452 2132 L
4410 2166 mt 4560 2067 L
4407 2312 mt 4394 2356 L
4407 2414 mt 4437 2397 L
4402 2009 mt 4373 2050 L
4401 1993 mt 4450 1965 L
4401 2740 mt 4420 2725 L
4398 1988 mt 4347 2021 L
4395 2193 mt 4441 2155 L
4390 1876 mt 4345 1915 L
4386 2234 mt 4336 2261 L
4384 2947 mt 4468 2888 L
4381 1957 mt 4432 1924 L
4376 2631 mt 4493 2576 L
4369 2566 mt 4325 2586 L
4369 2354 mt 4407 2312 L
4336 2276 mt 4441 2155 L
4368 2356 mt 4503 2288 L
4362 2915 mt 4322 2934 L
4361 1892 mt 4328 1933 L
4360 2170 mt 4511 2083 L
4354 2045 mt 4402 2009 L
4353 2011 mt 4398 1988 L
4353 2251 mt 4386 2234 L
4329 2024 mt 4307 2066 L
4352 2090 mt 4499 1985 L
4347 2578 mt 4369 2566 L
4346 2927 mt 4362 2915 L
4344 2130 mt 4470 2015 L
4341 1862 mt 4291 1898 L
4339 1907 mt 4390 1876 L
4334 2353 mt 4326 2397 L
4332 2074 mt 4282 2102 L
4328 2222 mt 4371 2183 L
4328 2441 mt 4407 2312 L
4326 2783 mt 4420 2725 L
4322 1810 mt 4283 1851 L
4270 2485 mt 4334 2353 L
4318 2463 mt 4437 2397 L
4299 2396 mt 4334 2353 L
4315 2389 mt 4270 2410 L
4311 1927 mt 4361 1892 L
4310 2207 mt 4452 2132 L
4284 2062 mt 4329 2024 L
4302 2064 mt 4450 1965 L
4301 2745 mt 4261 2767 L
4298 2225 mt 4285 2268 L
4297 2092 mt 4332 2074 L
4294 2035 mt 4432 1924 L
4294 1888 mt 4341 1862 L
4292 1889 mt 4264 1930 L
4292 2401 mt 4315 2389 L
4286 2127 mt 4402 2009 L
4286 2759 mt 4301 2745 L
4280 1918 mt 4230 1950 L
4251 1777 mt 4219 1819 L
4279 1759 mt 4234 1798 L
4278 2306 mt 4371 2183 L
4276 2963 mt 4362 2915 L
4271 1844 mt 4322 1810 L
4212 2535 mt 4266 2401 L
4268 2616 mt 4369 2566 L
4220 2351 mt 4298 2225 L
4267 2207 mt 4219 2231 L
4266 2401 mt 4262 2446 L
4260 2300 mt 4386 2234 L
4259 2266 mt 4298 2225 L
4253 2578 mt 4210 2597 L
4253 2061 mt 4238 2103 L
4213 2101 mt 4253 2061 L
4252 2073 mt 4398 1988 L
4245 1926 mt 4292 1889 L
4210 1908 mt 4192 1950 L
4244 1981 mt 4390 1876 L
4240 1940 mt 4280 1918 L
4238 2222 mt 4267 2207 L
4237 2933 mt 4201 2954 L
4236 2009 mt 4361 1892 L
4234 2445 mt 4266 2401 L
4234 2589 mt 4253 2578 L
4230 1790 mt 4279 1759 L
4228 2145 mt 4329 2024 L
4227 2947 mt 4237 2933 L
4225 1786 mt 4176 1821 L
4221 2278 mt 4215 2321 L
4218 2798 mt 4301 2745 L
4210 1685 mt 4172 1728 L
4162 2406 mt 4221 2278 L
4210 2440 mt 4315 2389 L
4170 2185 mt 4253 2061 L
4209 2035 mt 4161 2061 L
4202 2144 mt 4332 2074 L
4202 1813 mt 4251 1777 L
4197 2450 mt 4197 2495 L
4168 1947 mt 4210 1908 L
4194 1956 mt 4341 1862 L
4192 2399 mt 4150 2419 L
4188 2320 mt 4221 2278 L
4186 1924 mt 4322 1810 L
4182 2773 mt 4145 2790 L
4182 1812 mt 4225 1786 L
4180 2052 mt 4209 2035 L
4179 2115 mt 4170 2157 L
4178 2007 mt 4292 1889 L
4176 1773 mt 4152 1815 L
4174 2411 mt 4192 2399 L
4171 2783 mt 4182 2773 L
4168 2495 mt 4197 2450 L
4168 2985 mt 4237 2933 L
4164 1674 mt 4119 1715 L
4161 1721 mt 4210 1685 L
4104 2470 mt 4149 2340 L
4126 2500 mt 4131 2545 L
4160 2624 mt 4253 2578 L
4128 1896 mt 4251 1777 L
4159 1874 mt 4111 1904 L
4154 2587 mt 4197 2450 L
4112 2240 mt 4179 2115 L
4152 2265 mt 4267 2207 L
4149 2340 mt 4148 2383 L
4101 1995 mt 4139 1955 L
4120 2031 mt 4210 1908 L
4139 1955 mt 4126 1996 L
4144 2000 mt 4280 1918 L
4143 2156 mt 4179 2115 L
4136 1648 mt 4106 1692 L
4096 1798 mt 4080 1840 L
4136 1866 mt 4279 1759 L
4131 1811 mt 4176 1773 L
4130 2217 mt 4090 2237 L
4126 1894 mt 4159 1874 L
4120 2383 mt 4149 2340 L
4119 1706 mt 4164 1674 L
4114 2230 mt 4130 2217 L
4112 2977 mt 4081 2996 L
4096 2639 mt 4126 2500 L
4111 2585 mt 4078 2603 L
4111 2183 mt 4106 2224 L
4110 2814 mt 4182 2773 L
4109 2990 mt 4112 2977 L
4105 2596 mt 4111 2585 L
4053 2308 mt 4111 2183 L
4102 2445 mt 4192 2399 L
4102 2546 mt 4126 2500 L
4096 1729 mt 4051 1764 L
4094 1594 mt 4057 1639 L
4062 2078 mt 4139 1955 L
4065 2020 mt 4058 2061 L
4094 2100 mt 4209 2035 L
4089 1687 mt 4136 1648 L
4055 1838 mt 4096 1798 L
4070 1895 mt 4176 1773 L
4086 1879 mt 4225 1786 L
4079 2405 mt 4083 2448 L
4078 2224 mt 4111 2183 L
4078 1803 mt 4210 1685 L
4076 2039 mt 4034 2063 L
4067 2409 mt 4029 2426 L
4063 1755 mt 4096 1729 L
4060 3025 mt 4112 2977 L
4058 2055 mt 4076 2039 L
4056 2419 mt 4067 2409 L
4055 1647 mt 4035 1691 L
4054 2449 mt 4079 2405 L
4053 2547 mt 4062 2593 L
4033 2595 mt 4053 2547 L
4037 2690 mt 4053 2547 L
4052 2628 mt 4111 2585 L
4048 1631 mt 4094 1594 L
4045 2538 mt 4079 2405 L
4045 2817 mt 4017 2833 L
4045 2827 mt 4045 2817 L
3990 2098 mt 3989 2139 L
4044 2268 mt 4130 2217 L
4041 1610 mt 3998 1651 L
3983 1892 mt 4018 1852 L
4011 1922 mt 4096 1798 L
4036 1949 mt 4159 1874 L
4035 2256 mt 4036 2298 L
4031 2060 mt 4065 2020 L
4027 1783 mt 4164 1674 L
4019 1773 mt 4136 1648 L
4018 1852 mt 4010 1893 L
4018 1872 mt 3977 1900 L
4013 1552 mt 3989 1599 L
4013 1688 mt 4055 1647 L
4011 2467 mt 4018 2511 L
4008 2298 mt 4035 2256 L
4004 1641 mt 4041 1610 L
4003 2143 mt 4065 2020 L
4002 2857 mt 4045 2817 L
3999 1892 mt 4018 1872 L
3998 2222 mt 3964 2240 L
3995 2383 mt 4035 2256 L
3937 2464 mt 3965 2335 L
3941 2378 mt 3965 2335 L
3965 2335 mt 3970 2377 L
3993 2449 mt 4067 2409 L
3992 2643 mt 3962 2659 L
3991 2233 mt 3998 2222 L
3990 2653 mt 3992 2643 L
3990 3046 mt 3988 3035 L
3989 2513 mt 4011 2467 L
3988 3035 mt 3961 3052 L
3987 2603 mt 4011 2467 L
3985 2098 mt 4076 2039 L
3977 1822 mt 4096 1729 L
3971 1680 mt 3962 1723 L
3970 1594 mt 4013 1552 L
3935 1722 mt 3971 1680 L
3969 1718 mt 4094 1594 L
3969 1519 mt 3936 1567 L
3964 1726 mt 3922 1758 L
3961 1775 mt 4055 1647 L
3961 2140 mt 3990 2098 L
3953 1975 mt 4018 1852 L
3951 3078 mt 3988 3035 L
3945 2222 mt 3990 2098 L
3929 2666 mt 3942 2527 L
3943 2682 mt 3992 2643 L
3942 1749 mt 3964 1726 L
3942 2527 mt 3952 2572 L
3940 2465 mt 3908 2479 L
3940 1929 mt 3939 1969 L
3939 2043 mt 3905 2063 L
3936 2473 mt 3940 2465 L
3887 2311 mt 3921 2188 L
3895 2229 mt 3921 2188 L
3935 2266 mt 3998 2222 L
3932 1555 mt 3918 1601 L
3932 2057 mt 3939 2043 L
3930 1558 mt 3969 1519 L
3928 2886 mt 3924 2877 L
3927 1944 mt 4018 1872 L
3924 2877 mt 3899 2891 L
3923 2574 mt 3942 2527 L
3921 2188 mt 3924 2228 L
3919 1720 mt 4041 1610 L
3911 1686 mt 4013 1552 L
3911 1970 mt 3940 1929 L
3903 1809 mt 3971 1680 L
3900 1597 mt 3863 1638 L
3896 2409 mt 3905 2452 L
3895 2052 mt 3940 1929 L
3894 1598 mt 3932 1555 L
3893 2913 mt 3924 2877 L
3892 1744 mt 3891 1785 L
3886 1475 mt 3868 1525 L
3828 2323 mt 3849 2281 L
3829 2406 mt 3849 2281 L
3879 2541 mt 3896 2409 L
3885 2498 mt 3940 2465 L
3885 1879 mt 3850 1902 L
3878 1629 mt 3900 1597 L
3837 2144 mt 3868 2022 L
3843 2063 mt 3868 2022 L
3877 2094 mt 3939 2043 L
3876 1895 mt 3885 1879 L
3876 2454 mt 3896 2409 L
3875 2717 mt 3873 2709 L
3849 2281 mt 3857 2321 L
3873 2282 mt 3844 2297 L
3873 2709 mt 3846 2722 L
3872 2291 mt 3873 2282 L
3845 1870 mt 3892 1744 L
3869 1811 mt 3964 1726 L
3868 2022 mt 3872 2062 L
3866 3116 mt 3856 3103 L
3863 1786 mt 3892 1744 L
3816 1637 mt 3847 1593 L
3861 1651 mt 3969 1519 L
3856 3103 mt 3837 3120 L
3853 1690 mt 3932 1555 L
3849 1520 mt 3886 1475 L
3847 1593 mt 3844 1637 L
3843 3149 mt 3856 3103 L
3835 2742 mt 3873 2709 L
3831 2482 mt 3842 2525 L
3774 2167 mt 3794 2125 L
3779 2247 mt 3794 2125 L
3827 2318 mt 3873 2282 L
3821 2616 mt 3831 2482 L
3820 1831 mt 3824 1871 L
3819 1498 mt 3797 1549 L
3787 1954 mt 3820 1831 L
3819 1939 mt 3885 1879 L
3814 2539 mt 3810 2532 L
3813 1728 mt 3782 1757 L
3813 2527 mt 3831 2482 L
3795 1726 mt 3847 1593 L
3811 1708 mt 3900 1597 L
3810 2532 mt 3785 2544 L
3809 1750 mt 3813 1728 L
3807 2115 mt 3805 2103 L
3807 2966 mt 3796 2956 L
3805 2103 mt 3779 2121 L
3803 1619 mt 3886 1475 L
3798 1540 mt 3819 1498 L
3796 2956 mt 3778 2970 L
3795 1872 mt 3820 1831 L
3795 1478 mt 3792 1526 L
3794 2125 mt 3804 2164 L
3785 2993 mt 3796 2956 L
3780 2372 mt 3792 2413 L
3777 2562 mt 3810 2532 L
3771 2500 mt 3780 2372 L
3729 2058 mt 3744 1937 L
3769 2148 mt 3805 2103 L
3769 1666 mt 3773 1707 L
3765 1525 mt 3795 1478 L
3763 3199 mt 3755 3188 L
3762 2416 mt 3780 2372 L
3737 1794 mt 3769 1666 L
3761 1804 mt 3813 1728 L
3755 3188 mt 3733 3203 L
3753 1638 mt 3819 1498 L
3751 2360 mt 3745 2352 L
3749 2804 mt 3737 2795 L
3748 1599 mt 3720 1636 L
3746 1629 mt 3748 1599 L
3745 2352 mt 3722 2365 L
3745 1623 mt 3795 1478 L
3745 1958 mt 3740 1943 L
3744 1709 mt 3769 1666 L
3744 1937 mt 3754 1976 L
3740 1943 mt 3716 1963 L
3737 2795 mt 3719 2807 L
3735 3227 mt 3755 3188 L
3734 1452 mt 3733 1504 L
3729 2233 mt 3741 2272 L
3727 2826 mt 3737 2795 L
3724 1978 mt 3744 1937 L
3721 2355 mt 3729 2233 L
3719 2384 mt 3745 2352 L
3713 2589 mt 3709 2459 L
3711 2275 mt 3729 2233 L
3711 1994 mt 3740 1943 L
3710 1523 mt 3717 1568 L
3709 1501 mt 3734 1452 L
3709 2459 mt 3725 2500 L
3703 1700 mt 3748 1599 L
3695 2504 mt 3709 2459 L
3695 1605 mt 3734 1452 L
3690 3052 mt 3675 3043 L
3690 2638 mt 3678 2632 L
3689 1763 mt 3700 1802 L
3688 1569 mt 3710 1523 L
3687 1661 mt 3710 1523 L
3681 2189 mt 3669 2178 L
3679 1886 mt 3689 1763 L
3678 2632 mt 3660 2642 L
3677 3075 mt 3675 3043 L
3676 2052 mt 3689 2090 L
3675 3043 mt 3660 3055 L
3674 1818 mt 3663 1799 L
3671 2172 mt 3676 2052 L
3671 1805 mt 3689 1763 L
3670 1536 mt 3663 1497 L
3669 2178 mt 3651 2192 L
3669 2658 mt 3678 2632 L
3663 1799 mt 3645 1822 L
3663 1497 mt 3644 1544 L
3663 2462 mt 3656 2339 L
3661 2215 mt 3669 2178 L
3659 2093 mt 3676 2052 L
3656 2339 mt 3673 2378 L
3653 1862 mt 3663 1799 L
3613 1648 mt 3627 1603 L
3627 1603 mt 3642 1644 L
3629 1733 mt 3627 1603 L
3645 1628 mt 3663 1497 L
3643 2382 mt 3656 2339 L
3641 1461 mt 3655 1509 L
3639 3286 mt 3623 3274 L
3637 1610 mt 3641 1461 L
3629 2898 mt 3611 2889 L
3627 3317 mt 3623 3274 L
3625 1511 mt 3641 1461 L
3623 3274 mt 3609 3289 L
3621 1999 mt 3618 1879 L
3619 2465 mt 3602 2457 L
3619 2920 mt 3611 2889 L
3618 1879 mt 3634 1917 L
3613 2292 mt 3603 2173 L
3611 2889 mt 3599 2900 L
3583 2484 mt 3594 2440 L
3604 2567 mt 3594 2440 L
3611 2485 mt 3602 2457 L
3608 2035 mt 3589 2023 L
3604 1920 mt 3618 1879 L
3603 2173 mt 3621 2210 L
3603 2063 mt 3589 2023 L
3602 2457 mt 3590 2468 L
3599 1700 mt 3579 1673 L
3595 1757 mt 3579 1673 L
3594 2440 mt 3612 2480 L
3591 2214 mt 3603 2173 L
3589 2023 mt 3579 2037 L
3578 1652 mt 3562 1514 L
3587 1595 mt 3572 1447 L
3579 1673 mt 3569 1702 L
3572 1447 mt 3590 1492 L
3570 1832 mt 3551 1711 L
3569 3180 mt 3546 3145 L
3568 3155 mt 3546 3145 L
3564 1500 mt 3572 1447 L
3562 2122 mt 3545 2005 L
3562 1514 mt 3582 1558 L
3561 2744 mt 3540 2736 L
3561 2762 mt 3540 2736 L
3554 2413 mt 3542 2293 L
3542 2293 mt 3561 2331 L
3531 2334 mt 3542 2293 L
3554 2309 mt 3533 2301 L
3553 1562 mt 3562 1514 L
3552 2329 mt 3533 2301 L
3551 1711 mt 3572 1749 L
3546 3145 mt 3539 3157 L
3545 2005 mt 3566 2041 L
3544 1934 mt 3515 1885 L
3543 1753 mt 3551 1711 L
3540 2736 mt 3532 2746 L
3539 1900 mt 3515 1885 L
3520 1727 mt 3491 1599 L
3491 1599 mt 3515 1639 L
3486 1644 mt 3491 1599 L
3536 1688 mt 3490 1582 L
3536 2045 mt 3545 2005 L
3533 2301 mt 3525 2311 L
3528 1599 mt 3482 1456 L
3518 3416 mt 3491 3368 L
3517 1619 mt 3490 1582 L
3515 1885 mt 3510 1901 L
3515 3383 mt 3491 3368 L
3512 1951 mt 3482 1835 L
3510 3031 mt 3485 3000 L
3508 3009 mt 3485 3000 L
3504 2252 mt 3481 2137 L
3502 2606 mt 3479 2580 L
3502 2587 mt 3479 2580 L
3496 2530 mt 3469 2409 L
3474 2177 mt 3481 2137 L
3494 2182 mt 3451 2150 L
3491 3368 mt 3485 3385 L
3490 1582 mt 3493 1616 L
3462 1829 mt 3418 1711 L
3486 1834 mt 3428 1771 L
3485 3000 mt 3479 3011 L
3485 1507 mt 3482 1456 L
3482 1835 mt 3507 1871 L
3482 1456 mt 3510 1500 L
3481 2137 mt 3504 2173 L
3480 2161 mt 3451 2150 L
3479 2580 mt 3472 2589 L
3478 1657 mt 3406 1536 L
3478 1875 mt 3482 1835 L
3470 1640 mt 3413 1507 L
3469 2409 mt 3492 2446 L
3463 2451 mt 3469 2409 L
3460 3292 mt 3430 3249 L
3460 1793 mt 3428 1771 L
3454 3263 mt 3430 3249 L
3454 2084 mt 3418 1970 L
3453 2868 mt 3431 2861 L
3452 2886 mt 3431 2861 L
3451 2150 mt 3451 2161 L
3446 2383 mt 3414 2268 L
3444 2457 mt 3407 2431 L
3436 2058 mt 3379 2020 L
3433 2439 mt 3407 2431 L
3431 2861 mt 3424 2870 L
3431 1580 mt 3406 1536 L
3430 3249 mt 3425 3264 L
3354 1818 mt 3283 1706 L
3428 1768 mt 3343 1689 L
3428 1771 mt 3434 1791 L
3412 1714 mt 3341 1595 L
3420 1663 mt 3330 1540 L
3419 1555 mt 3413 1507 L
3418 1970 mt 3445 2005 L
3418 1752 mt 3418 1711 L
3418 1711 mt 3446 1747 L
3416 2010 mt 3418 1970 L
3414 2268 mt 3439 2303 L
3413 1507 mt 3445 1548 L
3412 2033 mt 3379 2020 L
3410 3519 mt 3383 3469 L
3410 2308 mt 3414 2268 L
3407 2431 mt 3405 2440 L
3407 3485 mt 3383 3469 L
3406 1536 mt 3429 1571 L
3404 1952 mt 3352 1840 L
3402 3159 mt 3377 3128 L
3400 3137 mt 3377 3128 L
3396 2221 mt 3356 2109 L
3394 2738 mt 3349 2717 L
3388 2510 mt 3348 2392 L
3386 2317 mt 3331 2291 L
3383 3469 mt 3377 3486 L
3362 1704 mt 3262 1590 L
3381 1718 mt 3343 1689 L
3379 2020 mt 3384 2032 L
3378 2724 mt 3349 2717 L
3378 1963 mt 3301 1915 L
3377 3128 mt 3371 3139 L
3370 1737 mt 3261 1647 L
3363 2300 mt 3331 2291 L
3356 2109 mt 3384 2143 L
3355 2149 mt 3356 2109 L
3355 1880 mt 3352 1840 L
3353 1585 mt 3330 1540 L
3352 3406 mt 3310 3368 L
3352 1840 mt 3383 1874 L
3351 1638 mt 3341 1595 L
3349 2717 mt 3350 2724 L
3348 2392 mt 3375 2428 L
3347 2434 mt 3348 2392 L
3346 2088 mt 3288 1979 L
3344 3024 mt 3307 2999 L
3343 1689 mt 3361 1713 L
3341 1595 mt 3377 1631 L
3339 1932 mt 3301 1915 L
3338 3380 mt 3310 3368 L
3338 2362 mt 3288 2250 L
3336 2596 mt 3279 2575 L
3334 3007 mt 3307 2999 L
3331 2291 mt 3335 2300 L
3330 1540 mt 3366 1576 L
3328 2197 mt 3254 2165 L
3217 1838 mt 3256 1869 L
3230 1876 mt 3217 1838 L
3167 1818 mt 3145 1780 L
3246 1882 mt 3145 1780 L
3296 1943 mt 3217 1838 L
3262 1866 mt 3134 1799 L
3320 1897 mt 3212 1839 L
3304 1779 mt 3204 1671 L
3293 1746 mt 3283 1706 L
3312 1742 mt 3188 1647 L
3311 2582 mt 3279 2575 L
3310 3368 mt 3310 3381 L
3307 2999 mt 3305 3008 L
3302 3618 mt 3266 3557 L
3301 1680 mt 3261 1647 L
3301 1915 mt 3314 1930 L
3294 3287 mt 3251 3254 L
3293 2018 mt 3288 1979 L
3292 3577 mt 3266 3557 L
3291 2176 mt 3254 2165 L
3290 2290 mt 3288 2250 L
3288 1979 mt 3321 2012 L
3288 2232 mt 3225 2124 L
3288 2250 mt 3318 2284 L
3286 2887 mt 3234 2865 L
3286 1632 mt 3262 1590 L
3283 1706 mt 3320 1739 L
3280 2494 mt 3226 2381 L
3280 3265 mt 3251 3254 L
3279 2575 mt 3284 2582 L
3226 2381 mt 3258 2415 L
3278 2467 mt 3205 2445 L
3270 2105 mt 3171 2068 L
3266 3557 mt 3263 3578 L
3265 2872 mt 3234 2865 L
3262 1590 mt 3304 1623 L
3261 1647 mt 3293 1673 L
3256 1861 mt 3212 1839 L
3254 1782 mt 3126 1688 L
3254 2165 mt 3265 2175 L
3251 3254 mt 3251 3265 L
3244 3518 mt 3205 3466 L
3242 2453 mt 3205 2445 L
3238 2083 mt 3158 1981 L
3236 3163 mt 3177 3134 L
3234 2865 mt 3237 2872 L
3232 3483 mt 3205 3466 L
3232 2163 mt 3225 2124 L
3230 2421 mt 3226 2381 L
3230 2376 mt 3168 2267 L
3228 2758 mt 3164 2737 L
3227 1683 mt 3188 1647 L
3226 1711 mt 3204 1671 L
3225 2124 mt 3259 2156 L
3175 2306 mt 3168 2267 L
3220 2357 mt 3128 2330 L
3215 2082 mt 3171 2068 L
3158 1981 mt 3197 2011 L
3188 2006 mt 3089 1907 L
3212 2040 mt 3093 1997 L
3212 1839 mt 3238 1855 L
3210 3144 mt 3177 3134 L
3205 3466 mt 3204 3483 L
3205 2445 mt 3216 2451 L
3204 1868 mt 3065 1795 L
3204 1671 mt 3247 1702 L
3198 2744 mt 3164 2737 L
3196 1855 mt 3068 1763 L
3194 3717 mt 3135 3653 L
3188 1647 mt 3231 1674 L
3186 3412 mt 3118 3371 L
3182 1825 mt 3134 1799 L
3180 2231 mt 3099 2129 L
3178 3041 mt 3119 3015 L
3177 3134 mt 3183 3143 L
3172 2517 mt 3112 2405 L
3171 2068 mt 3193 2078 L
3171 2018 mt 3158 1981 L
3170 2340 mt 3128 2330 L
3170 2639 mt 3079 2617 L
3168 2267 mt 3202 2300 L
3168 3675 mt 3135 3653 L
3164 2737 mt 3171 2743 L
3163 1724 mt 3126 1688 L
3099 2129 mt 3139 2159 L
3162 2272 mt 3055 2241 L
3034 2048 mt 3077 2076 L
3054 2085 mt 3034 2048 L
3079 2077 mt 2961 1987 L
3129 2147 mt 3034 2048 L
3154 2009 mt 3018 1959 L
3154 3385 mt 3118 3371 L
3152 3024 mt 3119 3015 L
3089 1907 mt 3133 1936 L
3110 1944 mt 3089 1907 L
3138 1955 mt 3014 1865 L
3146 1906 mt 3003 1828 L
3145 1780 mt 3190 1809 L
3141 2014 mt 3093 1997 L
3136 3630 mt 3098 3574 L
3135 3653 mt 3142 3673 L
3134 1799 mt 3171 1818 L
3128 2330 mt 3147 2337 L
3128 3308 mt 3061 3273 L
3126 1688 mt 3174 1715 L
3125 3592 mt 3098 3574 L
3121 2377 mt 3041 2274 L
3121 2625 mt 3079 2617 L
3120 2926 mt 3037 2903 L
3119 3015 mt 3125 3024 L
3118 2445 mt 3112 2405 L
3118 3371 mt 3127 3384 L
3113 2166 mt 3099 2129 L
3112 2405 mt 3146 2439 L
3112 1824 mt 3065 1795 L
3112 2537 mt 3013 2512 L
3021 2210 mt 2906 2121 L
3103 2213 mt 2976 2177 L
3103 1798 mt 3068 1763 L
3101 2254 mt 3055 2241 L
3098 3574 mt 3096 3593 L
3096 3285 mt 3061 3273 L
3095 2009 mt 2947 1952 L
3093 1997 mt 3123 2009 L
3087 1975 mt 2946 1896 L
3086 3816 mt 3041 3741 L
3079 2617 mt 3097 2623 L
3077 3537 mt 3019 3490 L
3077 2912 mt 3037 2903 L
3041 2274 mt 3081 2304 L
3071 2291 mt 2980 2192 L
3070 3766 mt 3041 3741 L
3069 3201 mt 2990 3171 L
3069 1979 mt 3018 1959 L
3068 1763 mt 3118 1789 L
3065 1795 mt 3110 1815 L
3063 2515 mt 2984 2409 L
3061 2822 mt 2969 2797 L
3061 3273 mt 3070 3284 L
3057 2522 mt 3013 2512 L
3055 2312 mt 3041 2274 L
3055 2241 mt 3079 2249 L
2997 2448 mt 2984 2409 L
3053 2457 mt 2939 2430 L
3052 3506 mt 3019 3490 L
3047 1858 mt 3003 1828 L
3046 1899 mt 3014 1865 L
2934 2155 mt 2906 2121 L
2971 2185 mt 2838 2104 L
3045 2183 mt 2904 2142 L
3041 3741 mt 3042 3766 L
3029 2070 mt 2891 1991 L
3037 2044 mt 2886 1981 L
3037 2903 mt 3052 2910 L
3029 3182 mt 2990 3171 L
3027 3742 mt 2962 3677 L
3027 2192 mt 2976 2177 L
2980 2192 mt 3022 2221 L
3019 3490 mt 3025 3505 L
3019 3443 mt 2946 3402 L
3018 1959 mt 3057 1972 L
3014 1865 mt 3063 1890 L
2984 2409 mt 3023 2440 L
3013 2436 mt 2921 2336 L
3013 2512 mt 3034 2519 L
3011 3099 mt 2922 3074 L
3011 2807 mt 2969 2797 L
3003 2731 mt 2893 2704 L
3003 1828 mt 3053 1849 L
2998 1975 mt 2947 1952 L
2998 2229 mt 2980 2192 L
2996 3700 mt 2962 3677 L
2940 2373 mt 2921 2336 L
2921 2336 mt 2964 2365 L
2995 2399 mt 2861 2367 L
2990 3171 mt 3004 3180 L
2990 2021 mt 2961 1987 L
2987 1927 mt 2946 1896 L
2963 2353 mt 2855 2260 L
2987 2183 mt 2835 2135 L
2987 2442 mt 2939 2430 L
2983 3417 mt 2946 3402 L
2979 2107 mt 2826 2042 L
2976 2177 mt 3010 2186 L
2969 3664 mt 2888 3609 L
2969 2797 mt 2987 2804 L
2964 3083 mt 2922 3074 L
2962 3677 mt 2971 3698 L
2961 3351 mt 2882 3312 L
2961 1987 mt 3010 2012 L
2956 2159 mt 2904 2142 L
2955 2574 mt 2863 2471 L
2953 3005 mt 2854 2978 L
2947 1952 mt 2994 1967 L
2946 1896 mt 2998 1917 L
2946 3402 mt 2957 3415 L
2945 2658 mt 2825 2633 L
2940 2715 mt 2893 2704 L
2939 2430 mt 2967 2437 L
2824 2434 mt 2801 2398 L
2905 2494 mt 2801 2398 L
2855 2447 mt 2731 2361 L
2863 2303 mt 2720 2228 L
2880 2295 mt 2855 2260 L
2913 2314 mt 2786 2229 L
2937 2371 mt 2792 2335 L
2935 2006 mt 2886 1981 L
2930 2022 mt 2891 1991 L
2929 2215 mt 2773 2161 L
2926 3628 mt 2888 3609 L
2922 3074 mt 2939 3081 L
2921 2195 mt 2774 2125 L
2920 3326 mt 2882 3312 L
2913 2381 mt 2861 2367 L
2911 3586 mt 2838 3533 L
2906 2121 mt 2954 2146 L
2863 2471 mt 2905 2501 L
2904 2142 mt 2945 2152 L
2903 3262 mt 2806 3225 L
2898 2988 mt 2854 2978 L
2895 2925 mt 2778 2897 L
2893 2704 mt 2919 2711 L
2891 1991 mt 2943 2012 L
2888 2155 mt 2835 2135 L
2888 3609 mt 2903 3625 L
2766 2569 mt 2742 2533 L
2797 2583 mt 2676 2495 L
2847 2629 mt 2742 2533 L
2887 2607 mt 2752 2576 L
2886 1981 mt 2937 1997 L
2882 3312 mt 2896 3324 L
2881 2509 mt 2863 2471 L
2813 2352 mt 2658 2291 L
2879 2369 mt 2728 2326 L
2875 3552 mt 2838 3533 L
2874 2644 mt 2825 2633 L
2874 2135 mt 2838 2104 L
2874 2068 mt 2826 2042 L
2819 2262 mt 2786 2229 L
2871 2274 mt 2715 2215 L
2861 2367 mt 2898 2374 L
2855 2260 mt 2901 2286 L
2854 2978 mt 2875 2985 L
2853 3505 mt 2767 3460 L
2849 3239 mt 2806 3225 L
2846 2350 mt 2792 2335 L
2845 3181 mt 2744 3147 L
2838 3533 mt 2850 3549 L
2838 2104 mt 2890 2126 L
2837 2859 mt 2711 2833 L
2835 2135 mt 2883 2147 L
2707 2529 mt 2676 2495 L
2747 2546 mt 2612 2466 L
2829 2580 mt 2683 2545 L
2827 2909 mt 2778 2897 L
2826 2042 mt 2880 2059 L
2825 2633 mt 2855 2639 L
2824 2184 mt 2773 2161 L
2801 2398 mt 2846 2425 L
2805 2421 mt 2665 2346 L
2731 2361 mt 2781 2385 L
2763 2394 mt 2731 2361 L
2821 2392 mt 2666 2343 L
2817 2153 mt 2774 2125 L
2807 3476 mt 2767 3460 L
2806 3225 mt 2827 3236 L
2804 2589 mt 2752 2576 L
2795 3430 mt 2704 3388 L
2792 2335 mt 2834 2343 L
2788 3160 mt 2744 3147 L
2787 3111 mt 2673 3080 L
2786 2229 mt 2837 2252 L
2782 2344 mt 2728 2326 L
2779 2816 mt 2645 2784 L
2778 2897 mt 2807 2904 L
2774 2125 mt 2827 2143 L
2773 2161 mt 2824 2175 L
2654 2655 mt 2628 2619 L
2739 2714 mt 2628 2619 L
2688 2669 mt 2562 2582 L
2697 2555 mt 2551 2483 L
2771 2577 mt 2618 2537 L
2767 3460 mt 2784 3473 L
2765 2239 mt 2715 2215 L
2650 2406 mt 2606 2378 L
2755 2447 mt 2606 2378 L
2763 2441 mt 2604 2389 L
2762 2844 mt 2711 2833 L
2761 2258 mt 2720 2228 L
2752 2576 mt 2789 2583 L
2745 3404 mt 2704 3388 L
2744 3147 mt 2766 3156 L
2742 2533 mt 2788 2561 L
2737 2560 mt 2683 2545 L
2737 3360 mt 2641 3321 L
2729 3050 mt 2607 3019 L
2728 2326 mt 2774 2336 L
2721 3092 mt 2673 3080 L
2630 2787 mt 2513 2693 L
2721 2791 mt 2575 2755 L
2720 2228 mt 2774 2248 L
2718 2364 mt 2666 2343 L
2715 2215 mt 2768 2230 L
2713 2598 mt 2557 2552 L
2711 2833 mt 2744 2839 L
2706 2316 mt 2658 2291 L
2649 2497 mt 2612 2466 L
2705 2511 mt 2548 2453 L
2704 3388 mt 2722 3400 L
2704 2375 mt 2665 2346 L
2697 2798 mt 2645 2784 L
2684 3336 mt 2641 3321 L
2683 2545 mt 2726 2553 L
2679 3295 mt 2564 3256 L
2676 2495 mt 2726 2520 L
2673 3080 mt 2701 3088 L
2672 2554 mt 2618 2537 L
2671 3007 mt 2534 2970 L
2666 2343 mt 2715 2355 L
2665 2346 mt 2718 2366 L
2580 2778 mt 2448 2693 L
2663 2787 mt 2512 2747 L
2658 2291 mt 2712 2306 L
2657 3032 mt 2607 3019 L
2655 2411 mt 2604 2389 L
2638 2668 mt 2499 2590 L
2628 2619 mt 2675 2646 L
2654 2639 mt 2496 2587 L
2646 2595 mt 2494 2530 L
2645 2784 mt 2681 2792 L
2641 3321 mt 2661 3332 L
2629 2770 mt 2575 2755 L
2620 3244 mt 2498 3206 L
2618 2537 mt 2664 2546 L
2612 2466 mt 2665 2488 L
2612 2982 mt 2468 2944 L
2611 3272 mt 2564 3256 L
2611 2572 mt 2557 2552 L
2607 3019 mt 2638 3027 L
2606 2378 mt 2660 2396 L
2530 2791 mt 2389 2713 L
2604 2802 mt 2451 2757 L
2604 2389 mt 2657 2401 L
2598 2476 mt 2548 2453 L
2596 2698 mt 2439 2642 L
2595 2615 mt 2562 2582 L
2593 2512 mt 2551 2483 L
2588 2691 mt 2438 2624 L
2586 2986 mt 2534 2970 L
2575 2755 mt 2617 2763 L
2566 2764 mt 2512 2747 L
2564 3256 mt 2592 3267 L
2562 3205 mt 2428 3165 L
2562 2582 mt 2612 2606 L
2557 2552 mt 2606 2563 L
2414 2981 mt 2285 2891 L
2430 2945 mt 2277 2882 L
2554 2976 mt 2404 2934 L
2551 2483 mt 2605 2502 L
2549 2609 mt 2496 2587 L
2548 2453 mt 2602 2467 L
2547 3221 mt 2498 3206 L
2522 2883 mt 2394 2795 L
2546 2836 mt 2390 2788 L
2542 2728 mt 2513 2693 L
2540 2556 mt 2494 2530 L
2538 2770 mt 2384 2706 L
2538 2621 mt 2499 2590 L
2534 2970 mt 2572 2979 L
2521 2960 mt 2468 2944 L
2513 2693 mt 2561 2719 L
2512 2747 mt 2557 2756 L
2504 3183 mt 2367 3140 L
2504 2776 mt 2451 2757 L
2499 2590 mt 2551 2611 L
2498 3206 mt 2530 3216 L
2496 2587 mt 2548 2600 L
2496 2987 mt 2342 2942 L
2494 2530 mt 2548 2547 L
2490 2665 mt 2439 2642 L
2472 2888 mt 2335 2806 L
2488 2884 mt 2333 2826 L
2484 2726 mt 2448 2693 L
2483 2651 mt 2438 2624 L
2428 2829 mt 2394 2795 L
2480 2850 mt 2329 2783 L
2480 3181 mt 2428 3165 L
2468 2944 mt 2510 2953 L
2458 2952 mt 2404 2934 L
2451 2757 mt 2499 2768 L
2448 2693 mt 2499 2717 L
2446 3174 mt 2302 3126 L
2443 2808 mt 2390 2788 L
2439 2642 mt 2492 2656 L
2438 2624 mt 2493 2641 L
2438 3013 mt 2285 2962 L
2389 2713 mt 2441 2734 L
2432 2732 mt 2384 2706 L
2430 2743 mt 2389 2713 L
2428 3165 mt 2465 3175 L
2422 2934 mt 2277 2859 L
2418 3158 mt 2367 3140 L
2404 2934 mt 2450 2944 L
2396 2961 mt 2342 2942 L
2394 2795 mt 2444 2819 L
2390 2788 mt 2440 2799 L
2306 3101 mt 2173 3013 L
2388 3180 mt 2238 3131 L
2384 2706 mt 2438 2723 L
2383 2850 mt 2333 2826 L
2380 3052 mt 2226 2994 L
2375 2810 mt 2329 2783 L
2374 2838 mt 2335 2806 L
2264 2971 mt 2223 2940 L
2364 3020 mt 2223 2940 L
2372 3012 mt 2223 2941 L
2367 3140 mt 2406 3151 L
2354 3146 mt 2302 3126 L
2342 2942 mt 2390 2953 L
2337 2983 mt 2285 2962 L
2335 2806 mt 2386 2828 L
2333 2826 mt 2385 2840 L
2330 3198 mt 2179 3142 L
2329 2783 mt 2382 2801 L
2326 2907 mt 2277 2882 L
2322 3100 mt 2172 3034 L
2320 2925 mt 2285 2891 L
2320 2889 mt 2277 2859 L
2314 3083 mt 2169 3007 L
2302 3126 mt 2345 3138 L
2291 3151 mt 2238 3131 L
2285 2891 mt 2335 2916 L
2285 2962 mt 2333 2975 L
2277 3018 mt 2226 2994 L
2277 2882 mt 2329 2898 L
2277 2859 mt 2329 2879 L
2272 3229 mt 2122 3167 L
2269 2969 mt 2223 2941 L
2157 3105 mt 2115 3074 L
2256 3155 mt 2115 3074 L
2264 3153 mt 2117 3081 L
2238 3131 mt 2284 3143 L
2230 3165 mt 2179 3142 L
2226 2994 mt 2277 3009 L
2223 2941 mt 2276 2960 L
2223 2940 mt 2275 2962 L
2221 3060 mt 2172 3034 L
2197 3224 mt 2066 3133 L
2213 3269 mt 2066 3201 L
2173 3013 mt 2223 3038 L
2213 3037 mt 2169 3007 L
2211 3047 mt 2173 3013 L
2104 3168 mt 2066 3133 L
2205 3212 mt 2062 3135 L
2179 3142 mt 2227 3156 L
2172 3034 mt 2222 3051 L
2172 3192 mt 2122 3167 L
2169 3007 mt 2221 3027 L
2163 3109 mt 2117 3081 L
2155 3314 mt 2011 3240 L
2147 3271 mt 2012 3184 L
2122 3167 mt 2171 3183 L
2117 3081 mt 2167 3100 L
2115 3074 mt 2166 3096 L
2114 3228 mt 2066 3201 L
2106 3165 mt 2062 3135 L
2097 3359 mt 1956 3280 L
2089 3325 mt 1959 3233 L
2066 3133 mt 2114 3158 L
2066 3201 mt 2115 3219 L
2062 3135 mt 2112 3156 L
2058 3269 mt 2011 3240 L
2053 3217 mt 2012 3184 L
2039 3403 mt 1907 3314 L
2012 3184 mt 2061 3208 L
2011 3240 mt 2060 3260 L
2000 3311 mt 1956 3280 L
1997 3268 mt 1959 3233 L
1981 3446 mt 1859 3347 L
1959 3233 mt 2007 3259 L
1956 3280 mt 2005 3301 L
1947 3348 mt 1907 3314 L
1907 3314 mt 1954 3339 L
1895 3385 mt 1859 3347 L
1859 3347 mt 1904 3375 L
gr

c8

end %%Color Dict

eplot
%%EndObject

epage
end

showpage

%%Trailer
%%EOF
